epoch,huber_loss,l0_loss,l1_loss,linf_loss,loss,val_huber_loss,val_l0_loss,val_l1_loss,val_linf_loss,val_loss
0,0.00273090898055484,0.6926942764942475,0.04516314867733933,0.10720731944306194,0.0027309090213948136,0.0012449658242985606,0.5949999988079071,0.03046915866434574,0.0768972858786583,0.0012449659407138824
1,0.0012520654765911996,0.5643271506226362,0.02874021260756243,0.07568533186377187,0.001252065525371165,0.001089659403078258,0.570000022649765,0.027498762123286724,0.07321300357580185,0.0010896591120399535
2,0.001122428007082555,0.534303025558893,0.026817526143675635,0.0720173494756499,0.0011224280211137739,0.0010227018501609564,0.5609999895095825,0.02737072203308344,0.07299061119556427,0.0010227017919532955
3,0.0010425821087306493,0.5260467518564547,0.025817959946876835,0.06978068308833411,0.0010425820726145526,0.0008714563446119428,0.5080000013113022,0.024666120298206806,0.06583017110824585,0.0008714565192349255
4,0.0009632662231988977,0.5100367575957468,0.024702229579915663,0.06722506155793154,0.0009632662301894334,0.0008205838093999773,0.4749999940395355,0.023454224690794945,0.06359042599797249,0.0008205836929846555
5,0.0009153035564760138,0.5076675660906939,0.024236472547661942,0.06562586883718988,0.0009153036027419273,0.0007538138306699693,0.5,0.022724922746419907,0.061782822012901306,0.0007538138306699693
6,0.0008623277085439455,0.49751593722774573,0.023657783562744665,0.0640617126184831,0.0008623277257979652,0.0007300179859157652,0.5159999877214432,0.02255208045244217,0.05915774218738079,0.0007300180441234261
7,0.0008013566550727037,0.49072425216770166,0.022762612374915062,0.06164035362057611,0.0008013566704712727,0.0007742371526546776,0.5189999938011169,0.022835287265479565,0.06102243438363075,0.0007742371235508472
8,0.0007653330381310356,0.48699098074020586,0.0222016333368455,0.060305584243046585,0.0007653330426075193,0.00064958116854541,0.49400000274181366,0.02088121697306633,0.05588611774146557,0.00064958116854541
9,0.0007196535120931233,0.4830997647186649,0.02173157537424594,0.05860955970495876,0.0007196535519134352,0.0006444157334044576,0.5039999932050705,0.02102325763553381,0.05626441165804863,0.0006444157916121185
10,0.0006823367617801722,0.4717276429148861,0.021000920746281394,0.0569514524281268,0.0006823367938376796,0.0005773149023298174,0.45900000631809235,0.019647174514830112,0.05321591533720493,0.000577314815018326
11,0.0006502506922576292,0.46566825497979564,0.020419270668122526,0.05549381422123385,0.0006502507127344498,0.0005586740153376013,0.46799999475479126,0.01902630366384983,0.0522565133869648,0.0005586739571299404
12,0.0006076835568597759,0.45963758456324266,0.01970100126168622,0.05374713137298249,0.0006076835668006454,0.000529981276486069,0.46399998664855957,0.019150475971400738,0.0506184920668602,0.0005299814220052212
13,0.0005884857786160791,0.4572971102515051,0.019559867255893357,0.05297783012986251,0.0005884858062004458,0.0005090750637464225,0.45900000631809235,0.018991360440850258,0.049894075840711594,0.0005090751510579139
14,0.0005512153056903012,0.45093618825195264,0.018841751947905713,0.05122842830624259,0.0005512153380771092,0.0005582035519182682,0.4779999852180481,0.019687949679791927,0.05219671688973904,0.0005582036101259291
15,0.0005395995938222152,0.4507926007688138,0.018767863248866073,0.05072150572755282,0.0005395996239707814,0.0005178608407732099,0.48399998247623444,0.01867743581533432,0.04981609433889389,0.0005178608116693795
16,0.0005126707897826237,0.44134455222263524,0.018194741216047902,0.049375938401066945,0.0005126708066187491,0.000442617543740198,0.4309999942779541,0.01794557925313711,0.046608926728367805,0.000442617543740198
17,0.0004883094814359928,0.426641202849007,0.017653998200293865,0.04816122878011012,0.0004883094989875533,0.00044648222683463246,0.443000003695488,0.017302490770816803,0.04629789851605892,0.00044648238690569997
18,0.000464178889853158,0.42625351826071456,0.017222712925180555,0.04695767972856481,0.0004641788965394668,0.00048032242921181023,0.42000000178813934,0.017167938873171806,0.046988995745778084,0.0004803224728675559
19,0.0004462185125010687,0.4244730342595693,0.016982799673694857,0.04605865365565148,0.0004462185220808776,0.00044731896196026355,0.4130000025033951,0.01703965663909912,0.046341657638549805,0.000447318991064094
20,0.0004258377579014802,0.4208115563579693,0.01648387385598695,0.04494608024905602,0.0004258377633341061,0.0004051728028571233,0.41100001335144043,0.016474691219627857,0.04416315071284771,0.0004051728028571233
21,0.0004191677663287657,0.4185572331623086,0.016380963622167195,0.04458921083076538,0.00041916777928348894,0.0004354666452854872,0.39900000393390656,0.01636265404522419,0.04560196399688721,0.0004354665579739958
22,0.00040477771694033993,0.4166044460543334,0.016081588616817515,0.04374793776752865,0.00040477770679052323,0.0003769588365685195,0.3799999952316284,0.01565867057070136,0.04261833429336548,0.00037695882201660424
23,0.00038288295075296716,0.40913790089026525,0.015689842441341185,0.042744065372749496,0.0003828829608108471,0.0004189278115518391,0.43400000035762787,0.016276312991976738,0.04417423717677593,0.00041892778244800866
24,0.0003839709566881676,0.4085204752533216,0.015662164525869476,0.04268567496827781,0.0003839709702981491,0.00038847426185384393,0.38199999928474426,0.01590918656438589,0.04334298521280289,0.00038847426185384393
25,0.00036008696836657114,0.40550514106692703,0.015167228554408474,0.041510122377956274,0.0003600869700983251,0.0004353760014055297,0.39900000393390656,0.01572488946840167,0.044446930289268494,0.00043537598685361445
26,0.00034315016603865013,0.39910114324316753,0.014808968129013587,0.040433108922363487,0.00034315017529250145,0.0003504467022139579,0.3830000013113022,0.015016492921859026,0.0412466935813427,0.0003504467604216188
27,0.0003366411723260481,0.39587042637370057,0.014645324429741789,0.04008700483047526,0.000336641179968499,0.00038995331851765513,0.4010000079870224,0.015339234843850136,0.04216413013637066,0.0003899535513482988
28,0.0003431625223823719,0.4002067654183235,0.014918320522687541,0.04051678800075711,0.0003431625259662334,0.00036603797343559563,0.42099998891353607,0.015448364894837141,0.041746992617845535,0.0003660379588836804
29,0.0003270451279602891,0.394578140603634,0.014458066253861847,0.03947478541756141,0.00032704514091501234,0.00033107899071183056,0.4050000011920929,0.014453395269811153,0.03965876065194607,0.00033107888884842396
30,0.0003091412544547213,0.3925822754839055,0.014145127880872648,0.03850269440013149,0.00030914125615638693,0.0003777907695621252,0.3889999985694885,0.015409993939101696,0.04230320639908314,0.00037779075501021
31,0.00031116178916962294,0.38828901238501995,0.01412379232904793,0.03848859134392443,0.0003111618010796104,0.0003279626107541844,0.3629999905824661,0.014193844050168991,0.03955531120300293,0.00032796266896184534
32,0.00030206876888364074,0.3853885487503381,0.013913223616953015,0.03792611323072364,0.00030206876932995186,0.00033507210901007056,0.40300001204013824,0.015023838263005018,0.040462905541062355,0.0003350720799062401
33,0.00028927202244897755,0.3810809259644451,0.013599562217184509,0.03705830145508511,0.00028927202746370913,0.00030710715509485453,0.36499999463558197,0.01332566561177373,0.037481071427464485,0.0003071071987506002
34,0.0002790864987281756,0.38146861158146617,0.013424948951736864,0.03645129599429021,0.000279086499742823,0.000327210669638589,0.3790000081062317,0.013895532116293907,0.038889870047569275,0.0003272106114309281
35,0.0002704759745285633,0.37487795077558295,0.013189625022915236,0.03589794249366108,0.00027047597099234176,0.0003626958350650966,0.3969999998807907,0.014920580666512251,0.040505267679691315,0.0003626958641689271
36,0.0002738520622264357,0.37938659462503727,0.013333804853849768,0.036163725510490366,0.0002738520647037131,0.00032584827567916363,0.3959999978542328,0.013957995921373367,0.03852720372378826,0.0003258482465753332
37,0.00026711087057468307,0.3760840839164342,0.013167422748368227,0.035716415080219124,0.0002671108796195872,0.00032147925230674446,0.37800000607967377,0.013910572975873947,0.03842904977500439,0.000321479223202914
38,0.00025850306306912424,0.37113031861523404,0.012871377190412286,0.03507387816086929,0.00025850305972596987,0.0003333872009534389,0.3920000046491623,0.014264411758631468,0.039423102512955666,0.00033338724460918456
39,0.0002540637557305607,0.3714174949782548,0.012767920188989205,0.03481984987136474,0.0002540637628506438,0.0003300039825262502,0.39800000190734863,0.01376032130792737,0.03917650878429413,0.00033000396797433496
40,0.0002467197947690796,0.3721497902853883,0.012662634499290603,0.03441904946078172,0.0002467198040388109,0.00031627973658032715,0.3790000081062317,0.013507000636309385,0.03850778564810753,0.00031627978023607284
41,0.00023723789470198972,0.36647808788002245,0.01240786292750298,0.03370631551125573,0.00023723790162733402,0.0003074806882068515,0.3889999985694885,0.013571518938988447,0.03738304227590561,0.0003074807464145124
42,0.00023140141247784062,0.366119121178282,0.01224242658648807,0.033305869330933685,0.0002314014130002085,0.00035309801751282066,0.39399999380111694,0.014354666694998741,0.040530726313591,0.0003530980320647359
43,0.00023145318336220087,0.3661334795438609,0.012287972868002369,0.03328399923562928,0.00023145318213860637,0.00028763411683030427,0.3659999966621399,0.012985615525394678,0.036437027156353,0.0002876340877264738
44,0.0002202139993854183,0.3606197228177549,0.012001370498592278,0.03257517771056475,0.0002202140030419934,0.00032128026941791177,0.3799999952316284,0.01347621763125062,0.0382250901311636,0.00032128031307365745
45,0.0002242968700036836,0.3610792024176944,0.012114965304572707,0.032786368944269076,0.00022429687698920467,0.00031178635254036635,0.37199999392032623,0.013239659368991852,0.0374874621629715,0.0003117863234365359
46,0.00021137732013192377,0.35405777961770557,0.01178627219150615,0.031938952397841607,0.00021137732844551293,0.0002874385245377198,0.4000000059604645,0.01313474029302597,0.03685012646019459,0.000287438539089635
47,0.0002085109275151205,0.357345930791642,0.011654362784490314,0.03164263412343111,0.00020851092693257586,0.00032097518851514906,0.3890000134706497,0.013862956315279007,0.03774155490100384,0.0003209752030670643
48,0.00021097408743350903,0.35665671079520705,0.011725965825205685,0.03184080174246598,0.00021097409717963983,0.00027999091253150254,0.3669999986886978,0.012592353858053684,0.03519685938954353,0.00027999097073916346
49,0.00019701511612539558,0.35256447012068026,0.011442044189168887,0.030875989034652957,0.00019701512273731915,0.0002913453208748251,0.37199999392032623,0.012825248762965202,0.03609096258878708,0.0002913453063229099
50,0.00020133837940109766,0.3533111248118511,0.011546688508500193,0.031093454208278717,0.00020133838128162201,0.0002867105358745903,0.3660000115633011,0.012816259171813726,0.03627448156476021,0.00028671066684182733
51,0.0002008758116975167,0.35186089263676595,0.011528278561611201,0.031094052943264477,0.00020087581404023213,0.00032367372477892786,0.4059999883174896,0.013758680783212185,0.03879392892122269,0.00032367381209041923
52,0.00019585525653617667,0.34877376425006773,0.01136969082612921,0.030674838303880334,0.00019585526225213487,0.0002713821886572987,0.3540000021457672,0.012506738770753145,0.035257624462246895,0.00027138227596879005
53,0.00019148702891306411,0.348371718834779,0.011196744673396555,0.030333108839368014,0.00019148702473412114,0.000270088785327971,0.335999995470047,0.012223425786942244,0.03443619795143604,0.0002700887562241405
54,0.00018366761480831015,0.34779736814394285,0.011077826354672114,0.029815593184929476,0.00018366762132996858,0.0003001339500769973,0.3879999965429306,0.013024622108787298,0.03688519261777401,0.00030013389186933637
55,0.00019106892046727932,0.34776865260070144,0.011246581035731158,0.030285625083655603,0.00019106891467693594,0.00028708034369628876,0.3699999898672104,0.012431356124579906,0.035224394872784615,0.00028708038735203445
56,0.0001800061585942742,0.3417666988742255,0.010902555255506798,0.029482960533242654,0.00018000616274312879,0.0002984250313602388,0.3569999933242798,0.012549178209155798,0.03581537306308746,0.000298425045912154
57,0.00017550651701011703,0.34020159629120994,0.01080776561781431,0.02905728427096187,0.00017550652262160164,0.00026398844784125686,0.32600000500679016,0.012021924369037151,0.034206751734018326,0.0002639884623931721
58,0.0001687999919519879,0.3412928628566161,0.010597182750910731,0.028581754793852943,0.00016879999472847762,0.0002723775105550885,0.36399999260902405,0.012102245818823576,0.03454248234629631,0.0002723774960031733
59,0.00016533873285335134,0.33761702216641726,0.010537126823674785,0.028356487724278963,0.0001653387370322943,0.0002566363982623443,0.36500000953674316,0.012033773120492697,0.03341728262603283,0.00025663638371042907
60,0.00016733790897775178,0.3392108443322745,0.010572107860371431,0.028445343977953726,0.00016733791109731165,0.0002811233134707436,0.3530000001192093,0.012173007242381573,0.03430194780230522,0.0002811233134707436
61,0.0001629789846904989,0.3383206019816602,0.01053225330785486,0.028149163218876356,0.00016297899119794892,0.00027826224686577916,0.33900000154972076,0.012085034977644682,0.034452756866812706,0.0002782623196253553
62,0.00016669634206473624,0.33890931127771257,0.010549810461688836,0.028432896333367846,0.00016669634491561113,0.0002541251451475546,0.3489999920129776,0.012043695896863937,0.03419806621968746,0.0002541251596994698
63,0.00015912555775490179,0.3326345413433719,0.010333556842289334,0.027716098917377214,0.0001591255604933631,0.0002428698935545981,0.32999999821186066,0.011713583022356033,0.03280262090265751,0.0002428698935545981
64,0.0001529651945088213,0.3312991793477058,0.010172506788663467,0.027252727516868896,0.0001529652033669267,0.00026934329071082175,0.335999995470047,0.012286731973290443,0.03422442451119423,0.0002693433198146522
65,0.000154938329192354,0.3353339844562439,0.010256294925727584,0.02747409022085565,0.00015493833165542301,0.00025015027495101094,0.3320000022649765,0.011620490811765194,0.03325987048447132,0.00025015022401930764
66,0.00016068981407456434,0.334860145331908,0.010400231468310619,0.02777625289601472,0.0001606898178214046,0.0002872161494451575,0.32499998807907104,0.012583663687109947,0.03602686710655689,0.0002872161639970727
67,0.00016141570050496806,0.3381770143068115,0.010454160624383394,0.0278768490393997,0.00016141569934155034,0.0002615714620333165,0.3369999974966049,0.011987082660198212,0.033862004056572914,0.0002615714038256556
68,0.0001536593229070459,0.332490954708378,0.010177724410496114,0.02722550369799137,0.0001536593291010752,0.00023768027313053608,0.3540000021457672,0.011420268565416336,0.032174356281757355,0.00023768032406223938
69,0.0001448754291209103,0.33049508928567944,0.00988025768173192,0.026458150954578694,0.00014487542976990015,0.00024171133554773405,0.318000003695488,0.011449765879660845,0.032151633873581886,0.0002417113137198612
70,0.0001409546636075482,0.3273218080147234,0.009810053670140087,0.02616850132316592,0.00014095466936947477,0.0002603298198664561,0.3490000069141388,0.011854362674057484,0.03347609378397465,0.00026032980531454086
71,0.00014319083398896124,0.3295474139588711,0.009907450188999953,0.026409596590210017,0.00014319083354097855,0.0002726125967456028,0.3409999907016754,0.012135319411754608,0.03423348255455494,0.0002726124948821962
72,0.00013391345299412194,0.32242547802104593,0.009642917841517133,0.02565295049821935,0.00013391345546429512,0.00022981186339166015,0.3779999911785126,0.011316594202071428,0.031489296816289425,0.00022981187066761777
73,0.0001349300900778217,0.3232439267430627,0.009643832018791373,0.025623494434835793,0.00013493009206281962,0.0002522167778806761,0.35199999809265137,0.011674897279590368,0.03276411443948746,0.0002522167924325913
74,0.00013402231861207826,0.32538337885125007,0.00960596119566154,0.025541293003719018,0.00013402231534330905,0.00023084512940840796,0.30900000035762787,0.011424188502132893,0.03168289363384247,0.0002308452094439417
75,0.00013244301963764534,0.32366033163310864,0.00955629493286133,0.02540000861096725,0.0001324430250180344,0.00027635274454951286,0.357000008225441,0.01220569247379899,0.03411003202199936,0.0002763527736533433
76,0.00013809825798245226,0.33017919741964213,0.00971698883639976,0.025783978816951776,0.00013809825413280997,0.00025007666408782825,0.34699998795986176,0.011700979433953762,0.03275565057992935,0.0002500766277080402
77,0.0001275882646698682,0.31841939121928087,0.009408493251927306,0.024927645137001957,0.00012758826765530505,0.0002461776020936668,0.33500000834465027,0.011442971881479025,0.03228214289993048,0.0002461775948177092
78,0.00012749045538288978,0.32012808135818227,0.009370417811060378,0.024895278014613657,0.00012749045856933378,0.00025238937814719975,0.33799999952316284,0.011394637636840343,0.032556623220443726,0.00025238937814719975
79,0.0001245598042874351,0.32097524582370873,0.00928922772378005,0.02468427724817049,0.0001245598083397561,0.00024586291692685336,0.31299999356269836,0.01140239229425788,0.032259413972496986,0.00024586291692685336
80,0.00012833573879547118,0.32337315595990096,0.009457542524674597,0.025090015163564593,0.00012833574464599134,0.00024198694882215932,0.30799999833106995,0.011110959574580193,0.03191995620727539,0.00024198694882215932
81,0.00012871307690107437,0.32462236440802733,0.0094477088463898,0.024983146358466452,0.00012871308034870233,0.00023594506637891755,0.30800001323223114,0.011192269623279572,0.03145169373601675,0.00023594512458657846
82,0.00012332263006044087,0.3179311944559806,0.009287590697742787,0.024538970772391158,0.00012332263151513092,0.00023934643832035363,0.2880000025033951,0.011408846825361252,0.03197804745286703,0.00023934650380397215
83,0.00011903978775860132,0.3196255249566579,0.009152029815993432,0.024111179616100056,0.00011903978891575064,0.00023958808014867827,0.3669999986886978,0.011376756709069014,0.03221556916832924,0.0002395880437688902
84,0.00012100441256719179,0.317758888367378,0.00922002369973041,0.024310062390631087,0.00012100441314973644,0.0002290872871526517,0.33000000566244125,0.011271532159298658,0.031100713647902012,0.00022908733080839738
85,0.00011913709346539967,0.3166676245021708,0.009143907163532021,0.024100272933641784,0.00011913709512193266,0.00023390813294099644,0.32899999618530273,0.0110610481351614,0.03151739574968815,0.00023390814021695405
86,0.00011613305220259136,0.3139107476462653,0.009088461053512815,0.023849242839759623,0.00011613306023995238,0.00026004632672993466,0.3540000021457672,0.01152183348312974,0.03275015205144882,0.00026004636310972273
87,0.00011416543088544786,0.3163948067811676,0.008971748725101878,0.023620329202560866,0.0001141654348032069,0.00023570376652060077,0.33399999141693115,0.011171868536621332,0.0314314691349864,0.00023570369376102462
88,0.00011622657514274535,0.31877835929722415,0.009044736211619966,0.023800656694135128,0.00011622657665761219,0.0002493788269930519,0.29999999701976776,0.010947567410767078,0.032136970199644566,0.00024937889975262806
89,0.00011628385376487654,0.3181609326084439,0.009042210674854684,0.02376801224997676,0.00011628385492913005,0.00023544941359432414,0.32199999690055847,0.010820182505995035,0.030836187303066254,0.0002354493990424089
90,0.00010980501862286453,0.3140256163921398,0.008843267236032668,0.023162839988469186,0.00010980502266724553,0.00022981939400779083,0.2970000058412552,0.01080286968499422,0.030897272750735283,0.00022981940128374845
91,0.00010215121156260072,0.308081098532055,0.008512743876727156,0.02234571788702435,0.00010215121236830093,0.00022697142412653193,0.32199999690055847,0.01088395994156599,0.030775360763072968,0.0002269715114380233
92,0.00010498155423864526,0.3095887655644871,0.008628653133240205,0.022645037465816382,0.00010498155644763451,0.00021683722297893837,0.318000003695488,0.010633131954818964,0.03065776824951172,0.0002168371865991503
93,0.00011450124724432677,0.3125323074325867,0.00889686822028862,0.02344534958302324,0.00011450125046796338,0.0002484940705471672,0.29500000178813934,0.011425816919654608,0.032300543040037155,0.00024849415058270097
94,0.0001145108221207968,0.3159496880510168,0.00901179543036432,0.023575676943700077,0.00011451082817315992,0.00022740624262951314,0.3409999907016754,0.010916708037257195,0.03079896979033947,0.00022740617714589462
95,0.0001066065198055283,0.3103497778210194,0.008714484405939683,0.02282404878211678,0.0001066065230592533,0.00023278680600924417,0.32199999690055847,0.01087738387286663,0.031064745038747787,0.00023278678418137133
96,0.00010154136285184088,0.3065016364545977,0.008486564540476537,0.022244649273443145,0.00010154136359026011,0.0002434552225167863,0.32600000500679016,0.010877346619963646,0.03123299591243267,0.00024345530982827768
97,0.00010198675977979188,0.3119292394568594,0.008539651411590164,0.022367666612249967,0.00010198676057838788,0.00021829205797985196,0.35500000417232513,0.010651386808604002,0.030378843657672405,0.00021829210891155526
98,9.464484852840966e-05,0.30440526067214396,0.008240793176842853,0.0215492544493648,9.464485052845177e-05,0.0002178145805373788,0.30400000512599945,0.010457819793373346,0.030065474100410938,0.00021781462419312447
99,9.625800145796146e-05,0.30594164757070325,0.00835893961190313,0.021749644318318342,9.625800267445175e-05,0.00021547931100940332,0.3020000010728836,0.010307615622878075,0.029087101109325886,0.0002154793037334457
100,0.00010321852007374813,0.3116707837790119,0.008626580535749299,0.022387349440189164,0.0001032185189182704,0.00025231888866983354,0.35099999606609344,0.011427595280110836,0.03277669474482536,0.0002523189614294097
101,0.00010421606613119348,0.3135374185384898,0.008665117339141905,0.022533874676858807,0.00010421606857127827,0.00022701555280946195,0.289000004529953,0.010978199075907469,0.030252463184297085,0.00022701556736137718
102,0.00010020624076119391,0.3057980591880687,0.008490975834152183,0.022156933370476327,0.00010020624559706671,0.0002377059863647446,0.3310000002384186,0.011088297236710787,0.03092234954237938,0.0002377060372964479
103,9.815866318191737e-05,0.3102061931424929,0.008408260501046715,0.021916220345154655,9.81586650996343e-05,0.00021692720474675298,0.3059999942779541,0.010500798933207989,0.029994653537869453,0.00021692719747079536
104,9.16548028176746e-05,0.3024237553412688,0.00815197795244477,0.02115115439572242,9.165480736227508e-05,0.00021295034093782306,0.2750000059604645,0.010181492660194635,0.029477090574800968,0.00021295024635037407
105,8.858578707116972e-05,0.3021365818367787,0.008040419776000335,0.02088092094632076,8.858578622827692e-05,0.00022029765386832878,0.328000009059906,0.010613816324621439,0.029907585121691227,0.00022029765386832878
106,8.893176288046412e-05,0.30381655245189193,0.008070436965380606,0.020885378924900725,8.89317613655973e-05,0.00021741001546615735,0.3139999955892563,0.010241754818707705,0.029184539802372456,0.00021741005912190303
107,8.764175243034117e-05,0.3034288657428094,0.008000963690978635,0.02073894303421911,8.76417547960408e-05,0.0001968001524801366,0.29899999499320984,0.009801913052797318,0.028444040566682816,0.00019680012337630615
108,9.97744742794263e-05,0.30687496375824663,0.008411371813019684,0.021896147736118258,9.977447438389988e-05,0.00022921552590560168,0.335999995470047,0.010632638353854418,0.030234630219638348,0.00022921552590560168
109,0.00010726325184434229,0.31333639724641726,0.008667284972937046,0.022535212886355033,0.0001072632562995134,0.00021493448730325326,0.3110000044107437,0.010677873156964779,0.02932160161435604,0.00021493447275133803
110,9.40204291907864e-05,0.30385962940153843,0.008274458931957664,0.02141596893571053,9.402042979547944e-05,0.00021403130085673183,0.32999999821186066,0.010334720369428396,0.029075752943754196,0.00021403136634035036
111,8.851362630161732e-05,0.30500832806075984,0.008029546209224636,0.020830124638233076,8.851362830165944e-05,0.00020341058552730829,0.3060000091791153,0.010039085522294044,0.028797178529202938,0.00020341058552730829
112,8.23314322131374e-05,0.29373671958652725,0.007765919033948908,0.020089212330251318,8.23314334145835e-05,0.0002184174009016715,0.30000001192092896,0.010277703870087862,0.029353590682148933,0.00021841739362571388
113,8.588554814596928e-05,0.3046637198409935,0.007977613016156796,0.02059241723097841,8.588554711627773e-05,0.0001988569347304292,0.3150000050663948,0.009969717357307673,0.028270551934838295,0.0001988569783861749
114,7.665703872183765e-05,0.2942105572610575,0.007525092880588994,0.01942767294847067,7.665703859521568e-05,0.00020433159079402685,0.32100000232458115,0.010025618597865105,0.028430563397705555,0.00020433169265743345
115,8.182427302666135e-05,0.3013612087018992,0.007812981658949648,0.020094475424920977,8.182427426927005e-05,0.0002154651374439709,0.2930000051856041,0.010096705984324217,0.0289877662435174,0.0002154651956516318
116,8.949626692281015e-05,0.3052955030116322,0.008088622423491499,0.020837921993054346,8.9496267512459e-05,0.00019851998513331637,0.3020000010728836,0.00980287790298462,0.02771747764199972,0.00019851993420161307
117,7.939029942834759e-05,0.29722589268329586,0.007660596639544403,0.019774346860108222,7.93902997718567e-05,0.00020266561477910727,0.31599999964237213,0.010028623975813389,0.02812629286199808,0.00020266560022719204
118,8.00820366389539e-05,0.3008730109577977,0.007726914788330538,0.019877542296609478,8.008203900465351e-05,0.0002124698512488976,0.3060000017285347,0.010402625426650047,0.028999636881053448,0.00021246988035272807
119,7.528615462419977e-05,0.29708230643685674,0.0074857650611946085,0.01926008678641508,7.52861541390245e-05,0.0001934762767632492,0.301999993622303,0.00952540012076497,0.02753738220781088,0.00019347632041899487
120,8.290946922698614e-05,0.30048532647306286,0.007793833719851355,0.020091462526800993,8.290947196941746e-05,0.00022249307949095964,0.34800000488758087,0.010468129068613052,0.029508668929338455,0.00022249306493904442
121,0.00010934211349596565,0.31322152723987934,0.008760595857998868,0.022568759063015812,0.00010934211542872677,0.0002463303098920733,0.33500000834465027,0.011531716212630272,0.0318713691085577,0.0002463303608237766
122,8.963649030083267e-05,0.3039457823953447,0.008085563559619821,0.020863556261842744,8.963649288258364e-05,0.00021537592692766339,0.29200001060962677,0.009985342156141996,0.02888920810073614,0.00021537592692766339
123,7.840396572689507e-05,0.2952874625090666,0.00759254825974325,0.019504877872541262,7.840397046936851e-05,0.00021089341316837817,0.2900000065565109,0.009786202106624842,0.02810019627213478,0.00021089344954816625
124,7.362382781251917e-05,0.29230084522414346,0.0073789098037615524,0.018982309460157255,7.36238289285059e-05,0.00019327040354255587,0.31700000166893005,0.009444724768400192,0.02710741851478815,0.00019327038899064064
125,7.037600220573962e-05,0.2917695704704862,0.007267389326919018,0.018620506941781786,7.037600288481785e-05,0.00020186195615679026,0.2810000032186508,0.009675755631178617,0.027256901375949383,0.00020186197070870548
126,7.49082378045739e-05,0.29880535177298945,0.00749506936154767,0.019194266264981646,7.490823835306017e-05,0.00021315081539796665,0.29900000244379044,0.009918466676026583,0.028128436766564846,0.0002131508372258395
127,7.420144426360635e-05,0.2972546088727021,0.007442625711491371,0.019078717663790875,7.420144302496764e-05,0.0001992766046896577,0.2939999997615814,0.009615797083824873,0.02743305917829275,0.00019927658286178485
128,6.947289456363534e-05,0.2933490329142462,0.007233532985072085,0.018495965928111438,6.947289379512773e-05,0.00019665402942337096,0.3020000010728836,0.009678127709776163,0.02787505555897951,0.00019665403669932857
129,7.255329620614271e-05,0.2920423876831159,0.007369382675054818,0.018841972148700512,7.255329716855328e-05,0.0001943807801580988,0.2760000079870224,0.009432248771190643,0.026913272216916084,0.00019438080926192924
130,7.121931390129752e-05,0.29616334521118665,0.007319510058056383,0.01869982687722078,7.121931427802922e-05,0.00022022252960596234,0.3009999990463257,0.010162925347685814,0.029039802961051464,0.0002202226096414961
131,8.970068758534155e-05,0.30453448978114545,0.008082639885797046,0.020669030173021123,8.970069010378153e-05,0.00020976011728635058,0.3189999908208847,0.010285476222634315,0.028711793944239616,0.00020976016094209626
132,9.736620412760977e-05,0.30739187951043034,0.008333787524987216,0.02137421099098377,9.736620447822309e-05,0.00020614301320165396,0.3059999942779541,0.009787339251488447,0.028102203272283077,0.00020614304958144203
133,7.181198841993252e-05,0.29339210821381867,0.007363483304156034,0.018766362799350695,7.18119889383304e-05,0.000198059955437202,0.2980000078678131,0.009543390944600105,0.027371129021048546,0.00019805997726507485
134,6.815679070727986e-05,0.2898885776184448,0.007169130711139222,0.018294921349711602,6.815679162539363e-05,0.00019449274986982346,0.28599999845027924,0.00979672558605671,0.02738083153963089,0.00019449280080152676
135,6.506801889607282e-05,0.29119522227786887,0.007004917583026449,0.017856875712454343,6.50680206340952e-05,0.00019863565830746666,0.28999999165534973,0.009621518664062023,0.0275841373950243,0.00019863565103150904
136,6.867085201274309e-05,0.2919275175148228,0.007243217558591289,0.01844201853473034,6.8670853199145e-05,0.00018196176824858412,0.2939999997615814,0.009068456944078207,0.02605774998664856,0.00018196178280049935
137,6.223021933152587e-05,0.2898311416947118,0.006893830522185575,0.0175119308483819,6.223022135768638e-05,0.00019666412845253944,0.2839999943971634,0.009244353510439396,0.026651662774384022,0.00019666412117658183
138,6.536239218978366e-05,0.29037677461367967,0.00708883185674368,0.017984320466670298,6.536239375688729e-05,0.00020183705782983452,0.3279999941587448,0.009819369297474623,0.027545945718884468,0.0002018370505538769
139,6.96299017939725e-05,0.2924157142490243,0.007260940608571538,0.018455084454156744,6.962990555502118e-05,0.0001962955720955506,0.3110000044107437,0.009328610263764858,0.02699831034988165,0.0001962955211638473
140,6.608936872274508e-05,0.29110906929090935,0.007091238219362649,0.018026746171234287,6.608937099504534e-05,0.00019140889344271272,0.2979999929666519,0.009517621248960495,0.02683045156300068,0.00019140890071867034
141,7.563246505817397e-05,0.2990925284578089,0.007594375865371658,0.019161402524124405,7.563246467036806e-05,0.00019948551926063374,0.2980000078678131,0.009554579854011536,0.02760000992566347,0.00019948553381254897
142,6.692801113529269e-05,0.29366492677612,0.007154613220558725,0.018131898317160184,6.692801263156323e-05,0.0001955668776645325,0.3139999955892563,0.009518174920231104,0.026916655711829662,0.00019556689949240535
143,6.238190912417045e-05,0.2896014020958662,0.006926259741660593,0.017520248087352083,6.238190736274599e-05,0.00020102033886360005,0.3009999990463257,0.009435559157282114,0.027504991739988327,0.00020102037524338812
144,6.184203499736233e-05,0.28872551791912093,0.006890260548260289,0.017416899565190727,6.184203807933277e-05,0.0001915281536639668,0.2839999943971634,0.009330633096396923,0.0262477220967412,0.00019152818276779726
145,6.754822890869556e-05,0.2930618593395766,0.0071599782394469605,0.01815985906247614,6.754823094196026e-05,0.00019025281653739512,0.29500000178813934,0.009651823434978724,0.02697691135108471,0.00019025283108931035
146,6.468501115167203e-05,0.2930762175904719,0.007039551081360636,0.017833655486232648,6.468501174884298e-05,0.00018662009824765846,0.301999993622303,0.009414232801645994,0.026636475697159767,0.00018662010552361608
147,6.0944719487441086e-05,0.2874045161881594,0.006830783727254185,0.017292081449810103,6.094471999476476e-05,0.00020428368588909507,0.3279999941587448,0.00993444724008441,0.028082345612347126,0.00020428367861313745
148,6.046996315741782e-05,0.28411636459057843,0.006827674951317892,0.017238915946154232,6.0469964064039496e-05,0.00019806763157248497,0.3330000042915344,0.009457132313400507,0.027178593911230564,0.0001980675951926969
149,6.116097990383785e-05,0.28838090844639386,0.006876506092629454,0.017357350016990274,6.116098098576617e-05,0.00020321126794442534,0.3580000102519989,0.00981724914163351,0.02758452482521534,0.00020321127522038296
150,7.880965392727844e-05,0.2981592108101897,0.007650787888380315,0.01939308419932767,7.880965215122767e-05,0.00023786531528458,0.3879999965429306,0.011457166634500027,0.03030718583613634,0.00023786532983649522
151,7.323837028712269e-05,0.2939951762751307,0.007432618575700941,0.01879394617346549,7.32383719547299e-05,0.00018365572759648785,0.29600000381469727,0.009242411237210035,0.026437467895448208,0.0001836557567003183
152,6.817532567815833e-05,0.2888834658107467,0.007198177863334564,0.01818555276313509,6.817532732361713e-05,0.00018297674250788987,0.26900000125169754,0.009132833685725927,0.025700215250253677,0.00018297672068001702
153,6.077497122580131e-05,0.28678708930852514,0.006849519354240177,0.01726004387814271,6.0774971972160524e-05,0.00018598168389871716,0.3179999887943268,0.009285284671932459,0.026502707973122597,0.00018598167662275955
154,5.823306656953296e-05,0.28296766398002465,0.006726265491379722,0.016958470908831545,5.823306749872093e-05,0.00018456789257470518,0.2979999929666519,0.009155979380011559,0.02637740783393383,0.00018456792895449325
155,5.334736755223839e-05,0.28124461641098575,0.006454420047153964,0.01622250991427921,5.334737024243293e-05,0.0001981580862775445,0.3009999990463257,0.009312762878835201,0.02689596265554428,0.00019815810810541734
156,5.591475897534808e-05,0.28410200359840354,0.006606293486324367,0.01658735838617348,5.5914760699162055e-05,0.00017433509492548183,0.3020000010728836,0.009064567741006613,0.025709806010127068,0.00017433509492548183
157,6.502650654068708e-05,0.29288955352227763,0.007041800521207378,0.017793451328187656,6.502650833178203e-05,0.0001941757946042344,0.2590000033378601,0.009270026348531246,0.02651646826416254,0.000194175801880192
158,5.879287673641614e-05,0.28481994183143206,0.0067531535604990174,0.016968497667173,5.8792879736061406e-05,0.00018166998052038252,0.2809999957680702,0.009067611768841743,0.02587338164448738,0.00018166999507229775
159,6.259696052388873e-05,0.2892137157607891,0.006909108176561262,0.017472145324514615,6.259695894174092e-05,0.00020495514763751999,0.306999996304512,0.009600953664630651,0.027347953990101814,0.00020495522767305374
160,6.39530772548337e-05,0.29085061238492066,0.007034068199270529,0.017674348775713986,6.395307700117187e-05,0.00019018419698113576,0.3320000022649765,0.0092228171415627,0.0261769387871027,0.0001901842188090086
161,5.505137681649223e-05,0.28098616041219543,0.00656791882086435,0.01647357419723721,5.505137887984533e-05,0.00018202153296442702,0.306999996304512,0.008958322461694479,0.025365471839904785,0.00018202160572400317
162,4.990861942168677e-05,0.27963643784115216,0.006269643543473509,0.015702397127525428,4.99086196828707e-05,0.00018067310884362087,0.3110000044107437,0.009200989734381437,0.026280414313077927,0.00018067315249936655
163,5.7402335678126656e-05,0.28694503616799877,0.0066728964109380486,0.016758853786530664,5.740233840948379e-05,0.00018684293172555044,0.296999990940094,0.00912334444001317,0.026110359467566013,0.00018684288079384714
164,5.6095608271163484e-05,0.28581069495517597,0.00659607522768705,0.01653263842265827,5.609560752125217e-05,0.00019447860540822148,0.289000004529953,0.009549630340188742,0.02681275364011526,0.0001944785690284334
165,6.64951872614346e-05,0.2886537240277782,0.007062190052987995,0.017745078052435546,6.64951888364782e-05,0.00020937483350280672,0.3179999887943268,0.010066395159810781,0.02855958417057991,0.0002093748189508915
166,8.803018780134028e-05,0.30242375603792865,0.0079836981756123,0.02016310727408938,8.803018848041852e-05,0.00020520589168881997,0.3370000123977661,0.010088755283504725,0.027701876126229763,0.00020520589168881997
167,7.325494650468561e-05,0.29706794603864,0.00735888174752608,0.018639632117234923,7.325494678091375e-05,0.00018663636728888378,0.3009999990463257,0.008954513352364302,0.025359882041811943,0.00018663639639271423
168,5.419628834791856e-05,0.28255126114058937,0.00649505070766434,0.016272483021791153,5.419628905311519e-05,0.0001663072544033639,0.2880000099539757,0.008552245330065489,0.024341506883502007,0.0001663072544033639
169,4.9332146528106354e-05,0.27779851913414494,0.006249239945598171,0.015585481334952873,4.9332149318804474e-05,0.0001778075675247237,0.2969999983906746,0.008844648022204638,0.025425580330193043,0.0001778075675247237
170,5.043862479412853e-05,0.28087128986818527,0.006312345390208975,0.0157976672862113,5.043862523103702e-05,0.00016407357179559767,0.28199999779462814,0.008514092769473791,0.024379863403737545,0.00016407355724368244
171,4.85369238282762e-05,0.28249382654855515,0.006218426441155957,0.015510286844476872,4.853692483937145e-05,0.00017894781194627285,0.28200000524520874,0.00883476110175252,0.02558994945138693,0.00017894781922223046
172,4.7608946563330744e-05,0.2788754247766998,0.006171434136037705,0.015377064559339747,4.7608947496070815e-05,0.00016977045743260533,0.28299999237060547,0.00852666748687625,0.02428875956684351,0.000169770501088351
173,5.092708263326048e-05,0.28104359322235506,0.006316496342744516,0.015772348967870848,5.0927082666900976e-05,0.00018471830117050558,0.28300000727176666,0.009219882544130087,0.026050616055727005,0.00018471829389454797
174,5.204854426091167e-05,0.27986617688369686,0.006402636782284012,0.015976928743741278,5.204854429810426e-05,0.0001880013951449655,0.3240000009536743,0.00901328306645155,0.02595279924571514,0.00018800140969688073
175,5.4112025425537184e-05,0.281732813948828,0.006537301914038854,0.01627551448741613,5.411202596294925e-05,0.00017504810239188373,0.294000007212162,0.00879977224394679,0.02494785003364086,0.00017504812421975657
176,5.025773748894624e-05,0.2804836020884375,0.00633292788693476,0.015769180209700553,5.0257737197673915e-05,0.00016371989477192983,0.284000001847744,0.00873340293765068,0.024765145033597946,0.000163719872944057
177,5.4890832377960996e-05,0.28171845378682514,0.006565412951635581,0.016415385474089772,5.489083497120406e-05,0.00017038564692484215,0.27699999511241913,0.008670682087540627,0.024411946535110474,0.0001703856178210117
178,5.57118186043247e-05,0.2845614846156265,0.006586993041429413,0.016452999509745624,5.571181964906045e-05,0.00018690890283323824,0.27300000190734863,0.00913939718157053,0.025597602128982544,0.00018690890283323824
179,6.140302326359985e-05,0.28746194945619746,0.00690353443304462,0.01723221167668475,6.140302570013255e-05,0.00017804477829486132,0.306999996304512,0.009003149345517159,0.025678403675556183,0.00017804478557081893
180,5.216518080866657e-05,0.2818764012787701,0.006411049834320288,0.015995915289440835,5.216518022653981e-05,0.00018659002671483904,0.28599999845027924,0.009134103544056416,0.02569651883095503,0.00018659007764654234
181,5.195118289268237e-05,0.28137384515539615,0.006404426136155142,0.01593411281378825,5.195118325833988e-05,0.00016676822997396812,0.3160000145435333,0.008551758714020252,0.024132915772497654,0.00016676828818162903
182,4.57594289213619e-05,0.2783154326140535,0.006048053701325671,0.015078516769667474,4.5759429898816666e-05,0.00016720504936529323,0.32200001180171967,0.008416399359703064,0.02401754818856716,0.000167205129400827
183,4.7916455042902474e-05,0.2784590212594332,0.006194356883247566,0.0153743678586867,4.79164569756636e-05,0.00015540936874458566,0.28599999845027924,0.008355239871889353,0.02364751137793064,0.0001554093905724585
184,4.80095071231641e-05,0.2771810931916637,0.006187439425851367,0.01535645009665555,4.8009508522483156e-05,0.00017579539417056367,0.2719999998807907,0.00879364088177681,0.024932684376835823,0.0001757953650667332
185,5.3286298155145475e-05,0.2863276087012531,0.006466708381366994,0.016047906375485154,5.328630218490019e-05,0.00018986902432516217,0.30399999767541885,0.00908542051911354,0.026002977043390274,0.00018986901704920456
186,4.944381071334011e-05,0.27900465276368513,0.006267484127392542,0.015610525892223379,4.9443811470773525e-05,0.0001673117876634933,0.26999999582767487,0.008640456013381481,0.024683835916221142,0.0001673117803875357
187,4.8779924216962634e-05,0.2790046534954348,0.006249556408672035,0.015499561895997686,4.8779925500733913e-05,0.00017910051246872172,0.31199999153614044,0.008990842383354902,0.02564590610563755,0.00017910057795234025
188,4.6114498572552566e-05,0.2816897367398597,0.006076793672568186,0.01506603661052492,4.611449919584191e-05,0.00016111664444906637,0.28599999845027924,0.008479999378323555,0.024206618778407574,0.00016111660079332069
189,4.882218128923916e-05,0.279708232001231,0.006223967706221994,0.015446092588670288,4.8822180871344867e-05,0.00016220172255998477,0.2799999937415123,0.008479800540953875,0.024038629606366158,0.0001622017880436033
190,4.6518074719067316e-05,0.2788036305729727,0.006066174884565591,0.015045503133963651,4.6518075741236766e-05,0.0001873918154160492,0.296999990940094,0.009104660246521235,0.025990921072661877,0.00018739184451987967
191,5.151244319118285e-05,0.28219229193035983,0.006366928968778418,0.015879940964391964,5.151244482911955e-05,0.00017131405911641195,0.31300000846385956,0.008740199729800224,0.024376087822020054,0.00017131410277215764
192,4.779143661663181e-05,0.27873183596271806,0.006157939075674993,0.015304705713633869,4.779143775476693e-05,0.00017901715182233602,0.27800001204013824,0.00888596335425973,0.025288501754403114,0.00017901717365020886
193,4.853209498820839e-05,0.27501292310021364,0.006235625327188042,0.015450030544988953,4.853209611129931e-05,0.00017332837160211056,0.30800001323223114,0.008622906170785427,0.02453682478517294,0.00017332837160211056
194,5.0736689788003155e-05,0.2828240783489399,0.006351733422515015,0.015733794881867828,5.073669050072188e-05,0.0001714932732284069,0.32600000500679016,0.009086831007152796,0.025097432546317577,0.0001714932222967036
195,5.1606022593662225e-05,0.282594338347846,0.006383221305972673,0.015807218247730705,5.1606023907104e-05,0.00017448496510041878,0.2839999943971634,0.008910802192986012,0.0250001922249794,0.0001744849723763764
196,5.450556086421161e-05,0.28368560126049486,0.0065216595985198205,0.016238487816972187,5.4505560923970494e-05,0.00017552607459947467,0.3490000069141388,0.009069289546459913,0.02514913957566023,0.00017552607459947467
197,4.479452462113663e-05,0.27890414220537324,0.0060082424255413725,0.014812307754360012,4.4794525665872374e-05,0.0001680984569247812,0.3009999990463257,0.008506072219461203,0.024101896211504936,0.00016809838416520506
198,4.521496719190921e-05,0.27509907615392926,0.006046137787183649,0.014921930833241413,4.521496839335532e-05,0.00017778002802515402,0.3149999976158142,0.008880340494215488,0.024925011210143566,0.0001777800207491964
199,5.2647789585248495e-05,0.28415943755368717,0.006397888986881107,0.015872271064202245,5.264779039136659e-05,0.00018251156143378466,0.294000007212162,0.009238395374268293,0.025687198154628277,0.00018251160508953035
