epoch,huber_loss,l0_loss,l1_loss,linf_loss,loss,val_huber_loss,val_l0_loss,val_l1_loss,val_linf_loss,val_loss
0,0.0028498723960114266,0.705473550761645,0.044884864961615374,0.10786011677964333,0.002849872499889919,0.0011452418402768672,0.5660000145435333,0.02834302745759487,0.07430808991193771,0.001145241898484528
1,0.0011558090330168519,0.5336999621867695,0.026965107572143064,0.07281993703615945,0.0011558090620855793,0.0009513180120848119,0.5649999976158142,0.025820789858698845,0.06932011246681213,0.0009513181576039642
2,0.0010250379670185138,0.5074378256873516,0.025363107313145297,0.06892547438379151,0.0010250379887490172,0.0008834142063278705,0.49799999594688416,0.024604112841188908,0.06637820601463318,0.0008834140899125487
3,0.0009215370496420132,0.49765952499844934,0.024025615884224232,0.06558193214142263,0.0009215370770458497,0.0007741561275906861,0.5009999871253967,0.02313202526420355,0.06257349997758865,0.0007741562731098384
4,0.0008479140307132184,0.4867899593223237,0.023213762546797,0.06311763140044661,0.0008479140443833767,0.0007437345338985324,0.45900000631809235,0.022293669171631336,0.05893346667289734,0.0007437344174832106
5,0.0007697554934658288,0.474326573214288,0.02199851500844909,0.06020523814332457,0.0007697555103019542,0.0006720391393173486,0.47599999606609344,0.021292902529239655,0.05723640136420727,0.0006720392848365009
6,0.0007221002170507852,0.4697317766106647,0.021341351943808293,0.0583106749644265,0.0007221002506026825,0.0006104350904934108,0.45499999821186066,0.020226191729307175,0.05422436259686947,0.000610435294220224
7,0.0006775547685423641,0.46559645979869074,0.020730917048184007,0.056373565021439524,0.0006775547906907619,0.0006400326383300126,0.42399999499320984,0.01978017296642065,0.05473850294947624,0.0006400326965376735
8,0.0006118210614816021,0.4501895341838387,0.019469751006594704,0.05360007875108834,0.0006118210857763049,0.0005255637806840241,0.4390000104904175,0.018065813928842545,0.049773937091231346,0.0005255636351648718
9,0.0005727376183095084,0.4431393933209934,0.018856839673161117,0.05196664559338603,0.0005727376463686031,0.0005330202402547002,0.4399999976158142,0.018709365278482437,0.050698673352599144,0.0005330201238393784
10,0.0005595707545581226,0.4397076563756132,0.01862617673530056,0.05107503737474418,0.0005595707925865037,0.0004811544349649921,0.4060000032186508,0.01767380442470312,0.0477634072303772,0.0004811544786207378
11,0.0004995835838687847,0.4243150882704926,0.01746428978532753,0.04849405196281874,0.0004995836034212231,0.000480353512102738,0.41200000047683716,0.017573419958353043,0.04799213446676731,0.0004803535412065685
12,0.00048241020124701695,0.4197920854324024,0.017167106992804465,0.04742322101192858,0.00048241021503752876,0.0004120160301681608,0.3959999978542328,0.016020504757761955,0.04434644803404808,0.000412016044720076
13,0.0004412648184916461,0.4078312550874288,0.01637510202401853,0.04547627025641885,0.0004412648193274347,0.0004310301155783236,0.40799999237060547,0.016134771518409252,0.044256916269659996,0.00043103014468215406
14,0.00042111749688520875,0.4041410599086404,0.01593620206944182,0.04426170645476271,0.0004211175094220377,0.0004387860099086538,0.3870000094175339,0.016598647460341454,0.045145098119974136,0.0004387860099086538
15,0.0003998506400746703,0.3980529540955565,0.015600354790490288,0.043127277078091275,0.0003998506505822045,0.0004252769722370431,0.4010000079870224,0.016210800036787987,0.044841665774583817,0.0004252769285812974
16,0.0003854329223828765,0.3935155944598001,0.01528810049203867,0.04247681500149358,0.00038543292999356746,0.0003890081570716575,0.3799999952316284,0.015187544282525778,0.042194658890366554,0.0003890081570716575
17,0.00036524688281461157,0.3902992362023961,0.014788628400390988,0.04111482475915123,0.0003652468826056644,0.00039630301762372255,0.39399999380111694,0.0157155878841877,0.04370754212141037,0.00039630306127946824
18,0.0003538518148647383,0.3837516496459604,0.014645019572789415,0.04052698397074464,0.0003538518305357745,0.0003316493966849521,0.3959999978542328,0.014515228103846312,0.039949433878064156,0.0003316493966849521
19,0.00033205583438022067,0.38093733947408936,0.014164285476953193,0.03929385616344078,0.0003320558408132855,0.00034653583134058863,0.403999999165535,0.014650081284344196,0.04003812000155449,0.00034653580223675817
20,0.0003217270320156513,0.3789127563788009,0.013947094797912197,0.03858203434057837,0.00032172704643300453,0.00033199159952346236,0.39499999582767487,0.014319394249469042,0.03869335353374481,0.0003319916140753776
21,0.0002957520594223935,0.3738441211557917,0.013361559911244793,0.037039329303029174,0.00029575206973686053,0.0003797753306571394,0.37700000405311584,0.015402394346892834,0.04123051278293133,0.00037977530155330896
22,0.0003240114506096836,0.37724714214027694,0.013990654782015778,0.03855481679174677,0.00032401146705633157,0.0003208076232112944,0.3999999910593033,0.013642249628901482,0.03839868865907192,0.0003208076232112944
23,0.0002881471675006163,0.37322669520903123,0.013265450752877462,0.036654336020555005,0.00028814716524649443,0.0003115632716799155,0.3739999979734421,0.013634398113936186,0.0378076434135437,0.0003115632134722546
24,0.00028101702740772284,0.3638360799488636,0.013038237113639328,0.036115442175700785,0.0002810170462288462,0.0003326973819639534,0.3710000067949295,0.01396724907681346,0.038743965327739716,0.00033269741106778383
25,0.0002594964345096361,0.35845155477777135,0.012563254013974233,0.034694743974045636,0.0002594964418227863,0.0003134543658234179,0.3449999988079071,0.013523542322218418,0.03752959705889225,0.00031345439492724836
26,0.00024621926885472705,0.3520906310596771,0.012229740995697428,0.0339140569138935,0.0002462192837342714,0.0002998997370013967,0.3710000067949295,0.013101862277835608,0.03696458786725998,0.0002998997806571424
27,0.0002441785981237475,0.35803515156176313,0.012284221166677323,0.033854906566034106,0.0002441786065418102,0.00028898076561745256,0.36900000274181366,0.01248965272679925,0.03565039485692978,0.00028898080927319825
28,0.00024434536947524096,0.35731721523299537,0.012213583083023213,0.03370344281080199,0.00024434537380295433,0.0003198669437551871,0.3789999932050705,0.013401111587882042,0.03736430034041405,0.000319867001962848
29,0.00023799977329299715,0.35312446180405194,0.012156417554365395,0.03332772540039495,0.00023799978206877738,0.00027904947637580335,0.3410000056028366,0.012669636867940426,0.034971022978425026,0.0002790495054796338
30,0.00021389234615941033,0.3457009934535505,0.011431492721035766,0.0315912443574065,0.0002138923499647558,0.00028961959469597787,0.36500000953674316,0.01286983722820878,0.03552921861410141,0.0002896197256632149
31,0.00021892427206912928,0.3456291991608153,0.011670563188121796,0.032073716358241286,0.00021892428069613916,0.0002777561458060518,0.3629999905824661,0.012467533349990845,0.03475936874747276,0.0002777561894617975
32,0.0002053015304507865,0.34294411560058263,0.01133385761082258,0.03101316141812451,0.0002053015346456095,0.0002864388807211071,0.36800000071525574,0.01290877629071474,0.03483042120933533,0.0002864388807211071
33,0.00020183225588753318,0.3418097762406697,0.0112241565405892,0.030728956895864513,0.00020183226360436928,0.00027959920407738537,0.3709999918937683,0.012895406223833561,0.0357531663030386,0.00027959918952547014
34,0.00019886462275313336,0.340962610008674,0.011178753129285497,0.03058962851502166,0.00019886463370865026,0.0002890759496949613,0.3279999941587448,0.012630164623260498,0.035574181005358696,0.000289075993350707
35,0.00019263512668507728,0.339584170554988,0.01102336499308112,0.030105248832415415,0.0001926351302672672,0.00026477387291379273,0.3479999899864197,0.012260491494089365,0.03400060720741749,0.0002647738147061318
36,0.00019563120819610078,0.34107748031732604,0.011124689709993193,0.030227170119502933,0.00019563121286732325,0.0002827949065249413,0.3330000042915344,0.01278719399124384,0.03502376936376095,0.0002827949356287718
37,0.00018301972252183902,0.3326489006752026,0.010731458079610534,0.02925108763699053,0.0001830197218949976,0.00026456151681486517,0.3709999918937683,0.011979983653873205,0.0338642131537199,0.00026456154591869563
38,0.00018295897622076698,0.33356785953958934,0.010751906884341524,0.02928782313874688,0.00018295897598173143,0.00025299916160292923,0.33299998939037323,0.01153826154768467,0.03311922401189804,0.00025299916160292923
39,0.00017321811418092792,0.3347596332159536,0.010422455378362025,0.02842974017182882,0.0001732181203448688,0.00026296866417396814,0.3399999886751175,0.0119211389683187,0.033427901566028595,0.0002629687078297138
40,0.0001730341180756517,0.329604847890191,0.01053057248916974,0.028527259958460675,0.00017303412491073084,0.0002492339481250383,0.3399999886751175,0.011489167343825102,0.03229641728103161,0.0002492339408490807
41,0.00016329513396920686,0.3299207393479891,0.010269961307186555,0.027785571424806078,0.00016329513937174433,0.00026095091743627563,0.3310000002384186,0.011908045038580894,0.033805686980485916,0.0002609508956084028
42,0.00017474383130307812,0.33026534959440235,0.010536530681907014,0.028438014975846256,0.00017474384010894675,0.0002528327313484624,0.3530000001192093,0.011488202027976513,0.03262759558856487,0.0002528327167965472
43,0.0001575187855693821,0.33019355791713717,0.01003619797309977,0.02726127052039163,0.00015751878785986076,0.0002620081650093198,0.32999999821186066,0.011886318679898977,0.03358757495880127,0.0002620081650093198
44,0.00015406208970346626,0.3264746420377702,0.009961865805433952,0.026912727472750263,0.00015406209059149164,0.00026321168115828186,0.3659999966621399,0.011791754979640245,0.03293367847800255,0.00026321166660636663
45,0.00015512864901246338,0.32565619434790555,0.010026176976109864,0.026922495177814917,0.00015512865700469182,0.000249826000072062,0.32500000298023224,0.011725632473826408,0.032427916303277016,0.00024982605827972293
46,0.000149995859222413,0.3214490849668733,0.009837479347609278,0.026484394277413396,0.00014999586559530102,0.0002513487124815583,0.3149999976158142,0.011661505792289972,0.032857803627848625,0.00025134871975751594
47,0.00015062154279852087,0.32749411482994056,0.009925858911599066,0.026602897803645695,0.00015062154776101567,0.00022530696878675371,0.3369999974966049,0.01110106473788619,0.031309664249420166,0.00022530693240696564
48,0.00014238658268763885,0.3222962508513949,0.00961236096929281,0.02586793501064225,0.0001423865840980321,0.0002127715342794545,0.2939999997615814,0.010385839268565178,0.029631751589477062,0.0002127715342794545
49,0.00013866769249132663,0.3175291479195317,0.009495059103796404,0.025555039684911206,0.00013866769309601968,0.00024543106701457873,0.3059999942779541,0.011462938040494919,0.03167040832340717,0.00024543107429053634
50,0.00013541353167218813,0.31623686187388217,0.009358679690814914,0.025205984083775897,0.00013541353576880592,0.000256637591519393,0.3189999908208847,0.01171321701258421,0.032265255227684975,0.0002566375187598169
51,0.00013077956003341507,0.31388202917003444,0.009265506328976063,0.02479405473333821,0.00013077956324994747,0.00025082210049731657,0.3270000070333481,0.01190296933054924,0.032946519553661346,0.00025082215142901987
52,0.00014039530857456813,0.31961116535181183,0.00962570014911836,0.025589289260932638,0.00014039531720157802,0.00023138280084822327,0.31300000846385956,0.010963261593133211,0.030997206456959248,0.00023138280084822327
53,0.00014419215202510964,0.32142036785914263,0.009669814393770314,0.02587239683454513,0.0001441921550397991,0.0002084134321194142,0.32600000500679016,0.010246440768241882,0.029078866355121136,0.00020841345394728705
54,0.00012829646832556335,0.31118258656724757,0.009197807951094459,0.024598791211844346,0.00012829647284007544,0.00023873624013504013,0.3140000104904175,0.010733932722359896,0.03050848003476858,0.00023873630561865866
55,0.0001217443393596385,0.30997645227100207,0.008912660284545015,0.023890660580282518,0.00012174434679230648,0.0002300851119798608,0.3269999921321869,0.010605615563690662,0.03056313656270504,0.00023008508287603036
56,0.00011625934687574824,0.30981850496905533,0.008792857101912334,0.023445555752732834,0.00011625935077846309,0.00022133931634016335,0.3050000071525574,0.010519792791455984,0.029455690644681454,0.0002213392872363329
57,0.000120379596909482,0.3130635799379326,0.008991352715148917,0.023810098984469005,0.00012037960111057338,0.00022313710360322148,0.3319999873638153,0.010287939105182886,0.029007205739617348,0.00022313716908684
58,0.00011115117671434973,0.30496525255407225,0.00861942061880969,0.02292712466046364,0.00011115118144574896,0.000235072810028214,0.32499998807907104,0.010475952178239822,0.029380601830780506,0.00023507276637246832
59,0.00010911077914708193,0.3029693874232178,0.00855921989506434,0.022714489165452385,0.00010911078094528109,0.00022537127370014787,0.3009999990463257,0.010279559530317783,0.029382165521383286,0.0002253712373203598
60,0.0001059911885819331,0.3075354660487135,0.008491586182774848,0.022449340834553803,0.00010599119231289339,0.000212962826481089,0.3009999990463257,0.010217167437076569,0.028903383761644363,0.00021296280465321615
61,0.00011313081637394926,0.3096318411396425,0.008790336162652956,0.02311237961347832,0.00011313081933640194,0.00022466174414148554,0.2980000078678131,0.01035035215318203,0.029237201437354088,0.00022466171503765509
62,0.00010306299427702413,0.30490781742028655,0.008389633709167798,0.022148026564252053,0.00010306299673215312,0.00022311149223241955,0.318000003695488,0.010513704270124435,0.02972785383462906,0.0002231115649919957
63,0.00010665219979775906,0.30286887689999564,0.008479927736985748,0.022314745783365085,0.00010665220033517112,0.000271924989647232,0.33799999952316284,0.011067020706832409,0.03199009597301483,0.000271924989647232
64,0.00011372219115377013,0.30885647069640343,0.008830104888052075,0.02311657158384358,0.00011372219244464562,0.00025511674175504595,0.346000000834465,0.011376786977052689,0.03135433327406645,0.0002551167126512155
65,0.00012080615521306584,0.310435931391667,0.00894126380012736,0.023515020461572105,0.00012080616080240207,0.0002345944449189119,0.3490000069141388,0.011438196990638971,0.031023471616208553,0.0002345944449189119
66,0.00012108852710909863,0.30628625543529286,0.009007182881710216,0.023648513093963885,0.0001210885268107221,0.0002155302863684483,0.3059999942779541,0.010306688025593758,0.028674944303929806,0.00021553030819632113
67,9.935990005765241e-05,0.2997673891480886,0.008242094070798752,0.02162654151789445,9.935990235607106e-05,0.00019733578665181994,0.29500000178813934,0.009697075001895428,0.027476304210722446,0.00019733575027203187
68,9.010119916273956e-05,0.29818792768170643,0.00786044953446479,0.020711263170464008,9.010120205791125e-05,0.0002149355786968954,0.31700000166893005,0.009837446734309196,0.028263944201171398,0.00021493562235264108
69,8.653243380029867e-05,0.2973551211161778,0.007748531642097713,0.02026070031089191,8.653243497165638e-05,0.0002003604604396969,0.2930000051856041,0.009872588329017162,0.027749252505600452,0.00020036043861182407
70,9.893401521037007e-05,0.30177761316145385,0.008200756958467307,0.021493833498588195,9.893402012062806e-05,0.0002148412968381308,0.3109999895095825,0.010185087099671364,0.02821795456111431,0.00021484131139004603
71,0.0001065888938782347,0.30407501082822663,0.008382590293001042,0.022077685171641662,0.00010658889806428188,0.00021799006208311766,0.3009999990463257,0.010479006450623274,0.029351050965487957,0.00021798996021971107
72,9.336666439789514e-05,0.29609155012422494,0.007967269305062967,0.020819684212625002,9.336666400214924e-05,0.0002086799722746946,0.3100000023841858,0.010094485711306334,0.027676383033394814,0.00020867995772277936
73,8.93220380298544e-05,0.29897765813803084,0.007826183076824257,0.02042604726269849,8.932204064879796e-05,0.00019683686696225777,0.28599999845027924,0.00939756678417325,0.02660221792757511,0.00019683688879013062
74,8.170666430967162e-05,0.2925305838379086,0.007564884078939308,0.019719906204892158,8.170666639914311e-05,0.00020523126295302063,0.30900000035762787,0.009905899409204721,0.028419414535164833,0.00020523127022897825
75,8.308257636544325e-05,0.29599104008541244,0.007640064426187331,0.019852691705358288,8.308257539195849e-05,0.00020091056649107486,0.294000007212162,0.009646217338740826,0.027366774156689644,0.00020091055921511725
76,8.473220833400637e-05,0.2962351412969224,0.007744071491269757,0.019974804786270624,8.473221174444174e-05,0.00021591255790553987,0.2980000078678131,0.00981961889192462,0.027913120575249195,0.00021591259428532794
77,7.569113829324379e-05,0.28739015576426724,0.007309512012142242,0.018979216467867932,7.569113804313404e-05,0.00018354960047872737,0.30900000035762787,0.009298196528106928,0.026249139569699764,0.00018354957865085453
78,7.319614642386126e-05,0.2869163171080799,0.007281736256609818,0.018768908226279826,7.31961491512484e-05,0.00021186420053709298,0.31599999964237213,0.009472135454416275,0.02725161239504814,0.00021186424419283867
79,7.351615786641377e-05,0.29047728468244677,0.0072449716511166174,0.0187488827752977,7.351616101921729e-05,0.00019307591719552875,0.2980000078678131,0.009743109345436096,0.02746000327169895,0.00019307596085127443
80,7.364959544298367e-05,0.28862500775792227,0.007274954663616877,0.01877760852109738,7.364959785695008e-05,0.0002113703085342422,0.3310000002384186,0.00953425420448184,0.027120323851704597,0.00021137027215445414
81,8.065201046549288e-05,0.29284647632101196,0.00757967027860207,0.019499056836857945,8.065201302509545e-05,0.00020462864631554112,0.28200000524520874,0.009763820562511683,0.027618248015642166,0.00020462865359149873
82,7.788794276270617e-05,0.2922434092815819,0.007475383835201473,0.019281366161210855,7.788794419127782e-05,0.0002181252057198435,0.29899999499320984,0.00991607690230012,0.028382121585309505,0.00021812524209963158
83,7.548926737118824e-05,0.2900321646514078,0.007279475898288324,0.01886558634924434,7.548926770048895e-05,0.0002239119348814711,0.30300000309944153,0.010635380633175373,0.029182027094066143,0.00022391197853721678
84,8.665809122100863e-05,0.29879099479816285,0.00777977639965443,0.020024642411194282,8.665809242245474e-05,0.00019907668320229277,0.30300000309944153,0.009472983423620462,0.026452726684510708,0.00019907666865037754
85,7.090304213275624e-05,0.28664350124255417,0.007172003994558853,0.01841170646677744,7.090304139391912e-05,0.0001887345570139587,0.2759999930858612,0.009076196234673262,0.025760458782315254,0.0001887346588773653
86,6.837381205591088e-05,0.28871116027930077,0.007033029352880967,0.018032633852833897,6.837381212674396e-05,0.0001915393368108198,0.25300000607967377,0.009296298492699862,0.02616831846535206,0.00019153939501848072
87,6.217323504404948e-05,0.27914824117370685,0.006691987316143558,0.01715785940275359,6.217323784268759e-05,0.00018838646792573854,0.3009999990463257,0.009390073362737894,0.02625798899680376,0.000188386497029569
88,6.747691508238175e-05,0.28186204229698103,0.006974872203660285,0.01793625249585325,6.747691525016631e-05,0.00020496261277003214,0.328000009059906,0.009593150578439236,0.02703714556992054,0.00020496266370173544
89,6.196118977594516e-05,0.28074205977495914,0.006722035326839673,0.017237343335694624,6.196119147364073e-05,0.00019247746968176216,0.28700000047683716,0.009122799150645733,0.02610514871776104,0.00019247749878559262
90,6.38892138158407e-05,0.2840876475530273,0.006805639900737841,0.01737768806007467,6.38892150434052e-05,0.0001789222951629199,0.28200000524520874,0.008948012255132198,0.025192370638251305,0.00017892225878313184
91,6.006209121862278e-05,0.27939233868196456,0.00664161964144786,0.016976336934345124,6.006209325940958e-05,0.0001980019878828898,0.27699999511241913,0.00899601262062788,0.02600779104977846,0.0001980019806069322
92,6.405747772926355e-05,0.283211763224797,0.006789354165444383,0.017451857793443947,6.4057479154701e-05,0.00020371914433781058,0.3410000056028366,0.009819208644330502,0.027195831760764122,0.00020371919526951388
93,7.530316029501648e-05,0.29238699647715594,0.0073178516087916545,0.01872614784596601,7.530316175764652e-05,0.0001950077057699673,0.31200000643730164,0.009721661452203989,0.027101900428533554,0.0001950077130459249
94,9.628364880862662e-05,0.30288323378667,0.008140859452244912,0.020885548465192253,9.628365139037758e-05,0.00022306028404273093,0.32500000298023224,0.010289312805980444,0.02925142366439104,0.00022306033497443423
95,8.714585921402474e-05,0.29297570609072776,0.007691833286608594,0.01990029289276495,8.714586266165269e-05,0.00020601840515155345,0.29599999636411667,0.009478362277150154,0.026589402928948402,0.00020601841242751107
96,6.878730795577627e-05,0.28872551879636466,0.007001104946828872,0.017898263726718298,6.878730812753083e-05,0.00018975973216583952,0.30400000512599945,0.009098896756768227,0.025713181123137474,0.00018975975399371237
97,6.073452320373035e-05,0.282508183724506,0.006635129594384047,0.016948005307024387,6.0734524546842626e-05,0.00018889120838139206,0.25599999725818634,0.008845784235745668,0.025180401280522346,0.00018889114289777353
98,5.7735091667099674e-05,0.2787174779822706,0.006471993063346136,0.016490616635599423,5.7735094831395295e-05,0.0001967273638001643,0.27399999648332596,0.009023735765367746,0.02571766171604395,0.00019672732742037624
99,5.582884962465543e-05,0.28265177292875415,0.006425513370133421,0.016338197566621485,5.5828850542351307e-05,0.000187709963938687,0.3100000023841858,0.008803114295005798,0.024956101551651955,0.0001877099130069837
100,5.488523822424616e-05,0.279693873215431,0.00636267258227385,0.016131693229580347,5.488523910474944e-05,0.00019371547386981547,0.29999999701976776,0.008751376066356897,0.024897375144064426,0.00019371551752556115
101,4.7940197192570505e-05,0.2704468444250787,0.005986444103776472,0.015167343320244674,4.794019754318382e-05,0.00017273098637815565,0.3189999908208847,0.008402396459132433,0.02405077312141657,0.00017273094999836758
102,4.865523473890457e-05,0.2748406188713676,0.006033847246515472,0.015222584235685555,4.8655235261272446e-05,0.00018723212997429073,0.284000001847744,0.008560887072235346,0.024568665772676468,0.00018723218818195164
103,5.255492350409713e-05,0.27601803541371756,0.006224514092919679,0.0157509382707081,5.255492755997023e-05,0.00018772258044919,0.2849999964237213,0.008560948073863983,0.02466617524623871,0.00018772262410493568
104,5.233224180771242e-05,0.27478318264552054,0.006270139683496945,0.015786918388390456,5.23322423371845e-05,0.00019245495059294626,0.29099999368190765,0.009057680610567331,0.025783801451325417,0.0001924549724208191
105,5.8408044172986355e-05,0.2829102298895171,0.006571503584102257,0.016607303625360722,5.840804491934557e-05,0.00018207872926723212,0.3270000070333481,0.009103999473154545,0.025696968659758568,0.00018207875109510496
106,7.209178806206101e-05,0.2943397855441661,0.007226435008037449,0.018274958927887636,7.209178944236589e-05,0.00017125892918556929,0.3050000071525574,0.009005690924823284,0.02503423299640417,0.00017125892918556929
107,5.748425576033467e-05,0.28074206119309847,0.006545725358123421,0.016512617182018022,5.748425594713342e-05,0.00016270542255369946,0.296999990940094,0.008161608129739761,0.023433538153767586,0.0001627054371056147
108,4.669394784910558e-05,0.2701740273476729,0.005932360406808611,0.014923717715505137,4.6693949680945234e-05,0.00018760422972263768,0.25599999725818634,0.008823308162391186,0.025135260075330734,0.0001876042442745529
109,5.117624311298418e-05,0.27502728248853026,0.006180014109070915,0.015587008984960682,5.117624534056973e-05,0.00016763980238465592,0.27699999511241913,0.00810881843790412,0.023277184925973415,0.00016763982421252877
110,4.2743157472732364e-05,0.26822124086617805,0.005718668502186378,0.014328359273410437,4.2743159241261034e-05,0.00018256397015647963,0.255000002682209,0.008689457550644875,0.024656332097947598,0.00018256402108818293
111,5.89680980702412e-05,0.28125897541845024,0.0065763726734253125,0.016588903287446284,5.8968096995417064e-05,0.00019889476243406534,0.30799999833106995,0.009146562311798334,0.026036830618977547,0.0001988947915378958
112,6.180653547291392e-05,0.28265177296469973,0.006707483196526125,0.017007552818628684,6.180653732731986e-05,0.00019213697669329122,0.3199999928474426,0.009096287190914154,0.0252527492120862,0.0001921370203490369
113,4.707302246076272e-05,0.2709781172137101,0.0059669169831990405,0.015002150294166027,4.7073024990694804e-05,0.0001686511532170698,0.28199999034404755,0.008259824011474848,0.023662349209189415,0.00016865116776898503
114,4.4428207460684844e-05,0.26970019000178813,0.005831204209161971,0.014600062050448679,4.442820981886236e-05,0.0001761240782798268,0.29500000178813934,0.008092460688203573,0.023210511542856693,0.00017612404190003872
115,4.1231793595100454e-05,0.26625409246648135,0.005624705857784669,0.014103204199294232,4.1231794278148683e-05,0.00017163103620987386,0.289000004529953,0.008240840397775173,0.024167243391275406,0.00017163110169349238
116,4.368715540029319e-05,0.265277698063493,0.005742238128586579,0.0144267332361469,4.3687156392792146e-05,0.0001582026743562892,0.28700000047683716,0.008313922211527824,0.023706480860710144,0.00015820265252841637
117,4.3311137814133877e-05,0.2718827186462477,0.0057803307919673756,0.014410553135732675,4.331113901557998e-05,0.00016887619131011888,0.2800000011920929,0.00830913009122014,0.023667137138545513,0.0001688761985860765
118,4.577693593056473e-05,0.27143759686585633,0.005895300188586077,0.01472852756474947,4.577693704258146e-05,0.0001791154281818308,0.32199999690055847,0.008277636487036943,0.02384214475750923,0.00017911547183757648
119,7.254104524993017e-05,0.2856383899817426,0.007048775437531635,0.017982182610377966,7.254104886534268e-05,0.00020196681725792587,0.3020000085234642,0.009597417432814837,0.02672787941992283,0.00020196674449834973
120,0.00012006769486018488,0.3064729204569013,0.00883661223294434,0.022629707168981782,0.00012006769423334343,0.00020821370708290488,0.3229999989271164,0.010382093489170074,0.028258283622562885,0.0002082137652905658
121,9.175772244040911e-05,0.2992361138004731,0.00800022460815214,0.02023005134936731,9.175772134343658e-05,0.00016763449093559757,0.3240000009536743,0.00859941728413105,0.024317284114658833,0.0001676345636951737
122,5.137132886168222e-05,0.274854977554466,0.006177089184854912,0.015556512451216892,5.1371330070650425e-05,0.00015713604079792276,0.27300000190734863,0.00791372312232852,0.022627191618084908,0.00015713601897004992
123,3.9410445393251696e-05,0.2629515826094466,0.00548492439150473,0.013703792914074212,3.941044505016048e-05,0.000161221825692337,0.29500000178813934,0.007790340576320887,0.022372611798346043,0.0001612218184163794
124,3.566524925520429e-05,0.2640428467048768,0.005232467509806798,0.013063758233447964,3.566525123466511e-05,0.0001635415101191029,0.2980000078678131,0.008261746726930141,0.023650173097848892,0.00016354148829123005
125,3.897369537885733e-05,0.2651197527368423,0.00543395501181841,0.013600115402948866,3.897369678172849e-05,0.00016885390505194664,0.25300000607967377,0.00798307592049241,0.023304680362343788,0.00016885389777598903
126,4.87731643362396e-05,0.27112170588048606,0.005928442822469203,0.014956720070229291,4.877316523533918e-05,0.0001651936545385979,0.27799999713897705,0.008089043665677309,0.023200071416795254,0.00016519366181455553
127,3.598179671582232e-05,0.262204929482765,0.00528579508808929,0.013184107544258888,3.598179742101895e-05,0.00016523512749699876,0.27300000190734863,0.007856962969526649,0.02258969098329544,0.00016523511294508353
128,3.192652331961235e-05,0.25720808773344495,0.005008000975371907,0.012439034316166922,3.192652481588288e-05,0.00017512594786239788,0.3239999860525131,0.008015282917767763,0.02337381150573492,0.00017512591875856742
129,3.450988904497983e-05,0.2591608743963794,0.005150419434958415,0.012838739694719473,3.450989026502223e-05,0.00015754166815895587,0.27800001204013824,0.008004101691767573,0.023027594201266766,0.0001575416317791678
130,3.7620779899806474e-05,0.26559359119190545,0.005386909089002992,0.013396454434541254,3.762078003238344e-05,0.00016444295761175454,0.25600000470876694,0.008024231297895312,0.022684097290039062,0.00016444300126750022
131,4.188116568748645e-05,0.26750330344877227,0.005658305072252429,0.014068011165636182,4.188116698034693e-05,0.00016937578038778156,0.26499999314546585,0.008416824508458376,0.023815852589905262,0.00016937572218012065
132,4.340165930037372e-05,0.2692981453524829,0.0057822776860779745,0.014344211745283799,4.340166087301444e-05,0.0001531663947389461,0.28999999910593033,0.007802384672686458,0.022400825284421444,0.0001531664383946918
133,3.6654182628083593e-05,0.2629228655795981,0.005309160080571529,0.01319401099765248,3.665418332575812e-05,0.00016904976655496284,0.30400000512599945,0.008373891934752464,0.023868742398917675,0.00016904977383092046
134,3.73779575988644e-05,0.2632243993239731,0.0053623842131525126,0.013290706169474054,3.737795884502519e-05,0.00015815977531019598,0.26600000262260437,0.008130651898682117,0.02292486187070608,0.00015815975348232314
135,4.0414829352180935e-05,0.2606829026126963,0.005523700171916946,0.013761960652856746,4.0414830495853155e-05,0.00017494901840109378,0.29200001060962677,0.008635076694190502,0.02448135055601597,0.0001749490766087547
136,6.071093655691832e-05,0.28168973763422034,0.006500613494674504,0.016347787552434285,6.0710939527310985e-05,0.00020536858210107312,0.3569999933242798,0.01059754192829132,0.028050008229911327,0.00020536855299724266
137,7.074319513556969e-05,0.2872034920153041,0.007170584243093479,0.01792556695797563,7.074319764293548e-05,0.00019872093253070489,0.31299999356269836,0.009356875903904438,0.026107306592166424,0.00019872097618645057
138,6.840179952458595e-05,0.2826661298625001,0.006894897846206035,0.017440187962342018,6.840180149453967e-05,0.00017339351325063035,0.25700000673532486,0.008793985471129417,0.024953331798315048,0.0001733935350785032
139,4.175397547290944e-05,0.26644075620431845,0.005639109045970397,0.014103464399888126,4.175397655128567e-05,0.00014403886598302051,0.2750000059604645,0.007567067164927721,0.021919445134699345,0.00014403883687919006
140,2.964946666766223e-05,0.2528861061874273,0.00486458906039243,0.011989700738686165,2.9649467029558693e-05,0.00014737594756297767,0.27300000190734863,0.0075024457182735205,0.0216166777536273,0.00014737592573510483
141,2.794193693250776e-05,0.2541065991650594,0.004718708157301656,0.01161709551738882,2.7941937357924155e-05,0.0001432960998499766,0.289000004529953,0.007372196298092604,0.021400014869868755,0.00014329613622976467
142,2.6000610099378056e-05,0.25287174952584085,0.0046067724866547255,0.011268368506285572,2.600061039973958e-05,0.00015412025095429271,0.31300000846385956,0.007716435939073563,0.02202167920768261,0.00015412022912641987
143,2.4383613043135353e-05,0.25000000058283217,0.004467399103744486,0.010907478931694102,2.4383613160668124e-05,0.00014717477461090311,0.2919999957084656,0.0073542308527976274,0.021619762293994427,0.0001471747673349455
144,2.755652469264474e-05,0.2529148246448295,0.004678465879888299,0.011496354585622487,2.7556525228071805e-05,0.00015564855129923671,0.23800000548362732,0.007678349502384663,0.022542175836861134,0.00015564857312710956
145,3.2075265699702014e-05,0.25646143364735824,0.004978831608284246,0.012315528351169744,3.2075266809733744e-05,0.00015845877351239324,0.26500000059604645,0.007972689345479012,0.0226761968806386,0.00015845874440856278
146,3.250586874776085e-05,0.26319568128593623,0.0050874212773067565,0.012513381323640363,3.250586883917523e-05,0.00016336531552951783,0.2920000031590462,0.007768729235976934,0.0227477066218853,0.00016336536646122113
147,2.9912158912532267e-05,0.25852909174352845,0.004913701109769372,0.012011139717330255,2.991215935278391e-05,0.0001633875144761987,0.2800000011920929,0.007889708736911416,0.022959300316870213,0.00016338754358002916
148,3.1955393318882e-05,0.26183160183078613,0.005069313757164355,0.01240072596356479,3.195539382265358e-05,0.00016039193724282086,0.27299999445676804,0.0077916402369737625,0.021982870064675808,0.0001603919081389904
149,3.358345308222932e-05,0.26198954678086395,0.005171563834950938,0.01269751742237627,3.358345368295237e-05,0.00015028489724500105,0.2919999957084656,0.007782731903716922,0.02229616604745388,0.00015028488996904343
150,3.7555170346951736e-05,0.2667853662085269,0.005438882792222502,0.013379865211892166,3.755517068450586e-05,0.000156516776769422,0.2980000078678131,0.008086874382570386,0.022693230770528316,0.0001565167840453796
151,3.654066663881895e-05,0.26572281974631773,0.005380559845973389,0.013253629363428823,3.654066585171504e-05,0.00015690558939240873,0.3050000071525574,0.0079536905977875,0.022251457907259464,0.00015690564032411203
152,3.310586320278803e-05,0.2603239334777813,0.005068486841488249,0.012496327184558764,3.310586320477303e-05,0.00017779656627681106,0.2679999992251396,0.008615377359092236,0.02421228215098381,0.000177796529897023
153,4.231693136711614e-05,0.2652346229830175,0.00565473002416766,0.01395922559041477,4.231693283925328e-05,0.00018205033848062158,0.31700000166893005,0.008989399764686823,0.024699696339666843,0.00018205028027296066
154,5.4899977838996675e-05,0.2719688709759163,0.006337497504405028,0.01588491834725783,5.489997918963104e-05,0.0001713431702228263,0.32600000500679016,0.008434169460088015,0.02360987663269043,0.00017134320660261437
155,4.3282741136676366e-05,0.2661392225600776,0.005721726996144709,0.014217865761065854,4.3282743410961605e-05,0.00015960382734192535,0.2980000078678131,0.008265277370810509,0.02304568700492382,0.00015960384189384058
156,3.572465375587877e-05,0.26226236296219746,0.005317496439843966,0.01305068307873143,3.5724654578608174e-05,0.0001555808339617215,0.2879999950528145,0.007697009015828371,0.02230291347950697,0.00015558084123767912
157,3.0254042223316608e-05,0.2561311812786908,0.004894433271996349,0.012039681669767752,3.025404214496143e-05,0.00015233053272822872,0.2759999930858612,0.00763085437938571,0.02176880557090044,0.00015233053272822872
158,2.7348357224631443e-05,0.253560968101569,0.004705110754852814,0.011464954813726533,2.7348356713755664e-05,0.00014974604710005224,0.2760000005364418,0.00748932478018105,0.021488317288458347,0.00014974604710005224
159,2.4698553850412408e-05,0.25403480667645073,0.004502584032098585,0.010975956480968732,2.469855310603819e-05,0.00013756529369857162,0.2770000025629997,0.007174065802246332,0.020803019404411316,0.0001375652791466564
160,2.2129158938298135e-05,0.2495118027240471,0.004291615924128198,0.010433049956444134,2.212915973490914e-05,0.00014444859698414803,0.2800000086426735,0.0073151511605829,0.021264645271003246,0.0001444485824322328
161,2.185065164661262e-05,0.24636723950482148,0.0042620898212592,0.010340498169165923,2.1850651590614783e-05,0.00014401871885638684,0.2810000032186508,0.007410757709294558,0.021436162292957306,0.00014401867520064116
162,2.2401634144671034e-05,0.2508615245684758,0.004314577104561756,0.010431583473002826,2.2401634088673198e-05,0.00015041896404,0.2940000146627426,0.007485494948923588,0.02174316719174385,0.00015041890583233908
163,2.1651103160414523e-05,0.2499138476420884,0.004278270251094485,0.010289712137239428,2.1651103080283292e-05,0.0001569662563269958,0.26099999994039536,0.007788674207404256,0.022045506164431572,0.00015696619811933488
164,2.609925695361413e-05,0.25574349514559364,0.00459957107913662,0.011200546178200562,2.609925732679374e-05,0.00016600373055553064,0.28200000524520874,0.008016848238185048,0.023246247321367264,0.00016600380331510678
165,5.445765246860876e-05,0.2756303485719787,0.006288876101713969,0.01574209366320244,5.445765328935316e-05,0.0001733625031192787,0.3010000064969063,0.008758876007050276,0.02463965117931366,0.00017336249584332108
166,5.226211272385103e-05,0.2749411294972915,0.00619772983687444,0.015479748415873615,5.226211388413455e-05,0.0001654739462537691,0.27300000190734863,0.008318527601659298,0.02357293665409088,0.0001654739462537691
167,4.9462621867634564e-05,0.2709494024595602,0.006042874228816053,0.015024625549731458,4.9462621528095444e-05,0.00017614304670132697,0.2919999957084656,0.008917176630347967,0.02512381598353386,0.0001761430612532422
168,5.102413753578144e-05,0.277224168682946,0.006173246325097495,0.015322944369327775,5.1024139244551224e-05,0.00015590379189234227,0.2680000066757202,0.008132155053317547,0.023043363355100155,0.0001559038137202151
169,3.7591862163426474e-05,0.26499052444431936,0.005378969570633723,0.013219445293655733,3.759186275861243e-05,0.0001500361759099178,0.2630000039935112,0.0077312602661550045,0.022180408239364624,0.0001500361759099178
170,2.7421322974148637e-05,0.2525127800905234,0.004690547514354669,0.011453933069255325,2.742132428560542e-05,0.00014918623492121696,0.27299999445676804,0.007616962306201458,0.022023008204996586,0.0001491862567490898
171,2.586166412298817e-05,0.2513210042240454,0.004565509024228237,0.011106732075363286,2.586166554090352e-05,0.00015635140152880922,0.3100000023841858,0.007761312182992697,0.022190510295331478,0.000156351386976894
172,2.375113112456696e-05,0.25211073633814646,0.0043947097406914154,0.010625873781823255,2.375113124209973e-05,0.00014288462261902168,0.2639999985694885,0.0070591638796031475,0.02043922245502472,0.0001428846371709369
173,2.3126535942246978e-05,0.25101947171893757,0.00431187480048777,0.010509516321493656,2.312653699628087e-05,0.0001379182722303085,0.29899999499320984,0.007102426374331117,0.0206025131046772,0.0001379182649543509
174,2.1344755978798273e-05,0.2447159851629876,0.004182100090510121,0.010130122256837603,2.1344756542328734e-05,0.00015033008094178513,0.2810000032186508,0.007306262850761414,0.021116333082318306,0.0001503300663898699
175,2.0152278278229073e-05,0.24731491632251626,0.004129061742086267,0.009934999550343498,2.0152278911600117e-05,0.00014025498239789158,0.2750000059604645,0.007049548206850886,0.020401909947395325,0.0001402549969498068
176,1.8726114637426068e-05,0.24582160684774296,0.003979000156002011,0.009569125483735234,1.872611503949262e-05,0.00014226793427951634,0.27900000661611557,0.007019487209618092,0.020399763248860836,0.00014226794155547395
177,1.907563358587937e-05,0.24244730388931277,0.004021970640797769,0.009657967821810717,1.907563373882868e-05,0.00014135419041849673,0.278999999165535,0.007237685611471534,0.020677129738032818,0.00014135414676275104
178,2.2401520075407793e-05,0.25090460155834715,0.00429531907751597,0.010364992559085807,2.240152070224924e-05,0.000146321406646166,0.29600000381469727,0.00743677862919867,0.021580025553703308,0.00014632139209425077
179,3.0200927690003377e-05,0.2562029767079915,0.004862297444165876,0.011883176609702175,3.0200929613466357e-05,0.00015142219490371644,0.306999996304512,0.007792137796059251,0.022199982777237892,0.00015142225311137736
180,8.431675314027914e-05,0.2931767275342853,0.007307764519057151,0.018276828976064436,8.431675920371645e-05,0.00021162439952604473,0.33299998939037323,0.010682749561965466,0.029194265604019165,0.00021162439952604473
181,8.072575431998366e-05,0.2926598143128427,0.007571183721646757,0.01894590673620187,8.072575686098993e-05,0.00019012956909136847,0.328000009059906,0.009241025894880295,0.025575267150998116,0.00019012962729902938
182,5.4490416065209685e-05,0.27563035000466746,0.0062862941536314864,0.01567886026628475,5.4490417584046506e-05,0.00017288805247517303,0.278999999165535,0.008350664749741554,0.02334974054247141,0.00017288805247517303
183,3.520601536784201e-05,0.2626644078032125,0.005142721173666787,0.012723130408001996,3.5206016533662624e-05,0.00015861852443777025,0.30400000512599945,0.007844096049666405,0.022258983924984932,0.00015861853898968548
184,2.585772366205012e-05,0.2497559024001666,0.00454139071483796,0.01109427667193123,2.5857724371007797e-05,0.0001447641188860871,0.27699999511241913,0.007276695454493165,0.02076539397239685,0.00014476409705821425
185,1.981504743235125e-05,0.24361036149009846,0.004056226985021868,0.009809159701832897,1.981504796401727e-05,0.0001477794867241755,0.30400000512599945,0.007269097259268165,0.02096799574792385,0.00014777947217226028
186,1.9255403763018565e-05,0.24547699765573383,0.004006987045159651,0.009638367380267973,1.92554045278696e-05,0.00013760908404947259,0.2670000046491623,0.006924483459442854,0.019946317188441753,0.00013760912042926066
187,1.7225456188639238e-05,0.24369651391305447,0.0038250604867392786,0.009143593282416403,1.7225456205459486e-05,0.0001458750557503663,0.2590000033378601,0.007037213770672679,0.020442789420485497,0.00014587507030228153
188,2.0586986742850967e-05,0.24678364321550958,0.004114489080953512,0.009948167944833337,2.0586987003042406e-05,0.000144447862112429,0.2620000019669533,0.007126454031094909,0.020887406542897224,0.00014444784756051376
189,1.8284549267994982e-05,0.24457239715692594,0.003919000318699151,0.009436665483691617,1.828454910851607e-05,0.00014028866280568764,0.25999999791383743,0.00688797514885664,0.02008264884352684,0.00014028866280568764
190,1.675856617910861e-05,0.24240422701070163,0.003785593367944118,0.009044656226464203,1.675856655307177e-05,0.00013635295181302354,0.2679999992251396,0.006925920723006129,0.0200412729755044,0.00013635296272695996
191,1.679263948224294e-05,0.24102578897173157,0.0037756548692661047,0.009027505077280023,1.6792640068130748e-05,0.00014021825336385518,0.26000000536441803,0.007000535260885954,0.020419451408088207,0.0001402182606398128
192,2.4759465130511545e-05,0.2504738389505989,0.004447667821730414,0.010838202087537167,2.4759465006449173e-05,0.000143379824294243,0.2590000033378601,0.007272009272128344,0.02086454536765814,0.00014337986067403108
193,2.7147030142170233e-05,0.25381942507773714,0.004624003623749428,0.011247959999028145,2.7147029841808704e-05,0.00014791761350352317,0.2580000087618828,0.007745669689029455,0.021961476653814316,0.00014791765715926886
194,3.619691770089615e-05,0.26543564404315534,0.005321535869269329,0.013001395565635284,3.6196919029382114e-05,0.00015565718786092475,0.28199999034404755,0.007916804170235991,0.02251825202256441,0.0001556571587570943
195,6.113730747941546e-05,0.28357073188557247,0.006572780530668898,0.016100767678035307,6.113730887831662e-05,0.00017761381604941562,0.289000004529953,0.008914086502045393,0.024720567278563976,0.00017761378694558516
196,5.619874526328844e-05,0.28072770062884733,0.006475944497364351,0.015944490833188173,5.619874484184204e-05,0.00017893596668727696,0.28700000047683716,0.008540274575352669,0.023841986432671547,0.00017893595941131935
197,4.1568221828227966e-05,0.26589512462988707,0.0056112060042746575,0.013667537441305904,4.156822238423632e-05,0.00015018416161183268,0.2719999998807907,0.007456995081156492,0.021399740129709244,0.00015018419799162075
198,2.559586567241648e-05,0.2550686343449096,0.004520816520314545,0.011004665175664757,2.559586624148404e-05,0.00014076036313781515,0.30900000035762787,0.007342766970396042,0.020973014645278454,0.0001407602867402602
199,2.1022697543191116e-05,0.24681236061765177,0.004114756140817603,0.009969262020563684,2.1022698117795773e-05,0.00014088293391978368,0.2929999977350235,0.007091974373906851,0.02038691285997629,0.00014088291209191084
