epoch,huber_loss,l0_loss,l1_loss,linf_loss,loss,val_huber_loss,val_l0_loss,val_l1_loss,val_linf_loss,val_loss
0,0.006817483805622481,0.9587042650926683,0.07762624155472185,0.16954942015501695,0.006817484146624228,0.003408574149943888,0.7629999816417694,0.05635432153940201,0.12628143280744553,0.0034085754305124283
1,0.003006799120777351,0.7382689084801858,0.05061473137614071,0.11668482543845514,0.0030067991334278474,0.002026068279519677,0.69200000166893,0.04252265766263008,0.09794510528445244,0.002026068279519677
2,0.001993854399906364,0.658506116021625,0.03977785733004282,0.09501366445820485,0.001993854392979348,0.001450073381420225,0.6340000033378601,0.03444921225309372,0.08338964730501175,0.001450073381420225
3,0.0015552437981027052,0.6152863121171019,0.03394790693043885,0.08388457386097323,0.0015552438588745656,0.0012537164730019867,0.5940000116825104,0.03093923907727003,0.07758810371160507,0.0012537160073406994
4,0.001369532149512252,0.5875883049149042,0.03094905224083625,0.07860366110406707,0.0013695321745859099,0.001179769285954535,0.5789999961853027,0.029557417146861553,0.07515988498926163,0.0011797695187851787
5,0.0012792127968886638,0.5707885828005043,0.029411237452263282,0.07587163712046037,0.001279212827040573,0.0011192401871085167,0.613999992609024,0.028751795180141926,0.07435102015733719,0.0011192403035238385
6,0.0012198062878551437,0.5563293336233508,0.02841109005647349,0.07412710445366848,0.0012198063348364922,0.0010597005602903664,0.56700000166893,0.02744389232248068,0.07145702466368675,0.0010597005602903664
7,0.0011782810882742028,0.5511889056686722,0.027773940294059257,0.0729463330677729,0.0011782811104226007,0.0010186626459471881,0.5740000009536743,0.026622775942087173,0.06983219459652901,0.0010186624713242054
8,0.0011477362968792344,0.5407500996929808,0.027338637407400737,0.0721422872391559,0.0011477363190276323,0.0009851375361904502,0.550000011920929,0.02631615847349167,0.06901610270142555,0.0009851372160483152
9,0.0011143259860726417,0.5350783996155203,0.02674376390744725,0.07105448358879927,0.0011143260136536653,0.0009536116558592767,0.5409999936819077,0.025641401298344135,0.06760150194168091,0.0009536115394439548
10,0.0010900778676878305,0.5324651075151676,0.026427359922151592,0.07033887688896642,0.0010900778718032536,0.0009550359391141683,0.5620000064373016,0.025665313005447388,0.06803024187684059,0.0009550359973218292
11,0.001070542589476052,0.5286600408774681,0.026155055607922334,0.06980101310431762,0.001070542607686214,0.0009449608623981476,0.5259999930858612,0.025832751765847206,0.06661127880215645,0.0009449606295675039
12,0.0010517476184943163,0.5287318334362562,0.02598599456137268,0.06927537628493416,0.0010517476449420106,0.0009328369051218033,0.5120000094175339,0.02521979808807373,0.06639964878559113,0.0009328368469141424
13,0.0010255222662744806,0.5231175696882003,0.025482276068580677,0.06832988842115911,0.0010255222728404359,0.0008957606041803956,0.5509999990463257,0.02508648205548525,0.06494200229644775,0.0008957608661148697
14,0.001007928118504944,0.5208488880447993,0.025348215986495316,0.06785312120388524,0.0010079281186252977,0.0008852389582898468,0.539000004529953,0.02497065719217062,0.06523283571004868,0.0008852390747051686
15,0.0009919480913476812,0.5202888953207171,0.025151111754047405,0.06743783757893354,0.0009919481177953755,0.0008831062295939773,0.527999997138977,0.025088786147534847,0.06488744914531708,0.0008831062004901469
16,0.0009769465887817864,0.5151484687353945,0.02499722921453238,0.0669769188737405,0.000976946607764217,0.0008615063852630556,0.5219999998807907,0.0250401571393013,0.06419583410024643,0.0008615063852630556
17,0.0009543362215243057,0.5098070174799694,0.024640335529541122,0.06621599561080099,0.000954336247972,0.0008459300734102726,0.5109999924898148,0.02413059677928686,0.06314783170819283,0.000845930160721764
18,0.0009323920068625207,0.505700417085913,0.024288591493635103,0.06542049366348533,0.0009323920180253132,0.000819796696305275,0.5150000005960464,0.023753399029374123,0.06217603385448456,0.000819796317955479
19,0.0009201990468195925,0.5005025537860543,0.02420206291403254,0.06506749781963471,0.0009201990819227135,0.000812235870398581,0.5,0.023703331127762794,0.0622246153652668,0.000812235870398581
20,0.0008978967492724713,0.4975159372979252,0.02386565164579292,0.06429642416764891,0.0008978967419275612,0.0008413607720285654,0.5099999904632568,0.024070246145129204,0.06298169866204262,0.0008413605100940913
21,0.0008900800109691424,0.49836310350424556,0.02382992521736303,0.06406304104810272,0.0008900800410575317,0.0007951011357363313,0.510000005364418,0.02358086407184601,0.06111959181725979,0.0007951012230478227
22,0.0008700581312381332,0.49309344622831536,0.023507528190395817,0.06338054536925843,0.0008700581376837348,0.0007738019630778581,0.5200000107288361,0.023490769788622856,0.06065719202160835,0.0007738017302472144
23,0.0008518340082129153,0.49145654790618226,0.023275656977916708,0.06277703071451395,0.0008518340083332687,0.000755683722672984,0.5150000154972076,0.02294206991791725,0.06060430966317654,0.0007556836935691535
24,0.0008372023258057945,0.4916288538869481,0.02310130118467455,0.062274086742653494,0.0008372023367913998,0.0007238555117510259,0.5090000033378601,0.022315779700875282,0.058268385007977486,0.0007238553080242127
25,0.0008195453605332012,0.48724943974558854,0.02288708954599767,0.06168018829202222,0.0008195453655479328,0.0007131519087124616,0.49400000274181366,0.022225355729460716,0.057597288861870766,0.0007131515885703266
26,0.0008071616675586664,0.48579920482152117,0.022663432531228673,0.06112262499960791,0.0008071616791393532,0.0007059997005853802,0.4829999804496765,0.022408640943467617,0.057803014293313026,0.0007059996423777193
27,0.0007910944869710291,0.4847366594154278,0.022549767272682646,0.06054221403749586,0.0007910945205229265,0.0007031208369880915,0.49300001561641693,0.021949945949018,0.057171668857336044,0.0007031207787804306
28,0.0007827228219523562,0.48308540430589875,0.02238999239779013,0.06021378224051346,0.0007827228322225266,0.0007309154898393899,0.4919999837875366,0.02288649044930935,0.058560268953442574,0.0007309156062547117
29,0.0007632448926788572,0.4803285261653661,0.02211987811563451,0.059526298849847024,0.0007632449273072504,0.0006720947567373514,0.48499999940395355,0.021749665960669518,0.05678260140120983,0.0006720948149450123
30,0.0007615027392197658,0.4803285276151718,0.022133149438573016,0.0595666984031232,0.0007615027622039521,0.0006477443675976247,0.44599999487400055,0.02113635279238224,0.05521113984286785,0.0006477444258052856
31,0.0007388330415430908,0.4752886089983666,0.02171185827057634,0.05851569312732845,0.0007388330724672689,0.0006737715739291161,0.4659999907016754,0.0214741388335824,0.056461215019226074,0.0006737716612406075
32,0.0007337064666987637,0.4760209039734312,0.02168441810553427,0.058315533250707235,0.0007337064584612313,0.000635353266261518,0.4649999886751175,0.02078366558998823,0.054771969094872475,0.000635353266261518
33,0.0007199104136589333,0.47382401659880174,0.021506722750652837,0.0578242525031268,0.0007199104137792869,0.000634424010058865,0.5010000169277191,0.021330520510673523,0.05523770675063133,0.0006344242137856781
34,0.0007102324560149123,0.47146918466949606,0.021295684409294052,0.05730490190154632,0.0007102324809682166,0.0006146151572465897,0.4650000035762787,0.020566572435200214,0.054570272564888,0.000614615244558081
35,0.0006987361019827557,0.4690856335339216,0.02115743947118293,0.05688022372736114,0.0006987361179195727,0.0006029148935340345,0.46699999272823334,0.020432960242033005,0.05346229486167431,0.0006029148062225431
36,0.0006887872119919443,0.467994370742803,0.02099892804600792,0.056415447216076796,0.0006887872099593065,0.0006061187305022031,0.47199998795986176,0.020534789189696312,0.05423363484442234,0.0006061187013983727
37,0.0006790519828905898,0.46543851376168655,0.020884878990878483,0.05612260811803267,0.0006790520024747883,0.0006029863434378058,0.5020000040531158,0.02067363355308771,0.05422218702733517,0.0006029862270224839
38,0.0006710774742017008,0.46920050462481827,0.02077509064981986,0.055773159477374684,0.0006710774920574882,0.0006222250522114336,0.4840000122785568,0.02065618894994259,0.05539626441895962,0.0006222250522114336
39,0.0006614100304338605,0.46184883166596025,0.02054940139515681,0.055296219941407286,0.0006614100404633236,0.0005646204517688602,0.48899999260902405,0.020169567316770554,0.05255906283855438,0.000564620568184182
40,0.0006544673912454809,0.4663000402113152,0.0204997731187744,0.05508453496980281,0.0006544674085563343,0.0005837721691932529,0.4660000056028366,0.019971958361566067,0.05278368107974529,0.0005837722565047443
41,0.000645525987214657,0.4638303360151783,0.02034609486375084,0.05466242698510403,0.0006455259932423643,0.0005708319076802582,0.49799999594688416,0.019866978749632835,0.05238152667880058,0.0005708318494725972
42,0.0006312445504112798,0.4568519906620834,0.02003549793804149,0.053983560022082024,0.0006312445786191449,0.0005856140924151987,0.4749999940395355,0.020352736115455627,0.053697824478149414,0.0005856140342075378
43,0.0006246135278779732,0.45643558596717065,0.020030640004155973,0.053786882577685116,0.0006246135604486547,0.0005649318045470864,0.47300000488758087,0.019870501942932606,0.05260818637907505,0.0005649318336509168
44,0.0006130145730998332,0.45408075246310553,0.01981501081517331,0.053196574250999676,0.0006130145816349063,0.0005434853082988411,0.4959999918937683,0.01934732962399721,0.05156043730676174,0.0005434854829218239
45,0.0006105424590154936,0.454281774950797,0.01977103077222684,0.053160602280022895,0.0006105424644163595,0.0005253221897874027,0.4569999873638153,0.019148994237184525,0.05076574720442295,0.0005253221315797418
46,0.0006060497091811124,0.45253000993511183,0.019650616379507473,0.05287796387966802,0.0006060497242253071,0.0005293120921123773,0.4449999928474426,0.019122987985610962,0.05107445828616619,0.0005293120630085468
47,0.0005930972267923545,0.4522571933053143,0.019522721176265977,0.052357909858079574,0.0005930972476870694,0.0005523955042008311,0.4360000044107437,0.01945645734667778,0.051988087594509125,0.000552395562408492
48,0.0005910347350470136,0.45095054780544785,0.019480659828992723,0.052288321979837286,0.0005910347574361185,0.0005319423507899046,0.45000000298023224,0.01926921308040619,0.051696257665753365,0.0005319425836205482
49,0.0005797728481509673,0.4463844679586577,0.01926963341162255,0.05180546282813869,0.0005797728514623618,0.0005067229940323159,0.44099998474121094,0.018680529668927193,0.04990251362323761,0.0005067229067208245
50,0.0005673744898095887,0.4483659747162307,0.01900718390206019,0.051247538876657776,0.0005673745100774621,0.0005142031877767295,0.45100000500679016,0.018929438665509224,0.049994101747870445,0.0005142033187439665
51,0.000562559816313332,0.44160300883335657,0.018912039436564686,0.05100877153049091,0.000562559836970683,0.0005144346505403519,0.453000009059906,0.018863430246710777,0.05011775717139244,0.0005144347960595042
52,0.0005596234639720625,0.44516397671754027,0.018914849676410477,0.05087719254534178,0.0005596234757616964,0.0004800504684681073,0.4270000010728836,0.018002082593739033,0.04863635636866093,0.00048005051212385297
53,0.0005496665040996926,0.44296708949696334,0.018729644722542897,0.05048683536647689,0.0005496665251749378,0.0004889965202892199,0.41099999845027924,0.0181369511410594,0.04887147434055805,0.0004889965493930504
54,0.0005508950839848597,0.44278042622727476,0.018790978491588735,0.050563115907719475,0.0005508951234758708,0.00048220397729892284,0.4480000138282776,0.018347335048019886,0.048566097393631935,0.0004822039190912619
55,0.0005384625447015364,0.43811383566983186,0.018591933671957824,0.04996191281496873,0.0005384625674483589,0.0004692632792284712,0.4580000042915344,0.018048115074634552,0.04798097908496857,0.0004692632792284712
56,0.0005386404891883893,0.43844408800940055,0.018515390758782696,0.0498944109330452,0.0005386404835468163,0.000470949467853643,0.4270000010728836,0.018023415468633175,0.04864128492772579,0.00047094929323066026
57,0.000529428287020036,0.434610303278034,0.018357042416101737,0.04949323168679893,0.0005294282833793408,0.0004707836196757853,0.45100000500679016,0.018088223412632942,0.0480771753937006,0.00047078373609110713
58,0.0005221972611499857,0.4401814942606819,0.018299932565353286,0.04921958328639644,0.0005221972605231443,0.0004686504980782047,0.4309999942779541,0.017973248846828938,0.047863129526376724,0.0004686505562858656
59,0.000520909472334183,0.4371518002143987,0.018267838284373283,0.04912477959295964,0.0005209094939443329,0.000514762185048312,0.4449999928474426,0.018580516800284386,0.0506011787801981,0.0005147622432559729
60,0.0005139936383887944,0.43353339793673745,0.018098825766303745,0.04881968459258964,0.0005139936552566799,0.00045166866038925946,0.45099999010562897,0.017905572429299355,0.04742398299276829,0.00045166866038925946
61,0.0005189605891787818,0.4343949233576374,0.01824711377874045,0.04904118998272628,0.0005189606198940126,0.0004756089183501899,0.4299999922513962,0.018230563029646873,0.0480719693005085,0.00047560903476551175
62,0.0005058719425342341,0.43432312849319604,0.017950862634228022,0.04845178533131713,0.0005058719363544132,0.00046628933341708034,0.4569999873638153,0.017676754854619503,0.047182247042655945,0.0004662894061766565
63,0.0005011402457352016,0.4362184836177602,0.01796986959745397,0.04833533805471129,0.0005011402665095629,0.0004584345006151125,0.42899999022483826,0.017694602720439434,0.047097763046622276,0.00045843448606319726
64,0.0004941986683276384,0.4329159723699733,0.017778408303420368,0.04790571192774245,0.0004941986731651827,0.00047079709474928677,0.44099999964237213,0.017727063968777657,0.04756460152566433,0.00047079708019737154
65,0.0004887577896425369,0.43168112042852497,0.01765459951544594,0.047566264208566036,0.0004887577946572685,0.0004837012820644304,0.4700000137090683,0.01805824600160122,0.048778459429740906,0.0004837012238567695
66,0.0004856716401951484,0.42992935422149997,0.017608335276337202,0.04745473355751515,0.00048567166514845267,0.0004151757020736113,0.44099999964237213,0.016836749389767647,0.04497145861387253,0.00041517567296978086
67,0.00048006220488319023,0.42635402876082884,0.017539851952552366,0.0472468773199315,0.00048006221825580775,0.000419579359004274,0.40700000524520874,0.017055395990610123,0.04590234160423279,0.0004195794172119349
68,0.000473546224766918,0.4297283326529887,0.01739664385570769,0.046913876839208474,0.0004735462229749873,0.00043114043364766985,0.4529999792575836,0.01719610206782818,0.04591173678636551,0.00043114047730341554
69,0.00048313328932473193,0.43133651085651953,0.01760547567997882,0.04737823668069914,0.0004831332955045528,0.00043438284774310887,0.4479999989271164,0.017277519218623638,0.04571915417909622,0.0004343828768469393
70,0.0004774220798065488,0.42823502384235307,0.01750615556919556,0.04714139618407878,0.0004774220928816256,0.00045013106137048453,0.4449999928474426,0.01758483797311783,0.04714495874941349,0.0004501309886109084
71,0.000467182083305806,0.42652633354683156,0.01733926733731402,0.04664507323543206,0.00046718209632070604,0.00042762854718603194,0.4490000009536743,0.01751889195293188,0.046476833522319794,0.0004276285908417776
72,0.00047127614598168444,0.4295273080034263,0.017471655819743286,0.04686136856990956,0.0004712761650844685,0.0004614995850715786,0.43299999833106995,0.017534302547574043,0.04725839011371136,0.00046149965783115476
73,0.00046266526576538324,0.4245017507921704,0.017192838281912124,0.04639532117619293,0.0004626652572587269,0.0004020601772936061,0.4529999941587448,0.01659003086388111,0.044340478256344795,0.00040206026460509747
74,0.0004494796598776625,0.41801160202521526,0.01691384768427697,0.04562405276882896,0.0004494796657281827,0.000434762827353552,0.45900000631809235,0.01739147026091814,0.04617351107299328,0.00043476281280163676
75,0.00045166753970373445,0.41857159211157546,0.01691354337035985,0.045708412693610284,0.0004516675354646147,0.0004213130596326664,0.42900000512599945,0.016923751682043076,0.0452215988188982,0.0004213131178403273
76,0.00044816968009403474,0.4205961750579465,0.016938236255711583,0.04562086088036308,0.00044816970460102797,0.00044346405775286257,0.4130000025033951,0.01723999623209238,0.045976750552654266,0.00044346410140860826
77,0.00044363118502743667,0.4186003106502832,0.016835138891633645,0.045393135398198406,0.0004436311983398774,0.0004070139693794772,0.41499999165534973,0.016500821337103844,0.04459788464009762,0.0004070140130352229
78,0.0004395608144976662,0.417509045409729,0.016682815016275415,0.04508725433525811,0.00043956080658609135,0.0003966965014114976,0.4230000078678131,0.016431753523647785,0.043884724378585815,0.00039669642865192145
79,0.00043715652591818396,0.41673367312299436,0.01674176909326463,0.04510541689984899,0.0004371565216790642,0.0004005374212283641,0.41499999165534973,0.016361668705940247,0.04399741813540459,0.00040053739212453365
80,0.00043259685460633615,0.4187295397524379,0.016619883657148362,0.04481594323368207,0.0004325968754408743,0.00039555619878228754,0.44999998807907104,0.016177978366613388,0.043846314772963524,0.00039555615512654185
81,0.0004311121619676204,0.41825570062810197,0.016611427426668553,0.04478765751931794,0.0004311121734597136,0.0004161325341556221,0.4169999957084656,0.01664059143513441,0.04485634155571461,0.0004161324759479612
82,0.0004269385255211553,0.4133019351454621,0.016489208186590144,0.04450632787607155,0.0004269385311627283,0.00040317291859537363,0.4050000011920929,0.016381443478167057,0.04359441064298153,0.0004031729622511193
83,0.0004258938393981152,0.4191459423556593,0.01656148751459348,0.044479706152237154,0.00042589383871109693,0.0003611536812968552,0.43299999833106995,0.015783097594976425,0.04194238781929016,0.00036115366674494
84,0.00041555100645231883,0.40981276078375084,0.016244268871952506,0.0438824929669264,0.00041555101639318835,0.0003806750464718789,0.44699999690055847,0.016120044514536858,0.04294284246861935,0.0003806750610237941
85,0.0004121496257430425,0.41287117256082173,0.01619815559851607,0.043632519794559024,0.0004121496277723372,0.0003942335752071813,0.45100000500679016,0.016075356863439083,0.04343031719326973,0.0003942334878956899
86,0.00041634709841888303,0.4148526792122696,0.01630411618779937,0.043927485382277566,0.00041634709528467584,0.0003699276421684772,0.4310000091791153,0.015745165292173624,0.04202301986515522,0.00036992758396081626
87,0.0004185465090301341,0.4160731720281465,0.016371110136682267,0.04400395483731107,0.00041854650890978053,0.0003649410209618509,0.4270000010728836,0.015499925706535578,0.04167444631457329,0.00036494106461759657
88,0.00040852503984474705,0.4093389239428161,0.016069568553385837,0.04339292955420983,0.00040852504706930366,0.0003610278945416212,0.4139999896287918,0.015775257721543312,0.042125314474105835,0.0003610278363339603
89,0.00040489337285294836,0.40632358885606995,0.0160002725619407,0.04322709979902499,0.0004048933764334667,0.00038681049773003906,0.4230000078678131,0.01632243674248457,0.04319296404719353,0.00038681054138578475
90,0.00040529481978037726,0.40899431424928034,0.016057317040220478,0.04327741167366583,0.0004052948262577389,0.00036386388819664717,0.4189999997615814,0.015402133110910654,0.04175247438251972,0.0003638638590928167
91,0.0003992088803402112,0.40788869122854704,0.015975641971536933,0.04299861025877169,0.00039920887956459934,0.00036083313170820475,0.4139999896287918,0.015367234591394663,0.04160967282950878,0.0003608331026043743
92,0.000396849518077251,0.40490207319818067,0.01590701926731326,0.04286882023843075,0.00039684952189847643,0.00038434143061749637,0.42499999701976776,0.01630475092679262,0.04356447234749794,0.00038434151792898774
93,0.0003925587401173223,0.4063523068008195,0.015778040742014533,0.04259778513355885,0.0003925587548923931,0.00035069666046183556,0.4580000042915344,0.015671009197831154,0.04167354293167591,0.0003506966168060899
94,0.0003958453354162288,0.4087932919156414,0.015823380020705168,0.04270941846192065,0.00039584534935551097,0.00035011378349736333,0.4320000112056732,0.015126813668757677,0.041045937687158585,0.0003501139144646004
95,0.0003917866574752947,0.40852047468161545,0.015827070345192675,0.042583420085308576,0.0003917866748780849,0.0003468610957497731,0.4050000011920929,0.015321982558816671,0.04100861959159374,0.0003468610520940274
96,0.00038289240009691547,0.4057923143762839,0.015619184220076313,0.04206442764628749,0.0003828924103035658,0.0003583257202990353,0.40700000524520874,0.015708822291344404,0.04184757545590401,0.00035832574940286577
97,0.0003855912979713162,0.4094825118196448,0.01574158211377811,0.042261332095466994,0.0003855913067470965,0.0003591060230974108,0.42400000989437103,0.01554619474336505,0.04188801348209381,0.00035910600854549557
98,0.00038313181478056565,0.4028056980713061,0.015624762140503292,0.042092993464781986,0.00038313182851090066,0.00033791981695685536,0.4169999957084656,0.01550617953762412,0.04062950983643532,0.00033791986061260104
99,0.00037947088773103443,0.40763023404954296,0.015590588088906853,0.0418995873974012,0.00037947089722224975,0.00035433525044936687,0.42399999499320984,0.015477966517210007,0.0414311271160841,0.00035433523589745164
100,0.000377368841155432,0.4052610422500784,0.015511517666291396,0.04165786865078686,0.00037736884787350073,0.0003592389984987676,0.39800000190734863,0.016159451566636562,0.0415554940700531,0.0003592389984987676
101,0.0003696230496044537,0.3996036985201083,0.015330076196094708,0.04126990835014569,0.000369623057395675,0.00034321083512622863,0.4270000010728836,0.015399438794702291,0.04141797311604023,0.00034321079147048295
102,0.00036668630522985736,0.40014933088619864,0.015253492167523239,0.04108941831354962,0.0003666863072307353,0.00035758945159614086,0.4310000091791153,0.015227467752993107,0.041092054918408394,0.0003575894806999713
103,0.0003678533835510811,0.40157084465437665,0.015278426546407238,0.04123275044324047,0.0003678533906251958,0.00033999116567429155,0.3840000033378601,0.015200754627585411,0.040264613926410675,0.00033999116567429155
104,0.0003604844181701474,0.39575555694999487,0.015105214283667515,0.0407420184539647,0.0003604844294532934,0.0003576833987608552,0.42000000178813934,0.015426992438733578,0.041886551305651665,0.0003576833987608552
105,0.0003616197212565733,0.4001206126008218,0.015197839075755613,0.04085696032131179,0.00036161972104762616,0.00037041230825707316,0.421999990940094,0.015976772643625736,0.041863882914185524,0.00037041235191281885
106,0.0003564259084149523,0.39928780623727317,0.015119016345201585,0.04056268635852464,0.0003564259121158242,0.00033043431176338345,0.39100000262260437,0.014902342110872269,0.03994915820658207,0.0003304343990748748
107,0.00035456835304442116,0.39630118827537464,0.015037761657480537,0.04042664312528452,0.00035456836152266064,0.0003396181855350733,0.40799999237060547,0.015097417868673801,0.04051286540925503,0.0003396182437427342
108,0.00035986022394048116,0.40197289014669163,0.015195175576423385,0.04076374274740631,0.00035986023937415335,0.00033141221501864493,0.414000004529953,0.015222417656332254,0.04057026281952858,0.0003314122441224754
109,0.00034894155218340514,0.39723450599317334,0.014913875622367038,0.040103587427580766,0.00034894155860059,0.00033046411408577114,0.39800000190734863,0.014641356654465199,0.03952312283217907,0.0003304640849819407
110,0.00034789057039417927,0.39895755584219006,0.014875317978605874,0.03999561711355858,0.00034789057749838234,0.0003242035600123927,0.40700000524520874,0.014936743304133415,0.03963624686002731,0.00032420363277196884
111,0.000346214609365864,0.3962150367382208,0.014835530491745316,0.03978083041509894,0.0003462146239035708,0.00031841848976910114,0.39100000262260437,0.015150015242397785,0.039614031091332436,0.00031841850432101637
112,0.00034896153582017806,0.4010395724579917,0.014918500382948953,0.0399436924222928,0.00034896154137148595,0.0003274749469710514,0.38199999928474426,0.014736618846654892,0.039697881788015366,0.0003274749615229666
113,0.0003434256997225991,0.3953965886837651,0.014786190950073634,0.03966472080692775,0.00034342570431943634,0.00035712451790459454,0.3999999910593033,0.015065702144056559,0.04090215638279915,0.0003571244888007641
114,0.00034425462524795595,0.39707656156173915,0.014831166789530476,0.039725739905124666,0.00034425463835144955,0.0003369901387486607,0.3959999978542328,0.014723567757755518,0.04031635634601116,0.00033699008054099977
115,0.00033961041122095774,0.3984837170858686,0.014707684110486147,0.03938014826434963,0.00033961041654911005,0.0003255594929214567,0.38599999248981476,0.014577223919332027,0.03935719095170498,0.0003255595074733719
116,0.0003378864827230838,0.3977083453537232,0.01471005108539747,0.039413279193635305,0.00033788648215641914,0.00033996890124399215,0.4130000025033951,0.014831101056188345,0.04016214981675148,0.0003399690322112292
117,0.00033630578057284915,0.3954683819186728,0.014666983844913179,0.039251167988949696,0.00033630579525932634,0.0003132202400593087,0.4179999977350235,0.014760707039386034,0.0393195953220129,0.0003132202400593087
118,0.0003394599103783343,0.3973493763531763,0.0147424446628885,0.03940115725177289,0.00033945990814009244,0.0003280891396570951,0.3920000046491623,0.014910043682903051,0.03900784254074097,0.0003280892124166712
119,0.0003342968274523869,0.39607144858409754,0.014608301918235388,0.039046770864740864,0.0003342968297508056,0.00032274295517709106,0.39899998903274536,0.014463909901678562,0.03903260827064514,0.0003227430715924129
120,0.0003265828675343851,0.39566940435843684,0.014416423726271247,0.03862356988123787,0.00032658286072939435,0.00030918579432182014,0.4099999964237213,0.014466225635260344,0.03870244510471821,0.0003091857797699049
121,0.000324750060652302,0.3920940775985892,0.014407085181185511,0.038531663610587255,0.0003247500694439622,0.00031799580028746277,0.4169999957084656,0.014644613023847342,0.03904815390706062,0.0003179957566317171
122,0.0003255610617192159,0.39607144841121633,0.014478307500912524,0.03863780971257692,0.0003255610760162156,0.00033415286452509463,0.39400000870227814,0.014561526477336884,0.03951401263475418,0.00033415286452509463
123,0.00032519523630898347,0.39315662482079095,0.014447040856526438,0.038606988721956205,0.0003251952480702006,0.00030728716228622943,0.42099998891353607,0.014076896477490664,0.03787945583462715,0.000307287133182399
124,0.00031831565477664816,0.3917494690193669,0.014272214137999811,0.03813035500897907,0.00031831566668663564,0.0003168721596011892,0.403999999165535,0.014599824789911509,0.039358846843242645,0.0003168721159454435
125,0.00031916342190888377,0.38818850111635456,0.014309072027449448,0.03820245965663114,0.00031916343183387337,0.00031211516761686653,0.41099999845027924,0.014568878803402185,0.03876422718167305,0.0003121152112726122
126,0.0003215408457146607,0.38669519296643323,0.014351990336397034,0.03829312057028783,0.0003215408611767497,0.0003172938886564225,0.40299999713897705,0.014463829342275858,0.03902227245271206,0.00031729396141599864
127,0.00031916660319692255,0.39248176472190194,0.014350513105169063,0.03822612797134393,0.0003191666118080525,0.00029797090974170715,0.414000004529953,0.014327279757708311,0.037680068984627724,0.00029797095339745283
128,0.00031633473882314934,0.3895525802753814,0.014229834493598199,0.03803406718500649,0.00031633474683919773,0.00029843808442819864,0.4230000078678131,0.014273616019636393,0.0377045925706625,0.00029843808442819864
129,0.0003134151189260916,0.38943771099545804,0.014164430609757184,0.03783783416232895,0.000313415119822057,0.00030706120014656335,0.3889999985694885,0.014309239573776722,0.03826341591775417,0.0003070613165618852
130,0.0003119800615103918,0.38703980381878655,0.01414117395497414,0.03774206705075171,0.0003119800665853001,0.0003110370016656816,0.3840000033378601,0.014329747762531042,0.038550037890672684,0.0003110370453214273
131,0.00030730896098002055,0.3862357129488402,0.01400721369156198,0.037381795503981775,0.00030730896265159776,0.00030965010228101164,0.4139999896287918,0.01426487136632204,0.03822997398674488,0.0003096501750405878
132,0.00031108355539966753,0.38962437556774654,0.01415631260513621,0.03764851307249838,0.0003110835644888685,0.0002965425228467211,0.42499998211860657,0.013960111886262894,0.03737681359052658,0.0002965425228467211
133,0.00030353806861407753,0.38530239492978313,0.013989154309980914,0.03723862253775219,0.0003035380724495114,0.0003035013214685023,0.4049999862909317,0.014410252217203379,0.03778400085866451,0.00030350136512424797
134,0.00030079768972510965,0.38425420733467947,0.013876941813072885,0.03695233614617716,0.0003007976953065059,0.00028589639987330884,0.39000000059604645,0.013740385882556438,0.03711697645485401,0.00028589641442522407
135,0.00030232118732790263,0.38563264544981996,0.013956354562233594,0.03714389972233408,0.00030232119384956106,0.0003055077395401895,0.4050000011920929,0.01393786771222949,0.03773854486644268,0.0003055077977478504
136,0.000301935851926473,0.387441846664821,0.013939500526079451,0.03702089222406206,0.00030193585507656026,0.0002857870713341981,0.3930000066757202,0.013947316911071539,0.03689846582710743,0.0002857870131265372
137,0.0003013884114163792,0.38612084406431835,0.013925572692456565,0.03695208874911568,0.0003013884206702305,0.0002934942313004285,0.4130000025033951,0.014097596984356642,0.03718934394419193,0.00029349420219659805
138,0.00029976071941850555,0.38359370441687635,0.013823657666965972,0.036835747163473834,0.00029976071104473957,0.0003022432647412643,0.392999991774559,0.013953759800642729,0.03718634694814682,0.00030224320653360337
139,0.0002939754475320217,0.38356498666726,0.013744968453974318,0.03654226720830347,0.0002939754539492066,0.00028346155886538327,0.4060000032186508,0.013563711661845446,0.03608512878417969,0.0002834615879692137
140,0.0002962226020151444,0.3858911034213388,0.013822337588118074,0.03663566437410867,0.0002962226022842683,0.00030918522679712623,0.41200000047683716,0.01478485856205225,0.03871058486402035,0.00030918522679712623
141,0.0002981701749498978,0.38228705911214317,0.013856375177501759,0.036765105398445096,0.0002981701863500542,0.0002909359900513664,0.4099999964237213,0.014118879567831755,0.037405604496598244,0.00029093597549945116
142,0.00029247592149450824,0.38538854839259384,0.013770768696791112,0.03644712840284857,0.0002924759329423046,0.00028656929498538375,0.4060000032186508,0.013729311991482973,0.036415811628103256,0.0002865693240892142
143,0.0002885423061055127,0.37935787719037284,0.013618273056098269,0.036064425717955186,0.000288542306523407,0.0002976055984618142,0.39100000262260437,0.01397536788135767,0.037150708958506584,0.0002976056421175599
144,0.00029342533979652977,0.38492906734969545,0.013797045508885834,0.03656522610544282,0.0002934253406005584,0.0002822790847858414,0.403999999165535,0.01371804904192686,0.03646050579845905,0.00028227915754541755
145,0.0002868613911876937,0.3808511868739729,0.013631806939255774,0.036090124711924076,0.0002868614041867137,0.0002947899483842775,0.3760000020265579,0.01376653928309679,0.0371253564953804,0.0002947899483842775
146,0.00028487473576526014,0.38271782217605815,0.013578888050309771,0.035970738901896365,0.0002848747302724575,0.00026458506181370467,0.3889999985694885,0.01354449288919568,0.03540393337607384,0.0002645851200213656
147,0.000282350185634207,0.3835219110125109,0.013523759348674762,0.03567814781305867,0.0002823502017991942,0.0002833712787833065,0.35899999737739563,0.013570806477218866,0.03635372221469879,0.0002833712351275608
148,0.00027834356329068966,0.37894147374842085,0.013442291260509356,0.035531953948353456,0.0002783435742303266,0.0002841097448254004,0.3760000020265579,0.01355055347084999,0.035920631140470505,0.0002841098030330613
149,0.00028542577845399236,0.3850295791489863,0.013593771968850588,0.03602879640885542,0.0002854257836333743,0.00029592546343337744,0.375,0.013644694350659847,0.03631986305117607,0.0002959254779852927
150,0.00028481445246850346,0.38347883501199925,0.013571099990901917,0.03588883793744815,0.00028481445967718004,0.0002770210994640365,0.39399999380111694,0.013478003907948732,0.035862796008586884,0.0002770210412563756
151,0.00027244215881545224,0.3775773923659022,0.01324354429512593,0.035077757031400744,0.00027244216205413304,0.00026996499218512326,0.3629999905824661,0.013339352328330278,0.03560264594852924,0.00026996497763320804
152,0.00027748809898929744,0.3781373840304452,0.01334715741089302,0.035366006953291194,0.00027748810304788684,0.0002866789436666295,0.3880000114440918,0.013660754542797804,0.03594568930566311,0.00028667892911471426
153,0.00027037710678052076,0.3787404513497375,0.013170009286895872,0.034840301114405316,0.00027037711085499015,0.0002685596846276894,0.3709999918937683,0.013411009684205055,0.0353308841586113,0.00026855965552385896
154,0.00026815700353219584,0.3772758598898932,0.013132429181582455,0.03476083723054831,0.00026815701209902896,0.0002829571021720767,0.41599999368190765,0.013982778880745173,0.03635299578309059,0.00028295707306824625
155,0.0002752157725069299,0.37891275633429683,0.01336724920294925,0.03523429265757913,0.0002752157805656035,0.0002827412827173248,0.3760000020265579,0.013607716653496027,0.03599281422793865,0.00028274137002881616
156,0.00027059366290184774,0.3775199589463791,0.013214897475638154,0.034866097029361665,0.00027059366797675606,0.0002763629308901727,0.4009999930858612,0.01345764845609665,0.0354953370988369,0.0002763629163382575
157,0.00027138765507075626,0.3795445423326558,0.01326817595325297,0.03500475378375517,0.0002713876576224188,0.0002805014082696289,0.37300001084804535,0.013479391112923622,0.03587616793811321,0.0002805014228215441
158,0.00026688948922347713,0.37863993942891633,0.013135559893425623,0.0347010898246294,0.0002668894847612018,0.0002758607151918113,0.3789999932050705,0.013318182434886694,0.03572109341621399,0.00027586068608798087
159,0.0002632448033566658,0.3782522534866732,0.01308596124739374,0.034485136247825995,0.0002632448119234989,0.00027016334934160113,0.375,0.013059059157967567,0.0346646960824728,0.00027016336389351636
160,0.0002650189828815777,0.37413129683755786,0.013080000317281659,0.034527110118817116,0.0002650189929712177,0.0002919862454291433,0.3569999933242798,0.013828836381435394,0.036052726209163666,0.00029198625998105854
161,0.0002621862240159259,0.37739072955665964,0.013096137952895456,0.03437959871076578,0.00026218622295531017,0.00027186059742234647,0.42499999701976776,0.013654816430062056,0.035794101655483246,0.00027186064107809216
162,0.00026514156535706454,0.376242030573072,0.013085019529374188,0.03451877483280422,0.00026514157186284293,0.0002676775475265458,0.39499999582767487,0.013068285770714283,0.03456266410648823,0.00026767751842271537
163,0.0002598544167601749,0.37571075818497723,0.01294588242702896,0.034178484709331415,0.00025985442174648963,0.00027017715910915285,0.41599999368190765,0.013698581606149673,0.035678667947649956,0.000270177042693831
164,0.00026703799819800507,0.3799753033870408,0.013220881149737643,0.03475554135199747,0.0002670380079140475,0.0002763794764177874,0.4050000011920929,0.013789441902190447,0.03594953566789627,0.00027637952007353306
165,0.000262556773946019,0.3769456095033686,0.013019553152723956,0.03430967023880202,0.0002625567818417138,0.0002732935972744599,0.40700000524520874,0.013402342796325684,0.03455512039363384,0.0002732936409302056
166,0.0002572834723619282,0.3726810636628428,0.01291622097885497,0.033974228108759746,0.0002572834814068324,0.00026321147743146867,0.3739999979734421,0.013194432947784662,0.03472033701837063,0.00026321147743146867
167,0.0002614590465549983,0.37664407410891954,0.013016707667632996,0.03429687935004187,0.00026145905661454987,0.0002708793617784977,0.3789999932050705,0.013343748170882463,0.03534278646111488,0.00027087934722658247
168,0.00025671092899152943,0.37657228181202074,0.012912532356808655,0.03399297161323377,0.0002567109348863464,0.0002561987203080207,0.3710000067949295,0.012931372504681349,0.033924104645848274,0.00025619873485993594
169,0.0002578560871805508,0.37315490265366646,0.012928493944159392,0.03405424157339087,0.00025785609309124776,0.0002720836491789669,0.4169999957084656,0.013384368270635605,0.034890832379460335,0.000272083721938543
170,0.00025111602141877876,0.3722503020846791,0.012766575404390907,0.03358163429596085,0.0002511160240749149,0.000252934405580163,0.3790000081062317,0.012858485337346792,0.033693840727210045,0.00025293433282058686
171,0.000248496436726946,0.3704267408985292,0.012702652036039236,0.03339779792422728,0.00024849644042781793,0.00025711719354148954,0.39800000190734863,0.013046502135694027,0.03441164828836918,0.0002571171644376591
172,0.00025159102545188584,0.3691488139442173,0.012752624447212238,0.03362540166079827,0.00025159102797346004,0.00027432263595983386,0.3920000046491623,0.013288330286741257,0.03455481491982937,0.0002743226650636643
173,0.00025285047491132917,0.3754522999327404,0.012820322531377671,0.03372900391372069,0.00025285047234378664,0.00026452646125108004,0.3830000013113022,0.01326463045552373,0.03464660234749317,0.0002645264903549105
174,0.000248474635447225,0.37107288417040557,0.012636098403482132,0.03327250070401346,0.000248474640357483,0.00026096293004229665,0.37199999392032623,0.01278712134808302,0.03374890983104706,0.00026096287183463573
175,0.00025046371435068557,0.3720636385976053,0.012751881349578274,0.033473597486758516,0.00025046373273803467,0.00026171009812969714,0.38199999928474426,0.01298951031640172,0.03400738164782524,0.00026171005447395146
176,0.0002464597423638452,0.3743323177059859,0.012650934380012345,0.03330153152939285,0.0002464597459159467,0.0002694614086067304,0.39900000393390656,0.01367625966668129,0.03554927557706833,0.0002694614086067304
177,0.0002492460273601261,0.37436103647748414,0.01273610866093415,0.033407873261115925,0.0002492460400173086,0.0002637579891597852,0.40700000524520874,0.013143389020115137,0.0344379972666502,0.0002637579455040395
178,0.0002444209173006411,0.36777037419611974,0.012582797742780977,0.033037749922369346,0.0002444209299118552,0.00025566419935785234,0.38199999928474426,0.013200275599956512,0.03401362895965576,0.000255664243013598
179,0.000248367319677611,0.3725518350142873,0.012696561132161914,0.03334854543936546,0.0002483673302896188,0.00026199372950941324,0.375,0.013120954390615225,0.034118788316845894,0.00026199364219792187
180,0.0002478052956920756,0.37167595132024,0.01273293386684572,0.03337330315768099,0.00024780530448373584,0.00025421650207135826,0.4000000059604645,0.012959455605596304,0.034073010087013245,0.0002542165602790192
181,0.00024413556109982245,0.3752369198172105,0.012616920112420126,0.033099135843660685,0.00024413556202420463,0.00025854930572677404,0.37299999594688416,0.012780701741576195,0.03374219872057438,0.00025854942214209586
182,0.00024110648107459026,0.3712882673259058,0.012523057513731919,0.03284702341151802,0.0002411064853880952,0.0002525314630474895,0.35600000619888306,0.012504181358963251,0.033204165287315845,0.0002525314048398286
183,0.00023953938424548015,0.3681293425616278,0.012422976155623766,0.03259730991505651,0.0002395393978270448,0.0002557936677476391,0.3879999965429306,0.012994511052966118,0.033661384135484695,0.0002557936968514696
184,0.00024018346220342222,0.37138877622558525,0.01252472291170291,0.032780154596261685,0.00024018346585999732,0.00026382290525361896,0.3709999918937683,0.01300060236826539,0.03391155228018761,0.00026382294890936464
185,0.00024102420967679527,0.36999597971919046,0.01252081160562021,0.03277564000005177,0.00024102421242319657,0.00026084849378094077,0.38600000739097595,0.012915479484945536,0.0333344005048275,0.0002608484646771103
186,0.0002415786986344898,0.37105852663499883,0.012489459069607163,0.03281182132727243,0.00024157870594764002,0.0002653003903105855,0.39899998903274536,0.013557388912886381,0.035009175539016724,0.00026530041941441596
187,0.00023918597418731585,0.37114468110086285,0.01246497674483724,0.03264007228542977,0.00023918598196265715,0.0002568550989963114,0.37700000405311584,0.012849182356148958,0.033431898802518845,0.00025685506989248097
188,0.0002398834834732684,0.3755958871711068,0.012558209986582823,0.032818102132481736,0.00023988348430905698,0.0002474051289027557,0.3790000081062317,0.012716982048004866,0.03314438462257385,0.0002474051289027557
189,0.000236631109930371,0.37249440115999366,0.012385808468039583,0.032444753163908664,0.00023663111876632802,0.00024954848049674183,0.3779999911785126,0.012590920086950064,0.03312736377120018,0.00024954849504865706
190,0.00023434372374857838,0.3678134527350751,0.012340127895972126,0.03230430627465642,0.00023434373607646018,0.00026961830735672265,0.36400000751018524,0.013204017654061317,0.03444606810808182,0.00026961826370097697
191,0.00023820297611772828,0.3713887788188032,0.01247445720752179,0.03263873687541079,0.00023820298231175756,0.0002697528398130089,0.4060000032186508,0.013032706920057535,0.03381217084825039,0.0002697529416764155
192,0.00023500737585535755,0.3666216762224322,0.012368111194047057,0.03236229725829933,0.0002350073841246499,0.000257328589214012,0.3799999952316284,0.01326508354395628,0.03379298001527786,0.0002573286765255034
193,0.00023592128733879462,0.3653293904934463,0.012378157139955038,0.03236964494601875,0.00023592129548773342,0.00026055566559080034,0.3659999966621399,0.012921244371682405,0.03378446772694588,0.0002605556364869699
194,0.00023080169301502174,0.36468324458042445,0.012269164735058614,0.03201973533829013,0.00023080169819440365,0.0002491409395588562,0.38099999725818634,0.01264878548681736,0.032397614791989326,0.00024914085952332243
195,0.00023228350424497505,0.3632186554964129,0.012298318286030589,0.03215973207025387,0.00023228350052822316,0.0002527091419324279,0.37700000405311584,0.012820594944059849,0.03342597559094429,0.00025270912738051265
196,0.00023379658221343763,0.36789960379295433,0.012383141422503149,0.03229215133634169,0.00023379658469071502,0.0002598256105557084,0.392999991774559,0.012453021947294474,0.0327776875346899,0.00025982558145187795
197,0.00023084689314424538,0.3673826897550332,0.01230129075669517,0.032076625108169415,0.00023084690129318417,0.00024637134629301727,0.3760000020265579,0.012647450901567936,0.032783618196845055,0.00024637133174110204
198,0.00022924907558477832,0.3665498836003113,0.01227309815458306,0.03196151014683792,0.0002292490801816156,0.00025327386538265273,0.36900000274181366,0.012819963041692972,0.03344748169183731,0.0002532738581066951
199,0.0002311536557807012,0.36784216977262624,0.012246955759546456,0.031977461284557876,0.00023115365181070537,0.00025131794973276556,0.3710000067949295,0.012303762137889862,0.032072161324322224,0.0002513179206289351
