epoch,huber_loss,l0_loss,l1_loss,linf_loss,loss,val_huber_loss,val_l0_loss,val_l1_loss,val_linf_loss,val_loss
0,0.0017081300110000847,0.6054505762576126,0.033792785280653985,0.08546688286749672,0.0017081300050659856,0.0009814479504711925,0.5699999958276749,0.026556888408958913,0.07012139782309532,0.0009814480144996196
1,0.0009930310581446127,0.5123341544143747,0.025326054778293885,0.06787398324870794,0.0009930310631810749,0.0007048364204820246,0.49000000655651094,0.021988416276872157,0.05831420905888081,0.0007048363768262789
2,0.0008352917494894825,0.48152030049730954,0.022861968773098318,0.06187449400770274,0.0008352917430956997,0.000753760791849345,0.48700000047683717,0.021783548034727575,0.058380935713648795,0.0007537608325947076
3,0.0007217515166797414,0.45824478544480124,0.0211420717342287,0.05734794430405177,0.0007217515193910396,0.0006148002430563793,0.4519999951124191,0.020843194983899593,0.05469101183116436,0.0006148002605186776
4,0.0006379203092663018,0.44239273842270743,0.019701513494558287,0.053801966287303944,0.0006379203177913456,0.00047022349026519804,0.423999996483326,0.01780697386711836,0.047377852723002434,0.0004702234989963472
5,0.0005752655663867346,0.42510481786669024,0.018642252488217444,0.05095284227582425,0.0005752655711557444,0.0004586233873851597,0.42100000083446504,0.01733286725357175,0.047731047868728636,0.0004586233670124784
6,0.0005206218143832747,0.40717075291678057,0.01754226067597323,0.04813448284177591,0.0005206218142888305,0.00046621416695415976,0.4179999977350235,0.01749525312334299,0.04696924090385437,0.0004662141465814784
7,0.0004938778967568802,0.40124059443303056,0.01712281578183251,0.04678321591848604,0.000493877898078262,0.00036679523036582397,0.39100000262260437,0.015404376480728389,0.041664150357246396,0.0003667952405521646
8,0.0004321095108533425,0.3925966334994428,0.015930611712480544,0.04373959651005363,0.0004321095067136816,0.00039162906614365056,0.3690000012516975,0.015764465276151895,0.043436501175165176,0.0003916290486813523
9,0.00041507108740641456,0.38923668910857145,0.015725426779612004,0.04285149784983026,0.00041507108856063857,0.0004064352804562077,0.388000001013279,0.015620825346559286,0.04216857850551605,0.0004064352688146755
10,0.0003999481779376309,0.3847998386087084,0.015343301533917966,0.0418089389724855,0.0003999481789196825,0.00033117044222308323,0.3649999961256981,0.015480269119143486,0.0413900688290596,0.0003311704465886578
11,0.00036192825668588963,0.3719774852588924,0.014600573251115143,0.03989837960437489,0.000361928258578115,0.0003269065884524025,0.39000000059604645,0.013839144818484783,0.0378267178311944,0.00032690661319065837
12,0.0003402851306263506,0.3670380793083516,0.014166518026194432,0.03872084581123547,0.00034028513162929694,0.00029875715263187884,0.4180000007152557,0.013802260346710681,0.037607861682772636,0.0002987571628182195
13,0.0003232718206626006,0.36188329202783326,0.01381837089447228,0.037679837459793426,0.0003232718199103909,0.0002986996012623422,0.3590000048279762,0.013600076176226139,0.0364588737487793,0.0002986996085382998
14,0.0003122704300967221,0.3599735796237607,0.013590707427928339,0.036940135233659244,0.0003122704299805475,0.00029066238494124264,0.3379999980330467,0.013226925767958165,0.03511077463626862,0.0002906624009483494
15,0.0002971480593872963,0.3545890533520485,0.013223566397813592,0.03596545061524794,0.00029714806160213605,0.0002786169876344502,0.3729999974370003,0.013574807811528445,0.03641712926328182,0.00027861698326887564
16,0.0002800339856757033,0.3535408657886112,0.012931127577194631,0.03507785405369915,0.00028003398751694556,0.00027404605207266287,0.3640000015497208,0.012445405591279268,0.034135984070599076,0.0002740460506174713
17,0.00026945702211947755,0.3430015514344516,0.01265560326349228,0.03426967424448436,0.00026945702388508094,0.00025059141771635043,0.34799999594688413,0.011810979805886745,0.0323456147685647,0.0002505914279026911
18,0.00025707638121630366,0.34202515772469977,0.012368327225313206,0.033411197209849815,0.0002570763833692951,0.00026863501698244364,0.3730000019073486,0.012926958501338959,0.034964289888739584,0.00026863500970648603
19,0.00026227145011403893,0.3434466724548504,0.01246465976972585,0.03371911277254954,0.0002622714499364339,0.00028723410941893234,0.34499999806284903,0.012836773041635751,0.03570876754820347,0.0002872340992325917
20,0.00023112436529399542,0.332605824843293,0.011807559907070924,0.03179325843057116,0.00023112436594925368,0.0002449900006467942,0.3370000019669533,0.012008167058229446,0.032911382243037225,0.0002449899933708366
21,0.00022342908320633609,0.3325483901588272,0.01158639785043763,0.031141064092379964,0.00022342908406803414,0.00024165572831407188,0.3639999940991402,0.011782405339181424,0.03257237430661917,0.00024165572394849733
22,0.00023648925476371023,0.3390385391945185,0.011992302062086721,0.03201697468903123,0.0002364892540478573,0.0002686912899662275,0.3530000001192093,0.012449004221707582,0.03405036777257919,0.0002686912899662275
23,0.00020575550889873184,0.3263741321786857,0.011173857902753572,0.029960798877281487,0.00020575550971237204,0.00028938347240909935,0.36300000101327895,0.0125065416097641,0.03372357171028852,0.0002893834898713976
24,0.00020401241867984302,0.3311125149551453,0.011179631597712661,0.029824154527017994,0.00020401242032801813,0.00026857113261939957,0.30600000321865084,0.011973601300269365,0.03379735611379146,0.00026857111224671827
25,0.00020433245777759542,0.3290592157954043,0.011116327636755232,0.029703154871957564,0.00020433245880018276,0.0002293919664225541,0.29900000244379044,0.011375873163342477,0.03063077200204134,0.00022939199116081
26,0.00018415868142823328,0.3229711116195567,0.010682132849046672,0.02841617148520394,0.00018415868253565315,0.0002024649475060869,0.3290000021457672,0.011190683674067258,0.029931168630719186,0.00020246495623723603
27,0.00018178934165851262,0.32567055409311063,0.010651160348434628,0.02820397244675314,0.00018178934207181008,0.00026703471085056665,0.39300000071525576,0.012561902310699225,0.033328627794981004,0.0002670347137609497
28,0.00018430437181354113,0.32762334210742833,0.010730014277679766,0.028349604047023958,0.000184304371750857,0.00023601457942277194,0.3250000044703484,0.011549732368439435,0.031416249088943006,0.00023601457360200584
29,0.00017512031678228922,0.32045833186623723,0.010434375796750566,0.02759935760376431,0.0001751203165211053,0.00023050024028634653,0.33499999940395353,0.011315158754587173,0.03126813229173422,0.00023050023010000585
30,0.00018245725964490718,0.3288007590494591,0.010705571751477789,0.028158439897900713,0.00018245726062445143,0.00021801170660182834,0.31200000196695327,0.010590994264930487,0.029082874208688735,0.0002180117146053817
31,0.00015352741483196284,0.3164235264110809,0.009855710053094852,0.025996979671023282,0.00015352741484826073,0.00020328057144070044,0.375,0.01072433702647686,0.029016880504786968,0.00020328058308223264
32,0.00015854255293190817,0.3186347723241704,0.010041244250514312,0.026378326706494554,0.00015854255446244602,0.00023462399694835768,0.3570000007748604,0.011440338753163814,0.030278218537569047,0.00023462401004508137
33,0.0001588339504124453,0.31712710457710563,0.009994309630160883,0.026342665238603225,0.00015883395124948756,0.0002465924815624021,0.3370000034570694,0.011623951140791178,0.03075569774955511,0.0002465924932039343
34,0.00015188846179006754,0.3168255711348448,0.009821583482447908,0.02573157405898717,0.00015188846206295252,0.00026988570753019305,0.3419999971985817,0.01240708101540804,0.03338981457054615,0.00026988568861270324
35,0.00015767115747291908,0.3181034987841049,0.009977930018664507,0.026023040116252647,0.00015767115745327805,0.0002971881694975309,0.3110000014305115,0.012738646846264601,0.03439177516847849,0.00029718815931119026
36,0.00014874289621733433,0.3132646044030598,0.00976928852164323,0.025445132878401513,0.00014874289717911807,0.0002102972095599398,0.28299999982118607,0.010709609277546406,0.028824558667838573,0.00021029722702223808
37,0.00016014643906293448,0.3198121879327907,0.010107437910287537,0.026290072808361507,0.0001601464399614072,0.000220031407661736,0.3070000022649765,0.01102796895429492,0.029854273051023485,0.00022003140911692755
38,0.00014496254748953512,0.316581472499008,0.009623955983220743,0.02507870906562659,0.0001449625476892886,0.00018930354999611155,0.2819999992847443,0.009849310852587223,0.02704696524888277,0.00018930355872726068
39,0.00013261013372660959,0.3068606064659006,0.00921057235474372,0.023941425311020052,0.00013261013454150347,0.00020264269260223956,0.32799999713897704,0.01077281879261136,0.02884222976863384,0.00020264267805032433
40,0.00014067705884405758,0.3123169266246762,0.009533345117601441,0.02468437189249656,0.00014067705980521446,0.00021664560117642395,0.33600000143051145,0.01100860321894288,0.029542186111211777,0.0002166455931728706
41,0.00012065920834100361,0.30151915517624145,0.008878339259002605,0.022965163158404855,0.00012065920791391564,0.00021259011118672787,0.2740000024437904,0.010344719048589468,0.02825215570628643,0.00021259010463836603
42,0.0001226228094257845,0.310837977136457,0.008975721111337225,0.023059494070223913,0.000122622809629508,0.00020842153244302609,0.3299999967217445,0.010836193524301051,0.028838779032230377,0.00020842151934630238
43,0.00014470448310170917,0.3185916960095628,0.009658288566208317,0.02489961623027771,0.00014470448448076036,0.0001965498631761875,0.3289999976754189,0.010432412382215261,0.02799850217998028,0.00019654987190733663
44,0.00011907208756775296,0.3069467585379591,0.008853261224855125,0.022839288051864862,0.00011907208794135046,0.00019660053003462964,0.2749999985098839,0.009970352798700333,0.027453382685780525,0.0001966005591384601
45,0.00011520934086803549,0.30730572728004,0.00877268013903997,0.022561589207359647,0.0001152093418749518,0.0002217952933278866,0.34899999797344206,0.010969946347177028,0.0294999897480011,0.00022179528677952477
46,0.00011924001665465307,0.3070185525722283,0.00890527227841051,0.02275205732361582,0.00011924001745784591,0.00016445882138214075,0.2609999984502792,0.009280154248699546,0.02503014635294676,0.00016445882865809836
47,0.0001223411351913267,0.30444833829876583,0.008954176597386414,0.022942591693863614,0.00012234113468985355,0.00020386126197990961,0.34300000220537186,0.010522354766726494,0.028285999223589896,0.00020386126125231384
48,0.000118551446031191,0.3060708761747547,0.008866901508420722,0.022687133815220625,0.0001185514465913783,0.00021552612815867178,0.286999998986721,0.010633289907127618,0.029026296734809876,0.00021552612524828875
49,0.0001243144780775295,0.3066021490301422,0.009055610633574554,0.02319144344820748,0.00012431447773548305,0.00019185149285476654,0.3680000022053719,0.009775169659405947,0.026883484795689583,0.00019185148485121318
50,0.00010044035614856979,0.30015507450150863,0.008234388856013467,0.02107016876078665,0.00010044035626349072,0.00019395076305954716,0.33500000089406967,0.010095454473048448,0.027193152345716953,0.00019395077397348358
51,0.00010932630889389576,0.30658779036929595,0.008537551211518961,0.0216926012969585,0.00010932630837925894,0.00018944149996968918,0.3290000021457672,0.009342026803642512,0.02607336323708296,0.0001894415014248807
52,0.00010327187469182766,0.3022801685184163,0.008390319082935405,0.021330952843974578,0.0001032718750372173,0.00018262654411955738,0.29799999892711637,0.009144206717610358,0.025716972723603248,0.00018262655648868532
53,0.00010585943346702819,0.30180633018531144,0.008435889995045994,0.021489791183432208,0.00010585943458489543,0.00019936124226660468,0.2950000002980232,0.009695340087637306,0.02650214545428753,0.00019936123353545555
54,0.00010478752015834848,0.2975992193133928,0.008323144786653386,0.021217043658721783,0.0001047875200649491,0.0002265497503685765,0.32499999552965164,0.010843992326408624,0.028705656155943872,0.00022654975182376803
55,9.653759313436594e-05,0.29416748160202905,0.008126335771453018,0.02061222026189962,9.653759298872978e-05,0.00017356183525407687,0.30599999725818633,0.009333062311634421,0.025250205025076865,0.00017356182579533196
56,9.207213854785961e-05,0.29359313134296794,0.007988726523796884,0.02025639220207149,9.207213831739092e-05,0.00018357138033024966,0.27999999970197675,0.009507623594254255,0.025871099904179573,0.00018357137087150478
57,8.629016681777596e-05,0.29231520400566424,0.007820789726574816,0.019652855196922468,8.629016666628928e-05,0.0001788977620890364,0.2949999988079071,0.009375698678195477,0.02521471045911312,0.00017889775044750423
58,9.375424982517462e-05,0.2970392287160916,0.00804013218226808,0.020369188982979885,9.375425054729596e-05,0.00018825067309080623,0.3030000001192093,0.009166638180613518,0.025336502678692342,0.00018825066363206133
59,9.576921601289339e-05,0.3017919719498214,0.008128758557331254,0.020571675215454156,9.576921604360862e-05,0.00016890963888727129,0.3210000038146973,0.009249540511518717,0.02513016201555729,0.00016890963379410096
60,9.054195176746192e-05,0.291109069825814,0.00793724020857033,0.020005582619014892,9.054195242564544e-05,0.00016998821010929532,0.26800000071525576,0.009211488859727978,0.024575522169470787,0.0001699882086541038
61,8.545309810593239e-05,0.28892654154765723,0.007717302685385151,0.01938027209881463,8.545309805829244e-05,0.00017230695302714594,0.27599999606609343,0.00901464675553143,0.025045969896018504,0.00017230694356840104
62,8.316928762039868e-05,0.28726092779354295,0.0076288077357115945,0.019206170228685274,8.316928682180267e-05,0.0001730458316160366,0.28399999886751176,0.008964516688138247,0.024974985606968404,0.0001730458330712281
63,8.879290205369393e-05,0.2948854181071014,0.007825843210171999,0.019750807978425513,8.8792902587136e-05,0.0001828024374844972,0.28999999910593033,0.009300741087645292,0.025733660720288754,0.00018280243675690145
64,9.429439953321303e-05,0.29568950667481797,0.008076590938533941,0.020251943116496137,9.42943992569849e-05,0.00015502665119129233,0.3170000031590462,0.00879864520393312,0.023669327702373268,0.00015502665082749444
65,8.393351454417315e-05,0.2898167837681827,0.0076521674569219695,0.019292764030127346,8.393351495099325e-05,0.00016331208353221883,0.28400000035762785,0.008684114553034306,0.023485786654055117,0.00016331208280462306
66,7.967081368978377e-05,0.2882660398460134,0.007507528783585019,0.018832504985618993,7.967081340373512e-05,0.00016443357162643224,0.2960000023245811,0.008661157172173261,0.023694124817848206,0.00016443358035758137
67,8.879986038301623e-05,0.29623513941576957,0.00787153810605126,0.01972241043469151,8.879986006437183e-05,0.00017560744381626137,0.2660000041127205,0.009243238437920808,0.02570333182811737,0.00017560744017828256
68,7.902151559749314e-05,0.2896875546138213,0.0074863079633091115,0.01874364637681232,7.902151592136122e-05,0.00016563445096835495,0.26199999898672105,0.008876173384487629,0.024395620450377464,0.00016563445024075918
69,7.356661951081958e-05,0.29016139272740127,0.007295086956116259,0.018175889924853264,7.356662011384105e-05,0.00016152877506101505,0.3169999971985817,0.008966467017307878,0.02445226311683655,0.00016152877215063198
70,8.026401480976887e-05,0.2923008449613983,0.007513546628359626,0.018775550478470366,8.026401555215809e-05,0.00018025261160801165,0.2740000016987324,0.009334169374778867,0.025897671468555927,0.00018025260287686252
71,7.832382947455388e-05,0.29034805644384226,0.0074661848868967816,0.018638203038074633,7.832383032455088e-05,0.0001719838022836484,0.26500000059604645,0.008950125798583031,0.02470804862678051,0.0001719838117423933
72,8.916510953769816e-05,0.29197059426248934,0.007839557516337404,0.019631037619096497,8.916511043032037e-05,0.0001726003461953951,0.2679999999701977,0.00876379171386361,0.024336644634604453,0.0001726003520161612
73,8.559288423153984e-05,0.29347826139034844,0.007681268665195624,0.01923945382009351,8.559288390244809e-05,0.00015541489046881906,0.29600000381469727,0.008928214898332953,0.023931125365197658,0.00015541488901362754
74,6.995768212093995e-05,0.2867440128749547,0.00708793002105815,0.017612933600965972,6.995768218069883e-05,0.00015295385383069516,0.29200000166893003,0.008564622839912772,0.023599966056644918,0.00015295385164790787
75,7.538415769440553e-05,0.29187008206009435,0.007290141762986186,0.018144502768363737,7.538415737576113e-05,0.0001650042424444109,0.27500000447034834,0.008800185844302177,0.024137035943567753,0.0001650042504479643
76,7.026830812352223e-05,0.2828815127244447,0.0071436201794749426,0.017735566918582902,7.026830814441695e-05,0.00017963001228054053,0.31400000154972074,0.008914121380075812,0.024465184286236764,0.00017963000864256172
77,7.098753370286829e-05,0.2872752866212795,0.007173215011794281,0.017820143421356478,7.098753407709264e-05,0.00017564781701366882,0.2549999997019768,0.008937955554574727,0.0240895364433527,0.00017564782028784976
78,7.408615866573124e-05,0.29168341959747,0.007303175211691355,0.01814493652686488,7.408615881951634e-05,0.00016129445866681636,0.2999999985098839,0.008315793517977,0.02320242691785097,0.00016129446084960363
79,9.127175630114535e-05,0.2973407625139571,0.007920854658107296,0.01972693180595087,9.127175744189232e-05,0.00016601933457423003,0.32200000137090684,0.008892094949260354,0.02386402040719986,0.00016601933166384696
80,6.54032949046703e-05,0.28233588051197894,0.006895465677741336,0.017102753803224683,6.54032954404108e-05,0.00015006046705821064,0.2510000020265579,0.00827594855800271,0.022834709379822016,0.00015006047615315766
81,6.88109139604969e-05,0.2890414108108916,0.007013199858459019,0.017321666666415086,6.881091362618146e-05,0.00015907575325400103,0.3040000021457672,0.00861853389069438,0.023491863906383515,0.00015907575980236288
82,6.019905180218932e-05,0.2837573951659591,0.006762352887141803,0.016595147291265665,6.019905196151152e-05,0.00018381454501650296,0.3080000028014183,0.008916682936251164,0.024749642796814443,0.00018381454647169447
83,7.842851794877887e-05,0.29136752713875824,0.007436186438063175,0.01847485729147278,7.842851755700297e-05,0.00020687953146989458,0.33299999982118605,0.009472731221467256,0.026345834881067277,0.0002068795329250861
84,6.47571368324163e-05,0.286901958849482,0.006915127510243103,0.017048312271032363,6.475713681152159e-05,0.0001742612148518674,0.3120000034570694,0.008625720860436559,0.02417655736207962,0.00017426120684831402
85,5.894501183910468e-05,0.28282407699413326,0.006642880108590242,0.016320427051177235,5.894501221520954e-05,0.0001776813267497346,0.32799999713897704,0.008666906319558621,0.023793629184365273,0.00017768133620847947
86,6.239792071680799e-05,0.2845471257729127,0.006829418259843509,0.016750603814073214,6.239792072265851e-05,0.00016071098507381977,0.33599999696016314,0.008469728054478765,0.023210215009748937,0.00016071097779786215
87,7.810785070616788e-05,0.29390902426726073,0.007436581452694714,0.018384111541288647,7.81078509278608e-05,0.00016176126555365045,0.24999999552965163,0.008327834494411945,0.022929286863654853,0.00016176127537619321
88,6.0005384337007646e-05,0.2806271903418391,0.006659615850168618,0.016432875479357505,6.00053839536941e-05,0.00017014450058923104,0.30599999874830247,0.008395639387890697,0.023075100872665642,0.00017014449367707128
89,6.232932464014869e-05,0.28380047122723584,0.006778647302307095,0.016679661177934485,6.232932468528127e-05,0.0001658346809563227,0.2780000016093254,0.008840808505192399,0.024264077097177504,0.00016583467440796086
90,7.276096422141343e-05,0.28889782443735906,0.007216030597589629,0.017908053840866526,7.27609646050404e-05,0.00014538173636537976,0.3310000002384186,0.008395506534725428,0.02259047981351614,0.00014538173527398613
91,6.1738755131356e-05,0.28332663363572286,0.006770524662014765,0.016594901575195692,6.173875578494268e-05,0.00013947379920864478,0.3129999995231628,0.007883012108504773,0.021692476700991392,0.0001394738079397939
92,5.514819374012074e-05,0.2730026995558528,0.006434882533271213,0.015732740317464106,5.514819412667297e-05,0.00015026681503513828,0.27100000232458116,0.008563552144914865,0.023498562350869178,0.0001502668124885531
93,6.260923828885627e-05,0.2808856485050678,0.006810306087174782,0.016671112399794564,6.260923850563893e-05,0.00015930999470583628,0.29400000274181365,0.008764133742079138,0.023647874873131514,0.0001593099997990066
94,6.527727150905929e-05,0.28387226541170635,0.006884313088091639,0.01692339602909607,6.527727135893076e-05,0.000163134765898576,0.28899999558925626,0.009439984802156687,0.024667594209313394,0.00016313476735376752
95,6.924137230899864e-05,0.2893573037814001,0.007064270266879956,0.017448130663982653,6.924137270077455e-05,0.0001452228952985024,0.2979999974370003,0.00843385779298842,0.022513870149850845,0.00014522289093292783
96,7.831764382656402e-05,0.29755614314599094,0.007447418002647616,0.01836483459711078,7.831764466527787e-05,0.00015665766150050331,0.2700000017881393,0.008076583454385399,0.02264747517183423,0.00015665765713492874
97,4.9131247856357144e-05,0.2771954520078463,0.006112499381170292,0.01490545387146981,4.9131248073453226e-05,0.00014851849045953712,0.27400000393390656,0.008056794852018356,0.022077746316790582,0.00014851849191472867
98,5.415920218684813e-05,0.2764775149901213,0.006392590685559652,0.015598249519843465,5.415920240822763e-05,0.0001450612544431351,0.24200000017881393,0.00785649921745062,0.021549660060554744,0.0001450612544431351
99,5.475289694102455e-05,0.2798087418218024,0.00644636333993718,0.015694542121049933,5.475289719928323e-05,0.000136236641992582,0.30100000351667405,0.00790172377601266,0.021351041737943888,0.0001362366365356138
100,5.5708214364213726e-05,0.2803543741784784,0.006551628433531456,0.015928222941914358,5.570821453596828e-05,0.00014569931699952575,0.30199999511241915,0.007834849366918206,0.021885424200445414,0.00014569930608558933
101,5.8923958084628585e-05,0.2824938262246169,0.006576218107978101,0.016101383742810078,5.8923957539381e-05,0.00016809051885502413,0.3079999953508377,0.009412413835525513,0.024871604144573213,0.00016809050721349194
102,6.901749729852264e-05,0.2859542822380465,0.007017611386422925,0.017334088143302534,6.901749721034694e-05,0.0001500778933404945,0.2909999996423721,0.008209198294207454,0.021925922855734824,0.00015007789661467542
103,5.649945484982394e-05,0.2804405260305841,0.006506473436303547,0.01587834660390486,5.649945512929075e-05,0.00015217154468700756,0.27300000190734863,0.007829774729907512,0.02191206198185682,0.0001521715497801779
104,4.7134811337482956e-05,0.27293090628285993,0.0060290212692542785,0.014600388677594452,4.713481162771055e-05,0.00015503002978221048,0.29299999922513964,0.008016461599618196,0.022381407674402,0.00015503002432524227
105,5.57641054975638e-05,0.2819912700948241,0.006478752222195217,0.015826620996626576,5.5764105301049005e-05,0.00015967405634000897,0.27500000298023225,0.008427168941125274,0.02298777475953102,0.0001596740465174662
106,6.000488104904016e-05,0.2833122748974224,0.006571206652083971,0.016048782054758737,6.0004881672642924e-05,0.00016539595308131538,0.28999999910593033,0.00926248198375106,0.024678479880094528,0.00016539594762434717
107,7.052201867438574e-05,0.288237321631244,0.007083667802273668,0.017395330807593687,7.05220189959554e-05,0.00016650283832859715,0.29299999624490736,0.008174224942922591,0.02262698132544756,0.00016650282595946918
108,5.1410842323646967e-05,0.2769513531571917,0.006240695159024106,0.01520371620737632,5.141084269484158e-05,0.00013957638584543018,0.2780000030994415,0.00782375461421907,0.021470063552260398,0.00013957637784187683
109,5.0696031107401815e-05,0.2754149681149657,0.006201453848162272,0.015082176099904449,5.0696031017136644e-05,0.00013137553505657707,0.2689999997615814,0.007753864163532853,0.02127419747412205,0.00013137552923581097
110,4.791423233720571e-05,0.2723278391034987,0.006080556816280395,0.01471153652195657,4.7914232734205296e-05,0.00014095121368882247,0.2750000014901161,0.007900570333003998,0.021664970740675926,0.0001409512260579504
111,4.6187813784086596e-05,0.27287347141438695,0.00600615263599942,0.014494074751394517,4.618781403221133e-05,0.00014029239100636913,0.2780000001192093,0.007885794714093208,0.02139952201396227,0.0001402924011927098
112,6.621224206049844e-05,0.2865142731806821,0.006953353799825418,0.016999338265527884,6.621224168899042e-05,0.00014158210215100552,0.3009999990463257,0.008141597220674156,0.0220953312702477,0.000141582100695814
113,5.793055499301157e-05,0.2808569303514915,0.0065488929322019265,0.016014199014921064,5.7930555062904394e-05,0.00014627762320742476,0.29699999541044236,0.008300356008112431,0.022533766366541384,0.00014627763230237178
114,4.976928958890779e-05,0.2759031657289784,0.0061625341681153635,0.01494672204317054,4.976928966987481e-05,0.00013369742155191488,0.2680000014603138,0.007681742589920759,0.02103888364508748,0.0001336974248260958
115,5.0802125275137194e-05,0.27693699446938624,0.006189244284042231,0.015066819063665266,5.0802125430175976e-05,0.00014099071704549716,0.24000000357627868,0.0076104126870632175,0.021088976040482522,0.00014099070758675226
116,4.195401669002033e-05,0.2678335538536976,0.00575642492645138,0.013903498055050593,4.195401700636631e-05,0.0001395412731653778,0.2980000004172325,0.007838038820773363,0.020894641056656837,0.00013954127061879262
117,4.779550399656038e-05,0.2770231469436931,0.006145117239201021,0.014786602227386047,4.779550469653333e-05,0.0001601880841917591,0.30400000140070915,0.008098813099786639,0.021988746337592603,0.00016018808128137607
118,5.7723117655184135e-05,0.27993797083922817,0.0066007104398254045,0.016000591182739894,5.772311769895856e-05,0.00015716119123680982,0.3100000023841858,0.008719856012612581,0.023781709372997284,0.00015716119232820347
119,6.189167936160706e-05,0.28272356640329915,0.006723907070075979,0.01645842069485773,6.189167919152407e-05,0.00012447862973203884,0.28399999961256983,0.007607658207416534,0.02056395187973976,0.0001244786264578579
120,5.827876996112807e-05,0.28048360259766675,0.0064658259789564625,0.015741154021629445,5.827876986156476e-05,0.000151386402285425,0.284000001847744,0.008262822264805436,0.022638141922652722,0.000151386402285425
121,4.638711396950756e-05,0.275242663569884,0.006025155375965539,0.014513429251458447,4.638711378960406e-05,0.00012820590818591883,0.2660000041127205,0.0073387323878705505,0.020176224689930678,0.0001282059121876955
122,4.1442352353325134e-05,0.2719688705642537,0.005724420026549152,0.013757385117040399,4.144235244097846e-05,0.00012018160305160563,0.3029999971389771,0.00737606412731111,0.019915949925780295,0.00012018159686704167
123,6.645585607482848e-05,0.29563207250557244,0.0069391907342914415,0.016827636971846364,6.64558568211877e-05,0.00014899711968610063,0.2940000042319298,0.008043161872774363,0.021677805949002503,0.00014899712696205824
124,4.887316518074543e-05,0.27659238479810255,0.006109788995515379,0.014772194496415165,4.887316508933105e-05,0.00012442806400940752,0.24999999701976777,0.007396944286301732,0.02027558544650674,0.0001244280610990245
125,4.2041236845054704e-05,0.2704324861450846,0.005744764968032024,0.013851949302457693,4.204123708273209e-05,0.00014163172236294485,0.28499999493360517,0.007853661570698023,0.021781582571566104,0.00014163172891130672
126,4.047451227305062e-05,0.2692694281518928,0.005659964234331162,0.013548475070445437,4.047451236248e-05,0.000235916690871818,0.3520000010728836,0.01060608895495534,0.028027275018393992,0.0002359167287067976
127,5.7194688858245756e-05,0.28704554642162894,0.006595262672811409,0.015902312657914114,5.719468871459459e-05,0.0001745302572089713,0.2719999969005585,0.008828084962442518,0.024527093581855296,0.00017453024847782216
128,5.0333895881421586e-05,0.28355637285671176,0.006200167493344066,0.015016568621492052,5.033389550270488e-05,0.0001327115223830333,0.2669999971985817,0.0074505092110484835,0.020569072384387255,0.00013271152274683118
129,4.0293740231473464e-05,0.26868071956148676,0.005661119093286057,0.01357505730814972,4.029374035422992e-05,0.00017242394606000743,0.33799999952316284,0.008548785606399179,0.023513182625174524,0.00017242395988432692
130,6.141943620912941e-05,0.2862701748392568,0.006709800386305719,0.01634446804169772,6.141943682521008e-05,0.00016025708755478262,0.27899999767541883,0.008384425053372979,0.022859694249928,0.00016025709701352752
131,4.388623231743229e-05,0.2762046988079319,0.005845921472232547,0.01406942481916122,4.3886232277627857e-05,0.0001115795865189284,0.2650000050663948,0.007148377550765872,0.019903229363262654,0.00011157958579133265
132,3.66670773175523e-05,0.26724484578578644,0.0054544413540751745,0.013003588149685762,3.6667077320164146e-05,0.00012544124474516137,0.24799999892711638,0.007440498378127813,0.020133871771395206,0.00012544123856059742
133,4.710207611036774e-05,0.2758744480675144,0.006072501242713888,0.014579362354391246,4.71020763754172e-05,0.00014879888731229586,0.29399999529123305,0.007953273737803102,0.021896745823323727,0.00014879888949508312
134,4.7251985121788864e-05,0.2797082307585404,0.0061000428089714636,0.014680604447890593,4.725198511395334e-05,0.00013034678013355006,0.26700000315904615,0.007510202610865236,0.02088691033422947,0.0001303467794059543
135,4.9849088032737e-05,0.27303141755152527,0.006031487177705251,0.01463975143295211,4.984908860765508e-05,0.00012493558606365695,0.29300000369548795,0.007768323179334402,0.020965319033712147,0.00012493559624999763
136,4.6126006277743054e-05,0.27554419687563725,0.006016779692772842,0.014446792457000052,4.6126006147151085e-05,0.00013485169110936113,0.28400000035762785,0.0074094630312174555,0.02068670904263854,0.00013485168346960563
137,4.844428285811159e-05,0.2766354613138343,0.006044874632492834,0.014534883181544772,4.844428311866869e-05,0.00019250419791205786,0.3,0.009902971517294645,0.026689694821834566,0.00019250418481533415
138,5.876897605865082e-05,0.28536557380982347,0.006644551965348278,0.01600732295465551,5.876897658101869e-05,0.00012249110368429684,0.27599999904632566,0.007660065125674009,0.02070681033656001,0.00012249109713593497
139,3.877198687956946e-05,0.2685084143514116,0.005524425941928267,0.013289773488615932,3.877198668106967e-05,0.00012137081794207915,0.2630000039935112,0.007286556111648679,0.01979023711755872,0.0001213708208524622
140,3.7526278326533126e-05,0.27063350765668204,0.0054981897586003315,0.013080412116126155,3.752627854331579e-05,0.00015675195936637465,0.3160000011324883,0.007987122982740402,0.02181496601551771,0.00015675196736992804
141,5.489510810588238e-05,0.2823789563100826,0.0063988362576661234,0.015470084260709904,5.489510869124782e-05,0.00013154490115994122,0.28499999940395354,0.007780106738209724,0.021159143839031457,0.00013154490043234545
142,4.9349709701049086e-05,0.27953592567299107,0.006148580411325726,0.014790201147625729,4.9349709902160715e-05,0.00012660653483180794,0.28800000101327894,0.007398391421884298,0.02015689518302679,0.00012660653628699948
143,3.670688609298476e-05,0.2661392228912906,0.005419000874438604,0.012943490969903913,3.670688627957456e-05,0.00014178578931023367,0.3040000036358833,0.008018252067267894,0.021399915125221013,0.00014178578057908454
144,4.0114675485556754e-05,0.2723134803545002,0.005626229458537147,0.013434609456710895,4.011467538369502e-05,0.0001657282489759382,0.3439999967813492,0.008692421577870845,0.023537812381982805,0.00016572824824834242
145,5.3785607192541236e-05,0.28157486736322557,0.006368393175451356,0.015336146971508138,5.3785607182720715e-05,0.00014963322973926552,0.27000000029802323,0.008271049289032818,0.022512803506106138,0.00014963322100811638
146,4.589850776254237e-05,0.2738929412744237,0.005971535243913227,0.014356992051435855,4.5898507332947036e-05,0.00014357690888573417,0.29200000166893003,0.00804963638074696,0.021340875048190357,0.00014357691106852143
147,3.810337872548939e-05,0.2683361088298079,0.00552709174258099,0.01319190787791095,3.8103378378114754e-05,0.0001351396396785276,0.26900000125169754,0.007752099912613631,0.021061560418456794,0.00013513964004232548
148,5.2831140594933146e-05,0.2819338350029749,0.006256793527979192,0.01510656379596752,5.2831140328734475e-05,0.000121310630129301,0.29400000125169756,0.00786452516913414,0.020809735730290414,0.00012131063049309887
149,4.594389008981422e-05,0.2757308605531371,0.005877349796325112,0.01414467099368064,4.594389018091518e-05,0.00012263821809028742,0.33299999982118605,0.0076162413693964485,0.020295558124780656,0.00012263822172826623
150,4.898889456366373e-05,0.2793779796137349,0.006158510781070373,0.014718889358989587,4.898889501060168e-05,0.00012142858940933365,0.30200000256299975,0.0073907648678869006,0.020108168851584195,0.00012142859595769551
151,3.345841771953856e-05,0.26399977073902703,0.005241460037585082,0.01243049860788846,3.345841758111108e-05,0.00011972136053373106,0.2780000001192093,0.007164092035964131,0.019371691346168517,0.00011972135434916709
152,3.8044194171255006e-05,0.26921199238777543,0.005512600281238847,0.013159365630237651,3.8044194174180265e-05,0.00012049484139424749,0.2679999977350235,0.007243707869201898,0.019570023380219938,0.00012049483593727928
153,3.944641315499234e-05,0.27295962397855783,0.005647009811670882,0.013420664850937153,3.944641310797923e-05,0.00014496014919131994,0.29899999499320984,0.008072441397234797,0.02178346263244748,0.00014496016665361823
154,3.965523713808125e-05,0.2740652463253112,0.00566987578217014,0.013477263423030034,3.96552374593375e-05,0.0001328640712017659,0.31899999976158144,0.007813833141699433,0.020818611048161982,0.0001328640766587341
155,4.8628337028651246e-05,0.2798374593039663,0.006055243131017008,0.01457936466368182,4.8628337106379584e-05,0.00019448879393166863,0.3349999949336052,0.009334683325141669,0.025788176991045474,0.0001944887924764771
156,4.7965264994260183e-05,0.28147435597046233,0.00610853830383664,0.014608729318966234,4.7965265109181114e-05,0.00011255808276473544,0.2879999980330467,0.006984701054170728,0.019134890288114548,0.00011255808676651214
157,4.685507428515946e-05,0.27965079605011095,0.006018599288497553,0.014352273244230383,4.685507455156707e-05,0.00012382497006910854,0.29000000208616256,0.007248030928894878,0.01970206843689084,0.00012382497297949157
158,4.537404142125919e-05,0.27428062762319444,0.005907737652411023,0.014133054337989923,4.53740413615003e-05,0.00012600842637766618,0.28200000077486037,0.007481627911329269,0.020054687187075614,0.00012600842674146407
159,3.388653913804152e-05,0.26184595989253917,0.005268409451233672,0.01246987255248963,3.388653907389474e-05,0.0001405224120389903,0.2959999993443489,0.007168697193264961,0.019871606677770614,0.00014052241058379878
160,3.521349008173014e-05,0.2626356908936105,0.00530785680337448,0.012608893162219302,3.521349057338278e-05,0.0001350314803858055,0.29299999922513964,0.007585110701620578,0.02055332316085696,0.00013503149311873132
161,4.415688208462106e-05,0.27413704037284614,0.005833110434494912,0.013969220868972697,4.415688230986609e-05,0.0001228945387993008,0.26000000685453417,0.0073787769302725795,0.020103675313293934,0.00012289454352867323
162,4.0331163879068326e-05,0.2701165930196676,0.005669777301320339,0.013518665326308509,4.0331163915007236e-05,0.00013096794245939236,0.2700000017881393,0.00735878674313426,0.020087271369993685,0.00013096794536977542
163,3.8132367505362595e-05,0.2713658034730448,0.005527416756748383,0.01312657891710157,3.8132367474020526e-05,0.00013471717793436255,0.31199999898672104,0.007813035370782017,0.020811199396848678,0.00013471717866195832
164,4.324048433665797e-05,0.27041812723732633,0.0058185810137476555,0.013853012468717403,4.32404844646381e-05,0.00011204580041521695,0.2760000005364418,0.007221334148198366,0.019657240249216557,0.00011204580405319576
165,4.072121937370873e-05,0.2736344842777152,0.005626978142368118,0.013426922604321396,4.072121942500526e-05,0.0001380323421471985,0.3119999960064888,0.008140831580385565,0.021416532900184394,0.00013803233887301757
166,3.761024810619873e-05,0.26773304319054436,0.005530600301556776,0.013128217424396932,3.761024829916142e-05,0.00012697877209575382,0.2909999996423721,0.0072825407609343525,0.019724049139767885,0.00012697878592007327
167,4.800936955560004e-05,0.27899029432108,0.006004408086896076,0.014465571532690178,4.800936987696075e-05,0.00013380630043684504,0.2650000020861626,0.007534812949597835,0.020618410687893628,0.00013380629825405778
168,3.873345288128898e-05,0.2693412215310108,0.005543028025970656,0.013187852582971452,3.8733452924018674e-05,0.00015212699436233378,0.31000000014901163,0.00792020778171718,0.021833152510225773,0.00015212699872790836
169,3.4326459435228336e-05,0.2688817418617477,0.005278912150928429,0.012525916933785712,3.4326459643026273e-05,0.00011796644612331875,0.30099999755620954,0.0070322106126695875,0.019127469416707753,0.0001179664432129357
170,3.3223496174153844e-05,0.26718741080733704,0.005283372510690162,0.012425824523690591,3.3223496355833385e-05,0.00011829968425445259,0.2959999993443489,0.007179458625614643,0.019310949090868234,0.00011829967770609074
171,3.949093363367627e-05,0.2749267709802276,0.005597737636512364,0.013337891458152156,3.949093375382088e-05,0.00013440952825476414,0.25899999886751174,0.007814175402745604,0.020905854646116495,0.0001344095158856362
172,4.159046075308023e-05,0.27261501351989437,0.005717123205699234,0.013626682469632534,4.1590460314291214e-05,0.0001248829132237006,0.29200000017881395,0.007638860959559679,0.02064727935940027,0.0001248829132237006
173,4.657403512884456e-05,0.2777841598271338,0.005951774913471454,0.014241660291036006,4.65740346894287e-05,0.0001341362647508504,0.2680000014603138,0.0074405602645128965,0.020343356300145388,0.0001341362665698398
174,3.4060731672312855e-05,0.26674228963074614,0.005248963238281904,0.012472468563805093,3.406073150024488e-05,0.00012899682369607035,0.2750000014901161,0.0069621092639863495,0.01934842374175787,0.00012899682260467671
175,3.1403771421758135e-05,0.2617167311194578,0.00508443095125581,0.01197655536542484,3.1403771586304015e-05,0.0001171352185338037,0.2890000015497208,0.007250499818474055,0.019495451636612416,0.00011713521562342066
176,3.723726680450299e-05,0.27138016255582387,0.005478917055628348,0.01297587327155036,3.723726673659517e-05,0.00016799079676275142,0.32699999809265134,0.008042839262634516,0.022309631016105412,0.0001679907898505917
177,4.3106335154216165e-05,0.27693699478604983,0.005805963928148559,0.013894846746484595,4.310633511242673e-05,0.00011994278866040986,0.3160000011324883,0.007337728934362531,0.01997911147773266,0.00011994278902420774
178,3.404275865737335e-05,0.2670438230383452,0.005280280087780147,0.012481520496467991,3.4042758859634186e-05,0.0001283177982259076,0.32200000137090684,0.0072945696767419575,0.019820317253470422,0.00012831778622057755
179,4.379345513493483e-05,0.27336166838779774,0.005820857780351084,0.013865118105026329,4.379345527043706e-05,0.00013376471470110117,0.2989999994635582,0.007671619486063719,0.02101707039400935,0.00013376471542869695
180,3.410628196603365e-05,0.26934122163799173,0.00524695761580741,0.012409614723174266,3.4106282176965796e-05,0.0001371966951410286,0.29999999701976776,0.0073856738395988945,0.020231414400041104,0.00013719669987040107
181,4.6389088838812235e-05,0.2773390391447948,0.00593545716841089,0.014258041735035651,4.6389088635402185e-05,0.0001490384449425619,0.28600000143051146,0.008447963185608387,0.022597881406545638,0.00014903844530635978
182,3.756207669283527e-05,0.26701510618137786,0.005424555674519228,0.012890832754514542,3.756207696415315e-05,0.0001359474834316643,0.2620000019669533,0.007881129207089544,0.021544632501900196,0.00013594749107141978
183,3.149170645394099e-05,0.26455976168636985,0.005115510522431302,0.012044730271236238,3.1491706253978565e-05,0.00011407884558138904,0.2429999977350235,0.00706102573312819,0.019168472848832607,0.00011407884121581447
184,3.28610223420059e-05,0.2687237959330082,0.005217556767399949,0.012273665257872357,3.286102237564639e-05,0.00012088346920791082,0.26099999994039536,0.00767024583183229,0.02040876606479287,0.00012088346520613413
185,3.588598105679675e-05,0.2677330427386569,0.0053988126573852975,0.012723023323022865,3.588598101699232e-05,0.00015054070609039628,0.33700000047683715,0.008316335128620267,0.02234500562772155,0.00015054070427140688
186,5.961623173130938e-05,0.2873183619670677,0.006580918454392066,0.015806301356350014,5.961623174405515e-05,0.00014659072185168042,0.2740000024437904,0.008345552207902073,0.022169260866940023,0.00014659071603091435
187,4.2690399864296805e-05,0.2737206370203302,0.0057058490878946185,0.013621726004321974,4.2690399898250717e-05,0.00012510225860751234,0.2420000061392784,0.007318726880475879,0.019699874427169563,0.00012510225351434202
188,2.8150064923352688e-05,0.25743782703017637,0.0048452730628491016,0.011369462440597111,2.8150065057862417e-05,0.000116221874486655,0.26300000548362734,0.006996762659400702,0.01893127141520381,0.00011622187375905923
189,2.805531281816456e-05,0.2630377349130119,0.004877661743327714,0.011443804246817712,2.8055312805105364e-05,0.00011612628986767959,0.2600000023841858,0.006934814853593707,0.01886340891942382,0.00011612628040893468
190,3.4766728590679195e-05,0.2672735630248897,0.0053105790009822145,0.012475864501190407,3.476672884778866e-05,0.00012468683562474325,0.25400000289082525,0.007635151874274016,0.020490457769483328,0.00012468683707993476
191,4.019125014881028e-05,0.2757595777571506,0.005648351245144719,0.013361459985269707,4.01912502242402e-05,0.00010930244716291781,0.2769999995827675,0.007031884556636214,0.018953195214271544,0.00010930244825431145
192,3.1261781107977084e-05,0.26701510605899165,0.005096100618837372,0.01201261788228787,3.126178126792613e-05,0.0001044929595082067,0.2860000044107437,0.00706174410879612,0.018595934100449085,0.00010449296569277066
193,3.0288649689389393e-05,0.26335362736359313,0.005044990471142675,0.011843293867814849,3.028864950509801e-05,0.00011762444555643014,0.31099999994039534,0.007394766621291638,0.01967399111017585,0.00011762444883061108
194,3.7041852324375005e-05,0.2731893633690045,0.0054414984123686855,0.012853659411275978,3.704185208377237e-05,0.0001518096963991411,0.3209999956190586,0.008387329801917077,0.022505417838692664,0.00015180969785433263
195,4.8303962870136164e-05,0.2827810011001747,0.006100001032620131,0.01461360288822314,4.830396307647147e-05,0.0001457060752727557,0.3379999965429306,0.008245170023292303,0.021933061257004737,0.00014570606690540445
196,4.370343454839656e-05,0.27864568373275567,0.005759362607689829,0.013833155171446839,4.370343455769471e-05,0.0001410282769938931,0.28299999982118607,0.007444514753296971,0.02044019438326359,0.00014102827408351003
197,3.187940491619532e-05,0.2639710533326056,0.005134109545454796,0.011995517161404831,3.187940475394786e-05,0.0001286531154619297,0.2959999993443489,0.007076748088002205,0.01955826664343476,0.0001286531081859721
198,3.222422143269555e-05,0.2664551149263578,0.005043898073865544,0.011881479900228673,3.222422193218371e-05,0.0001427942370355595,0.2900000035762787,0.008524124324321748,0.02239549607038498,0.00014279423921834678
199,4.832060971946193e-05,0.2791195229490952,0.00602368392309909,0.014456147882394374,4.832060989330596e-05,0.00011999113121419214,0.33299999982118605,0.007464423263445497,0.02020022803917527,0.00011999112903140485
