epoch,huber_loss,l0_loss,l1_loss,linf_loss,loss,val_huber_loss,val_l0_loss,val_l1_loss,val_linf_loss,val_loss
0,0.0035735365801639173,0.7613290445383245,0.0536895598541173,0.12373893800122632,0.0035735367430156533,0.0014279199531301856,0.6310000121593475,0.034105122089385986,0.08388758078217506,0.0014279195456765592
1,0.0014006933937820943,0.5888949483829886,0.03129069852028591,0.07976615924417484,0.00140069343509011,0.0011393853346817195,0.546999990940094,0.02895711362361908,0.07372096925973892,0.001139385683927685
2,0.0012111550965034814,0.5481735672475441,0.028107195389419873,0.07417076921608165,0.0012111551331009925,0.0010498043266125023,0.5509999990463257,0.02750335354357958,0.07229781523346901,0.0010498044430278242
3,0.001136114032331612,0.5448567008641468,0.027209651087684673,0.07226016864597362,0.0011361140993718867,0.000992700457572937,0.6180000007152557,0.027759342454373837,0.07095690071582794,0.0009927003120537847
4,0.0010687930620748348,0.5355378783116849,0.026243941224548765,0.07034090793666488,0.0010687930913775828,0.000983957084827125,0.5799999833106995,0.026968827471137047,0.07088008150458336,0.00098395740496926
5,0.0010204606001732266,0.5218539980697671,0.02564956452172239,0.06909295407884337,0.001020460612355681,0.0009184078953694552,0.5350000113248825,0.025583895854651928,0.0671941414475441,0.0009184079535771161
6,0.0009756349004356517,0.5134828541493965,0.025126052708401663,0.06777491093809036,0.0009756349633605034,0.0008986014581751078,0.5170000046491623,0.025085074827075005,0.06620629131793976,0.000898601661901921
7,0.0009357697262127977,0.5056860583882652,0.024578230961858558,0.06638311420966213,0.0009357697589857402,0.0008489277388434857,0.5620000064373016,0.024575441144406796,0.06511827930808067,0.0008489278552588075
8,0.0008905339632527257,0.5020102196014713,0.024073380280362457,0.0650138621201439,0.000890533981880782,0.0007944435637909919,0.4880000054836273,0.023185730911791325,0.061854274943470955,0.0007944436511024833
9,0.0008541433777593322,0.4983487429802192,0.02354495235349756,0.06371569525154987,0.0008541434053403558,0.000758403679355979,0.49400000274181366,0.022616514936089516,0.06148974597454071,0.0007584035047329962
10,0.0008203928719425435,0.49303600924675484,0.02316697217018246,0.06251180895007935,0.0008203928762986738,0.0007297139964066446,0.4769999831914902,0.022496892139315605,0.05992900766432285,0.0007297141710296273
11,0.0007781855431386943,0.4891878676834882,0.02255090572009269,0.06091908574207867,0.0007781855496478159,0.0006996270385570824,0.49300000071525574,0.02211842965334654,0.05907744541764259,0.0006996271549724042
12,0.0007566361274549311,0.48220952072995843,0.02226631418508128,0.0601123992661141,0.0007566361329443907,0.000668883410980925,0.4999999850988388,0.021970991045236588,0.05783305689692497,0.000668883352773264
13,0.0007383140195836689,0.48334386184949385,0.022095940804943322,0.05938423725639813,0.0007383140459110096,0.0006663916574325413,0.4710000157356262,0.021548040211200714,0.057132335379719734,0.0006663917447440326
14,0.0006943788029750195,0.47258916620301405,0.02129306390613658,0.05762105384317034,0.000694378796706605,0.0006270629237405956,0.4869999885559082,0.02122325263917446,0.05611787922680378,0.0006270631274674088
15,0.0006736785410753354,0.4704353561862703,0.02104020012096174,0.05678765003514703,0.0006736785691946068,0.0006351758784148842,0.47200000286102295,0.02099784091114998,0.0561690628528595,0.0006351757911033928
16,0.0006541081890453131,0.4698897239485571,0.02067216070042915,0.055870076442348864,0.0006541082133717759,0.0005857322830706835,0.4950000047683716,0.02047595474869013,0.05391398072242737,0.0005857322248630226
17,0.0006333694569015114,0.463054964692128,0.02042942696176784,0.055185129182930684,0.0006333694660065923,0.0005824521358590573,0.4520000070333481,0.020612197928130627,0.054414259269833565,0.0005824520776513964
18,0.0006133776533490525,0.46413186890370584,0.02002230467781126,0.054206078171252475,0.0006133776649865729,0.0005692479608114809,0.46399998664855957,0.019781763665378094,0.05413019843399525,0.0005692480772268027
19,0.0005922826784138161,0.4556602140878195,0.01965887824514302,0.05331124491781214,0.0005922826939644987,0.0005716566811315715,0.48900000751018524,0.019528139382600784,0.05295398831367493,0.0005716566520277411
20,0.0005801923740382115,0.4522715521176455,0.019446041598149215,0.05284028504276822,0.0005801923683648785,0.0005722481873817742,0.46400000154972076,0.02007763832807541,0.05244775861501694,0.0005722483329009265
21,0.0005579029253600165,0.4476049625632559,0.019064510455968586,0.05181641976639135,0.0005579029427912234,0.0005146330804564059,0.45000000298023224,0.018758445046842098,0.05056257173418999,0.0005146329058334231
22,0.0005592765354828697,0.45120900548255516,0.01907247946684344,0.051780873017050644,0.0005592765519896943,0.000540024193469435,0.42900000512599945,0.019029014743864536,0.051128776744008064,0.0005400242807809263
23,0.0005408999912444682,0.4459537081777738,0.0187553963160446,0.050948707877786846,0.0005408999986779719,0.0005257008015178144,0.4569999873638153,0.01908671297132969,0.05078115500509739,0.0005257008451735601
24,0.0005292261744489313,0.44193325934997,0.018624752204274467,0.05041171875218789,0.0005292261875240081,0.0005119996931171045,0.4610000103712082,0.018506045453250408,0.04998190701007843,0.0005119995621498674
25,0.0005077061656726284,0.43873126015993985,0.01813328868211134,0.04934767012395417,0.0005077061603285961,0.0005101931164972484,0.42899999022483826,0.018648513592779636,0.05050058104097843,0.0005101930582895875
26,0.0004887766058347561,0.4323990582225037,0.01781753601271957,0.048592400683241894,0.0004887766147308899,0.00044306417112238705,0.4060000032186508,0.017209289595484734,0.0470505990087986,0.0004430642438819632
27,0.000491125918652542,0.4331457121793574,0.017795107533393438,0.04852035606987006,0.0004911259093702739,0.0004475240712054074,0.4189999997615814,0.017477103509008884,0.04675750806927681,0.00044752420217264444
28,0.00046737874271571706,0.42618172373518887,0.017432010938048047,0.0474602683822751,0.0004673787411327335,0.0004632425698218867,0.4490000009536743,0.01786371972411871,0.047924818471074104,0.00046324254071805626
29,0.0004583312500226017,0.42470277381391075,0.017307014607612404,0.0470366161497431,0.0004583312684985444,0.000456426918390207,0.41599999368190765,0.017115174792706966,0.04691968858242035,0.0004564268601825461
30,0.0004548988758099878,0.41908850561373606,0.017215272916119195,0.04689242076666835,0.00045489888974927,0.00040741413249634206,0.392999991774559,0.0163407688960433,0.04496372863650322,0.0004074140888405964
31,0.0004357468076853575,0.41715007726160624,0.01678850029599315,0.045835043670773595,0.0004357468100723697,0.00043402588926255703,0.41599999368190765,0.01690005511045456,0.045695630833506584,0.00043402588926255703
32,0.00042829526715514385,0.4135891098378685,0.016668243706151463,0.045421046948863925,0.00042829528414003965,0.0004206349403830245,0.39000000059604645,0.01659098733216524,0.045461397618055344,0.00042063480941578746
33,0.000413132655958731,0.41307219513752136,0.016369130390249422,0.04465436884245123,0.00041313267533063904,0.0004150223976466805,0.4049999862909317,0.016518830321729183,0.04457973502576351,0.0004150223539909348
34,0.00041125443019396785,0.4092814887020495,0.016239042019750852,0.04438171563031898,0.00041125444114781316,0.0004275160317774862,0.3999999910593033,0.016587174497544765,0.04532466642558575,0.000427516017225571
35,0.0003967817496483968,0.4076015151821898,0.016024765143989678,0.04375992996397664,0.00039678175442242126,0.00041052956657949835,0.40300001204013824,0.01644033007323742,0.044816842302680016,0.0004105295811314136
36,0.0003876077395636871,0.40470105125651984,0.01585428701164548,0.043251182861725856,0.0003876077407571932,0.00041430887358728796,0.41099999845027924,0.01652014907449484,0.04553038440644741,0.0004143089463468641
37,0.0003982231967732152,0.4079461247730239,0.0160606414506841,0.04370673463141361,0.000398223201490406,0.0004156970971962437,0.43299999833106995,0.016699562780559063,0.04477323219180107,0.00041569711174815893
38,0.0003835416358149301,0.4041841364517593,0.01575518585538256,0.042933339197972785,0.0003835416488582469,0.0003853003145195544,0.4179999977350235,0.015740274917334318,0.04300621896982193,0.0003853003727272153
39,0.0003710193239152913,0.399216012427236,0.015508688184693238,0.04233055470248037,0.00037101934042211605,0.00039552133239340037,0.4050000011920929,0.01608999166637659,0.04348892346024513,0.0003955213906010613
40,0.00036701837233805035,0.4026046747431723,0.015357391568244507,0.04195411187913764,0.00036701837678611727,0.0003899987932527438,0.4310000091791153,0.015731079038232565,0.043529193848371506,0.00038999882235657424
41,0.0003570786296472185,0.3991011435752364,0.015196017985747877,0.041492114232008014,0.0003570786337659847,0.00038560623943340033,0.3620000034570694,0.015406332444399595,0.042830148711800575,0.0003856064140563831
42,0.0003559933421461834,0.3985985876786621,0.015176216618647735,0.041339039684658276,0.0003559933627433575,0.00038881576620042324,0.4180000126361847,0.015437709633260965,0.042817696928977966,0.0003888157370965928
43,0.0003480331792921287,0.3962006768937374,0.01495221588599287,0.04079029675701274,0.0003480331801279173,0.0003600657801143825,0.38099999725818634,0.014533037319779396,0.041246216744184494,0.0003600658383220434
44,0.0003431164035325941,0.3931997000476164,0.014912410368404187,0.04054131422836525,0.00034311640248785834,0.0003620402712840587,0.40800000727176666,0.015378052368760109,0.04181663878262043,0.00036204024218022823
45,0.00032644484707486886,0.3905864109838107,0.014518455470963029,0.03957944019754253,0.00032644485898485634,0.0003493500844342634,0.3669999986886978,0.014753484167158604,0.04058842919766903,0.0003493499243631959
46,0.00032602526258463575,0.3849577848185938,0.014453286835160482,0.039570073417993575,0.0003260252783158487,0.0003808879846474156,0.4089999943971634,0.01575494185090065,0.043071379885077477,0.00038088801375124604
47,0.000326075486746921,0.3909166632703168,0.014558944820777462,0.039624296174323725,0.00032607548758270956,0.00034731117193587124,0.3700000047683716,0.015041097532957792,0.04069555178284645,0.00034731121559161693
48,0.00031572632646858053,0.38841824225059063,0.014292355787988304,0.038942038304053225,0.00031572634193066955,0.0003606253012549132,0.36400000751018524,0.01474298071116209,0.04069511592388153,0.00036062527215108275
49,0.0003104882713833437,0.3893515592819996,0.014247198050443614,0.03866982839847102,0.00031048828438236367,0.00036079983692616224,0.3999999910593033,0.014680799562484026,0.04097282327711582,0.00036079985147807747
50,0.0002943398122428845,0.38122451239146804,0.013837937091790509,0.0376060358868873,0.0002943398223325244,0.0003401022549951449,0.36900000274181366,0.01439172588288784,0.039774274453520775,0.00034010226954706013
51,0.0003007479508910532,0.3848716325950502,0.013996438887771568,0.03798558003633459,0.0003007479621299024,0.00033535691909492016,0.3870000094175339,0.014098674524575472,0.03941882774233818,0.00033535702095832676
52,0.00029805534885668224,0.38563264600612085,0.01389144595473214,0.03774888765803533,0.000298055365363507,0.000347644483554177,0.375,0.014691564254462719,0.03986093029379845,0.00034764457086566836
53,0.0002910821228438155,0.37829532983465886,0.013762433133537104,0.03739286278023649,0.00029108213403836793,0.00033442748826928437,0.4099999964237213,0.014488431625068188,0.03930929861962795,0.00033442748826928437
54,0.0002980539407476383,0.38294756152499626,0.013843810604352991,0.03766164574011485,0.00029805394022527047,0.000327228510286659,0.3540000021457672,0.014040741603821516,0.03920546919107437,0.0003272284666309133
55,0.0002825782572090071,0.37583998650488726,0.013561898569599069,0.036788753428073896,0.0002825782557906738,0.0003255114279454574,0.3889999985694885,0.013813079800456762,0.038247350603342056,0.00032551139884162694
56,0.0002742568442813311,0.37874045210973006,0.013393631877712373,0.03634715446414196,0.0002742568512367638,0.000335603064741008,0.36800000071525574,0.014296839945018291,0.03903804533183575,0.000335603064741008
57,0.0002733060296950027,0.3714892875267728,0.013324600434727014,0.03619459616572879,0.00027330603326298423,0.00033739657374098897,0.4009999930858612,0.01439032843336463,0.039096105843782425,0.00033739657374098897
58,0.0002684287189117694,0.3712021145751602,0.013239821541773483,0.035871923945056367,0.0002684287225524645,0.0003151808341499418,0.3540000021457672,0.013722166419029236,0.03764849528670311,0.0003151808778056875
59,0.00026208538346412575,0.3702400777537944,0.013094714724629763,0.0354509956464595,0.0002620853999266537,0.0003209440183127299,0.34300000965595245,0.013562940061092377,0.03778574615716934,0.000320943960105069
60,0.00026041976580108836,0.3725805525020142,0.013065551449411269,0.035410966957375785,0.0002604197644872287,0.00028734735678881407,0.3870000094175339,0.013385942205786705,0.03709581680595875,0.0002873474295483902
61,0.0002516877844016653,0.3665211659140278,0.012778414811141565,0.034738098572182,0.00025168779117823925,0.0003240615042159334,0.3869999945163727,0.01388117903843522,0.038529396057128906,0.0003240616642870009
62,0.0002468057372922216,0.3640801795513802,0.012751006018474162,0.0345383527573731,0.00024680573990406093,0.000310281669953838,0.36500000953674316,0.013890800531953573,0.03779015690088272,0.00031028159719426185
63,0.00024222809757449496,0.36752627752573674,0.012665470087360825,0.034180681366841666,0.0002422281096934296,0.0003010976652149111,0.38099999725818634,0.013578967656940222,0.03756066411733627,0.0003010976070072502
64,0.0002461991992027709,0.36647808937090887,0.012770970376867107,0.034430322052717184,0.00024619920381548815,0.0002935496740974486,0.3790000081062317,0.013437047135084867,0.03676581755280495,0.00029354976140893996
65,0.00024307639872800285,0.3689190742751922,0.012643711693049158,0.034185012501972194,0.00024307640108659826,0.00029876136977691203,0.3779999911785126,0.01321491226553917,0.03707955218851566,0.0002987614570884034
66,0.000238337403160178,0.36152432490672753,0.012517718534271973,0.03382174357734216,0.00023833740295123085,0.00030436924134846777,0.35099999606609344,0.013297210913151503,0.03745742328464985,0.0003043692704522982
67,0.00023515874072369369,0.3630463495481693,0.012450221098208867,0.033565965996376165,0.00023515875239631722,0.00031280073744710535,0.375,0.013588071335107088,0.03760320320725441,0.00031280078110285103
68,0.00023237042704784438,0.35972948152839157,0.012408053845849271,0.03345052352166879,0.00023237042843608926,0.0003096548462053761,0.39399999380111694,0.013197296764701605,0.03679725155234337,0.00030965483165346086
69,0.00022379038900114724,0.3548475113723507,0.012127314624260253,0.032776175476458745,0.00022379039468701703,0.00029391110001597553,0.3610000014305115,0.013149958103895187,0.03610451519489288,0.0002939110854640603
70,0.00022699572451486468,0.36041869931502823,0.012351007809980495,0.03310349448113037,0.00022699573123126184,0.0002721348137129098,0.37300001084804535,0.012881249189376831,0.03560073673725128,0.0002721348573686555
71,0.00022101098221319546,0.35915513169340285,0.012125898720070196,0.03257837776563466,0.00022101098378029909,0.00029170674679335207,0.35999999940395355,0.012950185686349869,0.03617209382355213,0.00029170683410484344
72,0.00022541411693729346,0.36040434145439937,0.012237390544314506,0.0329346904678434,0.00022541412720579213,0.0002921295090345666,0.3580000102519989,0.013046229723840952,0.03580041043460369,0.00029212949448265135
73,0.00021854041217975065,0.3573172135213003,0.012034686101907242,0.03246204479516792,0.00021854041495624035,0.00030612520640715957,0.3580000102519989,0.013600658625364304,0.036752425134181976,0.00030612514819949865
74,0.0002179409992691442,0.356412611930431,0.012066980045641624,0.03243155372221273,0.00021794101088159094,0.00031447190849576145,0.37300001084804535,0.013847004156559706,0.037704143673181534,0.00031447186484001577
75,0.00020602912894356198,0.3520044801233282,0.011731897807184696,0.031525368475369166,0.00020602913182452527,0.00030433105712290853,0.3799999952316284,0.013186578638851643,0.03648839890956879,0.000304331086226739
76,0.00021021329069561694,0.3549623800018299,0.011862335299604345,0.03182796939388435,0.00021021329147122875,0.00028932948771398515,0.3760000020265579,0.012742968276143074,0.0351568553596735,0.0002893294731620699
77,0.00020870200383214303,0.34976451733016345,0.011808123732303742,0.03169409885859614,0.00020870200986152193,0.00031706655863672495,0.36900000274181366,0.013377272058278322,0.03751804120838642,0.0003170666313963011
78,0.00020882346747839125,0.3532680481951293,0.011844216222979608,0.0316873518477805,0.00020882348291206344,0.0002715695300139487,0.36399999260902405,0.01245720824226737,0.034370001405477524,0.0002715696318773553
79,0.00020070558919187652,0.3487019701370605,0.011597963509490957,0.031088044156566075,0.00020070558978862958,0.0002934326039394364,0.38600000739097595,0.013143462594598532,0.036049796268343925,0.0002934326039394364
80,0.0002068937990668512,0.34888863342900106,0.011814160204064747,0.031593611515469196,0.0002068938043950035,0.0002848803414963186,0.3610000014305115,0.012838502880185843,0.03508419170975685,0.00028488032694440335
81,0.00019669593660737847,0.3483142842102226,0.011498113086591651,0.030784659756609746,0.00019669594187535398,0.0002683545899344608,0.36800000071525574,0.01231355732306838,0.03422993794083595,0.0002683546335902065
82,0.0001921036419726728,0.34805582686176073,0.011377295460617236,0.030425540718824626,0.00019210364301740855,0.0002698691241675988,0.3540000021457672,0.012344920542091131,0.034058090299367905,0.0002698691969271749
83,0.00018789504369360612,0.3458158627403206,0.011265014738058857,0.030103479252660558,0.00018789505372306925,0.00029850457212887704,0.37299999594688416,0.013068214524537325,0.03632735833525658,0.00029850452847313136
84,0.0001986616170449634,0.3476825007126501,0.01159243590685381,0.030972182991409018,0.0001986616162534716,0.0002783740346785635,0.3739999979734421,0.012599760666489601,0.03474554605782032,0.0002783741365419701
85,0.00018971823560435085,0.34844351405011786,0.011354359831350955,0.030289666323760123,0.00018971824149916782,0.00027816733927465975,0.3530000001192093,0.01259587425738573,0.0344221368432045,0.00027816733927465975
86,0.00018833362860893837,0.34278616993330463,0.011283159704392056,0.030090884173361795,0.00018833363310130204,0.0003225160908186808,0.37199999392032623,0.013287295587360859,0.03725859709084034,0.00032251626544166356
87,0.0001895660142215341,0.34471024194136746,0.011305565171476075,0.030197311617465264,0.0001895660157585493,0.00027457583928480744,0.35899999737739563,0.012266624718904495,0.033802539110183716,0.00027457583928480744
88,0.00018783945830770857,0.3483573607533415,0.01135919863346051,0.030197566308059327,0.00018783946797945418,0.00028446500073187053,0.3569999933242798,0.012742731720209122,0.03513789549469948,0.0002844649716280401
89,0.00018196406063073736,0.34274309395846847,0.011115036008472051,0.029651525889917926,0.0001819640666601163,0.00027712924929801375,0.35500000417232513,0.012968119699507952,0.03578559495508671,0.000277129263849929
90,0.00017799267876003816,0.3393113560648092,0.010979064569392013,0.029318661599462108,0.0001779926871338041,0.00030623866769019514,0.37299999594688416,0.012866307515650988,0.03624603524804115,0.0003062386531382799
91,0.00019189068565550886,0.34221182027462055,0.011321139405769029,0.030170220603336108,0.00019189069392480123,0.0002677883021533489,0.3709999918937683,0.012456940952688456,0.03450480289757252,0.0002677883021533489
92,0.00017579117199015493,0.34054620531033786,0.010945786576296372,0.029171474891294905,0.00017579117003524542,0.0002721097698668018,0.37300001084804535,0.012463828083127737,0.03458824008703232,0.0002721098862821236
93,0.00017004973413142145,0.33546321308597077,0.010780335592960655,0.028673236207565504,0.00017004973462370095,0.00027233704167883843,0.3489999920129776,0.011923649813979864,0.034051358699798584,0.0002723370853345841
94,0.00016595268899408894,0.3380190689716024,0.010688285145915655,0.02839036245042603,0.00016595269727758973,0.00025525972159812227,0.35599999129772186,0.011685097590088844,0.03249797597527504,0.00025525972159812227
95,0.00016462036184026267,0.33806214497211395,0.01065292119201893,0.028247744013587924,0.0001646203732057339,0.00025743078731466085,0.36400000751018524,0.011800363659858704,0.03280729614198208,0.0002574307727627456
96,0.00017131893918447013,0.33900982150566733,0.01078849206862309,0.02875167909977742,0.0001713189474679709,0.00025685684522613883,0.3569999933242798,0.012158088851720095,0.033558424562215805,0.00025685680884635076
97,0.00016738196186092465,0.3384498294200473,0.010738119868446408,0.028494185695267307,0.00016738195775636684,0.00027982993924524635,0.35899999737739563,0.012217455543577671,0.03379274532198906,0.0002798299537971616
98,0.00016459775987214234,0.3378611226247814,0.010641266170716472,0.028261538866478794,0.00016459777622852514,0.0002571698059909977,0.3889999985694885,0.011995593551546335,0.03277076967060566,0.0002571698641986586
99,0.00016230552053844537,0.33394118703922737,0.010575822655839664,0.0280168372332146,0.00016230552673247465,0.00025734347582329065,0.3439999967813492,0.011953789740800858,0.03289348445832729,0.0002573434394435026
100,0.00016232579859261614,0.3315719943941855,0.01056982125975904,0.028015640287128742,0.00016232579916722082,0.00025632724282331765,0.36800000071525574,0.011892061214894056,0.03261912241578102,0.0002563271700637415
101,0.00015849323166034114,0.33180173587418393,0.010436376674700598,0.027637716474638557,0.00015849323482463676,0.0002445523423375562,0.37299999594688416,0.011543198954313993,0.031794087029993534,0.0002445523932692595
102,0.00016657945502466205,0.3352909072746627,0.01063500833426153,0.02830691734587439,0.0001665794572486955,0.00027871664497070014,0.375,0.012413987424224615,0.03386940807104111,0.0002787167177302763
103,0.0001611159522828014,0.335520648766643,0.01057289251774707,0.027906384981492983,0.00016111595766319048,0.00025048859242815524,0.35099999606609344,0.011435183696448803,0.03184218518435955,0.00025048859970411286
104,0.0001550940680834098,0.33194532207697486,0.010330047555709428,0.027318089633853137,0.00015509407167980813,0.0002459493771311827,0.3409999907016754,0.011753964237868786,0.032157016918063164,0.0002459493771311827
105,0.00015509051121287114,0.3311843097802177,0.010397858007358854,0.027460944865727595,0.0001550905190183008,0.0002539227425586432,0.35999999940395355,0.01149036269634962,0.03202571626752615,0.00025392269890289754
106,0.00015556057717001258,0.3353627023787414,0.010400716580765487,0.027462212758577506,0.00015556057442361128,0.00025232176267309114,0.353999987244606,0.011477545369416475,0.0318489633500576,0.00025232182815670967
107,0.00015154861687040162,0.33162943155718566,0.010278424799907017,0.02712752800641301,0.0001515486210643888,0.00026188399351667613,0.36899998784065247,0.011791286990046501,0.0329644326120615,0.0002618840226205066
108,0.00014936199167751388,0.3312417443311712,0.010222007638764274,0.02697717216109553,0.00014936199627435117,0.00023867638810770586,0.3619999885559082,0.011480188928544521,0.03160260338336229,0.00023867639538366348
109,0.0001501581086136803,0.33033714361497807,0.010236091886545253,0.027029452978645487,0.00015015811354608668,0.00026537742087384686,0.3319999873638153,0.011786268092691898,0.03341042250394821,0.0002653773772181012
110,0.00015442629192741455,0.3325196725521375,0.010357625029183486,0.027311221365383886,0.00015442629453925392,0.0002533280130592175,0.3449999988079071,0.011407398153096437,0.03186486288905144,0.000253327983955387
111,0.00014646598363068225,0.33272069375434604,0.01012440660401317,0.02668531992306941,0.00014646598733949413,0.0002394388138782233,0.36499999463558197,0.011308439075946808,0.031760020181536674,0.00023943876294652
112,0.00014154982795816837,0.32643156699580783,0.009944845207658598,0.02620733365477292,0.0001415498343983374,0.0002396830022917129,0.34199999272823334,0.011435347143560648,0.031967259012162685,0.00023968303867150098
113,0.00014802313505650762,0.3288581923431726,0.01017141043456254,0.02672407091118365,0.0001480231311166002,0.00025781604927033186,0.3540000021457672,0.0116601069457829,0.03192918747663498,0.0002578160128905438
114,0.00015268352844962962,0.33066739411276286,0.010363358235761526,0.02715336325933087,0.00015268353286760814,0.0002489608959876932,0.3399999886751175,0.011276965960860252,0.03180754370987415,0.00024896085233194754
115,0.00014447178412380267,0.32923152098964625,0.01010816564508406,0.02645310040450587,0.00014447178428051303,0.00022863102640258148,0.3499999940395355,0.01136211073026061,0.03112115804105997,0.00022863100457470864
116,0.00013673477216677576,0.3279105183035589,0.009813969325211966,0.025813417781464683,0.00013673477374808777,0.00024296801711898297,0.34700000286102295,0.011409648694097996,0.03178897313773632,0.00024296795891132206
117,0.00013391106350503498,0.3244213443321141,0.009770670738551548,0.025555818619876356,0.00013391106578757364,0.00026848799461731687,0.37199999392032623,0.011852080468088388,0.03268485516309738,0.0002684878927539103
118,0.00014859545093820554,0.32812589741261206,0.010219370138849463,0.02681482396324487,0.00014859545624420944,0.0002508808975107968,0.35999999940395355,0.011580554768443108,0.03207330219447613,0.0002508809557184577
119,0.00013988836037247555,0.32515363720179385,0.009950814806489752,0.026049286767585344,0.0001398883589620823,0.0002262272100779228,0.34299999475479126,0.011242014821618795,0.03099240455776453,0.00022622722462983802
120,0.00013458444986272187,0.32455057190401343,0.00974311113923901,0.0256315202737721,0.00013458445845170337,0.00024238233891082928,0.3229999989271164,0.01158972829580307,0.03207189589738846,0.0002423824480501935
121,0.00013261984686654217,0.32269829292545493,0.009702553405442436,0.025424161416361685,0.0001326198450161062,0.0002203954427386634,0.32099999487400055,0.010804682038724422,0.029558304697275162,0.00022039541363483295
122,0.00013400856423265463,0.3247372358635151,0.009740516005220747,0.025535378605234315,0.0001340085679937033,0.0002511454440536909,0.335999995470047,0.01127968030050397,0.031474520452320576,0.00025114543677773327
123,0.00013796381995397937,0.3280684639400264,0.009877709077147927,0.025833273541526116,0.00013796382287923945,0.0002444793135509826,0.32899999618530273,0.011123116128146648,0.03128713183104992,0.0002444792989990674
124,0.00013007103814452605,0.3230859812418191,0.009648730277002669,0.025131875647275904,0.00013007104026408592,0.00022980885114520788,0.3439999967813492,0.010791633743792772,0.0302578192204237,0.00022980890207691118
125,0.00013018835835377013,0.32340187173935625,0.009594621979419928,0.02516460916654656,0.00013018836402543154,0.0002398766009719111,0.3200000077486038,0.01116596581414342,0.03082799818366766,0.00023987663735169917
126,0.00013169843283735228,0.3255269675188819,0.009681806739563694,0.02524156992234742,0.00013169843774761027,0.00022547821572516114,0.3369999974966049,0.01094515947625041,0.029967420734465122,0.0002254782521049492
127,0.0001335823029432638,0.32594336961972076,0.009765510582814683,0.025444613499309623,0.000133582304622781,0.00024326614220626652,0.34700000286102295,0.011233566328883171,0.03176151495426893,0.00024326614220626652
128,0.0001305509846373099,0.32321520770625173,0.009652393125414842,0.02517538192298923,0.00013055098920405878,0.00022649088350590318,0.3610000014305115,0.011063077487051487,0.030318752862513065,0.00022649093443760648
129,0.00012740542852507676,0.32159267232334665,0.009527446198670384,0.024882515358658527,0.0001274054316442398,0.00023213216627482325,0.3189999908208847,0.011285507120192051,0.03078172169625759,0.00023213218082673848
130,0.000126487600205311,0.32301418806938825,0.009518228549428721,0.02482314821456577,0.00012648760039921396,0.00022889171668794006,0.31199999153614044,0.010898434091359377,0.030107570812106133,0.00022889167303219438
131,0.00012499901024509447,0.3221957381748604,0.00943187275816601,0.024637405443655225,0.00012499901361833724,0.0002433385598124005,0.31199999153614044,0.010984900407493114,0.030772367492318153,0.0002433385670883581
132,0.00012731159404597765,0.32221009691273295,0.009508680809212404,0.02483394891539284,0.00012731159409821443,0.00022239905956666917,0.3540000021457672,0.010832214262336493,0.029850886203348637,0.00022239909594645724
133,0.00012728917044391925,0.32282752297417694,0.009551146842327916,0.024885635180697835,0.0001272891735258897,0.00023309609241550788,0.346000000834465,0.011006984859704971,0.03047055844217539,0.00023309612151933834
134,0.00012566193862832077,0.3222388150089675,0.009491225320275206,0.024710814244918947,0.0001256619441574802,0.0002198395159211941,0.3710000067949295,0.011052203364670277,0.03056823741644621,0.0002198395086452365
135,0.000121988697153209,0.3222244559647015,0.009374024246871577,0.024379224881095892,0.00012198870067522213,0.0002376616685069166,0.3360000103712082,0.010976141318678856,0.03021822962909937,0.0002376616685069166
136,0.00012527758951969958,0.31984090499088225,0.009502304002891255,0.024667655048432633,0.00012527759466105312,0.00024859303812263533,0.3499999940395355,0.011507592629641294,0.03190288133919239,0.00024859304539859295
137,0.00012747824121850908,0.3253115844592366,0.009572165952769154,0.02486002028872524,0.00012747824665907493,0.0002218109875684604,0.318000003695488,0.010560697875916958,0.029014079831540585,0.00022181097301654518
138,0.00011635467084211941,0.3185199035158191,0.009167342024811615,0.023769400670870272,0.00011635467481211524,0.00021770046441815794,0.34700000286102295,0.010724404361099005,0.029884882271289825,0.00021770052262581885
139,0.00011913816468937353,0.31847682588235043,0.00926623950551858,0.024061967483272086,0.0001191381639580585,0.00024619379837531596,0.3629999905824661,0.01141340984031558,0.03107565827667713,0.00024619383475510404
140,0.00012402473758946257,0.3241198074895711,0.009462137125510802,0.024548768118664903,0.00012402473863419832,0.0002288196119479835,0.3410000056028366,0.01114160381257534,0.030225636437535286,0.00022881963377585635
141,0.00012566326858987734,0.32579978104195295,0.009524817399034022,0.024644513279036988,0.00012566327182855815,0.0002360042999498546,0.3580000102519989,0.011146033182740211,0.031104985624551773,0.00023600437270943075
142,0.00011722040710444467,0.3170265931227214,0.009208930835506971,0.023903800157369995,0.00011722041053786422,0.0002340607243240811,0.34700000286102295,0.011173935141414404,0.031229276210069656,0.00023406076797982678
143,0.00011525836846020598,0.31784504001493613,0.009160713584234882,0.023682728810517754,0.00011525836926590618,0.00023072869225870818,0.35599999129772186,0.010903021320700645,0.030037171207368374,0.00023072873591445386
144,0.00011128418647915463,0.31495893458921315,0.008990065195415252,0.023282762846132943,0.0001112841873972684,0.0002319645500392653,0.3439999967813492,0.010988067369908094,0.030216524377465248,0.0002319645500392653
145,0.00011331135020992631,0.3164378843829699,0.009073346906265281,0.023517681373035393,0.00011331135580720254,0.00022361903393175453,0.32999999821186066,0.01089917030185461,0.029436937533318996,0.00022361899755196646
146,0.00011481665412880044,0.31692608047186227,0.009162127509010094,0.023704698231206245,0.0001148166579048933,0.00022912625718163326,0.33500000834465027,0.010706997010856867,0.02933091390877962,0.0002291262717335485
147,0.00011736462541237481,0.32050140793521664,0.009235696726107466,0.02385411691086412,0.00011736462516623507,0.0002179223665734753,0.32600000500679016,0.010910693556070328,0.029964352026581764,0.0002179224175051786
148,0.00013772063693232123,0.3259290108561728,0.009839243465987139,0.025498414461138118,0.0001377206387827572,0.00022333631932269782,0.32100000977516174,0.010956156998872757,0.029615244828164577,0.00022333639935823157
149,0.00012550147985435946,0.3194101438748762,0.009457414008043251,0.02448129952268412,0.0001255014813470779,0.00022471288684755564,0.36900000274181366,0.011210895143449306,0.030246327631175518,0.0002247129232273437
150,0.00010939575432817796,0.3155907189477682,0.008954353334793946,0.023114536761108685,0.00010939575399260885,0.0002152452289010398,0.33000001311302185,0.010432731825858355,0.028890966437757015,0.00021524520707316697
151,0.00010514159450107916,0.31066566921634065,0.008779398507072886,0.022672497569110234,0.00010514159259046643,0.0002044672437477857,0.3439999967813492,0.010249560698866844,0.028402420692145824,0.00020446722191991284
152,0.00010612122864025364,0.31415484489520124,0.008820690034157096,0.02278675312730187,0.00010612123010288368,0.00020654687978094444,0.3229999989271164,0.010265464428812265,0.02831754833459854,0.00020654689433285967
153,0.00010639607061762133,0.3166676242668127,0.008874619400714871,0.022822963714237587,0.00010639607137108474,0.00022547467233380303,0.32600000500679016,0.01070045679807663,0.029407188296318054,0.0002254746577818878
154,0.00010711105002399336,0.31538969687345103,0.00887558346555509,0.02285778251658507,0.00010711105172565894,0.00021850993653060868,0.3270000070333481,0.01068606972694397,0.029111272655427456,0.00021850991470273584
155,0.00010776401070175206,0.3136522890174555,0.008863797195756,0.022910093730415592,0.00010776401200767173,0.0002124248567270115,0.3440000116825104,0.010779877658933401,0.02920344192534685,0.00021242482762318105
156,0.00010575576415278916,0.31415484535222377,0.008818458543331789,0.022757033239719508,0.00010575576689919048,0.00021713577007176355,0.32600000500679016,0.010887603275477886,0.02962278015911579,0.000217135799175594
157,0.00010558729484285645,0.30978978865726287,0.008827640998839602,0.02273332726108296,0.00010558729538026851,0.00020539087563520297,0.3360000103712082,0.01053488440811634,0.028222919441759586,0.00020539086108328775
158,0.00010640483979555732,0.31391074762058985,0.008838207002419574,0.02275925216349377,0.00010640484199744237,0.000214029336348176,0.3310000002384186,0.010824673343449831,0.0294794999063015,0.00021402931452030316
159,0.00011397590344307392,0.3179599106924585,0.00911912125477593,0.023536668302796524,0.00011397590835333192,0.0002284291185787879,0.34599998593330383,0.010683957021683455,0.0295476745814085,0.00022842919861432165
160,0.00010466301087025204,0.31694044020594137,0.008760795542657594,0.022560421232568233,0.00010466301452682714,0.00022303053992800415,0.34199999272823334,0.01069121016189456,0.028956612572073936,0.00022303044534055516
161,9.942721292990335e-05,0.3126041009910047,0.00860191807262101,0.022080727556811203,9.9427215161041e-05,0.00021066758199594915,0.31700000166893005,0.01025164034217596,0.028028334490954876,0.00021066756744403392
162,0.00010223029516114589,0.3106800291455529,0.008709465014654078,0.022340265791802223,0.00010223029732500257,0.0002169682556996122,0.306999996304512,0.010487359482795,0.02896573580801487,0.00021696827752748504
163,0.00010282794814293196,0.3122451326331993,0.008702464421941352,0.0223880600819455,0.00010282795045639479,0.00021672010916518047,0.3499999940395355,0.010631494224071503,0.028709230944514275,0.00021672009461326525
164,0.00010324909959636826,0.31261845911352293,0.008724461802767187,0.022432229599370003,0.00010324909979027122,0.0001969041913980618,0.3400000035762787,0.009938372764736414,0.027497287839651108,0.00019690417684614658
165,9.788336880388423e-05,0.3062001030568409,0.008537033282874659,0.021900293889114388,9.788336953519925e-05,0.00020866632257821038,0.3060000091791153,0.010417504701763391,0.0285376887768507,0.0002086663371301256
166,0.0001017765295772726,0.31569123053652054,0.00872279546708151,0.022350524360510108,0.00010177653370397878,0.00021075052063679323,0.3699999898672104,0.010482986457645893,0.029085331596434116,0.00021075057156849653
167,0.00010832969038021586,0.31291999291695144,0.008899115962561802,0.02286484943988777,0.00010832969119385606,0.0002086008244077675,0.3330000042915344,0.010616027284413576,0.029097549617290497,0.0002086008244077675
168,0.0001053185351051168,0.31052208592428715,0.008820553335355995,0.02262488357330353,0.00010531853206744315,0.000210609236091841,0.32099999487400055,0.010611674282699823,0.028867637738585472,0.00021060927247162908
169,0.00010290729581598794,0.3129774288697832,0.008713349325059355,0.022417659248918573,0.00010290729282344688,0.00020956325170118362,0.31599999964237213,0.010348869487643242,0.02853447198867798,0.0002095632371492684
170,9.744044392839655e-05,0.3098185054449065,0.008532951598732689,0.021818293783503258,9.744044795062916e-05,0.00021339821250876412,0.3059999942779541,0.010298385750502348,0.028324280865490437,0.00021339823433663696
171,9.39584560406504e-05,0.3090287749731769,0.008409677563332196,0.02145959370426205,9.39584585108236e-05,0.00019950482237618417,0.3409999907016754,0.010494953952729702,0.028373626060783863,0.00019950487330788746
172,9.698217161194734e-05,0.3083682722676239,0.008502901877598558,0.02175450705725279,9.698217148532537e-05,0.00019828767835861072,0.3540000021457672,0.01022543665021658,0.028338372707366943,0.00019828763470286503
173,9.698900809520248e-05,0.30819596853174613,0.008503388042986585,0.02178079407067553,9.698900905761305e-05,0.00021536032727453858,0.35599999129772186,0.01070426031947136,0.028843210078775883,0.00021536031272262335
174,9.538444910337404e-05,0.30967491872946296,0.008443597570018035,0.02158397282442451,9.538444882004171e-05,0.00020203079475322738,0.33299998939037323,0.010255202185362577,0.028462767601013184,0.00020203087478876114
175,9.588189886186362e-05,0.31142668423554876,0.008468895147803147,0.02163245709413232,9.588190149585137e-05,0.00021480617579072714,0.32999999821186066,0.010388024616986513,0.02846741769462824,0.00021480619034264237
176,9.252552892638262e-05,0.30553960352904985,0.008366757525786578,0.02133559698265607,9.252553173212494e-05,0.00019517922919476405,0.32199999690055847,0.010276760440319777,0.02822955697774887,0.00019517927285050973
177,9.288362322274041e-05,0.30879903433789996,0.008390447659369096,0.021355091990684458,9.288362437194973e-05,0.00020666800992330536,0.33800001442432404,0.010207785293459892,0.02794088888913393,0.00020666803902713582
178,9.532972916695511e-05,0.3095744067162102,0.008463538145130484,0.021617817117382587,9.532973268896825e-05,0.00021196845773374662,0.3499999940395355,0.010233736131340265,0.028032921254634857,0.00021196842135395855
179,0.00010073844790376839,0.3132358861078407,0.008613696124786163,0.021998320358554115,0.00010073844576206011,0.00020639236026909202,0.3310000002384186,0.010346099734306335,0.028592074289917946,0.0002063923966488801
180,9.740932035796626e-05,0.3090287757853762,0.008517752372271455,0.021744237707861602,9.740932201533504e-05,0.00019977244664914906,0.33799999952316284,0.010063169058412313,0.027568516321480274,0.00019977242482127622
181,9.839277715513895e-05,0.30865544683336493,0.008552543152646612,0.021855314175075347,9.839277958017956e-05,0.00021152044064365327,0.33500000834465027,0.010514805559068918,0.02859865501523018,0.00021152041881578043
182,9.524782878156797e-05,0.3060852344162357,0.008471441552190382,0.021556453859361533,9.52478322964769e-05,0.00019616114150267094,0.32899999618530273,0.009669384453445673,0.02681339532136917,0.00019616114877862856
183,9.231924884505491e-05,0.3045919250184887,0.008305181208483387,0.02120025616883119,9.231924818102087e-05,0.00019076582248089835,0.3100000023841858,0.010071231983602047,0.0271181957796216,0.00019076580792898312
184,9.231263128659279e-05,0.3070329107127193,0.008314375747595373,0.021203204400717175,9.231263359295141e-05,0.00019422214245423675,0.2970000058412552,0.009896769188344479,0.02715402003377676,0.0001942221206263639
185,8.843250076956824e-05,0.30108839300411955,0.008192696981939737,0.02084167187677322,8.843250450094643e-05,0.00020391590078361332,0.306999996304512,0.010026995558291674,0.02749162632972002,0.00020391587167978287
186,9.297090877750103e-05,0.3106369542730484,0.00838431856260076,0.021320184646952598,9.297091000903553e-05,0.00021106801432324573,0.318000003695488,0.010493103880435228,0.028578530065715313,0.00021106801432324573
187,9.232866159985011e-05,0.3058267750051813,0.008372271382202017,0.021273176810180983,9.232866386107617e-05,0.00020027564460178837,0.33799999952316284,0.01019313558936119,0.027691124007105827,0.00020027569553349167
188,9.022323903716622e-05,0.3051949926296249,0.008252809172190555,0.021034490072975743,9.022323935058694e-05,0.00019304535089759156,0.3449999988079071,0.009902788791805506,0.02696370054036379,0.00019304535817354918
189,8.710254947854957e-05,0.3011027511138,0.008143442654866134,0.02067708329626943,8.710255085885444e-05,0.00019547129340935498,0.3240000009536743,0.010093387216329575,0.027148306369781494,0.00019547123520169407
190,9.256558483990578e-05,0.3084687837716473,0.008350714766968434,0.021217221987283583,9.256558784749105e-05,0.00020339892216725275,0.3189999908208847,0.010123515035957098,0.027704283595085144,0.00020339891489129514
191,8.954511365325393e-05,0.3045057720760332,0.008231057075124715,0.020931680807927785,8.954511638461105e-05,0.00020622066949727014,0.32500000298023224,0.010178674012422562,0.02771031577140093,0.00020622067677322775
192,9.470727755149482e-05,0.3074349549358124,0.008404909713389228,0.02139552864987181,9.470728218552469e-05,0.0001953936298377812,0.31199999153614044,0.01012418419122696,0.027702790684998035,0.00019539370259735733
193,8.955595227592911e-05,0.30315605139898055,0.008214453701919453,0.020911206578962404,8.955595291071055e-05,0.0001946946795214899,0.31299999356269836,0.010129424277693033,0.027926740236580372,0.0001946947377291508
194,9.588166076993075e-05,0.31042157283523414,0.008461936998735367,0.021570596550830125,9.588166197137686e-05,0.0001900491988635622,0.3270000070333481,0.010043201968073845,0.027450469322502613,0.00019004922069143504
195,8.9942192524658e-05,0.3067026587985069,0.008255276971850588,0.020927710374763226,8.99421961661889e-05,0.000187089761311654,0.32899999618530273,0.009633533656597137,0.026804002933204174,0.000187089761311654
196,8.46966307669621e-05,0.3044052624685679,0.008035579227239714,0.020402716766086678,8.469663139380355e-05,0.00019412057008594275,0.33799999952316284,0.01002795109525323,0.027851332910358906,0.00019412055553402752
197,8.634165594212977e-05,0.30555396141535407,0.008091851471278786,0.020548664901135338,8.634165195708975e-05,0.00018806258594850078,0.30399999022483826,0.009812588337808847,0.027151526883244514,0.00018806255684467033
198,8.73684100771075e-05,0.3050514052868451,0.008155370878343364,0.020677062519821984,8.736841346539447e-05,0.00019601187523221597,0.3240000009536743,0.010061464738100767,0.027516959235072136,0.0001960118897841312
199,0.00010846273825363754,0.31362357242922434,0.008802094489699108,0.022432381588154526,0.00010846274020854706,0.00018424837617203593,0.2939999997615814,0.009795831516385078,0.026758871972560883,0.00018424847803544253
