#,huber,l1,linf,expl
0,8.6e-05,0.00593,0.044858,0.381882
1,6e-05,0.005225,0.039654,0.316338
2,5.1e-05,0.005079,0.036588,0.180151
3,4.2e-05,0.00463,0.033759,0.129772
4,3.8e-05,0.004568,0.031377,0.0986168
5,3.2e-05,0.00412,0.028699,0.08666
6,2.7e-05,0.003848,0.026292,0.0795582
7,2.6e-05,0.003882,0.025442,0.0615376
8,2.4e-05,0.003769,0.024438,0.0504708
9,2.1e-05,0.00356,0.023129,0.048093800000000006
10,2e-05,0.003454,0.022691,0.052545900000000006
11,1.7e-05,0.003185,0.021018,0.0313767
12,1.6e-05,0.003112,0.020058,0.0352921
13,1.5e-05,0.003017,0.019475,0.0264572
14,1.4e-05,0.002961,0.018763,0.0277414
15,1.4e-05,0.002914,0.017968,0.037081199999999995
16,1.3e-05,0.002781,0.017367,0.0338754
17,1.3e-05,0.002827,0.017278,0.028518900000000003
18,1.2e-05,0.002776,0.01683,0.0376375
19,1.1e-05,0.002561,0.015954,0.030542000000000003
