epoch,huber_loss,l0_loss,l1_loss,linf_loss,loss,val_huber_loss,val_l0_loss,val_l1_loss,val_linf_loss,val_loss
0,0.007065190670899582,1.0178191953336382,0.07950992972757615,0.17600594825726418,0.007065190755895939,0.004393568728119135,0.8740000128746033,0.06387099996209145,0.14375343918800354,0.004393570125102997
1,0.004333408976669744,0.8428148906527119,0.062187510931714714,0.14002446052093315,0.004333409096060473,0.0034042756306007504,0.7780000269412994,0.055911485105752945,0.12565329670906067,0.003404275863431394
2,0.003298875918723893,0.7796077176489471,0.05333643094181029,0.12181178095126972,0.003298875952636851,0.0025311720091849566,0.7190000116825104,0.04781974479556084,0.10959983617067337,0.002531173173338175
3,0.0025028824900102525,0.720779968871849,0.045634552545429995,0.10641578142179517,0.0025028824378369855,0.001925236254464835,0.7120000123977661,0.04113662615418434,0.09703666344285011,0.001925236138049513
4,0.001953103950390095,0.6597553271091852,0.03920252080941507,0.09413052006274758,0.0019531040463787437,0.0015048403292894363,0.6490000188350677,0.03529568761587143,0.08558366820216179,0.0015048402710817754
5,0.0016155090236456618,0.6151283644642577,0.03445063439416561,0.08546891235391534,0.0016155090868112205,0.0013314163661561906,0.5699999928474426,0.03192194923758507,0.07952994480729103,0.0013314164243638515
6,0.0014639399302526401,0.5947389597320645,0.03200637463245518,0.0811914434302073,0.0014639399734729399,0.0012319022207520902,0.5550000071525574,0.029943162575364113,0.07652103155851364,0.0012319022789597511
7,0.0013772275500666764,0.5840560547837602,0.030507446710307227,0.07847409635734315,0.0013772275678589439,0.0012021997245028615,0.5770000219345093,0.029579658061265945,0.07590952143073082,0.0012021998409181833
8,0.0013215431208001723,0.5709608859158927,0.02964072611137354,0.07690340249807912,0.0013215431623488949,0.0011457258369773626,0.5819999873638153,0.028620240278542042,0.07367391139268875,0.0011457257205620408
9,0.0012795849305537298,0.5666101899503614,0.028989837679890672,0.07566978448378102,0.0012795849919206715,0.001125438662711531,0.521000012755394,0.02810681238770485,0.07299204543232918,0.0011254384298808873
10,0.0012420080188921723,0.5573344437784072,0.028376700458448523,0.07452685626991913,0.0012420080427121474,0.0010742457234300673,0.5399999916553497,0.027280503883957863,0.07183661684393883,0.00107424589805305
11,0.0012105950278161115,0.548977659574143,0.0279017358484063,0.07363487681200966,0.0012105950297919158,0.0010445212828926742,0.5710000097751617,0.02725178934633732,0.07079650461673737,0.001044521457515657
12,0.0011857928457713188,0.543420826053299,0.02755185637581777,0.07293689940031677,0.0011857928904860087,0.0010260539129376411,0.5309999883174896,0.026641973294317722,0.07019783183932304,0.0010260537383146584
13,0.0011666231203923667,0.5428033997179837,0.02730773053890011,0.0724693912103191,0.0011666231273193826,0.001009940984658897,0.539000004529953,0.026300805620849133,0.06895621865987778,0.0010099411592818797
14,0.0011389328789244198,0.5353512168409877,0.026797871690505157,0.07151088965799415,0.001138932900237029,0.0010027909302152693,0.539000004529953,0.026165501214563847,0.06957141309976578,0.0010027909884229302
15,0.001125768845863637,0.5344178974132057,0.026734637688877703,0.07124827591514377,0.0011257688788772866,0.0009752685145940632,0.5160000026226044,0.026010552421212196,0.06858401373028755,0.0009752683399710804
16,0.0011049914833553389,0.5278990290548504,0.02637975451766325,0.0705369525742513,0.0011049915129623142,0.0009621297649573535,0.55799999833107,0.025813204236328602,0.06811567395925522,0.0009621301433071494
17,0.001091541095197655,0.5285164554791738,0.026195239296448194,0.07017124646354685,0.0010915410966920451,0.0009514407138340175,0.5049999952316284,0.02544296160340309,0.06699593737721443,0.0009514407138340175
18,0.0010734742766626891,0.5232037202770751,0.025862727230895628,0.06949804462849782,0.0010734742937963553,0.0009509381197858602,0.5160000026226044,0.025297862477600574,0.06727457419037819,0.0009509380615781993
19,0.0010585895668674373,0.5183217504342744,0.025639446343032477,0.0690153545661661,0.0010585895756432175,0.0009036889823619276,0.5149999856948853,0.024687333032488823,0.06562867388129234,0.0009036888950504363
20,0.0010462644231339284,0.5181350869643175,0.02552072730754753,0.06863702353885771,0.0010462644799675528,0.0009157587483059615,0.5200000107288361,0.024724877439439297,0.06581238657236099,0.0009157588356174529
21,0.0010429914456896322,0.5212796477846026,0.025597481372320676,0.06879479187452932,0.0010429914839587204,0.0009178003238048404,0.5090000033378601,0.02453336212784052,0.06572850793600082,0.0009178001782856882
22,0.0010291125239698957,0.5176756072086138,0.02532916644014802,0.06828049035973636,0.001029112566658634,0.0009037310082931072,0.5160000026226044,0.02493874728679657,0.06591400131583214,0.0009037308627739549
23,0.001014758498704719,0.5129085060038509,0.025088676659014934,0.06776980316541037,0.0010147585373281815,0.0008698877645656466,0.5130000114440918,0.024116490967571735,0.06446169689297676,0.0008698876190464944
24,0.0010046928876004358,0.514085921242745,0.024976080399382965,0.06747896549739142,0.0010046929034804191,0.0008794413006398827,0.517999991774559,0.024120857939124107,0.06509661301970482,0.0008794412424322218
25,0.0009916788857468144,0.5115444254138469,0.024804669673744544,0.0670008914811882,0.0009916788751222697,0.0008714703435543925,0.4989999830722809,0.02399052120745182,0.06440016627311707,0.0008714703435543925
26,0.00098510115726157,0.5107116170048227,0.024738624662971363,0.06683798890960332,0.0009851011702162933,0.0008686174405738711,0.517999991774559,0.024043438024818897,0.06419925019145012,0.0008686175278853625
27,0.0009694805464067676,0.5079260217017852,0.024502395328028816,0.06627341874817198,0.0009694805415692232,0.0008421055972576141,0.510000005364418,0.023809442296624184,0.06355884671211243,0.0008421051898039877
28,0.0009666424555408517,0.508328067503917,0.02455249822289171,0.0662786778297726,0.000966642515059029,0.0008663790358696133,0.48399999737739563,0.023980426602065563,0.0643051415681839,0.0008663789485581219
29,0.0009546437826673347,0.5053845251419934,0.024350932398047673,0.06585366545119563,0.0009546438272048373,0.0008518610848113894,0.527999997138977,0.024206209927797318,0.0635182224214077,0.000851861055707559
30,0.0009450721801283229,0.5046809445291006,0.024244662614430253,0.06550360511106665,0.0009450722020360136,0.0008297910389956087,0.5080000013113022,0.023317608051002026,0.06218425743281841,0.0008297910680994391
31,0.0009355891819152549,0.5017517656096434,0.024141422817854235,0.06526709036926948,0.0009355891894373522,0.0008250091050285846,0.48100000619888306,0.023149902932345867,0.06214071437716484,0.0008250091050285846
32,0.0009286346700924597,0.5042214700608229,0.02405681819653129,0.06496112510056137,0.0009286346572012564,0.0008341043721884489,0.502000018954277,0.023490091785788536,0.06199794262647629,0.0008341042266692966
33,0.0009121259072334476,0.4978892674267268,0.023815470219645238,0.06434040068963869,0.0009121259207832523,0.0008118191617541015,0.5000000149011612,0.02273936476558447,0.061235615983605385,0.0008118189871311188
34,0.0009097234363537471,0.49830566745898225,0.023828101124507284,0.06438118686390207,0.000909723471216161,0.000799200584879145,0.4999999850988388,0.022901248186826706,0.061188019812107086,0.0007992007303982973
35,0.0008985025758843437,0.4969703040982394,0.023692246457690976,0.0639979369240002,0.000898502568007872,0.0008432932663708925,0.5139999985694885,0.023700482212007046,0.06237352080643177,0.0008432931499555707
36,0.0008930414243478556,0.497472859774005,0.02370910141468356,0.0639009271605491,0.000893041442678371,0.0008114434604067355,0.4989999830722809,0.02300581242889166,0.060461146757006645,0.0008114437805488706
37,0.0008839084913703375,0.49704209695315077,0.02357002034071726,0.06345544670366192,0.0008839085222945156,0.0008044792048167437,0.5060000121593475,0.022802766412496567,0.061325594782829285,0.0008044791466090828
38,0.000875021995029572,0.49322267226482425,0.023437168088316727,0.06324454437123764,0.0008750220421312741,0.0008088265894912183,0.47300000488758087,0.02319477405399084,0.0609528087079525,0.0008088266768027097
39,0.0008651796397747978,0.4943713729019093,0.023334795184937127,0.06281103737907773,0.0008651796891431585,0.0008014784834813327,0.482000008225441,0.022996273823082447,0.06046954356133938,0.0008014783379621804
40,0.0008578786714744189,0.4930647299062527,0.02326994333055698,0.06260000486646848,0.0008578786787558091,0.0007704523159191012,0.47700001299381256,0.021888257935643196,0.059009166434407234,0.0007704522868152708
41,0.0008485696982306652,0.48960427358172254,0.023093491802628062,0.062307753643881865,0.000848569716504347,0.0007920045172795653,0.4950000047683716,0.02287025935947895,0.06041844189167023,0.0007920044881757349
42,0.0008492315506572647,0.4928493466771496,0.02325781419518917,0.0624330423508734,0.0008492315461740947,0.0007768324285279959,0.49799999594688416,0.02265485841780901,0.05940169282257557,0.0007768324867356569
43,0.0008370055983242454,0.4894750427832781,0.023048144348026055,0.06197140817961854,0.0008370056212515982,0.0007866118103265762,0.4950000047683716,0.022927540354430676,0.060291314497590065,0.0007866118394304067
44,0.000828830581363803,0.4926339666472045,0.02300156807482763,0.061708105083897964,0.0008288305984974692,0.0007807259389664978,0.4949999898672104,0.02290572226047516,0.05919789895415306,0.0007807258807588369
45,0.0008281665985421631,0.48946068519480873,0.02303076610991877,0.061756109040315886,0.0008281666212856424,0.0007401131733786315,0.46000000834465027,0.022231273353099823,0.05797497555613518,0.0007401133480016142
46,0.000814113946705956,0.48687611355197385,0.022778632034783038,0.06115316927439861,0.0008141139553045491,0.0007602139376103878,0.5109999924898148,0.022491564974188805,0.059787020087242126,0.000760213821195066
47,0.0008127778224120111,0.48743610231005874,0.022794228834833154,0.06110459692674785,0.0008127778427116445,0.0007563320978078991,0.45100000500679016,0.022443247959017754,0.059001779183745384,0.0007563322433270514
48,0.0008041046501746734,0.48575613158710873,0.02261957868118055,0.06080298364118797,0.0008041046299385599,0.0007422903145197779,0.5040000081062317,0.021954738534986973,0.05798366479575634,0.000742290256312117
49,0.0007946205716112378,0.4876514829716193,0.022523113077030466,0.06040476505009634,0.0007946205870164933,0.0007210648036561906,0.47699999809265137,0.021835343912243843,0.05739948712289333,0.0007210646872408688
50,0.0007890854259084699,0.48743610215942956,0.02241434471108403,0.06023407907293499,0.0007890854684768547,0.0007269056513905525,0.45400001108646393,0.021981832571327686,0.057983456179499626,0.0007269056222867221
51,0.0007879180445704194,0.4848658871893072,0.022478022168285986,0.060214540232782776,0.0007879180576454962,0.000711567176040262,0.48000000417232513,0.021749574691057205,0.057255879044532776,0.0007115672924555838
52,0.0007839533235060632,0.4891878680686196,0.02246315856799325,0.06008303397006734,0.0007839533747867082,0.0006998326862230897,0.48999999463558197,0.02157566137611866,0.05683588422834873,0.000699832511600107
53,0.0007749541180242987,0.48143414876159907,0.022273261294117212,0.05970885528642116,0.000774954124115526,0.0006951695249881595,0.453000009059906,0.021782043389976025,0.05656413175165653,0.0006951694958843291
54,0.0007677917866753122,0.48693354588628235,0.0222077523395877,0.05940852141930278,0.0007677918239882582,0.0007133649487514049,0.47200000286102295,0.02177971601486206,0.05776629038155079,0.0007133649196475744
55,0.0007603496210486999,0.48143414885403063,0.02201480175425776,0.05906441431559109,0.0007603496609258453,0.000673845293931663,0.48399999737739563,0.021256063133478165,0.05583992227911949,0.0006738452357240021
56,0.0007591308016933055,0.4847510174335326,0.022074530247765133,0.059076894534910426,0.000759130805277167,0.000687028921674937,0.5069999992847443,0.022037972696125507,0.056891653686761856,0.0006870288343634456
57,0.000753344679049253,0.48077364766161607,0.02196882666965296,0.05880792073729591,0.0007533446961260856,0.0006668148562312126,0.48500001430511475,0.021311072632670403,0.05592980980873108,0.0006668148562312126
58,0.0007451466958250973,0.47985468939118747,0.021820366889046646,0.058452166974233,0.0007451467011373697,0.0006577932799700648,0.4710000157356262,0.020945783704519272,0.05548563040792942,0.0006577933381777257
59,0.0007449984513868533,0.48518178048375404,0.021872230363678847,0.058529847726952466,0.000744998459326845,0.0006571599515154958,0.45000000298023224,0.020900976844131947,0.055050432682037354,0.0006571600097231567
60,0.0007368818260477373,0.4806731357373715,0.021688711637720175,0.05819135733677534,0.0007368818439536721,0.0006624115048907697,0.47599999606609344,0.02147510275244713,0.05577165633440018,0.0006624115630984306
61,0.0007384560122864472,0.4811326164225257,0.021784683502258415,0.058328857502786824,0.0007384560346120321,0.0006536740402225405,0.47099998593330383,0.021225405856966972,0.05529499426484108,0.0006536741275340319
62,0.0007307729170341351,0.48025673393522345,0.02163736711971213,0.05794114922121168,0.000730772922466761,0.0006483999022748321,0.4729999899864197,0.021013600751757622,0.05516182444989681,0.000648399960482493
63,0.0007250130362430259,0.4836023197816437,0.021649572274880177,0.057743600158163245,0.0007250130702128176,0.0006422213918995112,0.4780000001192093,0.020934108644723892,0.05503014102578163,0.0006422213336918503
64,0.0007264604161613674,0.4823243914477056,0.021686199610026602,0.05788071849636156,0.000726460419985936,0.0006871414952911437,0.4960000067949295,0.022159822285175323,0.05823102220892906,0.0006871417281217873
65,0.0007230735998907757,0.4808023642969189,0.021684416683543612,0.05792115746976061,0.0007230736249644335,0.0006421823636628687,0.48099999129772186,0.02083534747362137,0.0547508355230093,0.0006421824509743601
66,0.0007138560269499253,0.4760496213516097,0.02142222382350331,0.057370121607214705,0.0007138560473063923,0.000637096120044589,0.4519999921321869,0.02099752612411976,0.054696230217814445,0.0006370962364599109
67,0.0007092387467427998,0.47853368531520374,0.021385191554372338,0.057128105976081624,0.0007092387373084182,0.0006535186839755625,0.4780000001192093,0.020897895097732544,0.055322544649243355,0.0006535186257679015
68,0.0007046497072305332,0.47834702231767473,0.021284437523487756,0.05693250819916605,0.0007046497009621188,0.0006273113831412047,0.46000000834465027,0.020730922929942608,0.05444776266813278,0.0006273113249335438
69,0.0007032332521922709,0.4770116585889174,0.021316001017249356,0.05700319459086605,0.0007032332714722423,0.0006630586285609752,0.4959999918937683,0.021906321868300438,0.05646418780088425,0.0006630586576648057
70,0.0007027561702382747,0.47698294027101834,0.02129920418738778,0.05697120035995902,0.0007027562026568427,0.0006236754707060754,0.4619999974966049,0.02033139578998089,0.05402528680860996,0.0006236755289137363
71,0.0006949413089556587,0.47816035783439437,0.021168091011801535,0.05661446101273279,0.0006949413282991499,0.0006034226971678436,0.4649999886751175,0.020166965201497078,0.05329100042581558,0.000603422726271674
72,0.0006927342446504663,0.47324966713182753,0.02112383453802227,0.05652656025953908,0.0006927342693062298,0.0006139356701169163,0.4560000002384186,0.020329607650637627,0.05364180915057659,0.0006139357283245772
73,0.000690586847650792,0.4781316405092785,0.021150367243658236,0.056537376554870816,0.0006905868395336131,0.0006144360813777894,0.47200000286102295,0.020373860374093056,0.054105451330542564,0.0006144361686892807
74,0.0006907525490549787,0.4764803841091313,0.021244539159762134,0.056595891526879424,0.0006907525790230145,0.0006172056018840522,0.5,0.020784988068044186,0.05480129458010197,0.0006172056600917131
75,0.0006815622419652288,0.47554706446225226,0.020945124773819043,0.0559977681928757,0.0006815622611281897,0.0005964018928352743,0.45400001108646393,0.02002968266606331,0.05316519737243652,0.0005964020383544266
76,0.000682075327813047,0.4732496680407376,0.021033680547880563,0.0561096184434944,0.0006820753517533755,0.0005994001112412661,0.48500001430511475,0.020624280907213688,0.05378901585936546,0.0005994001112412661
77,0.0006773927534673547,0.47455631437762286,0.02101100079910385,0.05596118552890461,0.0006773927745710167,0.0006087178480811417,0.47599999606609344,0.020470022223889828,0.054081469774246216,0.0006087179062888026
78,0.0006706774350498361,0.4685112863400783,0.020805347685493372,0.05562413177614469,0.0006706774517656079,0.0005976751854177564,0.4490000009536743,0.020190793089568615,0.05308074504137039,0.0005976753018330783
79,0.0006675400781056276,0.4705215075351377,0.020761049143919946,0.055437898755554535,0.0006675400946442123,0.0006154740112833679,0.4560000002384186,0.020423400215804577,0.05376006290316582,0.0006154741276986897
80,0.0006660880538003287,0.46905691682843925,0.020776034812995784,0.05540750608345415,0.0006660880698006656,0.0006187153048813343,0.46799999475479126,0.020885881036520004,0.05418881215155125,0.0006187154212966561
81,0.0006680542553495953,0.47017689896960896,0.020838847229483277,0.05551213764536183,0.0006680542695580014,0.000600074854446575,0.48399999737739563,0.02039293199777603,0.05362028256058693,0.0006000748253427446
82,0.0006631722802692485,0.46687438854514735,0.020665033370124625,0.055177498555979004,0.0006631722948955489,0.000593184115132317,0.47599999606609344,0.02008807472884655,0.05318458564579487,0.0005931842315476388
83,0.0006612528028729339,0.4724025029213436,0.020716367958910666,0.05525991845351558,0.000661252830397124,0.0005849534645676613,0.49699999392032623,0.020326701924204826,0.05266902223229408,0.0005849532899446785
84,0.0006599124510599805,0.46892768924969314,0.020713412614717815,0.05511454013596965,0.0006599124702831182,0.0005937290843576193,0.471000000834465,0.02037802804261446,0.05322788469493389,0.0005937291134614497
85,0.0006493480383868836,0.46795129237672883,0.02052238994200399,0.05470988649048391,0.0006493480626247529,0.0005814899923279881,0.4429999887943268,0.01989069301635027,0.05248730815947056,0.0005814899923279881
86,0.0006509622330516982,0.4664005505453951,0.020571797293116673,0.05481570206030952,0.0006509622818567374,0.0005860856617800891,0.46399998664855957,0.020142988301813602,0.052766989916563034,0.0005860856326762587
87,0.0006495266180847698,0.4703348465642556,0.020597708593328868,0.054794800679450965,0.0006495266378461553,0.0006047716888133436,0.48100000619888306,0.02004782110452652,0.0527392141520977,0.000604771776124835
88,0.0006512015688469345,0.4711102168243433,0.020627363898764253,0.05487004954700159,0.0006512015736844788,0.0005713525461032987,0.4659999907016754,0.019885103218257427,0.05207468383014202,0.0005713525752071291
89,0.0006507613252848976,0.46868358911997443,0.02060496110770147,0.05474956904016818,0.0006507613337631371,0.0005631913954857737,0.46400000154972076,0.019674736075103283,0.05163430795073509,0.0005631914245896041
90,0.00064247458176996,0.4628970180457604,0.020440013519916787,0.054455425873348284,0.0006424745904253867,0.0005650616367347538,0.4790000021457672,0.019896063953638077,0.052270179614424706,0.0005650616367347538
91,0.000637228951150388,0.4676641208235711,0.02037263260947286,0.0541356088785419,0.0006372289696580907,0.000591699470533058,0.4650000035762787,0.02007086668163538,0.053039759397506714,0.0005916996451560408
92,0.0006385405635517563,0.4659123536271864,0.020421558552452708,0.054295376190951754,0.0006385405863269956,0.0005561781290452927,0.47599999606609344,0.019748689606785774,0.05095243453979492,0.000556178274564445
93,0.0006341388645937827,0.4642610977405478,0.020292031171175725,0.05399499836215563,0.0006341388601172989,0.000578723760554567,0.45399999618530273,0.020148267969489098,0.052101897075772285,0.000578723760554567
94,0.0006370075282571458,0.4653236453495926,0.02043528838510965,0.05419893605329353,0.000637007530403451,0.0005616312846541405,0.4520000070333481,0.019851256161928177,0.05156123265624046,0.0005616312264464796
95,0.0006315381465732928,0.46479237237096305,0.02028579634594658,0.053884242075523184,0.0006315381545132845,0.0005594477115664631,0.46299999952316284,0.019841152243316174,0.0516507513821125,0.0005594477988779545
96,0.0006272229753074881,0.46288266033747244,0.02020451414641856,0.053754724006081195,0.0006272229687415329,0.0005691044207196683,0.4429999887943268,0.020051060244441032,0.051838917657732964,0.0005691044789273292
97,0.0006313300643771333,0.46635747326795896,0.02033868089663182,0.053990330157041834,0.0006313300650925684,0.0005684645147994161,0.4659999907016754,0.01987912505865097,0.05177118070423603,0.0005684646021109074
98,0.000626815616710257,0.4683389802737277,0.020241526390643194,0.05374123787557803,0.000626815634920419,0.00057464066776447,0.48000000417232513,0.01994694210588932,0.051898080855607986,0.0005746406968683004
99,0.0006228640975686453,0.46345700957507957,0.02022152015097736,0.053613767384957295,0.0006228641025833768,0.0005528242618311197,0.460999995470047,0.01982159912586212,0.05101022310554981,0.0005528242909349501
100,0.0006217346537965523,0.4561771300719379,0.02011143503066923,0.0534526216618605,0.0006217346657382998,0.0005423911497928202,0.4610000103712082,0.01954840775579214,0.050895316526293755,0.0005423911206889898
101,0.0006201502157766072,0.46014014147827553,0.020044096021022216,0.053354286967066525,0.0006201502355379926,0.0005672672123182565,0.4700000137090683,0.020193999633193016,0.05185392312705517,0.000567267183214426
102,0.0006162623232900645,0.4590632357347307,0.02003789482065143,0.05322991665721241,0.0006162623592289742,0.0005588986678048968,0.46800000965595245,0.019891845993697643,0.05099660903215408,0.0005588987260125577
103,0.0006176465896121952,0.4608293606000343,0.020105871533305626,0.05336894574753517,0.0006176466105069101,0.0005415772611740977,0.47199998795986176,0.01960038859397173,0.050726937130093575,0.0005415771738626063
104,0.0006146103072088336,0.4585893970314717,0.02003858888849259,0.05318286967333328,0.0006146103025234027,0.0005391784943640232,0.45000000298023224,0.019281319342553616,0.05065049231052399,0.0005391785234678537
105,0.0006149008493274426,0.4609011554456471,0.02008342048100112,0.05320015840712075,0.0006149008582235763,0.0005370253056753427,0.4569999873638153,0.019167293794453144,0.05046132951974869,0.0005370252765715122
106,0.0006142533002960043,0.45979552948593333,0.02001945412465873,0.05313930981236476,0.0006142533087424838,0.0005236535507719964,0.4389999955892563,0.019254240207374096,0.0498332679271698,0.0005236534925643355
107,0.0006106178806318011,0.4618919062132428,0.020015069341047274,0.05298401216363504,0.0006106179090486133,0.0005639167793560773,0.4729999899864197,0.01965320110321045,0.05224117264151573,0.0005639168084599078
108,0.0006093978341047284,0.46025500982703677,0.019887165159109432,0.05291963235762527,0.0006093978454480513,0.0005545048043131828,0.45399999618530273,0.019465972669422626,0.05142512731254101,0.0005545047752093524
109,0.0006110661101120744,0.4574406984569792,0.02000187340361901,0.05305397946968008,0.000611066146050984,0.0005390969745349139,0.48100000619888306,0.019710127264261246,0.050517505034804344,0.0005390970036387444
110,0.0006073480119132138,0.45699557765738913,0.01992502202759194,0.0528413854429418,0.0006073480165986446,0.0005530217022169381,0.45000000298023224,0.019530140794813633,0.05122575722634792,0.0005530217313207686
111,0.0006104837648804852,0.46230830941042234,0.020050939846807198,0.052957936097155774,0.0006104837567315464,0.0005240492755547166,0.4519999921321869,0.01916689332574606,0.04959588311612606,0.0005240492464508861
112,0.0006032207274229804,0.458531962930694,0.019874624712088326,0.05271698541078704,0.0006032207439298051,0.0005548796325456351,0.460999995470047,0.01986300479620695,0.05189027637243271,0.0005548795452341437
113,0.0006003555736554937,0.4564212277008701,0.019773313017591665,0.052553458034138086,0.0006003555840142575,0.0005198035796638578,0.4350000023841858,0.018866952508687973,0.04951253905892372,0.0005198036378715187
114,0.0005988567998410884,0.45281718441697977,0.01970963733552445,0.05244675805009861,0.000598856812643698,0.0005222010659053922,0.47599998116493225,0.018974076956510544,0.049508607015013695,0.0005222009785939008
115,0.0005967007039035694,0.45797196922923383,0.0197388934090594,0.052407430030756846,0.0005967007351570481,0.0005236493307165802,0.43400000035762787,0.019116991199553013,0.049486974254250526,0.0005236493016127497
116,0.0005975090750722396,0.4571104465196589,0.019766975120184965,0.05249884000077889,0.0005975090966823895,0.0005306995881255716,0.46299999952316284,0.019715133123099804,0.050226980820298195,0.0005306996172294021
117,0.0005966757830730057,0.4523146263585346,0.01971964722906956,0.05240572736383573,0.0005966757909561637,0.0005319600168149918,0.44699999690055847,0.019045733846724033,0.05033540725708008,0.0005319601041264832
118,0.0005999143532922815,0.4563781496343426,0.01983352167761108,0.05254149347942541,0.0005999143760675207,0.0005108833429403603,0.46000000834465027,0.018755421973764896,0.04909796826541424,0.0005108833720441908
119,0.0005963663385054514,0.4565504561457339,0.019751158460395286,0.052411152560091205,0.0005963663528342112,0.0005334424786269665,0.43699999153614044,0.019405956380069256,0.05040011368691921,0.0005334425368346274
120,0.0005939510997430682,0.45531560440797725,0.01974684792241215,0.0522499926757134,0.0005939511183393644,0.000535200466401875,0.49799998104572296,0.01978209987282753,0.05076996237039566,0.0005352005246095359
121,0.000593683046109622,0.4536930660638398,0.01970933845121099,0.052218137798179035,0.0005936830590961052,0.0005222571780905128,0.4740000069141388,0.01935279555618763,0.04994012974202633,0.0005222572071943432
122,0.0005897269425288254,0.4542243408380374,0.019596027903377337,0.052094228532100884,0.0005897269404393539,0.000521166977705434,0.4440000057220459,0.019102604128420353,0.04916920140385628,0.0005211670068092644
123,0.0005885155338417794,0.45096490552571766,0.01956167011848851,0.051971791343015994,0.0005885155474868641,0.0005311950226314366,0.443000003695488,0.01939740963280201,0.05061053857207298,0.000531195051735267
124,0.0005884160944427547,0.45297512902985365,0.019606132642693622,0.052037392791982606,0.0005884160970704741,0.0005000436503905803,0.4389999955892563,0.018542802892625332,0.04913946986198425,0.0005000436649424955
125,0.0005899186114600797,0.4530900010091201,0.019623261672231163,0.052097080292426344,0.0005899186171016527,0.0005171878729015589,0.4700000137090683,0.019470556639134884,0.050657425075769424,0.0005171878729015589
126,0.0005849473849127095,0.4552294526602849,0.019541636349952245,0.051854838820035366,0.0005849474055098836,0.0005099161353427917,0.471000000834465,0.019240910187363625,0.0495792031288147,0.0005099160480313003
127,0.0005869238676312099,0.45056286258211664,0.01955871122081675,0.05195047985564443,0.0005869238826436446,0.0005215479759499431,0.47199998795986176,0.019262460060417652,0.04985732585191727,0.0005215478595346212
128,0.0005836398857630044,0.4541669053610569,0.019498062133960232,0.05174981834603667,0.0005836399139708695,0.0005167977360542864,0.4860000014305115,0.019090602174401283,0.04968429543077946,0.0005167978524696082
129,0.0005823916966041487,0.4482367472333395,0.019472217691486594,0.05167714779766805,0.0005823917175556973,0.0005168469797354192,0.4619999825954437,0.019390063360333443,0.04949009418487549,0.0005168470088392496
130,0.0005778941620121155,0.452214116359947,0.01946211446584363,0.05154991408796219,0.0005778941696228065,0.0005043005512561649,0.43799999356269836,0.01864362321794033,0.048824239522218704,0.0005043004639446735
131,0.0005733217209053006,0.45062029557371597,0.019370194003101495,0.05131942422729002,0.0005733217556507041,0.0004985604609828442,0.45799998939037323,0.01886890735477209,0.049096446484327316,0.0004985605773981661
132,0.0005813591572107223,0.4509074717159281,0.019482434835997656,0.05168333137111027,0.0005813591705833399,0.0004948674904881045,0.4739999920129776,0.01885611191391945,0.04898651875555515,0.0004948676214553416
133,0.0005718696652027673,0.44889724788314667,0.01931638599786186,0.05127683393821958,0.0005718696591399568,0.0005040605028625578,0.4270000010728836,0.01899109687656164,0.049283960834145546,0.0005040604737587273
134,0.0005735354665821673,0.44812187656694313,0.019316329937816578,0.05124301591550117,0.0005735354965502032,0.0004960553196724504,0.43400000035762787,0.018350391648709774,0.048203498125076294,0.0004960553778801113
135,0.0005713445237396649,0.4526018014172438,0.019363513551333627,0.051248088473479045,0.0005713445358017659,0.0005166944465599954,0.4389999955892563,0.019428997300565243,0.049355411902070045,0.0005166945629753172
136,0.000574598977404083,0.45370742564643385,0.019433758227290158,0.05140630488919024,0.0005745989732853168,0.0005123151058796793,0.44600000977516174,0.01907497178763151,0.04966787435114384,0.0005123150476720184
137,0.0005732476035604977,0.44830853963465167,0.019368574132260345,0.051346714258918014,0.0005732476232901233,0.0005030738102504984,0.4359999895095825,0.018885698169469833,0.049121299758553505,0.0005030738248024136
138,0.0005669097542751603,0.4479064956366465,0.01926892572671242,0.05105308512331979,0.0005669097655298896,0.0004951604641973972,0.44099999964237213,0.018589134328067303,0.04842466674745083,0.0004951606097165495
139,0.0005664601631331229,0.4475044494955991,0.01923480437911568,0.05101972373783242,0.0005664601836417034,0.0004947225970681757,0.44999998807907104,0.018788522109389305,0.04887457191944122,0.0004947225388605148
140,0.000569893297495464,0.4519556578714962,0.019372410236198134,0.05114790621806236,0.0005698933003321304,0.0004917966143693775,0.42499999701976776,0.018448734655976295,0.048143526539206505,0.0004917966143693775
141,0.0005689405297823487,0.45275974828613175,0.01927961565145047,0.05110199393800923,0.000568940531453926,0.0004970106674591079,0.4700000137090683,0.018931948579847813,0.04871632717549801,0.0004970106965629384
142,0.0005677694628890613,0.44872494373560623,0.01926723491616796,0.05102075480751,0.0005677694675744921,0.0005018869997002184,0.4480000138282776,0.018841860815882683,0.04868060350418091,0.0005018870870117098
143,0.0005675095363769913,0.45254436693133465,0.019307933193607133,0.051077889505223684,0.0005675095542260925,0.0005102716386318207,0.443000003695488,0.0187991289421916,0.048711322247982025,0.0005102715804241598
144,0.0005594151442915884,0.4457239676854234,0.01907641500603474,0.05058412972319257,0.0005594151457542184,0.0004904755624011159,0.4450000077486038,0.018428965471684933,0.048342183232307434,0.0004904754750896245
145,0.000565561357323334,0.45247257441705063,0.019310304026251158,0.05100448353863394,0.0005655613729626102,0.0004950759321218356,0.43799999356269836,0.018863800913095474,0.04806460067629814,0.0004950759612256661
146,0.0005607843010703695,0.44873930212343716,0.01914864984071855,0.05067440408047854,0.0005607843043249303,0.0005164259928278625,0.4490000009536743,0.018982654437422752,0.04921732097864151,0.0005164259928278625
147,0.0005622861753562354,0.44707368857814966,0.019275407288930648,0.050880129929788354,0.0005622861824604385,0.0004936362092848867,0.4449999928474426,0.018818065524101257,0.04815649800002575,0.0004936362965963781
148,0.0005596614079451754,0.4482798224088141,0.019162435869393552,0.05068358650576424,0.0005596614128395534,0.000498965906444937,0.43699999153614044,0.01901439018547535,0.04810202866792679,0.0004989659646525979
149,0.0005588586159762904,0.4467434376233423,0.019120628518942962,0.05064936026239284,0.0005588586320652209,0.0005162047164049,0.4299999922513962,0.019120809622108936,0.04919923655688763,0.0005162047746125609
150,0.0005563294047099121,0.4456378142636933,0.019183548255500203,0.050556030933201795,0.0005563294299323403,0.000514383107656613,0.44099999964237213,0.018993613310158253,0.04963212087750435,0.0005143832240719348
151,0.0005609388193473443,0.44849520250893865,0.019241285758931408,0.05082308163480306,0.0005609388454657379,0.0004933060554321855,0.46399998664855957,0.019090204499661922,0.0484667532145977,0.0004933060554321855
152,0.0005507249725337933,0.4447044972425545,0.01898505503216433,0.05018211030983533,0.0005507249723248461,0.00047170845209620893,0.4360000044107437,0.01815362274646759,0.047083655372262,0.00047170855395961553
153,0.0005527823847706047,0.44674343715433784,0.019052721859654988,0.05036386597502972,0.0005527823884998934,0.0004923614178551361,0.4490000009536743,0.018505188636481762,0.04783382639288902,0.00049236134509556
154,0.0005499645828199323,0.44375681982063137,0.01894790308078107,0.05017642821810862,0.000549964593685184,0.00048482726560905576,0.4450000077486038,0.018278869800269604,0.04785490408539772,0.00048482726560905576
155,0.0005550209222515819,0.44833725684166065,0.01912121443055135,0.050442899648087514,0.0005550209272980734,0.0004910335992462933,0.4360000044107437,0.01859807875007391,0.048241978511214256,0.0004910335119348019
156,0.0005500843117142379,0.44637011045577313,0.018999441204657096,0.05024904331761406,0.0005500843204582582,0.0004713332309620455,0.46299999952316284,0.01835854258388281,0.047430822625756264,0.0004713333328254521
157,0.0005508653248342961,0.4471454831327742,0.019075924224445893,0.0502014655281158,0.0005508653345344585,0.000483446623547934,0.4440000057220459,0.018289885483682156,0.047841284424066544,0.00048344675451517105
158,0.0005445737328638331,0.4434840042246976,0.018896491747077984,0.04987765579921902,0.0005445737359980403,0.0004904904199065641,0.45000001788139343,0.01873760763555765,0.04791555367410183,0.000490490609081462
159,0.0005440457673847352,0.44325426388297634,0.018866314269385343,0.049797486944558336,0.0005440457798012106,0.0004874583100900054,0.45500001311302185,0.018674062564969063,0.0481034480035305,0.00048745849926490337
160,0.0005415720878884162,0.4423209457903164,0.018802632462445342,0.04969571855570281,0.0005415721127531269,0.0004716395924333483,0.47300000488758087,0.018257610499858856,0.04706481657922268,0.0004716396942967549
161,0.0005419035818562517,0.4474900915870428,0.018877988739073856,0.04977917883496591,0.0005419036136162183,0.00048783332749735564,0.45000000298023224,0.018743165768682957,0.0483268927782774,0.0004878333566011861
162,0.0005407568445767346,0.4427373488317317,0.018874243541869028,0.04977692493270345,0.0005407568593233886,0.000494290521601215,0.4570000022649765,0.018375647254288197,0.04784965142607689,0.0004942905943607911
163,0.0005451327822819376,0.44838033321874515,0.018956023223202174,0.050064141237914105,0.0005451327964903437,0.0004976084164809436,0.4479999989271164,0.018530975095927715,0.04844058118760586,0.0004976084310328588
164,0.0005443322008585477,0.44690138445286126,0.018957747192596023,0.04996735026182562,0.0005443322111287179,0.00047851825365796685,0.45099999010562897,0.018277527764439583,0.04788500256836414,0.00047851829731371254
165,0.0005409435953985949,0.44558037949021945,0.018882418082493493,0.04975139997254651,0.0005409436213966349,0.0004637734673451632,0.4309999942779541,0.018114065751433372,0.04693741351366043,0.0004637735110009089
166,0.0005396615576558157,0.443785536586023,0.0188435268199007,0.04968560231090735,0.0005396615817164978,0.00048111312207765877,0.46000000834465027,0.018589423038065434,0.04790677689015865,0.00048111316573340446
167,0.0005399273996789722,0.44411578841550653,0.018852364814379543,0.04966391525838686,0.0005399274049026508,0.00046801494318060577,0.43700000643730164,0.018117968924343586,0.04708057828247547,0.00046801484131719917
168,0.0005369789236190205,0.4416317264648659,0.018781874945275875,0.04953984206584202,0.0005369789596465237,0.00047517038183286786,0.45499999821186066,0.018382119946181774,0.04793377406895161,0.00047517046914435923
169,0.0005358830565254189,0.44219171719311173,0.0187641879723711,0.04950506685790671,0.0005358830588238375,0.00047491752775385976,0.4270000010728836,0.018444701097905636,0.04733552224934101,0.0004749175568576902
170,0.0005338418403771896,0.4402389286165022,0.01874090709801254,0.04940786168264238,0.0005338418519578764,0.0004785569180967286,0.4599999934434891,0.018591427244246006,0.04741639830172062,0.0004785569180967286
171,0.0005347925541866365,0.4408850718849552,0.01877351239442151,0.04948190985196463,0.0005347925595306688,0.00046830625797156245,0.4619999974966049,0.017923815175890923,0.04694725573062897,0.0004683061706600711
172,0.0005348898563120808,0.44519269501661063,0.018793871606680383,0.04945148191830448,0.0005348898658918896,0.0004978974466212094,0.46700000762939453,0.019179471768438816,0.048743005841970444,0.0004978974466212094
173,0.0005339860258649553,0.4402102101171635,0.0187653201133617,0.049382050283585686,0.0005339860277738964,0.000488392252009362,0.4270000010728836,0.01830290164798498,0.047790493816137314,0.0004883922811131924
174,0.0005351184483190663,0.4465136971344153,0.018817703868507188,0.04952884985811302,0.0005351184630657203,0.00047086695849429816,0.4529999941587448,0.01823329459875822,0.04740455932915211,0.0004708668711828068
175,0.0005312600732980993,0.4412871157460248,0.01867797612267961,0.049251678221457915,0.0005312600793893267,0.0004729350912384689,0.46700000762939453,0.017961113713681698,0.0467681959271431,0.0004729351494461298
176,0.0005310994771698046,0.44211992316568927,0.018701439941078674,0.04927184151813031,0.000531099478512081,0.0004929885908495635,0.4490000009536743,0.01884522009640932,0.048268767073750496,0.0004929887072648853
177,0.0005368853251536659,0.44549422749946643,0.018815319118177753,0.04951119631011922,0.0005368853477199579,0.0004814048152184114,0.4619999974966049,0.01828836090862751,0.047434888780117035,0.00048140490252990276
178,0.0005294865256686473,0.44391476569502447,0.01870483534163363,0.049210070066415465,0.0005294865339061797,0.00048651239194441587,0.45000001788139343,0.01865192037075758,0.04767661541700363,0.00048651243560016155
179,0.000527973676970369,0.44035379931542074,0.018708042397001357,0.049169734323418784,0.0005279736945821063,0.0004603025154210627,0.42500001192092896,0.018226434476673603,0.046530043706297874,0.00046030252997297794
180,0.0005295737585407276,0.4421773584475366,0.018643957737604966,0.049118469181203064,0.000529573770719839,0.0004675804957514629,0.45000000298023224,0.01786430273205042,0.0464443564414978,0.00046758048119954765
181,0.0005246648215237439,0.43891792523375495,0.018570424749442507,0.048924403069878386,0.0005246648272539105,0.0004615292127709836,0.45899999141693115,0.017768398858606815,0.04601814225316048,0.0004615292127709836
182,0.0005231185201596143,0.43782666114688323,0.018529484951832816,0.04882946154070054,0.0005231185329655672,0.00045738311018794775,0.47199998795986176,0.01799067296087742,0.0465179905295372,0.00045738306653220206
183,0.0005214513165175117,0.43987995921028356,0.01855153571312558,0.04881177437373234,0.0005214513316218831,0.0004575796629069373,0.4429999887943268,0.01789668668061495,0.04623596370220184,0.00045757963380310684
184,0.0005244648332230208,0.43990867761719077,0.01864457988162515,0.04892140644773166,0.0005244648497298456,0.0004612863849615678,0.4309999942779541,0.018082940950989723,0.046974433586001396,0.0004612864286173135
185,0.0005195686532535566,0.4376112810981095,0.018459999253226105,0.04864354324156128,0.0005195686408370813,0.00046071744873188436,0.4599999934434891,0.01792395394295454,0.04629150219261646,0.0004607174778357148
186,0.0005236647067477801,0.4413445518323688,0.018612307778959038,0.04891238660352035,0.00052366471537479,0.00045384661643765867,0.46799999475479126,0.017884339205920696,0.04627748019993305,0.00045384655822999775
187,0.0005210026024536973,0.43821434643697055,0.018503298333817524,0.04874202960558772,0.0005210026064554531,0.00046705677232239395,0.4479999989271164,0.01821270026266575,0.0473136305809021,0.00046705671411473304
188,0.0005178849099201511,0.43828614059961696,0.01849433108261319,0.04859248366129644,0.0005178849094136631,0.00045452099584508687,0.44200000166893005,0.017827101983129978,0.046326352283358574,0.0004545208648778498
189,0.0005170658666638621,0.43850152119099806,0.018438897102520904,0.04861449581969374,0.0005170658863048941,0.00047660412383265793,0.4520000070333481,0.018436353653669357,0.04743778705596924,0.00047660412383265793
190,0.0005236978907811474,0.44382861366319076,0.01866043669660374,0.04894589430213241,0.0005236978946307896,0.0004651887866202742,0.4560000002384186,0.018273661844432354,0.046681955456733704,0.00046518861199729145
191,0.0005155908680913384,0.4355005461044995,0.018410430235940033,0.04851414446570983,0.0005155908559406439,0.00048378537758253515,0.45499999821186066,0.018342414870858192,0.04761641472578049,0.00048378523206338286
192,0.0005219395383901211,0.44204812867782084,0.01857788548081896,0.04879636187188746,0.0005219395444495884,0.0004495541797950864,0.43699999153614044,0.017576140351593494,0.04586940072476864,0.00044955420889891684
193,0.00051529647400864,0.4401671350170035,0.018453466860618866,0.048430090887911406,0.0005152964878593286,0.0004610490577761084,0.45099999010562897,0.018093262799084187,0.04719032347202301,0.0004610491741914302
194,0.0005200196767149263,0.4405117449655818,0.01856369494586921,0.04874618881293308,0.0005200196833694751,0.0004478103801375255,0.44600000977516174,0.01806989498436451,0.04672900028526783,0.0004478101764107123
195,0.0005121273922126417,0.43842972729366436,0.01834412744763776,0.048256990336167135,0.0005121274244790963,0.0004562056274153292,0.4560000002384186,0.018034745939075947,0.046501267701387405,0.0004562056710710749
196,0.0005097483345763951,0.4354000337044037,0.018316919586679154,0.04812682218292074,0.0005097483451123461,0.0004540662048384547,0.43299999833106995,0.01768597774207592,0.04613630659878254,0.0004540661320788786
197,0.0005078918553388421,0.4316236867488242,0.018232920141236456,0.048096633302878555,0.0005078918596063787,0.0004533609462669119,0.4580000191926956,0.018032762221992016,0.04654157906770706,0.00045336085895542055
198,0.0005100759842359647,0.4386738267523986,0.01832734841972557,0.04824576824201693,0.0005100759654942412,0.0004594175115926191,0.4490000009536743,0.017916882410645485,0.04654134251177311,0.0004594175552483648
199,0.0005130970840480536,0.43736718140316133,0.018466974500709863,0.04841932018678656,0.0005130970830033178,0.000452640641015023,0.46699999272823334,0.017987611703574657,0.046406449750065804,0.0004526405973592773
