epoch,huber_loss,l0_loss,l1_loss,linf_loss,loss,val_huber_loss,val_l0_loss,val_l1_loss,val_linf_loss,val_loss
0,0.005670805882942183,0.9106742854258295,0.07067399477240281,0.15967564315269656,0.00567080599757226,0.003911791369318962,0.800000011920929,0.05943342112004757,0.13523609936237335,0.003911791951395571
1,0.0037255670614705326,0.8205732010691343,0.0568408789791958,0.12904818382268868,0.0037255670325723063,0.002860784181393683,0.7569999992847443,0.05083532817661762,0.11663307622075081,0.002860784064978361
2,0.0028833878097880164,0.7523835511800786,0.049067111415959166,0.11365527631839573,0.002883387799277139,0.0023158960975706577,0.7029999792575836,0.045498814433813095,0.10539679229259491,0.002315895282663405
3,0.0023504519170174445,0.7125093331253992,0.04381960616487952,0.10282991702094042,0.0023504519700265005,0.0018747824360616505,0.7010000050067902,0.040520574897527695,0.09482035413384438,0.0018747826106846333
4,0.0019107305834963246,0.67313766971091,0.0389694840359555,0.09268805872854144,0.0019107306227783886,0.001574098423589021,0.6550000011920929,0.03575611114501953,0.08720563724637032,0.0015740986564196646
5,0.00164068601944872,0.6440899438480364,0.035320351918643966,0.08593961969082171,0.001640686060529401,0.0013944964157417417,0.6469999849796295,0.03317754343152046,0.08176415786147118,0.0013944960664957762
6,0.0014950233787316602,0.6239159146337601,0.03307574514224103,0.08204728936393849,0.0014950234151519842,0.0013352537644095719,0.613999992609024,0.03207153640687466,0.07938249781727791,0.00133525364799425
7,0.0013830119309573851,0.5970507134835824,0.03117391000304485,0.07882333561897031,0.0013830119680864577,0.0011900992831215262,0.6059999763965607,0.02957405149936676,0.07569901645183563,0.00119009951595217
8,0.0013092249891591319,0.5804663741258578,0.029949888220160342,0.07666872501207257,0.0013092250292769845,0.001203770691063255,0.5640000104904175,0.029653338715434074,0.07585732266306877,0.0012037706328555942
9,0.00127205080461911,0.5769341234452596,0.029473726749830974,0.07587216749516026,0.0012720508433060928,0.0011020444217137992,0.5910000205039978,0.028179279528558254,0.07367594912648201,0.001102044538129121
10,0.001239174606650458,0.5683619539852454,0.028894501345897657,0.0748630283514565,0.0012391746028258893,0.0010796974529512227,0.5719999969005585,0.028208681382238865,0.07283848896622658,0.0010796974529512227
11,0.0011948612062836334,0.5555539598286128,0.028123226866830425,0.07346116782285722,0.0011948612251523967,0.0010662414715625346,0.574999988079071,0.027562357485294342,0.07175104320049286,0.0010662413551472127
12,0.0011641458481818792,0.54925047436558,0.027625035817541423,0.07254973889624503,0.0011641458543867737,0.0010521686635911465,0.539000004529953,0.027066762559115887,0.07136549428105354,0.0010521686635911465
13,0.0011393410818085442,0.5467951313096797,0.02723230249453581,0.07190335726355926,0.0011393410920787145,0.001021804055199027,0.5480000078678131,0.02683776430785656,0.07016736641526222,0.0010218037641607225
14,0.0011109502771182217,0.5429182694001554,0.026800234241968566,0.07091109445816576,0.0011109502909087334,0.0009916801354847848,0.5450000166893005,0.027056435123085976,0.06955777853727341,0.000991680397419259
15,0.0011025672279735377,0.5432485209112636,0.02675583493772212,0.07079256703303331,0.0011025672340647648,0.0009726115094963461,0.5399999916553497,0.026637735776603222,0.06864672526717186,0.0009726118005346507
16,0.0010855527201818111,0.5417264955988375,0.026493650264826193,0.07032041816090834,0.001085552791167008,0.0010028878750745207,0.5820000171661377,0.026845228858292103,0.06982352584600449,0.0010028878459706903
17,0.001068810607664457,0.5417408540089204,0.0263276034344017,0.06988891838002359,0.00106881061327427,0.0009379565599374473,0.527999997138977,0.02556188777089119,0.06674476712942123,0.0009379564726259559
18,0.0010451914910956938,0.5295359252852921,0.02585924392688364,0.06909362558986029,0.0010451915292444284,0.0009601541969459504,0.5479999929666519,0.025455797091126442,0.06754808872938156,0.0009601539932191372
19,0.0010419587443421066,0.5372322114500842,0.025915858077380557,0.069124080911283,0.0010419587982504709,0.000899670529179275,0.5329999923706055,0.024885881692171097,0.06544394418597221,0.0008996705000754446
20,0.0010164707527528763,0.5224570649953694,0.025443113828829453,0.06809779022294,0.0010164707997342248,0.000947163935052231,0.5209999829530716,0.02618499845266342,0.06694871187210083,0.0009471641969867051
21,0.001017722207891065,0.5269657125369499,0.025601461551876804,0.06825517893610354,0.0010177221965510853,0.000933392409933731,0.5160000026226044,0.02503705583512783,0.0662224292755127,0.0009333924390375614
22,0.0009955110490851348,0.5196140371218095,0.025135271201562472,0.06739575441204168,0.0009955110471728504,0.0008982484578154981,0.5150000005960464,0.025182210840284824,0.0653759092092514,0.0008982480794657022
23,0.0009865897697404387,0.5226724457459381,0.025118073418691097,0.06720503683131736,0.0009865897793520074,0.0008824568649288267,0.568000003695488,0.025109424255788326,0.0655035749077797,0.0008824570395518094
24,0.0009810179892805878,0.515306413800156,0.02494453717562104,0.06700706836211676,0.00098101799316199,0.0008626931812614202,0.5209999978542328,0.02438465878367424,0.06405361369252205,0.0008626934431958944
25,0.0009658151320132843,0.513813108207507,0.02469446901530481,0.06636488394945797,0.0009658151544023892,0.0008594098617322743,0.5180000066757202,0.024160174652934074,0.06394780799746513,0.0008594098035246134
26,0.0009687685268261871,0.5189966124725139,0.024889554956140623,0.06676133362396959,0.0009687685681977227,0.0008709743851795793,0.517999991774559,0.024427561089396477,0.06453628465533257,0.0008709745889063925
27,0.0009517249357410012,0.5124346670010452,0.02455857244865442,0.06590165259855427,0.0009517249724588657,0.0008352673321496695,0.48500001430511475,0.023375337943434715,0.06232033111155033,0.0008352674194611609
28,0.0009360393564577906,0.5079403808906894,0.024287841693110334,0.06539017818005893,0.0009360393585472621,0.0008463788544759154,0.5250000059604645,0.02400962170213461,0.06295489333570004,0.0008463787089567631
29,0.0009344106658438236,0.5066911736373262,0.02423672255837478,0.06524229391743475,0.0009344106691869781,0.0008359466155525297,0.5049999952316284,0.024004271253943443,0.0628410056233406,0.0008359467901755124
30,0.00092078819989029,0.5040922394164309,0.024047448903251185,0.06486638828069631,0.0009207882196516756,0.0008415859192609787,0.48399999737739563,0.023883745074272156,0.062425633892416954,0.0008415861520916224
31,0.0009105372477573045,0.5009046000195333,0.023817088278015302,0.06440276816340962,0.0009105372668600886,0.0008214907138608396,0.5199999958276749,0.023466256447136402,0.06185554899275303,0.0008214907429646701
32,0.0009142247336760647,0.5019958640653243,0.02399737479471269,0.06468357468526385,0.0009142247644798892,0.000823908718302846,0.5159999877214432,0.023495111614465714,0.061880774796009064,0.0008239088347181678
33,0.0008959737018285752,0.4982195156856145,0.023666246149550527,0.06396237823066545,0.0008959736965731365,0.0008171801455318928,0.4780000001192093,0.023141405545175076,0.0613931342959404,0.0008171801746357232
34,0.000891918430571984,0.49577852897378116,0.02356678082647644,0.06382746537430023,0.0008919184554684546,0.0008081344421952963,0.5049999952316284,0.023206086829304695,0.061030060052871704,0.0008081342384684831
35,0.0008968939748600698,0.4986502769745017,0.023803689783088892,0.0640432357175727,0.0008968939802926957,0.0008444856794085354,0.5269999951124191,0.024563012644648552,0.06386931240558624,0.0008444857958238572
36,0.0008905400585519685,0.4995548780313222,0.02368572306571118,0.06394687556549816,0.0008905400907298294,0.0008277713495772332,0.5320000052452087,0.023509438149631023,0.06194823980331421,0.0008277715242002159
37,0.0008843991171381041,0.4956923775718512,0.02352579456340708,0.06374384471990974,0.0008843991488980708,0.0008008011209312826,0.5140000134706497,0.023181727156043053,0.0617634579539299,0.0008008009172044694
38,0.0008793954715713833,0.49342369773086514,0.023477240029473614,0.06349648031777917,0.0008793954930611797,0.0007953464519232512,0.49699999392032623,0.022642310708761215,0.061025381088256836,0.0007953464228194207
39,0.0008601906368163975,0.4873930250446045,0.023105074218533972,0.06271063989405656,0.0008601906733503885,0.000782608229201287,0.4689999967813492,0.022996727377176285,0.06073206849396229,0.0007826079381629825
40,0.0008715367614692306,0.4905950240206728,0.02338584072020924,0.06327990766559688,0.0008715368172898792,0.0007455004088114947,0.5080000013113022,0.0221077436581254,0.059510737657547,0.0007455004670191556
41,0.0008551326570777523,0.48717764495817345,0.02307217824603115,0.062661828441437,0.0008551326863871868,0.0007669843907933682,0.49300000071525574,0.02263044100254774,0.059249650686979294,0.00076698450720869
42,0.0008477960245513796,0.48347309105606195,0.022999184501502495,0.062352405983513264,0.0008477960510559076,0.0008249513921327889,0.5439999997615814,0.023847900331020355,0.06222493387758732,0.0008249514794442803
43,0.0008482909657129675,0.48397564850856706,0.023031556629849927,0.062365651719499364,0.0008482910035006414,0.000767440302297473,0.4950000047683716,0.022252269089221954,0.05915319547057152,0.000767440302297473
44,0.000867214602106448,0.49287806493171593,0.023414114727007208,0.06318517296716385,0.0008672145832443709,0.0008035178179852664,0.4790000021457672,0.02341525163501501,0.06160442717373371,0.0008035178761929274
45,0.0008492262275598207,0.48986272942902787,0.02312033330564537,0.06242579266122554,0.0008492262418885804,0.0007386628421954811,0.478999987244606,0.02211556863039732,0.05857213959097862,0.0007386629586108029
46,0.0008242987790582532,0.47850496735504894,0.02261039098141356,0.061546563355659854,0.0008242987673572128,0.0007581069367006421,0.4860000014305115,0.023161722347140312,0.060906777158379555,0.0007581068493891507
47,0.0008311642984683716,0.4798977650818823,0.022800775087891,0.061802790871073064,0.0008311643211550172,0.0007711673970334232,0.4659999907016754,0.022782334126532078,0.060275450348854065,0.000771167513448745
48,0.0008392321424812624,0.4836741138056428,0.022940987887868834,0.06204462160576349,0.0008392321344209172,0.0007585629937238991,0.4960000067949295,0.02287918794900179,0.05996304005384445,0.0007585631392430514
49,0.0008280647172430023,0.4809172352919607,0.02278440387207159,0.06171010098322249,0.0008280647476289324,0.000768056110246107,0.5419999957084656,0.02324235625565052,0.06057889387011528,0.0007680562557652593
50,0.0008263263338691348,0.48073057067687985,0.022741096894682074,0.061645099593558704,0.0008263263685543615,0.0007067527913022786,0.4740000069141388,0.021207915619015694,0.05743958428502083,0.0007067529077176005
51,0.0008193863223232055,0.47833266193400736,0.022635085024245574,0.06136077644387849,0.0008193863435789811,0.0007363385520875454,0.510000005364418,0.022090022452175617,0.058839356526732445,0.0007363384938798845
52,0.0008182888236933738,0.48071621439443385,0.022706127714041142,0.06147864370054123,0.0008182888445880887,0.0007451891142409295,0.4650000035762787,0.02190607227385044,0.058697059750556946,0.0007451891724485904
53,0.0008083168028118981,0.4748147734600318,0.022469914536216027,0.06090208065242087,0.0008083168496160595,0.0007149450830183923,0.4519999921321869,0.021625077351927757,0.0581045038998127,0.0007149451994337142
54,0.0008008276153344657,0.4731778752782577,0.022411229907199685,0.06072762868063898,0.0008008276285867297,0.0007672675419598818,0.5040000081062317,0.022322393022477627,0.05979742109775543,0.0007672673964407295
55,0.0008019624796552813,0.47706909423877913,0.02247403570584622,0.06084236229418079,0.0008019624860440493,0.0007401976909022778,0.48500001430511475,0.022502966225147247,0.05931456573307514,0.000740197574486956
56,0.0007998974580263389,0.4738240166090719,0.02245440689483031,0.060744309984778734,0.0007998974755778995,0.000721164426067844,0.4860000014305115,0.022280167788267136,0.059020452201366425,0.0007211643678601831
57,0.0007916574342614191,0.47527424997207346,0.022285238104566386,0.0603976045397602,0.0007916574331849235,0.0007754541584290564,0.49800001084804535,0.023067964240908623,0.061069417744874954,0.0007754539547022432
58,0.0008085871067559892,0.48407615816823907,0.022775508468303843,0.061168709131917666,0.0008085871353499885,0.0007804508204571903,0.549000009894371,0.02410873956978321,0.0614211056381464,0.0007804505876265466
59,0.0007805919800325244,0.4714691854551641,0.02219490470396463,0.060043948277532386,0.0007805919827805973,0.0007061379437800497,0.4729999899864197,0.022025865502655506,0.058047911152243614,0.0007061380601953715
60,0.000778431848593412,0.4746137507104509,0.02216286359122812,0.059882478622139704,0.0007784319066807193,0.0007105197582859546,0.45799998939037323,0.02168408688157797,0.05814840644598007,0.0007105196709744632
61,0.0007886998128288164,0.4779162578809803,0.02241494325917409,0.06035459498147319,0.0007886998497238682,0.0006989662360865623,0.4830000102519989,0.02184238564223051,0.05799994617700577,0.0006989664398133755
62,0.0007667001843802335,0.46879846025024013,0.021972937196605265,0.05946348558564256,0.0007667001933967209,0.0006900284206494689,0.4689999967813492,0.021493609063327312,0.057515013962984085,0.000690028362441808
63,0.0007735513324957251,0.47412555150541774,0.02214959957465991,0.05974586679975201,0.0007735513538651679,0.0006846635369583964,0.45100000500679016,0.02150722313672304,0.056936709210276604,0.0006846636242698878
64,0.000765949816906628,0.4712968803079937,0.021986045933548255,0.05949039180966811,0.000765949844905546,0.0007036734314169735,0.48000000417232513,0.02166467159986496,0.05815238878130913,0.0007036734605208039
65,0.0007704797209490618,0.47241686247141546,0.022099027847166716,0.05975733868070394,0.000770479750796744,0.0006980526959523559,0.49799998104572296,0.021468686871230602,0.05748557858169079,0.0006980530743021518
66,0.0007626472506872733,0.47579116644402497,0.02194827118973333,0.05945132028568887,0.0007626472481799075,0.0006983228668104857,0.46700000762939453,0.021663046441972256,0.0578932985663414,0.0006983229832258075
67,0.0007497509567894632,0.4696887034019277,0.021725598855673614,0.05887825815417363,0.0007497509877136412,0.0006877544510643929,0.47200001776218414,0.021328660659492016,0.057094305753707886,0.0006877546256873757
68,0.0007454591750491034,0.4712250872990298,0.02166696270838672,0.058645220078114124,0.0007454591943925947,0.0008014661725610495,0.5010000020265579,0.023939070291817188,0.06109989061951637,0.0008014660852495581
69,0.0007535970485547495,0.47267531895718307,0.02190835599630111,0.059038801924190996,0.0007535970577484239,0.000658438220852986,0.44699999690055847,0.020941289141774178,0.05577109940350056,0.0006584381917491555
70,0.0007433222355098796,0.4679656537086752,0.02163523318566201,0.058617985474381046,0.0007433222518077573,0.0006827298202551901,0.4740000069141388,0.021282508969306946,0.05702609196305275,0.000682729936670512
71,0.000738701482540965,0.4689564067339967,0.02163431582463499,0.058439786949196944,0.0007387014765132577,0.0006821251299697906,0.4619999974966049,0.021418300457298756,0.05716852657496929,0.0006821249262429774
72,0.0007295266026376918,0.4687123064005863,0.021506670082973165,0.05815962362777947,0.0007295266263373132,0.0006572033744305372,0.4699999988079071,0.02123680617660284,0.05616719275712967,0.0006572034326381981
73,0.000747798280476058,0.4770978098864339,0.021957768430078257,0.058911920786434556,0.0007477983193402276,0.000685932143824175,0.4560000002384186,0.0217287577688694,0.057650625705718994,0.000685932143824175
74,0.0007343813915610522,0.47185687163019774,0.02169334765119926,0.05842237444488056,0.0007343813968733244,0.0006956754077691585,0.4690000116825104,0.02119118720293045,0.05679548531770706,0.0006956754659768194
75,0.0007310206362286046,0.4747429773854221,0.021629329273983967,0.05821434969883655,0.0007310206496580557,0.0006935166020411998,0.4860000014305115,0.02168711367994547,0.05749458447098732,0.0006935166602488607
76,0.0007276414087145235,0.47072253089750543,0.021570779656518827,0.05804620527214996,0.0007276414296092384,0.000685112172504887,0.46300001442432404,0.021658407524228096,0.05754869058728218,0.0006851123180240393
77,0.0007318574808826595,0.47567629535826333,0.021705040009063797,0.05831151844452322,0.0007318575168215691,0.0006791991763748229,0.48500001430511475,0.02137658093124628,0.05740022286772728,0.0006791994092054665
78,0.0007168787573738621,0.46869794955841604,0.021354121735713077,0.05769617807471624,0.0007168787552843906,0.0006483347387984395,0.4570000022649765,0.02081991918385029,0.055490415543317795,0.000648334709694609
79,0.0007131120670997311,0.47024869134011066,0.021300650031263753,0.05748693058210001,0.0007131121009491692,0.0007184860878624022,0.4909999817609787,0.021487651392817497,0.05784285627305508,0.0007184861751738936
80,0.0007183165944352124,0.4729481347670787,0.02143367026460163,0.05767473573681714,0.0007183165936629438,0.0006865996692795306,0.47300000488758087,0.021144171245396137,0.05663633719086647,0.0006865994946565479
81,0.000721709254222061,0.469257940112069,0.02155600100091126,0.057887522978194106,0.0007217092511196138,0.0007428360695485026,0.48899999260902405,0.021603181958198547,0.0587632991373539,0.0007428360695485026
82,0.0007074928909174195,0.47144046889004076,0.021279529993131395,0.05730151380575694,0.0007074928853076064,0.0006825506570748985,0.4829999953508377,0.02180002350360155,0.05693083815276623,0.0006825507734902203
83,0.0007026001111566081,0.4697461369823502,0.02126491576498226,0.057132413649650084,0.0007026001190397662,0.0006608757539652288,0.47300000488758087,0.021147617138922215,0.05642572231590748,0.000660875637549907
84,0.0007013099552688223,0.46901384067558677,0.02117435166447624,0.05699112801249602,0.0007013099714463463,0.000729291292373091,0.4959999918937683,0.022151763550937176,0.058729927986860275,0.0007292913505807519
85,0.0007056234095089247,0.4717132836044516,0.021306140476157462,0.05727547788366151,0.00070562344359907,0.0006613207515329123,0.431999996304512,0.02084811870008707,0.05588316358625889,0.0006613207806367427
86,0.0007029685736837904,0.47098098938937955,0.021270420517185966,0.057082032053390915,0.0007029686003721917,0.0006742447149008512,0.4560000002384186,0.02140748593956232,0.056499117985367775,0.0006742448313161731
87,0.000697514517815287,0.47034920441632594,0.021214471347589373,0.056886919595296445,0.000697514518771429,0.0006441425939556211,0.4739999920129776,0.020623989403247833,0.05541581101715565,0.0006441426230594516
88,0.0006957280027937281,0.4691430700173788,0.02114315895467139,0.0567397405405457,0.0006957280195663336,0.0006570197292603552,0.4659999907016754,0.02096613124012947,0.05567767098546028,0.0006570198456756771
89,0.0006824762815717144,0.4658405596596733,0.02098189236247576,0.05639570853916571,0.000682476298585027,0.0006350110052153468,0.46000000834465027,0.02072734385728836,0.05491471104323864,0.0006350109179038554
90,0.0006855850043551955,0.4652662094378415,0.020966858827559748,0.05644008023098961,0.0006855850088316793,0.0006843114097137004,0.4560000002384186,0.021433886140584946,0.05742027796804905,0.0006843115552328527
91,0.0006834462785318116,0.4670610536412145,0.02092497369223039,0.05626881530913964,0.0006834463166805464,0.0006672006857115775,0.453000009059906,0.021140726283192635,0.0563418660312891,0.0006672008021268994
92,0.0006777724666751978,0.4672764325243239,0.02088156467246185,0.05606568931320528,0.0006777724894504371,0.0006425415922421962,0.4619999974966049,0.020901390351355076,0.055483344942331314,0.0006425415049307048
93,0.0006770504401409353,0.46772155527524634,0.0209292434290737,0.0561314926048234,0.0006770504782896699,0.0006160527991596609,0.44599999487400055,0.020142623223364353,0.05454365722835064,0.0006160528573673218
94,0.000667945248397698,0.46315547523332296,0.020679749303234896,0.05561735584196207,0.0006679452538303239,0.0006321588589344174,0.44699999690055847,0.020453674718737602,0.05570307932794094,0.000632158771622926
95,0.0006835003894311709,0.46905691723411097,0.021053282030187383,0.056392186744160314,0.0006835004228627147,0.000651269278023392,0.46800000965595245,0.020779329352080822,0.055638957768678665,0.0006512691616080701
96,0.0006673694861413106,0.4641605872027762,0.0207336031099035,0.055644145532933266,0.000667369524524066,0.0006785986479371786,0.48900000751018524,0.021308740600943565,0.05626036785542965,0.0006785986479371786
97,0.0006860639028957032,0.4686548728047586,0.021194087102646343,0.056517206099033906,0.0006860639381760113,0.0006226757250260562,0.4519999921321869,0.02034185081720352,0.05435638129711151,0.0006226757250260562
98,0.0006635767871357342,0.4661420936762078,0.020682305586482853,0.05550318844772605,0.0006635768150142986,0.0006355312361847609,0.47600001096725464,0.020724941045045853,0.054637813940644264,0.0006355312652885914
99,0.0006595748534851636,0.4625954858145238,0.020613084913898832,0.05530462508961147,0.0006595748473371027,0.000623820029431954,0.46000000834465027,0.020599001087248325,0.0552138090133667,0.0006238200585357845
100,0.000658263308338032,0.4632416285232525,0.020654243582316278,0.05537825112262795,0.0006582633303660763,0.0006308227602858096,0.4690000116825104,0.020587902516126633,0.05528581328690052,0.0006308229640126228
101,0.0006598863262542152,0.4666877256845539,0.02070778671301823,0.05539020983361375,0.000659886329477016,0.0006267872522585094,0.4350000023841858,0.020695634186267853,0.055153461173176765,0.0006267873686738312
102,0.0006541238521648807,0.4648067319501337,0.02060177505846927,0.05520900098951316,0.0006541238639545145,0.0006145135848782957,0.4560000002384186,0.020378747954964638,0.054281335324048996,0.0006145135557744652
103,0.0006507537383537492,0.45630635769861144,0.02049333562970805,0.054938040270628576,0.000650753750175143,0.000650154281174764,0.4449999928474426,0.02110606525093317,0.05551658943295479,0.000650154339382425
104,0.000649317202640315,0.45662224917866157,0.020495832068887887,0.054918287350917,0.0006493172249976599,0.0006300195527728647,0.44099999964237213,0.020401381887495518,0.0546023640781641,0.0006300196109805256
105,0.0006485144542026433,0.4621072863989521,0.020514221661904145,0.054889652025621904,0.0006485144602303506,0.0006501382449641824,0.46799999475479126,0.020774166099727154,0.055247003212571144,0.0006501382740680128
106,0.0006477746357869036,0.45709608759777914,0.020481268944678024,0.0548022591881914,0.000647774641339883,0.0006214886961970478,0.4449999928474426,0.020258271135389805,0.054618462920188904,0.0006214886088855565
107,0.0006502585528142625,0.46513698310178603,0.020561153147234612,0.054990395919634484,0.0006502585943061515,0.0006043838220648468,0.45000000298023224,0.019883939065039158,0.05326521210372448,0.0006043838802725077
108,0.0006317291149549047,0.45386537101587693,0.02020887962895672,0.05415773310396722,0.0006317291292836643,0.0006161953206174076,0.4689999967813492,0.021134162321686745,0.0538933202624321,0.0006161950877867639
109,0.0006304855370958076,0.45217104003078995,0.020144925045331892,0.05406416665708531,0.0006304855580791161,0.0005981237627565861,0.4450000077486038,0.020214851014316082,0.053514136001467705,0.0005981236754450947
110,0.0006373010218779278,0.45833093964192917,0.020391229174876704,0.05443205226309664,0.0006373010604127967,0.0006220380018930882,0.46800000965595245,0.020311945118010044,0.0534280426800251,0.0006220380601007491
111,0.0006314938302487191,0.4543679289442333,0.0202488558090135,0.054134277875388784,0.0006314938667258765,0.0005945914017502218,0.4490000009536743,0.019871491007506847,0.05241706408560276,0.0005945914890617132
112,0.0006283511019369321,0.4549997120104586,0.02013640584239382,0.054015821055965155,0.0006283511141160435,0.0005984077288303524,0.46400001645088196,0.02023800928145647,0.05307588167488575,0.0005984079325571656
113,0.0006273614859210765,0.4543822872618847,0.020188866169254215,0.053946948021155634,0.0006273615180989373,0.0005953661166131496,0.4609999805688858,0.0204558027908206,0.05310912989079952,0.0005953662330284715
114,0.0006225390747374679,0.45198437692371246,0.02009176875963524,0.05376640360914314,0.0006225390963793778,0.0006025855836924165,0.46400000154972076,0.020398210734128952,0.053664349019527435,0.0006025855254847556
115,0.0006368033749360139,0.46038423941702455,0.020435597926008523,0.05436989370812451,0.0006368033918607329,0.0005730281118303537,0.4259999990463257,0.019802329130470753,0.0523594468832016,0.0005730280827265233
116,0.0006286344679378893,0.4562345636266849,0.020259406910790395,0.05404555987575054,0.0006286344650443892,0.0005572322115767747,0.482000008225441,0.019354237243533134,0.051471589133143425,0.0005572320951614529
117,0.0006236043792686894,0.4548704841766699,0.020140230288083656,0.05379846851401282,0.0006236043713286978,0.0006374563090503216,0.4819999933242798,0.02094395086169243,0.05479317530989647,0.000637456338154152
118,0.0006262805668680511,0.4547986896442974,0.020249105893115262,0.05396274319253971,0.0006262806011036235,0.0005832734459545463,0.45099999010562897,0.020037800073623657,0.05231141112744808,0.0005832734168507159
119,0.0006176234229397496,0.45023261279982035,0.020075566544281533,0.05363119596315994,0.000617623441744993,0.0005943033320363611,0.4560000002384186,0.019930760376155376,0.052802549675107,0.0005943033611401916
120,0.0006084283880647131,0.4482798198772171,0.019854698811578187,0.053125671061782544,0.0006084284205401147,0.0005699917965102941,0.4350000023841858,0.019631913863122463,0.052078891545534134,0.000569991854717955
121,0.0006136641082274109,0.4535207599906424,0.01996851674540543,0.05344194828386447,0.0006136641047354861,0.0005917253147345036,0.4529999941587448,0.01982603594660759,0.05265736021101475,0.0005917252565268427
122,0.0006108646453523519,0.4491700639960124,0.01989386796754021,0.053299063856570496,0.0006108646498288355,0.0006324046698864549,0.45000000298023224,0.020406712777912617,0.05472051165997982,0.0006324045243673027
123,0.0006180267824222795,0.4538222945087036,0.02007944206128145,0.05356015265865189,0.000618026793347708,0.0006213817687239498,0.46299999952316284,0.020783872343599796,0.05392063036561012,0.0006213817978277802
124,0.0006076086507796043,0.44671472140055796,0.01988726887809375,0.053098246046097454,0.0006076086529894293,0.0005697745073121041,0.45400001108646393,0.019567256793379784,0.051734840497374535,0.0005697743908967823
125,0.0006108358013368093,0.45369306645068286,0.020009296860054402,0.05326637802105845,0.0006108358227380122,0.0006050216034054756,0.46799999475479126,0.020591160282492638,0.05416718311607838,0.0006050215743016452
126,0.0006068227463806376,0.45102234224538884,0.01983719179890851,0.053004732323702085,0.0006068227756014785,0.0005849957233294845,0.45499999821186066,0.019973046146333218,0.052620746195316315,0.0005849958397448063
127,0.0006065737596174839,0.45429613302196437,0.019922239963530323,0.05306394827355776,0.0006065737902441211,0.0006099418678786606,0.4790000021457672,0.02036017831414938,0.05368771590292454,0.0006099417514633387
128,0.0006039559740968355,0.44961518348957913,0.019803501964282978,0.052916707981633095,0.000603956010542233,0.0005756731261499226,0.47600001096725464,0.01974783092737198,0.05215047486126423,0.0005756731261499226
129,0.0006021720740839467,0.45201309379865257,0.0198698753985189,0.05292043756785819,0.0006021720850695519,0.0006200903444550931,0.48499999940395355,0.02088814415037632,0.05511586740612984,0.0006200903153512627
130,0.0005925696969747482,0.447217276074982,0.019631601830584,0.052401807633110975,0.0005925696955438781,0.0005507817259058356,0.4360000044107437,0.019239500164985657,0.05140963755548,0.0005507816968020052
131,0.0005945856755485953,0.44645626243967934,0.01966478599861361,0.052448985008783366,0.0005945856888008592,0.0005877705407328904,0.45900000631809235,0.020203721709549427,0.052833665162324905,0.0005877705989405513
132,0.0005963725048952005,0.4446614218907753,0.019635129290444135,0.052467278801116575,0.000596372514120635,0.0005510844639502466,0.46299998462200165,0.01947758998721838,0.05141974426805973,0.0005510844348464161
133,0.0005905449156714856,0.44835161684533165,0.01961685948847978,0.05231398612027172,0.0005905449370125117,0.0005481631378643215,0.4450000077486038,0.01918782014399767,0.05155057646334171,0.0005481630505528301
134,0.0005871285279032573,0.44820802860220027,0.019561655213796943,0.0522254224673849,0.0005871285433653463,0.000564486370421946,0.4490000009536743,0.019174293614923954,0.05111168883740902,0.0005644862540066242
135,0.0005937055251219569,0.4511515701116997,0.01966656299214762,0.05248010713448955,0.0005937055209430139,0.0005406839773058891,0.431999996304512,0.018965414725244045,0.05099499225616455,0.00054068403551355
136,0.0005887880835648696,0.44829417982611386,0.01959977533701872,0.052301443893301734,0.0005887880879845197,0.0005454046186059713,0.4649999886751175,0.019042158499360085,0.050981899723410606,0.0005454047059174627
137,0.0005804098349474967,0.4472316363336956,0.019436133532058426,0.05181863880228164,0.000580409853543793,0.0005802385276183486,0.4450000077486038,0.019503560848534107,0.051521023735404015,0.0005802385567221791
138,0.0005839495999626458,0.44572396615859144,0.019546193902219063,0.05209479447560981,0.0005839496017228166,0.0005723595386371017,0.4570000022649765,0.019882007502019405,0.051727257668972015,0.000572359625948593
139,0.000585544941107251,0.44560909667155296,0.01953819906582431,0.05201369969363729,0.0005855449533465391,0.000554601545445621,0.4650000035762787,0.019350185059010983,0.05125642940402031,0.0005546014872379601
140,0.0005879862580584549,0.4509361882878982,0.019613163683733142,0.052124753790815506,0.0005879863018170026,0.0005630136583931744,0.482000008225441,0.019756394438445568,0.05184672400355339,0.000563013629289344
141,0.0005791319358793984,0.4464706225837094,0.019484335490191157,0.051847289782311665,0.0005791319394314999,0.0005761803477071226,0.4610000103712082,0.019811089150607586,0.05244045704603195,0.000576180376810953
142,0.0005747769177955717,0.4427086329050707,0.019368780686352453,0.05165256165238889,0.0005747769201541671,0.0005514224176295102,0.46400000154972076,0.01959274336695671,0.051776112988591194,0.0005514224758371711
143,0.0005826588770658476,0.45040491520656695,0.019546520906900573,0.05188492173395859,0.0005826588832139085,0.000556017825147137,0.47199998795986176,0.019336272031068802,0.0515639316290617,0.0005560177669394761
144,0.0005715056863337095,0.44133019507749494,0.01924428753017777,0.051365432740122216,0.0005715056963631727,0.000539052183739841,0.4350000023841858,0.01912869792431593,0.05065826140344143,0.0005390520673245192
145,0.0005618431269060609,0.44197633706217665,0.019149612518443902,0.05094054051547649,0.0005618431394111298,0.0005808108253404498,0.4840000122785568,0.019842163659632206,0.05204947665333748,0.0005808108835481107
146,0.0005858895561185685,0.44927057524927244,0.019638684347963443,0.052045759761684705,0.0005858895715488976,0.0005439406668301672,0.4610000103712082,0.019344071857631207,0.05128797888755798,0.0005439405795186758
147,0.0005722814405733046,0.44411578957432407,0.0193147968352577,0.05151356217503226,0.0005722814722129176,0.0005870219029020518,0.471000000834465,0.02011821325868368,0.0528956800699234,0.0005870217573828995
148,0.0005723445433259941,0.44619780592481295,0.019434976787805168,0.05154183259112195,0.000572344558579136,0.0005549027409870178,0.4440000057220459,0.019690686836838722,0.05158792622387409,0.0005549027118831873
149,0.0005672315540330481,0.4387456199530724,0.019260564016407297,0.051314761655150656,0.000567231562660058,0.000552742654690519,0.43700000643730164,0.01958560850471258,0.05154534429311752,0.0005527427128981799
150,0.0005565378812562045,0.43772614996380266,0.01901433344342657,0.05073766422888966,0.0005565378830481352,0.0005466045986395329,0.45099999010562897,0.01932044792920351,0.05103033408522606,0.0005466046277433634
151,0.0005639096451331647,0.44064097353197595,0.019223048852429366,0.051105118083576255,0.0005639096608927944,0.0005531656206585467,0.44199998676776886,0.019448451697826385,0.05120893195271492,0.0005531655624508858
152,0.0005641362973918316,0.4405404619586289,0.019218505012658517,0.05114522670817659,0.0005641362910950002,0.0005366473051253706,0.44200000166893005,0.019024892710149288,0.05093860439956188,0.0005366472469177097
153,0.0005645560275090336,0.44474757211505905,0.019239608997872876,0.051147837102170114,0.0005645560346449966,0.0005635948327835649,0.45399999618530273,0.019535429775714874,0.051325906068086624,0.0005635947454720736
154,0.0005620239153424671,0.44398655930479336,0.01918047970760684,0.05103272115693492,0.0005620239255491174,0.0005599962314590812,0.44099999964237213,0.0197634631767869,0.05168222077190876,0.0005599962023552507
155,0.000565442046908378,0.44153121596475164,0.01928824779930216,0.05118050715178859,0.0005654420732357188,0.0005207918729865924,0.43700000643730164,0.018741796724498272,0.04966767318546772,0.0005207919602980837
156,0.000565336053072989,0.44639882853061147,0.019329596048857634,0.051198514013751605,0.0005653360696399905,0.0005550406058318913,0.4560000002384186,0.01932650525122881,0.0512083824723959,0.0005550404894165695
157,0.0005545221527653492,0.4414881390005557,0.019124174032157694,0.05074468625753384,0.0005545221435716746,0.0005251683760434389,0.4440000057220459,0.019114285707473755,0.05078968405723572,0.0005251685215625912
158,0.0005583750535799657,0.4438429731174077,0.0191382571179117,0.05084087993956284,0.0005583750772795871,0.000508944402099587,0.45799998939037323,0.01869374606758356,0.049591585993766785,0.0005089444166515023
159,0.0005499849204165184,0.4372092347465236,0.01892182684773248,0.0504448922282214,0.0005499849267735264,0.0005247230583336204,0.45799998939037323,0.018856306560337543,0.04964720457792282,0.0005247232911642641
160,0.0005515312917043933,0.44000918912378173,0.019072700051485852,0.05058185049297856,0.000551531294750007,0.0005228430090937763,0.4660000056028366,0.019189629703760147,0.049903810024261475,0.0005228430381976068
161,0.0005423105307231682,0.4371805172365446,0.018822970457602277,0.05003079005006392,0.0005423105330533467,0.0005152528756298125,0.4449999928474426,0.018712082877755165,0.0496989656239748,0.0005152527883183211
162,0.0005511617288916142,0.43730974668275,0.018995648947927442,0.050439287151859545,0.000551161745607386,0.0005479137762449682,0.4649999886751175,0.0196065716445446,0.05164562352001667,0.0005479136016219854
163,0.0005533232076135839,0.44321118863903397,0.01905489876730689,0.05056606783708071,0.0005533232152242748,0.0005261143669486046,0.46699999272823334,0.018864271230995655,0.049865901470184326,0.000526114396052435
164,0.000548856619700668,0.43568720948887163,0.018970375522747777,0.050358230631620274,0.000548856644445025,0.0005099155678180978,0.45499998331069946,0.01848198939114809,0.049197399988770485,0.0005099155678180978
165,0.0005460006584493238,0.4384153688904282,0.018954911805917418,0.05028644868619725,0.0005460006705682584,0.0004965932748746127,0.4479999840259552,0.018431327305734158,0.048672428354620934,0.000496593420393765
166,0.0005447104381322667,0.4378840984433956,0.018938247673181387,0.050248923476923,0.0005447104638929428,0.0005112509243190289,0.45900000631809235,0.018849569372832775,0.04962532036006451,0.0005112508806632832
167,0.0005460757322254623,0.4412727591725906,0.018986817296027598,0.05027488069035924,0.0005460757407922954,0.00052707563736476,0.4299999922513962,0.018762133084237576,0.05002308450639248,0.00052707563736476
168,0.0005468442476398589,0.44033944085741034,0.018946456420426565,0.05030111971983486,0.0005468442675784316,0.0004953963798470795,0.45000001788139343,0.01865850668400526,0.04897526651620865,0.0004953963943989947
169,0.0005441699649481325,0.43686462691188865,0.01891316248021708,0.05017434034641398,0.0005441699696653234,0.0005463600973598659,0.43699999153614044,0.01908793766051531,0.050239816308021545,0.0005463601264636964
170,0.0005414396725991442,0.43943483881636525,0.0189242535248552,0.050029794387868115,0.0005414396580614374,0.0005300293851178139,0.4570000022649765,0.019160045310854912,0.049951886758208275,0.0005300292978063226
171,0.0005418969024845367,0.4403394408728156,0.018924720170260173,0.05007442496800421,0.0005418969171108371,0.000504044335684739,0.4399999976158142,0.018381744623184204,0.04831191897392273,0.0005040444812038913
172,0.0005308865538604397,0.4363764279944202,0.01866949852152672,0.049525918999717755,0.0005308865692590087,0.0005244466592557728,0.4479999989271164,0.01878968719393015,0.04935108311474323,0.0005244466301519424
173,0.000532250082540788,0.43585951305785914,0.018714038349838254,0.049599476021683325,0.0005322500994053302,0.0005072140047559515,0.45900000631809235,0.018589956685900688,0.04928009957075119,0.000507213975652121
174,0.0005328726004994753,0.4359169496628467,0.018718746913511723,0.04963514721831437,0.000532872631005759,0.0005588133062701672,0.4950000047683716,0.01980193890631199,0.05145149677991867,0.0005588133353739977
175,0.000539859684294277,0.4379128156726566,0.01891147246432704,0.05003188147924378,0.0005398596934879516,0.0005130012577865273,0.460999995470047,0.0191122367978096,0.04962034709751606,0.0005130011268192902
176,0.0005403426310854973,0.4401527760352144,0.018951321101920923,0.05006982582208276,0.0005403426376514524,0.0005120875430293381,0.4580000042915344,0.018884431570768356,0.04929688945412636,0.0005120874848216772
177,0.0005312622910029596,0.4359887420932577,0.018754646468341237,0.04966492102150907,0.0005312623110618859,0.0004984573606634513,0.45000000298023224,0.018551787361502647,0.048677967861294746,0.0004984573897672817
178,0.0005253298934514726,0.4361897634666358,0.01862941047802664,0.04927600244294768,0.0005253299192405654,0.0004970680456608534,0.46699999272823334,0.019084444269537926,0.04910563677549362,0.0004970680893165991
179,0.0005255698289133247,0.4336051917724501,0.018627756814474036,0.04937489188804878,0.0005255698465852388,0.0005185018962947652,0.460999995470047,0.018448754213750362,0.04929675534367561,0.0005185019545024261
180,0.0005309518184856396,0.43453850866350013,0.018697730587302945,0.049566588736353785,0.0005309518524236714,0.0005176159320399165,0.45399999618530273,0.018864305689930916,0.0495577584952116,0.0005176158447284251
181,0.0005252823370135513,0.43241341598727756,0.01863015420652721,0.04926350665768759,0.0005252823570724776,0.0004957879282301292,0.4529999941587448,0.01823474559932947,0.04843050055205822,0.0004957878409186378
182,0.0005232549136053526,0.43515593503818434,0.018619397600034247,0.04921434666736985,0.0005232549315748074,0.00048199320735875517,0.43699999153614044,0.01790457684546709,0.047582801431417465,0.000481993323774077
183,0.0005273289139081577,0.4373815385328964,0.0186495783628976,0.04940513678138558,0.0005273289195497307,0.0004938339843647555,0.45000001788139343,0.0181348929181695,0.04842759668827057,0.0004938338097417727
184,0.0005168288902062213,0.4328298200146292,0.018471447759912416,0.04891112230854643,0.000516828895189193,0.0005093366198707372,0.4570000022649765,0.018244104459881783,0.04837009124457836,0.0005093366926303133
185,0.0005254456321690002,0.43430876899789844,0.01863950510411371,0.04929267689602803,0.0005254456363161833,0.0005174067046027631,0.46299999952316284,0.018837641924619675,0.049566879868507385,0.0005174067046027631
186,0.000518928176058427,0.43542875226878686,0.01847762397745217,0.04892345896564896,0.0005189282015499793,0.00048537406837567687,0.4310000091791153,0.018390001729130745,0.04854763485491276,0.00048537406837567687
187,0.0005151828944172214,0.434193899589598,0.01842243538403554,0.04877347558570767,0.0005151828997612537,0.0004878721956629306,0.4399999976158142,0.018240823410451412,0.0479023028165102,0.0004878720792476088
188,0.0005190270960783599,0.43422261816938634,0.01857191917796359,0.04908083104113668,0.0005190271058102823,0.0004995986964786425,0.45499999821186066,0.018677868880331516,0.04889673925936222,0.0004995985800633207
189,0.0005190626867616436,0.4344523573334614,0.01850982976488007,0.04893384171002258,0.0005190626892690094,0.0005286560917738825,0.49400000274181366,0.01983431726694107,0.05022551491856575,0.0005286560917738825
190,0.0005211958187472406,0.4365918101656958,0.018552527341712016,0.04906610782176853,0.0005211958246295208,0.00048174738185480237,0.42499999701976776,0.018061663024127483,0.04801996238529682,0.00048174726543948054
191,0.0005131408866635253,0.4289529597243684,0.01844634181318062,0.048716689511062936,0.0005131408923368583,0.0005054951034253463,0.46299998462200165,0.018605418503284454,0.04912111163139343,0.000505495147081092
192,0.0005132747799295888,0.4334041705360076,0.01845695100764066,0.048735782565060864,0.0005132748037495637,0.0005161779845366254,0.4449999928474426,0.01875767670571804,0.04905978962779045,0.0005161781009519473
193,0.0005286849517479724,0.43723795367720947,0.018744897047175108,0.04940407774838798,0.0005286849573009519,0.0005131822690600529,0.4270000010728836,0.01899763196706772,0.04923713393509388,0.0005131821817485616
194,0.0005239096980586582,0.4357446440877526,0.018648538254507376,0.049096152680859644,0.0005239097008953248,0.00048367750423494726,0.43400000035762787,0.018187807872891426,0.04803774692118168,0.0004836775333387777
195,0.0005108640212364537,0.4352277282097593,0.018452964342899936,0.04871569426309733,0.0005108640255357501,0.0004675539385061711,0.4490000009536743,0.01794430334120989,0.04707964137196541,0.00046755385119467974
196,0.0005059835949693249,0.4297426921431512,0.018252861684820612,0.048327086380294065,0.0005059836146989505,0.00048699622857384384,0.45500001311302185,0.01845938339829445,0.048449765890836716,0.00048699630133342
197,0.0005203313691492796,0.43728102989168294,0.018575024425026593,0.049008517296241595,0.0005203313726412043,0.0005490413750521839,0.48099999129772186,0.019870443269610405,0.05134037509560585,0.000549041316844523
198,0.0005081842526674249,0.4335764739526543,0.018401840800977568,0.04849352270713947,0.0005081842675026725,0.0004919330967823043,0.43700000643730164,0.018345480784773827,0.04811330698430538,0.0004919331113342196
199,0.0005127661415602783,0.4333610945902703,0.018433193653333256,0.04869992254578665,0.0005127661488450116,0.00046968928654678166,0.4440000057220459,0.01797280553728342,0.04667787812650204,0.0004696894029621035
