epoch,huber_loss,l0_loss,l1_loss,linf_loss,loss,val_huber_loss,val_l0_loss,val_l1_loss,val_linf_loss,val_loss
0,0.08768618275575778,8.807588212630328,0.2469046322738423,1.222300944258185,0.08768618415822,0.0656444203108549,8.462000036239624,0.20876011699438096,1.0667061448097228,0.06564442105591298
1,0.06032878467265297,8.436647064545575,0.19977010462213965,1.028783652011086,0.060328784957528116,0.05946696661412716,8.550999927520753,0.19811159372329712,1.0157054603099822,0.05946696773171425
2,0.05521702952682972,8.59864705029656,0.19224695729858735,0.9755122510825887,0.05521702954874319,0.0547144565731287,8.923999881744384,0.19220529794692992,0.959905457496643,0.05471445731818676
3,0.05020949240116512,8.556941197900212,0.18482104881721384,0.9243003361365374,0.0502094923354247,0.04904467836022377,8.159999895095826,0.18386341631412506,0.913875299692154,0.04904467798769474
4,0.0442489571759806,8.408764690511367,0.17609202370924107,0.8709988005021039,0.044248956836321775,0.04328421726822853,8.372000026702882,0.17384925335645676,0.8627123653888702,0.04328421726822853
5,0.03946228005430278,8.352294114056756,0.16609095098341212,0.8270398543161505,0.03946228010908646,0.03947328701615334,8.566999864578246,0.1648123323917389,0.828947103023529,0.03947328887879849
6,0.03639876381220186,8.230176474066342,0.1596729735241217,0.7929454361691194,0.03639876416281742,0.036552499048411846,8.34500012397766,0.16056536883115768,0.7942535996437072,0.036552500911056995
7,0.033729253884624034,8.153941168504602,0.1546105000026086,0.7641260753659641,0.03372925420236938,0.03380957152694464,8.472000026702881,0.1533309668302536,0.7644927203655243,0.03380957283079624
8,0.03169471987468355,8.181117649639354,0.14950734298018847,0.7421202578965356,0.03169472024721258,0.03219094462692738,8.234000062942505,0.1494472771883011,0.7451845347881317,0.032190945371985434
9,0.030372022464871407,8.228588213640101,0.14656068332055036,0.7247110577190623,0.03037202268400613,0.030994719453155996,8.642999935150147,0.14755438566207885,0.726465493440628,0.03099472038447857
10,0.029144238077980632,8.303411769866944,0.14391513164429104,0.7089172748958363,0.029144238351899034,0.029738244041800498,8.599000024795533,0.144804248213768,0.7091645419597625,0.029738244786858558
11,0.028057999120039097,8.363352960698744,0.14129468702218112,0.6935293148545658,0.028057999328217086,0.028834539093077184,8.699999904632568,0.14285845160484315,0.6926762521266937,0.028834539651870727
12,0.027252624271547093,8.42199998182409,0.13936098467777758,0.6819371216437395,0.027252624753643484,0.027657857909798623,8.062999963760376,0.13916055262088775,0.68118337392807,0.02765785828232765
13,0.026405617802896922,8.499705858791575,0.13719329137135955,0.66971354729989,0.026405618274036577,0.02701704017817974,8.763000011444092,0.13787372559309005,0.6698731124401093,0.027017039619386195
14,0.025633061874438735,8.606235330245074,0.13520121022182352,0.6585965103962842,0.02563306202783304,0.02637381572276354,8.873999977111817,0.13601850867271423,0.6646198987960815,0.0263738164678216
15,0.025127007373992136,8.610352956547457,0.1341960943358786,0.650933191355537,0.025127008031396305,0.0259911997243762,9.126000118255615,0.1356462463736534,0.6557427644729614,0.025991199165582658
16,0.024325585814521593,8.540647046706257,0.13200105130672454,0.6392425221555373,0.024325586055569788,0.025460138358175753,8.071000051498412,0.13455872535705565,0.6431651413440704,0.025460138358175753
17,0.02372636798330966,8.486176504808313,0.1308097967330147,0.6292350835659924,0.023726368125747233,0.02441071644425392,8.798000049591064,0.1329916574060917,0.6334818720817565,0.024410716630518435
18,0.023080093238283608,8.556117660859051,0.12945081026238553,0.6198184626943924,0.02308009356698569,0.023584775254130365,8.972000026702881,0.12988411411643028,0.6223297655582428,0.023584776744246482
19,0.0223982016720316,8.481529387305764,0.12767390547429813,0.6102762867422665,0.022398201704901807,0.023340027965605258,8.916000080108642,0.12967632785439492,0.6182783365249633,0.02334002759307623
20,0.02188930186059545,8.508470594181734,0.1263082194415962,0.6025738598669277,0.021889301882508923,0.022782346792519094,8.3989999294281,0.1281960867345333,0.6116852939128876,0.02278234753757715
21,0.021355330522226938,8.503529428033268,0.12449472848983371,0.5945157650639029,0.021355330642751035,0.022012864984571934,8.681999969482423,0.12601191252470018,0.6007364749908447,0.022012865357100963
22,0.020888053768259637,8.491058823641609,0.12313937750809333,0.5871840033461065,0.020888053970959258,0.022086018323898317,8.537999963760376,0.12652589231729508,0.6032734811306,0.022086018696427345
23,0.02063383378965013,8.462411782320808,0.12228805462227148,0.5830546614001779,0.020633834211484476,0.02120799943804741,8.053000020980836,0.12348114997148514,0.5911397218704224,0.021208000369369984
24,0.02020012250937083,8.410529425564935,0.12090454548597336,0.5767831290469451,0.020200122985988854,0.021019485779106617,8.342999982833863,0.12289152145385743,0.5917332351207734,0.021019486151635645
25,0.01979156578617061,8.377882340375114,0.11955863509108039,0.571213849677759,0.019791566191569847,0.020351033285260202,7.974999952316284,0.12101805582642555,0.5803054809570313,0.020351033844053745
26,0.01948765701449969,8.266529411428115,0.11862625755807933,0.5655356230104671,0.019487657228156048,0.01994443591684103,8.443999862670898,0.11879630610346795,0.5769151270389556,0.01994443591684103
27,0.019167065215023125,8.31476471564349,0.11779983148855322,0.5608999406590182,0.01916706525885007,0.019882165268063544,8.119999933242799,0.11979506835341454,0.5710426330566406,0.01988216545432806
28,0.01894279065925409,8.349529381359325,0.1172193681492525,0.5574686507968342,0.01894279085647534,0.019579758495092393,8.126000022888183,0.11878577396273612,0.5685324013233185,0.019579758681356908
29,0.018656182897222394,8.335117626190186,0.11624915608588388,0.552968056587612,0.018656183121835486,0.01929377783089876,8.45999984741211,0.1176198460161686,0.5662274718284607,0.019293777458369733
30,0.018331696443697986,8.322705919602338,0.11524027156479219,0.5478359555496889,0.01833169640534941,0.01931772828102112,8.651000022888184,0.11862535998225213,0.5594485342502594,0.019317729212343693
31,0.018093650410061373,8.330941149767707,0.11465465601752786,0.5436984928215252,0.01809365044840995,0.018761250749230386,7.887000036239624,0.11748116165399551,0.5505168318748475,0.01876125168055296
32,0.017893964715082856,8.32035296384026,0.1139792428297155,0.5410293938482509,0.017893964621950597,0.019306369498372077,9.002000045776366,0.11859989017248154,0.5600999534130097,0.019306369125843048
33,0.017679449915885926,8.278999998990226,0.11331450514057104,0.5374559041331796,0.017679449751534883,0.018249243125319482,8.088000154495239,0.11454829797148705,0.5513606190681457,0.018249242939054965
34,0.01757867949850419,8.243000016492957,0.11312489408780546,0.5356048883760677,0.017578679739552384,0.018153188936412334,7.897000026702881,0.11483388096094131,0.5466864347457886,0.01815318837761879
35,0.017232706622384925,8.31223531891318,0.11168737385202857,0.5306884707773433,0.017232706836041282,0.018135276436805726,8.9979998588562,0.11440586149692536,0.5493873298168183,0.01813527625054121
36,0.016946594592402962,8.214352919073665,0.11071230812984355,0.5262683994629804,0.01694659480605932,0.01813583690673113,8.053999996185302,0.11438937187194824,0.5521037936210632,0.018135837838053705
37,0.016907303270829073,8.196705874274759,0.11069821014123804,0.5255973730017157,0.016907303205088656,0.01760713243857026,8.585000038146973,0.1134408637881279,0.5346017330884933,0.017607132717967034
38,0.016723385206697618,8.240529399759629,0.11012234021635617,0.5229937956613653,0.01672338551348623,0.017241994850337505,7.20600004196167,0.1117207407951355,0.5347427278757095,0.01724199540913105
39,0.0165968957631027,8.253470597547643,0.10973331805537728,0.5205745420035194,0.016596896004150895,0.01717699570581317,8.680000114440919,0.11101676225662231,0.5348913460969925,0.017176995892077683
40,0.016395835874273495,8.216176470588236,0.10906053816570956,0.5177582372637356,0.016395835961927386,0.017053031735122202,8.463000106811524,0.11130427345633506,0.5313676297664642,0.017053032480180263
41,0.016166094942566225,8.250882367526783,0.1081652359050863,0.5137287643025903,0.016166095095960533,0.017028985917568205,7.9539999008178714,0.1111558236181736,0.5323329240083694,0.017028985545039177
42,0.016152903563616906,8.2907647301169,0.10818607951788341,0.5134342386442072,0.016152903623878955,0.016799302026629447,8.003000020980835,0.11042509451508523,0.525085499882698,0.01679930165410042
43,0.015982369092457434,8.198588242250331,0.10765277703895289,0.5102201877271428,0.015982369185589693,0.016729237139225007,8.365999937057495,0.11058931797742844,0.5244932264089585,0.016729238070547582
44,0.015814228284665766,8.333882348677692,0.10709547286524493,0.5073718674042645,0.01581422842162497,0.01636207541450858,8.14700002670288,0.10853004232048988,0.5202039867639542,0.016362076066434382
45,0.015791331001502627,8.282352904712452,0.10712646960335619,0.5063828552470487,0.015791330979589152,0.016372713912278413,8.259000110626221,0.10887004882097244,0.5217749804258347,0.016372713819146158
46,0.015617990428033997,8.344529390335083,0.10650839568937526,0.5038966422571856,0.015617990663603825,0.01627112375572324,8.949999856948853,0.10820361897349358,0.5154591500759125,0.016271123848855495
47,0.015464438256971977,8.358882362702314,0.1058872637065018,0.501380843800657,0.015464438459671595,0.016050680167973043,8.47700023651123,0.10749164894223213,0.5141106754541397,0.016050679702311756
48,0.015397665156599353,8.397058820724487,0.10563930702560088,0.5000580053119098,0.01539766528260182,0.016151442471891642,9.005999946594239,0.10770912244915962,0.515909618139267,0.016151443123817444
49,0.015339126563904917,8.394294160955093,0.10558197038138614,0.4992114829666474,0.015339126651558807,0.015993307158350945,7.814000034332276,0.10787342041730881,0.5105530470609665,0.015993308369070293
50,0.015249368186820956,8.389823504055247,0.1050382649197298,0.4972761869430542,0.015249368334736894,0.016148336231708527,8.396999979019165,0.10869733020663261,0.5133557438850402,0.016148336231708527
51,0.015139065710279872,8.417235281888177,0.10456965600743014,0.4955362360267078,0.015139065797933761,0.015916386619210243,8.781999969482422,0.1073072761297226,0.5092025130987168,0.015916386712342502
52,0.015017499051549855,8.383764712950763,0.10413264281609479,0.4938409470459994,0.015017499117290273,0.015782084316015244,8.617000007629395,0.10698213502764702,0.5065780431032181,0.01578208412975073
53,0.014934960248715738,8.45058825156268,0.1038121709928793,0.4917064863092759,0.01493496032541289,0.015809731371700764,8.980000019073486,0.10703402310609818,0.508315634727478,0.015809731744229793
54,0.01482879360042074,8.36835296574761,0.10346016774282736,0.4904593339737724,0.014828793759293416,0.015896596666425466,8.105999851226807,0.10682678148150444,0.5109728693962097,0.015896597225219012
55,0.014760214775143301,8.404352976294124,0.10314498784787515,0.48872006184914535,0.014760214742273093,0.015580414049327373,8.26299991607666,0.10601990297436714,0.5045139729976654,0.015580414142459632
56,0.014742434479515343,8.395999986985151,0.10307767470093335,0.4881011417683433,0.014742434671258225,0.015537193883210421,8.442000102996825,0.10544916912913323,0.5042925357818604,0.015537194255739451
57,0.014648668840527535,8.284470583410824,0.10275341162786764,0.4867329660583945,0.014648668846005903,0.015950055327266455,7.856000089645386,0.10758524388074875,0.5044348508119583,0.015950056072324515
58,0.014643769727691132,8.323117648853975,0.1027169814442887,0.4864259367479998,0.01464376964551561,0.01542040528729558,8.220000076293946,0.10496714562177659,0.49970556795597076,0.015420405566692353
59,0.014468121928546358,8.335411756178912,0.10194101491395165,0.483658760435441,0.014468122065505561,0.015313800610601901,8.311999940872193,0.10443369597196579,0.4993872880935669,0.015313800889998674
60,0.014546147580532466,8.317470567366657,0.10223789749776616,0.4847228776006138,0.014546147640794515,0.015572974551469087,9.201000022888184,0.10605814531445504,0.5004330545663833,0.01557297445833683
61,0.0143622887923437,8.36011762899511,0.10155821569702204,0.4824691944262561,0.014362288885475957,0.015259966626763344,8.519999885559082,0.10491109788417816,0.4974636256694794,0.015259966440498828
62,0.014348499087945504,8.351647054447847,0.10151572735870586,0.4816344885265126,0.014348499071510399,0.01512688621878624,8.697999954223633,0.10373529121279716,0.49583095908164976,0.015126885939389467
63,0.014253100358388003,8.331000008302576,0.10106207934372566,0.47987918801167434,0.014253100615871303,0.014927752502262592,8.67200002670288,0.10299859493970871,0.49284887611865996,0.014927752129733563
64,0.014215505046441274,8.381470584869385,0.10083865334882455,0.47937183678150175,0.01421550511218169,0.015139177814126015,7.98100004196167,0.10404259935021401,0.4956374287605286,0.01513917800039053
65,0.01422560861443772,8.275941144718843,0.10109552009140745,0.47907939360422247,0.014225608488435255,0.014934063330292702,9.294999885559083,0.1034375086426735,0.4896522432565689,0.01493406379595399
66,0.014166594450088109,8.383411811379826,0.10097739306442878,0.47797354775316575,0.01416659455965547,0.015289605036377907,9.03499994277954,0.104889415204525,0.49496168494224546,0.015289604384452104
67,0.014067223509225775,8.418411751354443,0.10042348626781912,0.4766671485760633,0.014067223690011923,0.014835454802960158,8.948999977111816,0.10305804610252381,0.4935749590396881,0.01483545545488596
68,0.01397814292131978,8.425352932425106,0.1000243307913051,0.47468391446506275,0.013978142904884675,0.014775142818689347,8.639999914169312,0.10260762125253678,0.49208422303199767,0.014775143004953861
69,0.013896972992840935,8.43335293601541,0.09977927440229584,0.4735845954979167,0.013896972855881732,0.015109779499471187,8.093000078201294,0.10425166338682175,0.495283842086792,0.01510977977886796
70,0.01386787683757789,8.476529421525843,0.09975336527123171,0.47337565351934996,0.013867876914275042,0.015074184071272612,7.68400011062622,0.10440989732742309,0.4919711947441101,0.015074184257537126
71,0.013829735496684032,8.473235284580904,0.0996657866765471,0.47271941724945515,0.013829735485727296,0.014479651767760515,8.608999967575073,0.10121145769953728,0.4821522831916809,0.014479651581496
72,0.013762775841442977,8.488588201298434,0.09931799068170435,0.4708055769695955,0.013762775852399715,0.014813556242734194,8.573999977111816,0.10318202376365662,0.48172942698001864,0.014813556242734194
73,0.01367894216604969,8.48594118567074,0.09912321663954679,0.4687822780188392,0.013678942275617053,0.014509310573339462,9.421000003814697,0.10161530524492264,0.4843833208084106,0.014509310945868492
74,0.013699691479696947,8.502823518304265,0.09940072955454098,0.4691037688185187,0.01369969141395653,0.014453474525362253,9.224000072479248,0.101370070874691,0.48159603774547577,0.014453474245965481
75,0.013545582503737772,8.533352907966165,0.09863108383382067,0.46678300587569965,0.013545582498259405,0.014555412624031306,9.06299991607666,0.10206880494952202,0.4834775537252426,0.01455541355535388
76,0.013510509739246439,8.5352353292353,0.09859271522830515,0.4661990405882106,0.013510509810465223,0.014406481757760048,8.945999765396119,0.10154452547430992,0.4820473611354828,0.01440648166462779
77,0.013544955329202553,8.527117670283598,0.09880655407905578,0.46640173249384936,0.013544955307289082,0.014490735717117786,8.338999938964843,0.10239843428134918,0.4797236084938049,0.014490735530853272
78,0.01343438963898841,8.569294104856603,0.09839185721733991,0.46433087850318233,0.0134343897266423,0.014249614998698234,8.020000123977661,0.10062701627612114,0.47603665590286254,0.01424961481243372
79,0.013400368825258578,8.556352937922759,0.09818393640658435,0.4638401075321085,0.013400368901955732,0.014148485846817493,8.864999961853027,0.10043556839227677,0.4732250958681107,0.01414848593994975
80,0.013485118960413862,8.60188235395095,0.09871923375655622,0.4644750153317171,0.013485119124764905,0.014414749015122652,8.265000057220458,0.10161279439926148,0.47942606210708616,0.014414749201387167
81,0.013344823070527876,8.611352965411019,0.09799716634785428,0.46243307800853956,0.013344823256792392,0.014578817319124937,8.534999895095826,0.10152344107627868,0.48548283576965334,0.014578817039728164
82,0.013315319784862154,8.592470623465145,0.09785008141223123,0.46183490805766164,0.013315319916342988,0.014189252350479364,8.708999967575073,0.10027284175157547,0.47960987091064455,0.014189252629876137
83,0.013286656924687765,8.596470527087941,0.09786218431066064,0.46100279513527365,0.013286657083560438,0.014245193544775247,8.777000093460083,0.10110426023602485,0.47404701113700864,0.014245193637907504
84,0.013095335991067044,8.572823502035702,0.09704384216490913,0.45809955877416275,0.013095336111591143,0.014101207721978426,9.193000030517577,0.10062388554215432,0.4727622181177139,0.014101207815110683
85,0.013072986314621041,8.6252353107228,0.09701115747585017,0.45776081102735855,0.013072986446101876,0.013957664463669061,9.04099988937378,0.09959536343812943,0.47457960844039915,0.013957664743065834
86,0.01309161680367063,8.588764712389779,0.09720703161814634,0.45779228315633885,0.013091616896802888,0.014040021039545537,8.18900008201599,0.10023106262087822,0.47397059500217437,0.014040021877735853
87,0.013029676462140153,8.606352954752305,0.09684045288492651,0.4569635438568452,0.01302967658814262,0.013807998970150948,8.142000102996827,0.09855437353253364,0.47367303967475893,0.013807999435812235
88,0.013007392230279306,8.647176501330208,0.09688759586390328,0.4562195369425942,0.013007392285062987,0.01431823605671525,8.255999946594239,0.10185282304883003,0.4770642340183258,0.014318236336112022
89,0.01307881540783188,8.607588223850026,0.09709939790122649,0.4576951449408251,0.013078815336613094,0.014180990774184466,9.36899995803833,0.10073483958840371,0.4740067422389984,0.01418099096044898
90,0.012950847560868544,8.651117638980642,0.09663230522590525,0.45520750845179836,0.012950847593738752,0.013757170736789703,8.205000066757203,0.09928604513406754,0.4689300239086151,0.013757171016186476
91,0.012886370745870996,8.581058833178352,0.09636044454048662,0.4542613323997049,0.01288637093761388,0.013860778138041496,8.943999862670898,0.09945247396826744,0.4703689724206924,0.013860778696835042
92,0.012834212019601289,8.62464701428133,0.09633608166785801,0.4530199182384154,0.01283421224421438,0.01379018547013402,8.621000051498413,0.09980652704834939,0.46734645664691926,0.01379018547013402
93,0.012927940887782504,8.570764712726369,0.09678677679861293,0.4543167985537473,0.012927941079525386,0.013785375747829676,8.59500002861023,0.09985664263367652,0.4673574328422546,0.013785376027226449
94,0.012707379005630227,8.66364709629732,0.09584208507748211,0.4511387237731148,0.012707378956324913,0.013681306783109904,9.435000133514404,0.098885478079319,0.46713797450065614,0.013681306969374418
95,0.01267438759917722,8.621882357316858,0.09567668898140683,0.4500680365983178,0.012674387517001699,0.013599582202732562,8.530000019073487,0.0984625093638897,0.4649948328733444,0.013599582295864821
96,0.012708812239853776,8.596470580381506,0.09604236523018164,0.45034862423644345,0.012708812190548462,0.013515814580023289,8.723000001907348,0.09790334478020668,0.4661129653453827,0.013515814207494259
97,0.012717199698090553,8.57882352997275,0.09609339710544137,0.4501304940265768,0.012717199714525658,0.013524340838193894,8.344999933242798,0.09808843359351158,0.46428361237049104,0.013524340931326151
98,0.012609477921882096,8.59882353333866,0.0955208544345463,0.44904047461117014,0.012609478151973556,0.014072445780038833,8.092000055313111,0.10068453326821328,0.4735862106084824,0.014072445593774319
99,0.012542597133228008,8.67547059059143,0.09544410337420071,0.44701584647683534,0.012542597237317002,0.013548243511468171,8.657000017166137,0.09869880303740501,0.4619994819164276,0.0135482432320714
100,0.012485084490960136,8.642647033579209,0.09513609514516942,0.4465443106258617,0.012485084600527496,0.013442330714315175,8.857000064849853,0.09802991002798081,0.46228283941745757,0.013442331273108721
101,0.012512347293908105,8.546999979019166,0.0953460507971399,0.4465212906108183,0.012512347261037896,0.013607470691204071,8.415000104904175,0.09898640885949135,0.46202256083488463,0.013607470691204071
102,0.012425820737638895,8.637588209264418,0.09515507790972205,0.44494692490381355,0.012425820797900944,0.013725168816745282,8.408999967575074,0.09963438734412193,0.46337389945983887,0.013725169003009796
103,0.012474471829174195,8.66941175180323,0.0954643193851499,0.44565267948543325,0.012474471785347252,0.013596446346491575,8.519000053405762,0.09883829280734062,0.4647600084543228,0.013596445973962545
104,0.012370517652700929,8.615294131110696,0.09497422707431456,0.4436445185366799,0.01237051770748461,0.013577350042760372,8.734000062942505,0.09919153526425362,0.46079419255256654,0.013577350135892629
105,0.012280283588916063,8.63870589312385,0.09460553329657106,0.44257140387507043,0.01228028382448589,0.013297427818179131,8.478999948501587,0.09772578626871109,0.45860324800014496,0.013297427352517844
106,0.01234023540335543,8.65994122168597,0.09508398070054895,0.4434793104143704,0.012340235545793,0.013178531173616647,9.527999973297119,0.09787266179919243,0.45417784750461576,0.01317853070795536
107,0.012245339270242874,8.611176443099975,0.09456748993081206,0.4414600715917699,0.012245339374331867,0.013242718670517207,9.071000099182129,0.09777790158987046,0.4592938244342804,0.01324271857738495
108,0.012272060706334955,8.691000024010153,0.09481499094296904,0.4422544726554085,0.012272060602245963,0.013219859451055527,9.081999969482421,0.09756520465016365,0.4563787430524826,0.013219860102981328
109,0.012177883192677708,8.63047056759105,0.09439357615569059,0.4404795464347391,0.01217788327485323,0.012960334587842227,7.957999992370605,0.09665440395474434,0.4532997041940689,0.01296033412218094
110,0.012096407434300465,8.601999964433558,0.09410136640071869,0.4383023553034838,0.012096407368560047,0.013181585539132356,8.394000053405762,0.09730039462447167,0.4582017660140991,0.01318158619105816
111,0.012067268060191589,8.650176460602705,0.09415542066973799,0.438031073177562,0.012067268202629159,0.013003862462937832,8.890000152587891,0.09713695272803306,0.45478513538837434,0.013003862462937832
112,0.011996680646039107,8.691352942410637,0.09379899116123423,0.43714690313619725,0.011996680744649733,0.013422066159546376,7.787999963760376,0.0995156355202198,0.4615908652544022,0.013422066252678633
113,0.011974488598678041,8.62964706701391,0.0938162265893291,0.4360929822220522,0.011974488790420925,0.013041339628398419,8.993000030517578,0.09695416614413262,0.4544371753931046,0.013041339442133903
114,0.011888525393955848,8.591823535806993,0.09345311491804964,0.4349568700089174,0.011888525377520744,0.013214802835136652,8.217000102996826,0.09827960431575775,0.45550289154052737,0.013214803021401166
115,0.011912418403388823,8.594470543019911,0.09361271187663078,0.43516802998150095,0.011912418628001914,0.012775645405054093,8.804999923706054,0.09636349231004715,0.4472635924816132,0.012775645777583122
116,0.011757608371622421,8.646941168168011,0.09306935348054941,0.4321504105539883,0.01175760849214652,0.012838654685765505,8.883000040054322,0.09612246304750442,0.4526521772146225,0.012838654872030019
117,0.011879404957461006,8.59882352211896,0.09367146351758171,0.43376673372352825,0.011879404984852847,0.012802633177489042,8.670000123977662,0.09674168229103089,0.4482725888490677,0.0128026332706213
118,0.011847642458537045,8.624588223064647,0.09362096475327716,0.4344725614084917,0.011847642595496248,0.012765840906649829,7.878999996185303,0.09660466387867928,0.4475782155990601,0.012765841744840144
119,0.011657562725903356,8.596882379756254,0.09275157342062276,0.4300906223409316,0.011657562813557246,0.012729839980602264,8.576000118255616,0.09624471887946129,0.4483404219150543,0.01272984016686678
120,0.011669339847696178,8.598058787514182,0.09291831158539827,0.43047014615115,0.011669339770999024,0.01265369839966297,9.047999954223632,0.09590024799108506,0.44436549544334414,0.012653698679059744
121,0.01162503723274259,8.56141178187202,0.09270868559970576,0.4293819274972467,0.011625037424485472,0.012835790310055018,9.022999954223632,0.09694819301366805,0.44784424006938933,0.012835790310055018
122,0.011533926208229626,8.61064707812141,0.09236809729653246,0.4278641122228959,0.01153392625753494,0.012604664266109466,9.51899995803833,0.0959622710943222,0.4453702181577682,0.012604664545506239
123,0.011633594142382636,8.586823536367977,0.09295848927953664,0.42870652149705324,0.011633593999945065,0.012547855731099844,8.922999954223632,0.09586575627326965,0.4435035526752472,0.012547854986041784
124,0.011442880891263486,8.565999976326438,0.09198033669415642,0.4257653590510873,0.011442880957003902,0.012280096858739853,9.061000061035156,0.09443801119923592,0.4408585399389267,0.012280097603797913
125,0.011443508750594715,8.570235316893633,0.09199055998640902,0.42584344692089976,0.011443508827291867,0.012694955058395862,8.603999996185303,0.096578898280859,0.4452849864959717,0.01269495515152812
126,0.011513564417905667,8.582058825212366,0.09240398437661283,0.42681819814092975,0.011513564483646084,0.01244226461276412,7.991000032424926,0.09531025886535645,0.44218931198120115,0.012442264892160892
127,0.011410078576163335,8.566470575332641,0.09186585133566576,0.4255166874212377,0.011410078707644168,0.012297351472079754,7.611000061035156,0.09473252817988395,0.4406809240579605,0.012297351844608784
128,0.011334170094307731,8.564764743692734,0.09149566538193647,0.4239611553795197,0.011334170149091412,0.012445100769400596,8.375,0.09507360309362411,0.4432612001895905,0.012445101141929626
129,0.011277881149640855,8.47664708810694,0.0913376130601939,0.4224550042082282,0.011277881226338007,0.01207150025293231,8.930000019073486,0.09353033974766731,0.43689189553260804,0.01207150025293231
130,0.011256177580970176,8.540882351819207,0.09115590383024777,0.4228255718946457,0.011256177696015906,0.012370831705629826,8.74000005722046,0.09475128799676895,0.44067440927028656,0.012370831798762083
131,0.011253691853626686,8.53647061516257,0.09130272317458601,0.4221729715080822,0.011253691881018527,0.012217277754098177,8.645999956130982,0.09377636834979057,0.4412098854780197,0.012217278871685267
132,0.011194333686109852,8.643647039637846,0.09086687665651827,0.4212648409254411,0.011194333795677212,0.012092787865549326,8.274000024795532,0.09355535805225372,0.4364059567451477,0.012092787493020295
133,0.01115875761846409,8.557647068360273,0.0908575272297158,0.4203097306630191,0.011158757799250237,0.012221556529402733,8.847000026702881,0.09435963109135628,0.4374846339225769,0.01222155662253499
134,0.011190376244485378,8.549941183538998,0.0909485085922129,0.4213820862419465,0.011190376282833954,0.012103551160544157,8.55900011062622,0.09350780099630356,0.43506752252578734,0.01210355069488287
135,0.011149160435204121,8.529823552860933,0.09084212784381474,0.4208698900306926,0.011149160624207819,0.012262063659727573,9.161999988555909,0.09464130476117134,0.4415994733572006,0.012262063194066286
136,0.0111359799225979,8.554411739461562,0.09093842620358747,0.4198957155732548,0.011135979960946476,0.011819532606750727,9.271000003814697,0.09248774945735931,0.43011587858200073,0.011819532699882984
137,0.011109601141994491,8.579058837890624,0.09064958082402454,0.4191650210057988,0.0111096011748647,0.01195593262091279,8.905000114440918,0.09290351271629334,0.4351502269506454,0.011955932714045048
138,0.011048737184747177,8.569764709472656,0.09036708798478632,0.41843973012531505,0.01104873717926881,0.012116014212369918,8.508000135421753,0.09391628056764603,0.43966535925865174,0.012116014119237661
139,0.011021383835331482,8.593235290751737,0.09033715378712205,0.4169459232512642,0.011021383906550266,0.011976310238242149,9.824000072479247,0.0935431331396103,0.43255218863487244,0.011976310703903436
140,0.011032905057072639,8.524470578922944,0.09035779575214667,0.4177305477506974,0.011032905188553474,0.011900806706398726,8.417999982833862,0.09322470054030418,0.4344484359025955,0.011900806613266469
141,0.011006564416867846,8.589588170893052,0.0903676859157927,0.4173746051157222,0.011006564679829514,0.012018917594105005,8.49599986076355,0.09381042122840881,0.4345754623413086,0.012018917407840491
142,0.010823919530957937,8.5648234872257,0.08932972857180764,0.4148371831459158,0.010823919646003667,0.011999023705720901,7.682000064849854,0.09342448711395264,0.4323869258165359,0.011999023798853158
143,0.010971418034066172,8.532058842041913,0.09019399776178248,0.41715645229115206,0.010971418231287423,0.011997698433697223,8.675999975204467,0.09337923899292946,0.43509980142116544,0.011997698061168193
144,0.010888075360151775,8.58905885920805,0.0896112351294826,0.41496468046132257,0.010888075340977486,0.011850858014076949,7.713999891281128,0.09320299699902534,0.43205773234367373,0.011850858014076949
145,0.010800164050477392,8.56576470487258,0.08933502562782343,0.4135606262613745,0.010800164154566387,0.011745093297213316,8.153999948501587,0.09190506041049958,0.43320171535015106,0.0117450931109488
146,0.0107960539376911,8.547882368985345,0.08936007395386696,0.4137404962497599,0.010796053976039676,0.011541480757296085,8.960000038146973,0.09177535846829414,0.4264755219221115,0.011541481222957372
147,0.0107942500809098,8.553176461949068,0.08928197907174334,0.4140925712445203,0.010794250048039591,0.011854885891079903,8.819999837875367,0.09292307049036026,0.4333988517522812,0.011854886077344418
148,0.010827581272186602,8.58723528244916,0.08948558222721605,0.4137429507339702,0.010827581348883755,0.01161013888195157,8.35600004196167,0.09171536415815354,0.4293411523103714,0.011610139347612857
149,0.01078603453386356,8.552352908078362,0.08926411818932084,0.41289084834211015,0.010786034720128073,0.011800764687359333,8.33899998664856,0.09275918751955033,0.42966714799404143,0.011800765339285136
150,0.010633029594250462,8.543117652219884,0.08849836184697993,0.41089510093717013,0.010633029775036608,0.011736214719712734,8.907999897003174,0.09315002411603927,0.42730637490749357,0.011736214440315963
151,0.010683574228930999,8.559235306347118,0.08877471010474598,0.41092706568100873,0.010683574289193047,0.011640973575413226,9.125999927520752,0.0922641970217228,0.4245982587337494,0.011640973668545485
152,0.010687296634868663,8.534470577800976,0.08886542745372829,0.4118154529262992,0.010687296623911928,0.011626292765140534,8.906999969482422,0.0916939489543438,0.42738344371318815,0.011626293137669563
153,0.01065869761959595,8.536176493588616,0.08874098500784705,0.41080927024869357,0.01065869772916331,0.011543669365346431,8.919999980926514,0.09167106375098229,0.42610672414302825,0.011543668992817401
154,0.010594670901841977,8.552176425036262,0.08846929305616547,0.40894591107087974,0.010594671005930971,0.01143422955647111,8.592000055313111,0.09114813730120659,0.4269337624311447,0.011434229277074336
155,0.010531175235176788,8.571117645151475,0.08816810596515151,0.4083938451374278,0.010531175333787413,0.011526663973927497,8.827999925613403,0.09171639084815979,0.4234335124492645,0.01152666425332427
156,0.010613147311789148,8.578117642683141,0.08860051487298573,0.40982467076357676,0.010613147355616092,0.011528362613171339,9.131999969482422,0.0916601411998272,0.4284061998128891,0.011528362799435855
157,0.010556509490946636,8.581882339365341,0.08820508981452269,0.40855900610194484,0.010556509559426238,0.011283687688410282,9.08400001525879,0.09027037993073464,0.4219938576221466,0.011283687595278025
158,0.010495158098638057,8.512882358887616,0.08790091845919104,0.40794272755875305,0.010495158142465003,0.01183349834755063,8.495999908447265,0.09377719163894653,0.4296203315258026,0.011833498533815146
159,0.010507891184705145,8.506000002692728,0.08797658405759755,0.4076058028375401,0.010507891206618618,0.011355149187147617,8.43600001335144,0.09050893560051917,0.42461879551410675,0.01135514909401536
160,0.010499128754086354,8.566294100705315,0.08801059332840583,0.4075068827937631,0.010499128858175348,0.01156283523887396,7.439999961853028,0.09200420752167701,0.42578321397304536,0.011562835425138474
161,0.010418350534404026,8.509058879403508,0.08758497255689958,0.40613858454367696,0.010418350706972621,0.011365249752998352,8.468000030517578,0.09030042812228203,0.42529902160167693,0.011365249752998352
162,0.010401531538980848,8.610411775813382,0.08754358773722368,0.4049344145199832,0.010401531643069842,0.011281795799732208,8.255000019073487,0.09098185524344445,0.4213142186403275,0.011281795147806407
163,0.010414597545476521,8.49676472158993,0.08763201683759689,0.4056711556280361,0.010414597660522251,0.011318090185523034,8.042000007629394,0.09075550585985184,0.4219097077846527,0.011318089999258518
164,0.010411660696434625,8.601352935678818,0.0877334495239398,0.4052494541687124,0.010411660926526083,0.011272168066352607,8.919000053405762,0.08996270298957824,0.4213279902935028,0.01127216825261712
165,0.010439520904465633,8.537941169738769,0.08768356350414894,0.40621519018622004,0.010439521205775877,0.011192827485501766,8.717000055313111,0.08984048962593079,0.4207493424415588,0.01119282767176628
166,0.01037831871825106,8.584823527055628,0.08738915455691955,0.40520661929074453,0.010378318871645366,0.011263836175203323,8.687999820709228,0.09086664021015167,0.4192848324775696,0.011263836547732354
167,0.0103356374975513,8.544117647058824,0.08715002286960097,0.4048220199697158,0.010335637678337447,0.01122541232034564,8.957000064849854,0.09052993729710579,0.41834659278392794,0.011225412972271443
168,0.010349433441810748,8.640176464529599,0.08738501488285906,0.4038081602138631,0.010349433545899742,0.011458025593310595,8.214000129699707,0.09154250696301461,0.4228300780057907,0.011458025313913822
169,0.010264848282232003,8.571294108559103,0.08693278488867423,0.40296680751968833,0.010264848550672041,0.011171953007578849,8.369999980926513,0.08991462960839272,0.41966051459312437,0.011171953659504652
170,0.010221305637456038,8.548647081150728,0.0867268937475541,0.4020843344576219,0.010221305727849113,0.010938022844493389,8.432999849319458,0.0887407623231411,0.41326388716697693,0.010938022192567587
171,0.010252887131098438,8.567588233947754,0.08701765817754409,0.40229025097454296,0.010252887279014376,0.011399569921195507,8.279000091552735,0.09172289296984673,0.42371035516262057,0.011399570386856794
172,0.010348057163441006,8.613764729219325,0.0875272934051121,0.4037065695313846,0.010348057283965104,0.010964682884514331,9.086000156402587,0.08925345465540886,0.4147928535938263,0.01096468223258853
173,0.01020419364247252,8.461882366853601,0.08672394502688857,0.4011146207066143,0.010204193702734569,0.011150336172431708,9.214000034332276,0.08992698714137078,0.41898195445537567,0.011150336172431708
174,0.010178280046538394,8.561823533563054,0.08665803412304204,0.4008117135833291,0.01017828013693147,0.011303304228931665,9.040000009536744,0.09087763652205468,0.41964195668697357,0.011303304135799408
175,0.010194417204269592,8.602176469915053,0.0867992783732274,0.40113320140277636,0.010194417245357352,0.010954357590526343,8.622999954223634,0.08884837031364441,0.4158619731664658,0.010954357590526343
176,0.010188429756090045,8.558705904904533,0.08670068790807443,0.4010353351340574,0.01018842975882923,0.01096270140260458,8.700000047683716,0.08907287791371346,0.4160271793603897,0.01096270140260458
177,0.010110866650938988,8.570294099695543,0.08642771515776129,0.3996827600633397,0.010110866697505116,0.01112173805013299,8.852999925613403,0.09017587453126907,0.41404914259910586,0.011121738236397505
178,0.010140056201421162,8.542470595415901,0.08656073506264125,0.40009051508763255,0.010140056261683211,0.011193185392767192,8.957000160217286,0.09057974666357041,0.4165840208530426,0.011193185672163963
179,0.010240217624232172,8.578705854976878,0.08704467008219045,0.4013442106106702,0.010240217629710542,0.011097034160047769,8.63899998664856,0.0899079091846943,0.4168143689632416,0.01109703378751874
180,0.01013306732125142,8.484529427921071,0.08663923946373603,0.3999932795763016,0.010133067332208156,0.010943299811333417,8.097000217437744,0.0891993798315525,0.41260010898113253,0.010943299997597933
181,0.010008402850807589,8.58058827344109,0.08589532502433833,0.3975193132372463,0.010008403026115368,0.01080911923199892,8.491000032424926,0.08861941546201706,0.4141483575105667,0.010809119604527951
182,0.01002441298983553,8.554882355297313,0.0860226633355898,0.3976493907325408,0.010024413091185338,0.010843339841812849,8.686999988555907,0.0887824535369873,0.4112856984138489,0.01084334049373865
183,0.010088752429274952,8.527352933322682,0.08651397793608553,0.39839984213604646,0.010088752382708822,0.010865791328251361,8.498000049591065,0.08879226595163345,0.4138560503721237,0.010865790955722331
184,0.009991688527824248,8.516235284244313,0.08595311996691367,0.39687611513278065,0.009991688640130794,0.011009535007178783,8.389999961853027,0.0895548090338707,0.4141529589891434,0.011009535100311042
185,0.01022771188770147,8.567235262253705,0.08709691977676223,0.40056347829454086,0.010227712109575376,0.011037448886781931,9.42799997329712,0.09012081548571586,0.4150618761777878,0.011037448979914188
186,0.010078763687873587,8.512588256948135,0.0863726606263834,0.39834713129436267,0.010078763767309925,0.010954633075743913,8.690999984741211,0.0899774082005024,0.41543122231960294,0.010954633448272943
187,0.010003445456352305,8.569058794133804,0.08610655757434228,0.396618896372178,0.01000344554126701,0.010698307491838931,8.844999980926513,0.08815887421369553,0.4086079210042953,0.010698307491838931
188,0.00997127181138186,8.524352937586167,0.08593468723051688,0.3960242003202438,0.00997127186616554,0.010941027570515871,9.146000003814697,0.08960670903325081,0.4119987428188324,0.010941027291119098
189,0.010012878220090095,8.532235277400297,0.0860925670932321,0.39685844586176033,0.01001287825843867,0.01074653659015894,9.011000061035157,0.08866964057087898,0.40989741384983064,0.010746535938233137
190,0.01000030706910526,8.58729417744805,0.08615332263357499,0.3962507289998672,0.010000307266326511,0.01099519683048129,9.302000045776367,0.0900361031293869,0.41590465903282164,0.010995196923613549
191,0.009960918599630103,8.574529429043041,0.08599081188440323,0.39591558768468743,0.009960918654413784,0.010858466383069754,8.563000059127807,0.08896533548831939,0.41466046273708346,0.010858466755598784
192,0.009927060641348361,8.545705851386575,0.08592000761452843,0.39508686013081495,0.009927060824873693,0.010703627392649651,8.635000085830688,0.08838445618748665,0.4100454390048981,0.01070362813770771
193,0.00989246635204729,8.570764698701746,0.08564557130722439,0.3942463483880548,0.009892466338351369,0.011206610407680274,8.758000040054322,0.09083688706159591,0.41692971587181094,0.01120660938322544
194,0.009858816804583458,8.599823545007144,0.08544402201386059,0.3937983963419409,0.009858816938803477,0.010783542692661286,8.776999950408936,0.08877514749765396,0.4099364638328552,0.010783542599529027
195,0.00995196403716417,8.53299996432136,0.08608551468042766,0.39535823955255395,0.009951964215211133,0.010686649940907955,8.341999912261963,0.08797871023416519,0.40939432978630064,0.010686650034040212
196,0.009901690825491267,8.552764707453111,0.08587684219374377,0.3940913926152622,0.009901690948754548,0.010690732765942812,8.850999975204468,0.08874964043498039,0.4082973122596741,0.01069073248654604
197,0.009861439244602532,8.569235296810374,0.08574759592028225,0.3934392471523846,0.009861439228167429,0.010498561710119248,8.65499997138977,0.08730359598994256,0.4052223265171051,0.010498561710119248
198,0.009847592285779468,8.613235288507799,0.08553023351465955,0.3932765513658524,0.009847592261126813,0.01097331428900361,8.58799991607666,0.08994941860437393,0.41146678626537325,0.01097331466153264
199,0.009826528412454268,8.58011763236102,0.08534724839469966,0.3936424153692582,0.00982652837958406,0.010776220448315143,8.436999940872193,0.0889182597398758,0.4108221471309662,0.010776220820844173
