epoch,huber_loss,l0_loss,l1_loss,linf_loss,loss,val_huber_loss,val_l0_loss,val_l1_loss,val_linf_loss,val_loss
0,0.09202674175886547,8.586176468344295,0.25326571052565294,1.2422302267130683,0.0920267435557702,0.06568829864263534,9.132000064849853,0.20830699056386948,1.0668542444705964,0.06568829715251923
1,0.060455500575549465,8.777705888187183,0.20032244587645812,1.0237364099306219,0.06045550055363599,0.05958657748997211,8.875999927520752,0.20031529664993286,0.9963917076587677,0.059586576744914056
2,0.05368131548166275,8.796647069033455,0.19064386671080308,0.9553273271111881,0.053681314889999,0.05199547074735165,8.95299997329712,0.1881517067551613,0.9301754891872406,0.0519954726099968
3,0.047465423133005114,8.677470597098855,0.17983029844129786,0.8941609091618482,0.047465423308312896,0.04645438045263291,8.925,0.1780269294977188,0.8757745206356049,0.046454379335045815
4,0.04282260087921339,8.655764725629021,0.1713716323761379,0.8470380513107075,0.04282260076964603,0.04229206256568432,8.959999942779541,0.1701606884598732,0.8360936105251312,0.042292061075568196
5,0.03941778119872598,8.67058824931874,0.16542075960075153,0.8119214853819678,0.03941778115489904,0.039131353795528415,8.840000009536743,0.1646398976445198,0.8081483483314514,0.03913135454058647
6,0.0362532234586337,8.634705868889304,0.16002912249635248,0.780296488719828,0.03625322395168683,0.036044728755950925,8.477999782562256,0.15998995900154114,0.7762850403785706,0.03604472726583481
7,0.03345441960674875,8.519058827792897,0.15473367869853974,0.7522081052555757,0.0334544199244941,0.03346657380461693,8.382999753952026,0.1538533627986908,0.7499302446842193,0.03346657529473305
8,0.031287065882454904,8.469823559592752,0.1502321224878816,0.727493890243418,0.03128706591532511,0.031321242824196814,9.025999927520752,0.14975309669971465,0.7220610857009888,0.03132124468684196
9,0.029671040297869374,8.469705876182108,0.14680573414353765,0.7070717660819783,0.029671040385523262,0.03023621067404747,8.301000022888184,0.1472135454416275,0.716209328174591,0.0302362110465765
10,0.028481564780368524,8.552999990126667,0.1440711717833491,0.6930734872817993,0.02848156510907061,0.028877057880163193,8.492999982833862,0.14404946565628052,0.6969072937965393,0.02887705694884062
11,0.027391552486840415,8.67994117456324,0.14144405884777797,0.6792346344274633,0.02739155270597514,0.027924159355461598,8.334999895095825,0.14267667829990388,0.6800822198390961,0.027924159727990627
12,0.02645167556098279,8.773823510899263,0.13923644835458082,0.6671973277540768,0.026451675681506887,0.027071294933557512,9.240999889373779,0.14105483740568162,0.6658725142478943,0.0270712960511446
13,0.025542477605973973,8.856647056691786,0.13698375395992224,0.6551315830034368,0.025542477584060502,0.026168843172490595,8.964999914169312,0.1382096976041794,0.6612923800945282,0.026168843172490595
14,0.02473224673201056,8.93805885034449,0.13501793137368034,0.644197654724121,0.024732246775837505,0.02535144183784723,9.691000080108642,0.1368743896484375,0.6421121299266815,0.02535144127905369
15,0.024020551966831966,8.900294115964105,0.13335613064906177,0.6343120150706347,0.0240205523722312,0.02460113037377596,9.005999946594239,0.1351769298315048,0.6361179828643799,0.02460113037377596
16,0.023276341366855538,8.846882354511933,0.13134966365554754,0.6242238875697641,0.023276341224417966,0.023703832738101484,9.150999927520752,0.1328473210334778,0.6235135078430176,0.023703833110630512
17,0.022596806342549184,8.85847058576696,0.1296336012728074,0.6145093772341224,0.022596806342549184,0.023222821950912475,8.990999984741212,0.13251299411058426,0.6122760474681854,0.023222820833325386
18,0.02200854707728414,8.84147060618681,0.12821788323276184,0.6055595103432151,0.02200854693484657,0.022500909119844436,9.214000034332276,0.12973605766892432,0.6059224247932434,0.022500907815992833
19,0.021494285077514018,8.840058848437142,0.1268544103292858,0.5973923097638523,0.021494285236386693,0.0220402579754591,9.49600009918213,0.12856152206659316,0.5986335933208465,0.022040258906781674
20,0.020973136856713717,8.84052939414978,0.1253335663500954,0.5893448968144024,0.02097313698819455,0.0217087822034955,9.236000156402588,0.12836062982678415,0.5921036005020142,0.021708783134818076
21,0.020504198305527955,8.789411760778988,0.12403109639006503,0.5819964550873813,0.020504198360311636,0.021102770045399667,9.39700002670288,0.12634899020195006,0.5851727783679962,0.021102770790457727
22,0.020060348318999305,8.900411790959975,0.12270219527623233,0.5751806834164788,0.0200603483025642,0.02069085408002138,9.30900011062622,0.12498226091265678,0.5780180931091309,0.02069085594266653
23,0.01969472950543551,8.787411762686336,0.12175308465957642,0.5682597602114958,0.01969472937943304,0.020179666951298712,8.870999908447265,0.12329179123044014,0.5711605548858643,0.02017966751009226
24,0.019311911733273197,8.797999982272877,0.1204783645184601,0.562069571018219,0.019311911881189137,0.019872530736029147,9.138999843597412,0.1225121222436428,0.5683312237262725,0.019872529618442058
25,0.018911988523733967,8.785941168841195,0.11941658240907332,0.5554893875823301,0.0189119885182556,0.019385171309113502,8.71299991607666,0.12060456275939942,0.5598175287246704,0.019385171309113502
26,0.01846766199587899,8.671823526831234,0.11806400931056808,0.5486516987576204,0.018467662006835726,0.01946974415332079,8.565000200271607,0.12215734496712685,0.560599422454834,0.019469744898378848
27,0.018175681362695553,8.65758822665495,0.1173251186223591,0.5431434091399697,0.01817568134626045,0.0189402149990201,8.413999986648559,0.11967112496495247,0.552710211277008,0.018940215557813646
28,0.01782739266534062,8.65529414064744,0.11620481763692463,0.5378958821296692,0.017827392983085968,0.018441071826964618,8.957999992370606,0.11777187883853912,0.5482602834701538,0.018441072013229132
29,0.017547586993040407,8.538117641561172,0.11539876982569694,0.5331127194797292,0.01754758744226659,0.018201647885143758,8.632999992370605,0.11724744066596031,0.5411892890930176,0.018201648816466333
30,0.017249805009102122,8.44782353288987,0.11455647336209522,0.5282443821430206,0.017249804943361702,0.017894624546170235,8.468000078201294,0.1167475663125515,0.5360007882118225,0.017894623707979916
31,0.016960359901628072,8.388176483266493,0.1136213188223979,0.5229309045216617,0.016960360131719532,0.0175730699673295,8.819000005722046,0.11535157337784767,0.5314018905162812,0.0175730699673295
32,0.016690097289050326,8.411058804568123,0.11290755289442399,0.518684571280199,0.01669009724522338,0.01747176544740796,8.602000045776368,0.11573189422488213,0.5290222793817521,0.017471766378730536
33,0.016431337830555788,8.48464703279383,0.1121535441454719,0.5141950998236151,0.016431337819599053,0.017130819242447616,8.720000076293946,0.11406760513782502,0.5271501451730728,0.01713081980124116
34,0.01620869700632551,8.44535293859594,0.1115051290129914,0.5104578594951069,0.016208697033717353,0.01681572087109089,8.416000080108642,0.11314333453774453,0.5206222414970398,0.01681572012603283
35,0.015970493392909273,8.465058800753425,0.1106371911133037,0.5062847174265805,0.015970493568217052,0.016716053429991006,8.493999862670899,0.11295329928398132,0.5194551676511765,0.016716053802520038
36,0.01577251669676865,8.432823520548203,0.10989051544490983,0.5035447830663008,0.01577251658172292,0.01640362264588475,8.067999887466431,0.11185064390301705,0.5127085715532302,0.016403622832149266
37,0.015650653652846812,8.327294147715849,0.10962169599883696,0.5013278293259004,0.01565065354875782,0.01617713300511241,7.963000202178955,0.11070651933550835,0.5104962348937988,0.016177132818847896
38,0.015412819960757213,8.27964706140406,0.10861163551316541,0.4978722647709005,0.015412819862146588,0.01609817985445261,8.019000053405762,0.11086975410580635,0.5072866708040238,0.01609818050637841
39,0.015336545058252181,8.116764691296746,0.1084279439466841,0.49597905996967767,0.015336545041817076,0.016156537272036076,8.418999862670898,0.1109345093369484,0.5060630023479462,0.016156538296490906
40,0.015094466129427447,8.141176470588235,0.10737875853391254,0.49205609735320593,0.015094466255429912,0.016038546990603208,7.762000036239624,0.11062210500240326,0.5076065570116043,0.016038546804338694
41,0.014983118944527472,8.123294115066528,0.10708336321746602,0.49048297510427585,0.014983119152705459,0.015729985293000938,8.242999935150147,0.10903342664241791,0.5019713670015336,0.015729985572397708
42,0.014836513316806625,8.175176466212553,0.10647730827331543,0.4877968237680547,0.014836513650987078,0.015711826924234628,7.915999937057495,0.10946136191487313,0.5050141096115113,0.015711826831102373
43,0.014735984303714597,8.210235323625453,0.10610634951907046,0.4859461884288227,0.014735984610503211,0.015526733826845884,8.155000066757202,0.1089483693242073,0.49732997417449953,0.015526733361184597
44,0.014641833453274826,8.28752943207236,0.10582428083700292,0.48476985237177683,0.014641833579277291,0.015464832074940205,8.297000122070312,0.10871336236596107,0.4976783156394958,0.015464831702411174
45,0.01445550284731914,8.31323530814227,0.1050384740180829,0.48125180461827444,0.014455502852797508,0.015366140194237233,8.649999904632569,0.10819093585014343,0.49529509246349335,0.015366140101104975
46,0.014416498992153828,8.335294103622436,0.10503405385157641,0.4804626196622849,0.014416499266072231,0.015197928994894028,8.451999998092651,0.10794839709997177,0.4922206550836563,0.015197928249835967
47,0.014358892456135329,8.352058839797973,0.10488542349022978,0.47911439012078677,0.014358892363003072,0.015222148224711417,8.838000106811524,0.10833805724978447,0.49307644963264463,0.01522214850410819
48,0.014117852340945427,8.343529429155238,0.10371233303757275,0.47556657142498915,0.01411785216015928,0.014985909592360258,8.028000020980835,0.10701832175254822,0.4895167678594589,0.014985909592360258
49,0.014077184223296011,8.331235288171207,0.10369480225969763,0.47465605893555807,0.0140771843109499,0.01478808457031846,8.389999914169312,0.10601901337504387,0.487271249294281,0.014788085222244262
50,0.013961796446100754,8.3847058913287,0.10332298993187793,0.4720714851337321,0.013961796424187281,0.014872370567172766,8.740999937057495,0.10662006512284279,0.487370365858078,0.014872371312230825
51,0.013869563205277219,8.431411788042855,0.10290097971172894,0.47069762349128724,0.013869563303887843,0.014636715967208147,8.311000061035156,0.10577463880181312,0.4811870574951172,0.01463671587407589
52,0.013746631879578619,8.51852938708137,0.10252557291704066,0.4673208350644392,0.013746631928883932,0.014664935786277056,8.290999937057496,0.10565294101834297,0.486651623249054,0.014664936158806086
53,0.013643607217818498,8.473764714072733,0.10207943903172717,0.46622770954580867,0.013643607267123811,0.014551814086735249,8.060999965667724,0.10556088909506797,0.4810184508562088,0.014551813527941704
54,0.01361135238343302,8.459823535470402,0.10208863471360767,0.4648671956623302,0.013611352542305694,0.01442839540541172,8.663999891281128,0.10457273051142693,0.4800098389387131,0.014428395871073007
55,0.013467340543866158,8.524529434652889,0.10151627887697781,0.4617272047435536,0.013467340752044145,0.014151377324014901,9.067000007629394,0.10373547002673149,0.4738124877214432,0.01415137704461813
56,0.013412576026337988,8.515941171085133,0.10136367595371078,0.4601740281371509,0.013412576031816356,0.014396849554032087,8.0,0.1049808643758297,0.4797368496656418,0.014396850392222405
57,0.013360503830892198,8.465352913912605,0.10115811198073275,0.4598712865044089,0.013360503934981192,0.014235791750252247,8.670999908447266,0.10415976196527481,0.4755332857370377,0.014235791750252247
58,0.01323839553138789,8.546588221718283,0.10066603584324613,0.4575537497506422,0.013238395695738934,0.013923057354986668,8.69300012588501,0.10260013490915298,0.4697329968214035,0.013923057448118925
59,0.013142167108462137,8.537000025019926,0.10031980648636818,0.4557480636764975,0.013142167250899707,0.01392655037343502,8.588999843597412,0.10282559022307396,0.47096918523311615,0.013926549907773733
60,0.013047829127925284,8.652529385510613,0.09992727435687009,0.45392748590777904,0.013047829347060008,0.013958758488297463,8.635000038146973,0.10290342420339585,0.4716989666223526,0.013958758860826492
61,0.01298909461235299,8.51170592027552,0.09968497481416254,0.4523747863138423,0.012989094639744828,0.013787718396633864,8.698000049591064,0.10261062160134315,0.4654195338487625,0.013787718489766121
62,0.012946478118572165,8.645294124939863,0.09954074213609976,0.45187680423259735,0.012946478156920741,0.01404539505019784,8.601000213623047,0.10429899170994758,0.4675983190536499,0.014045395608991384
63,0.012843818946138902,8.631117688908297,0.0991346167290912,0.4502107544856913,0.012843819050227894,0.013535360246896744,8.700999927520751,0.1013094425201416,0.4628288984298706,0.013535360526293515
64,0.012791864699958001,8.664294144686531,0.09894914434236639,0.44888912158853866,0.012791864886222517,0.01358751067891717,8.621000051498413,0.10218903422355652,0.4613731771707535,0.013587510772049427
65,0.012726099197478856,8.50541179600884,0.09865931162939352,0.44778265847879295,0.012726099328959689,0.013331576343625784,8.69800009727478,0.10074414238333702,0.4593202769756317,0.013331575877964496
66,0.012622610254980186,8.664647021013147,0.0981518829570097,0.44589243741596446,0.012622610254980186,0.013428505975753069,8.200999975204468,0.1013824537396431,0.4589258283376694,0.013428504951298237
67,0.012539086775744663,8.625705881679758,0.0978897675871849,0.44455528381992787,0.012539086901747128,0.013271992467343808,9.047999954223632,0.1004313699901104,0.45659043490886686,0.013271992653608322
68,0.012544352057225564,8.623176470924827,0.09790810228270642,0.44390253792790807,0.012544352172271294,0.01328449435532093,9.317000007629394,0.10077702552080155,0.4543566286563873,0.013284494914114476
69,0.012431395015514948,8.646411747090957,0.09748406756450148,0.4420438347493901,0.01243139518534436,0.01321193752810359,8.757999992370605,0.1006021372973919,0.454283794760704,0.01321193752810359
70,0.012385198561584248,8.768705881343168,0.09725399915786351,0.4410102581276613,0.012385198714978554,0.013226792961359025,8.47000002861023,0.10024096444249153,0.45704683661460876,0.013226793240755796
71,0.012323669344186782,8.790411775252398,0.09691714232458788,0.4402094988261952,0.012323669360621887,0.013021730445325374,8.483999967575073,0.09934544041752816,0.452409952878952,0.013021730352193117
72,0.012270706103128545,8.76588236584383,0.09674712055746247,0.43934865611440993,0.01227070623460938,0.013170016929507256,8.349000024795533,0.10020114257931709,0.45682914853096007,0.013170017581433057
73,0.01224026478936567,8.669411774242626,0.09660379943602225,0.4381682194331113,0.012240264893454663,0.013161778450012207,8.461000061035156,0.10058970227837563,0.4511052072048187,0.013161778636276721
74,0.012213381040183937,8.79299999966341,0.09655458182096481,0.43748446773080263,0.012213381155229667,0.012983575742691756,9.111999988555908,0.09930867180228234,0.45081621706485747,0.012983575463294983
75,0.012131470995133413,8.684882371565875,0.09623017381219302,0.4366239037583856,0.01213147095130647,0.013016280345618724,9.35,0.10010896548628807,0.45035716593265535,0.013016280438750982
76,0.012191994586849914,8.79376474829281,0.096542236778666,0.43680193564471076,0.01219199488816016,0.012990269996225833,8.775000095367432,0.09906691089272499,0.4542694896459579,0.012990270368754863
77,0.012140140802982976,8.85411763752208,0.09634319675319335,0.4358661839190651,0.01214014084680992,0.012683259788900614,9.655000114440918,0.09833956509828568,0.4461509883403778,0.0126832596026361
78,0.011964493831071784,8.783235272239237,0.0955087596002747,0.4331606717670665,0.011964493929682409,0.012773455586284399,9.542000102996827,0.09838426560163498,0.44645045697689056,0.012773455679416656
79,0.011974410542889552,8.802529424779555,0.09548988771789214,0.4336565895992167,0.01197441060862997,0.012788338866084815,8.861999988555908,0.09866767227649689,0.4465204864740372,0.012788338679820299
80,0.011934685619438395,8.82258822777692,0.095428737778874,0.43236881494522095,0.01193468575091923,0.012713579181581735,8.614000177383422,0.0983756847679615,0.4451968312263489,0.012713579367846251
81,0.011910093005965738,8.878000043420231,0.09530582449891987,0.4320498897748835,0.011910093016922474,0.012703841365873814,8.842000102996826,0.09826852455735206,0.44495850801467896,0.012703841272741555
82,0.011874883660279653,8.855999988668104,0.09514666405670782,0.4319173897013945,0.011874883731498437,0.012584869470447301,9.442999935150146,0.09801697358489037,0.44429420828819277,0.012584869004786014
83,0.011828987108653082,8.839058800304636,0.09498424950767966,0.4309077071792939,0.01182898714700166,0.012387285660952329,8.702999830245972,0.09665605947375297,0.43973096907138826,0.012387285847216845
84,0.011756163369864226,8.887823548036463,0.09466077409246389,0.428987216072924,0.011756163550650373,0.012524668499827385,9.205000019073486,0.09785103723406792,0.4410149544477463,0.012524668220430612
85,0.011726386658847333,8.901176511540132,0.09448060454691158,0.4286148851408678,0.011726386631455492,0.012333097215741873,9.0189998626709,0.096421979367733,0.44107893109321594,0.012333097122609615
86,0.011717513011878027,8.906941206314984,0.09450588221935664,0.42833242977366726,0.01171751317622907,0.012462873384356499,8.84399995803833,0.09724672734737397,0.44018024802207945,0.012462872825562955
87,0.011713148845250116,8.91952940716463,0.09446352943778039,0.42791034193599925,0.011713148784988067,0.012522156909108162,8.865999889373779,0.09754710495471955,0.4435180574655533,0.012522157747298479
88,0.011712326553157147,8.963294107773725,0.094574545104714,0.4282155152629403,0.01171232669011635,0.012334134615957736,8.614999961853027,0.09682259112596511,0.4401915580034256,0.01233413489535451
89,0.011615042799316785,8.884882351931404,0.09402011698659729,0.4266399245051777,0.011615042859578834,0.01226571723818779,9.075000190734864,0.09631310477852821,0.43699514865875244,0.01226571686565876
90,0.01155730562065454,8.871411766725428,0.09385889575761908,0.42486286776907306,0.011557305543957388,0.012255425471812487,9.000000190734863,0.09620326980948449,0.4373709261417389,0.012255424819886684
91,0.011531204554964515,8.85923528951757,0.09368652911747204,0.4250368316383923,0.011531204763142502,0.012175919301807881,8.608999919891357,0.09593368098139762,0.4365571588277817,0.012175918836146594
92,0.011573867729919798,8.817999999663408,0.09401319062008577,0.425923414440716,0.011573867861400633,0.012558761145919561,8.06100001335144,0.09822839349508286,0.44546430110931395,0.012558761611580848
93,0.011587722577592906,8.946647080253152,0.09420823590720401,0.4257880545714322,0.011587722462547176,0.012370727490633726,9.048999977111816,0.09751517996191979,0.43972873985767363,0.012370727397501469
94,0.01147036252214628,8.8320587831385,0.09351347307948506,0.42343796456561367,0.01147036258240833,0.012322625052183867,9.12100009918213,0.09663387462496757,0.4391148865222931,0.012322625052183867
95,0.011412967626443681,8.866058860105626,0.09321262411334935,0.42245951785760766,0.011412967631922049,0.012219214346259832,8.955000019073486,0.09613680392503739,0.43919945061206817,0.012219214346259832
96,0.011424556944300147,8.8884117603302,0.0932799068005646,0.4228551664773156,0.011424557070302613,0.012117053009569645,9.090999984741211,0.09574400708079338,0.4383252739906311,0.012117052730172873
97,0.011338022679967039,8.879058818256153,0.0928923579699853,0.42132568639867446,0.011338022805969504,0.012202739343047142,8.432999801635741,0.09634320735931397,0.4373473674058914,0.012202739529311658
98,0.011385927527375958,8.805235318576589,0.09322883017799434,0.4226736638475867,0.011385927669813528,0.012088985182344913,8.708000183105469,0.09625083729624748,0.43507550954818724,0.012088985554873944
99,0.011353609771193826,8.821588235742906,0.09303544163703918,0.4218519340543186,0.011353609661626466,0.01203877916559577,9.294000148773193,0.09517770782113075,0.43606009185314176,0.012038778979331255
100,0.011338564013952718,8.861764677833108,0.09303526343668209,0.42023136510568504,0.011338564002995983,0.012201826553791761,9.098999977111816,0.09589824005961418,0.43859554529190065,0.012201826833188534
101,0.011272308953544672,8.882294155569637,0.09266879400786232,0.4197277200572631,0.011272308986414882,0.012207250297069549,8.655000162124633,0.09648037925362588,0.43670687079429626,0.012207251321524382
102,0.011305372959331554,8.884117650985718,0.0930034529636888,0.4200994247899336,0.011305373118204228,0.012035327311605216,9.017000102996827,0.09560103341937065,0.4358698785305023,0.012035326473414898
103,0.011256228995454661,8.844647009232466,0.09273035999606638,0.419362211227417,0.011256229137892232,0.012273346818983556,9.19700002670288,0.09670959785580635,0.43626606166362764,0.012273347284644843
104,0.01116029151770122,8.877882331960341,0.09216410180225092,0.41730608554447396,0.011160291583441636,0.011873125750571489,9.116000080108643,0.0946394920349121,0.4330570101737976,0.011873125750571489
105,0.011202123361256193,8.805058838339413,0.09247982795624173,0.41807830596671386,0.01120212341330069,0.011843198724091054,8.943999767303467,0.09454832971096039,0.42970816493034364,0.011843198258429766
106,0.01119507363285212,8.869176463519826,0.09246948497260318,0.4180865370175418,0.01119507363285212,0.01193498047068715,8.894000148773193,0.09513581022620202,0.4322713643312454,0.011934980005025863
107,0.011178509145975114,8.904823547251084,0.09239949601538042,0.4175097761785283,0.011178509206237162,0.011838903743773698,9.002999973297118,0.09464505910873414,0.4307591199874878,0.011838903091847897
108,0.011109119412653587,8.872882315691779,0.09206252970239695,0.4167416455114589,0.01110911948935074,0.01180417239665985,8.990999889373779,0.09434054493904113,0.4300405889749527,0.011804172489792108
109,0.01107746160534375,8.974058804792516,0.09194596225724501,0.4160551362177905,0.011077461682040901,0.011877160612493753,8.021999931335449,0.09534154906868934,0.43057776987552643,0.01187716107815504
110,0.011052921877297409,8.941058829251457,0.09188437860678224,0.41529078220619875,0.011052921937559457,0.011744574923068286,8.631999921798705,0.09457140564918518,0.4276706248521805,0.01174457473680377
111,0.011013446501730119,8.965294119890999,0.09159276380258448,0.4146945951616063,0.011013446616775849,0.011667915154248476,8.928999900817871,0.09384571015834808,0.4271081924438477,0.011667915154248476
112,0.011022344412391676,8.966352942410637,0.09174139232319944,0.41472930995857016,0.01102234446169699,0.01195802204310894,8.902999973297119,0.09598059207201004,0.4319177716970444,0.011958021577447653
113,0.010960739053895368,8.896470594406129,0.09134591405882556,0.4133227237883736,0.010960739242899068,0.011840097140520811,8.13899998664856,0.09524201601743698,0.4294341206550598,0.011840097513049841
114,0.011022267474190278,8.921588207693661,0.09187133180744508,0.4137389689683914,0.011022267660454792,0.011715416610240937,8.977999877929687,0.09417583122849464,0.4299712300300598,0.011715418100357056
115,0.01095535148976042,8.991470617406508,0.0915310964864843,0.4130009442567825,0.010955351418541634,0.01151029821485281,8.99399995803833,0.09317868128418923,0.4245658218860626,0.011510298494249583
116,0.010937480781884754,8.963000014249015,0.09140198629568605,0.41272623907117284,0.01093748088049538,0.011740965582430363,8.680000019073486,0.09459353759884834,0.42609299421310426,0.01174096604809165
117,0.010881348321323885,8.997352956323063,0.09115790255806025,0.4119528286597308,0.01088134829119286,0.011700464133173227,8.616000032424926,0.09410939440131187,0.4257198512554169,0.011700463388115168
118,0.010855698892298867,8.893764692194322,0.09101226689184413,0.41125407324117774,0.01085569885395029,0.011454993486404419,8.823999977111816,0.09295748546719551,0.4236602395772934,0.011454993207007647
119,0.010892157516825726,8.92005882543676,0.09136625133893068,0.41168874502182007,0.010892157642828191,0.011513396538794041,8.769999885559082,0.0931675486266613,0.4255473345518112,0.011513397097587585
120,0.01084230052142897,8.918294098797967,0.09100672054816694,0.4110862595193526,0.010842300587169387,0.011611671652644873,9.089000034332276,0.09418382197618484,0.42496984004974364,0.011611672397702933
121,0.010870778538724955,8.91888235877542,0.09121652696939075,0.4113453719545813,0.010870778648292317,0.011610626243054867,9.49399995803833,0.0938775360584259,0.4247734546661377,0.011610626056790353
122,0.010793447954689755,8.953823521557975,0.09083257764577865,0.40974085366024693,0.010793448108084061,0.011483195703476667,8.873000049591065,0.09320615530014038,0.42370196878910066,0.01148319523781538
123,0.010786357152220958,8.868823519875022,0.09078051824780071,0.4097206142018823,0.010786357333007104,0.01147263813763857,9.377000045776366,0.09309703260660171,0.4249029368162155,0.011472637951374053
124,0.010740629082326503,8.94405883620767,0.09071345079471083,0.40850989608203664,0.0107406289453673,0.011564030684530735,8.84600009918213,0.09367851093411446,0.42740159630775454,0.01156403087079525
125,0.01070874869987807,8.949352903927073,0.09047093500985819,0.40819978976950927,0.010708748875185848,0.011422871239483356,8.385000038146973,0.09278636053204536,0.4241044342517853,0.011422871146351099
126,0.010727592656279311,8.931882361804737,0.09061608161119854,0.40879065008724436,0.010727592875414036,0.011410354916006327,9.044000053405762,0.09307575821876526,0.42006306648254393,0.011410354916006327
127,0.010682130799464442,8.906529404135311,0.09046613964087823,0.40713988384779765,0.010682130802203628,0.011339097749441862,8.957000064849854,0.09236920326948166,0.4200313001871109,0.011339097656309605
128,0.010633268878411721,8.900588265587302,0.09011352211236953,0.40658618790261886,0.010633268974283162,0.011339270323514939,9.675000095367432,0.09260115101933479,0.421302330493927,0.011339269857853652
129,0.01067011387032621,8.908294130774106,0.09044762687648043,0.407022763876354,0.010670113886761316,0.01162172481417656,8.978999996185303,0.09436994642019272,0.42385345995426177,0.011621724348515272
130,0.010602858531124451,8.90135292445912,0.09001212663510266,0.40616170799030976,0.010602858580429765,0.01137545397505164,8.582000017166138,0.09306965172290801,0.4194773524999619,0.011375454440712928
131,0.010606349906062379,8.921705860250137,0.09015539117595729,0.4057786206988727,0.010606349927975852,0.011492756754159927,9.134000015258788,0.09414039179682732,0.4207795292139053,0.01149275666102767
132,0.010530083040323327,8.947588224971996,0.08974383114015355,0.4042267040294759,0.010530083182760898,0.011401721090078355,9.19399995803833,0.0932077057659626,0.4188824623823166,0.011401721276342869
133,0.010565795552204637,8.86817647709566,0.08997002892634448,0.40464728877824896,0.010565795437158907,0.011192666087299585,8.998999881744385,0.09169448316097259,0.4156218200922012,0.011192666180431843
134,0.010568650247638716,8.935117676678825,0.09006136313957326,0.40453734801096075,0.010568650354466894,0.011326785106211901,9.308999919891358,0.09292328953742982,0.41823466718196867,0.011326784919947385
135,0.010514264457913883,8.933352969674504,0.08987194702905767,0.40363394057049473,0.010514264674309421,0.011052544228732586,8.986000061035156,0.0911933146417141,0.4153889656066895,0.011052544694393873
136,0.010496806304025299,8.94970588123097,0.08971342098186998,0.4033448629519519,0.010496806413592661,0.011192703433334828,8.787000036239624,0.09187608435750008,0.4190436840057373,0.011192702874541282
137,0.01047985877513009,8.943588214762071,0.0896684599273345,0.4024970554253634,0.01047985876965172,0.011318385787308215,9.014999961853027,0.09276660531759262,0.41760298907756804,0.011318386159837246
138,0.010495846965076293,8.996823507196764,0.08977898179608233,0.40290444055024316,0.010495847019859974,0.011267130170017481,9.242000007629395,0.09248093441128731,0.4201625555753708,0.011267130263149738
139,0.01039433843072723,8.924529417823342,0.08928221350207048,0.40146922100992766,0.010394338414292124,0.011223970353603363,8.472999954223633,0.09246156066656112,0.41538749635219574,0.011223970539867878
140,0.010396551354514325,8.950176511091344,0.08933953467537376,0.40114753000876485,0.010396551428472295,0.011214621737599373,8.773999977111817,0.09236179813742637,0.4169468730688095,0.01121462183073163
141,0.010389065632925314,8.973529403349932,0.0892893563298618,0.40114115248708165,0.010389065616490209,0.011018868070095778,8.578999996185303,0.09138517826795578,0.41229790151119233,0.011018868628889322
142,0.010372132238219766,8.95005880804623,0.08927897127235637,0.40052180868737836,0.010372132276568342,0.011341240350157022,9.391000080108643,0.09324914291501045,0.41814287602901457,0.011341240163892508
143,0.010365480570780003,8.993823561948888,0.08922343451310606,0.4003331920679878,0.010365480633781237,0.011087676417082548,9.093000125885009,0.09140615463256836,0.41225519478321077,0.011087676975876093
144,0.010338079704738715,9.013058813880471,0.08907912408604342,0.4001101308009204,0.010338079770479132,0.011078073177486658,8.65400013923645,0.09193616807460785,0.4121350526809692,0.011078073736280203
145,0.01028154407737448,9.001058825324563,0.08890386144904529,0.3983848654172,0.010281544088331216,0.011007401533424855,9.507000160217284,0.09114788547158241,0.4116003930568695,0.011007401905953885
146,0.010278437308528844,8.983823535021614,0.08888800713945838,0.3983764962238424,0.010278437385225997,0.011089320294559002,9.25999994277954,0.09201313555240631,0.41234971582889557,0.011089320480823516
147,0.010268277017509236,9.014411791633156,0.08883107672719394,0.3979614422601812,0.01026827706681455,0.011040185857564212,9.060000133514404,0.09176289215683937,0.4145265519618988,0.011040186416357756
148,0.010254281846915974,8.968882361580343,0.08881019296891549,0.3978204257348005,0.010254282005788649,0.011030812934041023,8.931999969482423,0.09160490781068802,0.41048479080200195,0.011030812840908765
149,0.010219705858103492,8.953411800721112,0.08857973047039087,0.3971091366866056,0.010219705882756148,0.010909130610525609,9.08700008392334,0.0906485453248024,0.4110767364501953,0.010909130331128836
150,0.010220717200461556,8.972764730453491,0.08871439480606247,0.39704674114199245,0.010220717173069715,0.01105445260182023,9.127999973297118,0.091201451420784,0.41473580002784727,0.011054452881217003
151,0.010283095997703426,8.951941142362706,0.0889794454416808,0.3983119661317152,0.010283096134662629,0.011214148811995983,9.449000072479247,0.0921765461564064,0.4153850138187408,0.01121414927765727
152,0.010196165485745843,9.005058815900018,0.08856863107751398,0.3964395610725178,0.010196165573399732,0.011031418666243553,8.32200002670288,0.09189352542161941,0.4117924958467484,0.011031418945640326
153,0.010151611558873863,8.992352928834803,0.08827143697177663,0.3961309641599655,0.01015161142191466,0.0109500452876091,8.807000017166137,0.09125429913401603,0.4107346087694168,0.0109500452876091
154,0.010193550515481655,8.982352932761698,0.08869755894822233,0.3963248114375507,0.010193550512742471,0.011112247034907341,8.876000022888183,0.09211833700537682,0.4135288178920746,0.011112247128039598
155,0.010123249685720486,8.984117631351246,0.08827394089278053,0.3953155554392759,0.010123249814462136,0.010769355297088622,9.432999992370606,0.09020456150174141,0.4094737946987152,0.010769355576485395
156,0.010079914994318696,8.976352938483743,0.08798646291389185,0.39380146720830134,0.010079914986101144,0.010967321880161762,8.85199990272522,0.09150452017784119,0.40845810770988467,0.010967322345823049
157,0.01013358587070423,8.967294129203347,0.0883276462993201,0.39542280821239245,0.010133585952879751,0.010778831597417594,9.119999885559082,0.09053296223282814,0.40541123151779174,0.010778831597417594
158,0.010055054521516843,9.011823516733505,0.08794750531806665,0.3937956287580378,0.010055054518777659,0.010918964352458715,9.605000019073486,0.0911859467625618,0.4110348284244537,0.010918964911252261
159,0.01006865377044853,8.978588227664723,0.08801227672135128,0.3940690305303125,0.010068653767709346,0.010903391242027282,9.148999881744384,0.09087969288229943,0.4120854467153549,0.010903391148895025
160,0.010072908575153526,8.99741175034467,0.08806620503173154,0.39388866003821876,0.010072908690199256,0.010737294796854258,8.998999977111817,0.08971300050616264,0.4094274342060089,0.010737294610589743
161,0.010007528456694939,8.939823548934038,0.08774209403816391,0.3929732832838507,0.010007528530652909,0.010762806423008442,8.600999927520752,0.09036074429750443,0.40623376965522767,0.010762806329876185
162,0.010015015358872273,8.977058783699485,0.08778329263715183,0.3929092650904375,0.01001501538352493,0.010948494356125594,9.327000045776368,0.09130262359976768,0.4092696368694305,0.010948493983596564
163,0.010036622601396898,8.939470585654764,0.0879016043508754,0.39319956039681153,0.010036622628788738,0.01079074814915657,9.11899995803833,0.09058928564190864,0.4091374546289444,0.010790748335421086
164,0.009969766610575949,8.934588219137753,0.08756805347169147,0.3919164682135862,0.009969766703708208,0.010723837558180094,8.82000012397766,0.09022433087229728,0.40578498840332033,0.01072383699938655
165,0.009994075337753577,8.957823559817147,0.08769652768969535,0.3920265802565743,0.009994075461016858,0.010848945658653974,8.746999979019165,0.09076774343848229,0.40867569744586946,0.010848946310579777
166,0.009949445716269753,8.969352932537303,0.08751728710006265,0.3913001430385253,0.00994944573544404,0.010710153449326753,8.926000022888184,0.09016780704259872,0.40627573132514955,0.010710154101252556
167,0.00996599495958756,8.95700000594644,0.08754688317284864,0.39216963210526634,0.009965994923978167,0.010723539534956217,9.389999961853027,0.08991082310676575,0.40763823688030243,0.010723539255559444
168,0.009982963665114607,8.935529403125539,0.0877265737775494,0.3918801213012022,0.009982963615809293,0.010569003596901893,8.661999940872192,0.08936598598957061,0.402393439412117,0.010569003317505122
169,0.009934206405544982,8.938764712389778,0.08753011809552418,0.39086213900762445,0.00993420652606908,0.010761887859553098,9.523999977111817,0.0903784841299057,0.4065876007080078,0.010761887952685355
170,0.009904292502495296,8.916411778506111,0.08731618405264967,0.3904676400563296,0.009904292480581823,0.010778954345732927,9.51299991607666,0.09076807349920273,0.40483753085136415,0.010778954345732927
171,0.009891051201916792,8.969470596313476,0.08730791982482461,0.38979581226320825,0.009891051141654743,0.010734684765338898,8.786999988555909,0.08999406546354294,0.40754884481430054,0.010734684765338898
172,0.009874298828927909,8.97347059249878,0.08715676937033148,0.3897347667637993,0.009874298744013204,0.010642141103744507,9.171000003814697,0.0897918812930584,0.4067438006401062,0.01064214101061225
173,0.009918859658543678,8.921941156948314,0.08749820892425145,0.39046720371526833,0.009918859633891022,0.010559267457574606,9.103999900817872,0.08932723179459572,0.4049043029546738,0.010559266991913318
174,0.009879049582078176,9.007705873601576,0.08729161449214991,0.38975803554058075,0.009879049480728366,0.010565608087927104,9.088000011444091,0.08933242559432983,0.40507659912109373,0.010565608553588391
175,0.009826612571144805,8.939176508959601,0.0869269407409079,0.38909910251112545,0.009826612730017479,0.010588232614099979,9.380000114440918,0.08890157490968705,0.4052706271409988,0.010588233079761266
176,0.00980462272761061,8.945000000560984,0.08685157356016776,0.38863837438471177,0.009804622670087745,0.010573827754706144,8.385999965667725,0.0893829695880413,0.40351408421993257,0.010573827754706144
177,0.009834466737640254,8.937117643917308,0.08705103699775303,0.3887836885802886,0.009834466702030862,0.010617519356310367,8.884000062942505,0.0895403616130352,0.40496817529201506,0.010617519728839397
178,0.009839658337809584,8.956941169850966,0.08712398287128,0.38875259038280036,0.009839658469290418,0.010462168790400028,9.422000122070312,0.0888047032058239,0.4022619217634201,0.010462168231606483
179,0.00975543593385202,8.920352924571318,0.08666860461235046,0.38712434768676757,0.009755436037941014,0.010347492899745703,8.942000007629394,0.08831567838788032,0.3991290837526321,0.010347492899745703
180,0.00976966744124451,8.906411774018231,0.08680298836792216,0.3879406837856068,0.009769667564507792,0.01045389547944069,9.406999778747558,0.08882768228650093,0.4031222641468048,0.010453895851969718
181,0.009762500845553244,8.956705845103544,0.08677561914219575,0.38752970590310937,0.009762500689419754,0.010690394416451454,8.710000133514404,0.09026202112436295,0.4051816284656525,0.01069039385765791
182,0.009726448757026126,8.930705895143397,0.08649010811658467,0.3867683342274498,0.00972644875428694,0.010437320917844772,8.809000015258789,0.08854101374745368,0.4006227970123291,0.010437320731580258
183,0.009733968422583797,8.94005880355835,0.08666547536849975,0.38644075586515314,0.009733968411627061,0.01037963004782796,9.081999969482421,0.08817135244607925,0.4006065785884857,0.010379628930240869
184,0.009712304415948251,8.908823478923125,0.08650544859907207,0.38652794518891503,0.009712304484427852,0.010488408152014017,8.956000137329102,0.08920044228434562,0.40215118825435636,0.010488407872617244
185,0.00973210853031453,8.933117608463062,0.08657084861222436,0.3867369104834164,0.009732108549488819,0.010391788464039564,8.857999992370605,0.0885338842868805,0.40209607481956483,0.010391787718981504
186,0.009717476787045598,8.951529404696297,0.08653448535238996,0.386235415409593,0.00971747668569579,0.010425386670976877,8.753999948501587,0.08921419680118561,0.40136094987392423,0.010425386391580105
187,0.009694610311485389,8.939058803109562,0.08645465869237395,0.385903700484949,0.009694610437487854,0.010465781297534704,9.467000007629395,0.08921688348054886,0.400249245762825,0.010465781763195991
188,0.009659222727093627,8.895058847876156,0.08622537974049063,0.3853194066706826,0.009659222880487933,0.010330533236265182,9.450000095367432,0.088176279515028,0.3987776696681976,0.010330533143132925
189,0.009801845723653542,8.94852941456963,0.08706483345697907,0.388086318619111,0.009801845846916823,0.010489122569561004,8.663000011444092,0.08914885222911835,0.40269917249679565,0.010489122942090034
190,0.009718991172335604,8.952764693428488,0.08658361084320966,0.3869145270656137,0.009718991164118052,0.01049945866689086,9.069000053405762,0.08913624063134193,0.40259618759155275,0.010499458480626344
191,0.00964239133960184,8.92764705209171,0.08615035015870542,0.38503648358232834,0.009642391268383054,0.01048269597813487,8.933999919891358,0.08923034146428108,0.4026416063308716,0.010482696443796157
192,0.009593784710501924,8.928058848661536,0.085942041786278,0.38401615093736086,0.009593784800894997,0.010401340294629335,9.142000007629395,0.08836647048592568,0.400096008181572,0.010401340201497078
193,0.009568248848047326,8.996705871469834,0.08587009740226409,0.38342565701288334,0.009568248864482432,0.010226054675877094,8.453999996185303,0.08775345906615258,0.3970973551273346,0.01022605448961258
194,0.009605714645894135,8.942294129203347,0.08604785664116635,0.3840258359909058,0.009605714634937399,0.01032990487292409,9.755000019073487,0.08817857950925827,0.3993151247501373,0.01032990524545312
195,0.00960479794508394,8.966294151193955,0.08604694114011877,0.3838578567785375,0.009604797906735364,0.010314275044947863,8.34500002861023,0.08830940201878548,0.39883328080177305,0.010314275417476893
196,0.009591616386109416,8.915823535358205,0.08597098878201316,0.38355559075579926,0.009591616424457992,0.010254204366356134,7.965000057220459,0.08839019909501075,0.3946945697069168,0.01025420380756259
197,0.009616930886883946,8.974352962830487,0.0861745953998145,0.3840532483423457,0.009616931001929676,0.010332253202795983,9.235999965667725,0.0883744239807129,0.3978878170251846,0.010332253389060497
198,0.009557326072279144,8.970823531992295,0.08578907470492755,0.383245733906241,0.009557326209238347,0.010271548107266427,9.538999938964844,0.08762054592370987,0.39768361747264863,0.010271548293530941
199,0.009546268764225875,8.951470588235294,0.08579139700707267,0.3829518603927949,0.00954626886831487,0.010424729809165001,8.423999977111816,0.08874089568853379,0.4021289378404617,0.010424729716032744
