epoch,huber_loss,l0_loss,l1_loss,linf_loss,loss,val_huber_loss,val_l0_loss,val_l1_loss,val_linf_loss,val_loss
0,0.0017879173006668328,0.6209474145778882,0.03531878618084971,0.0886211715747891,0.0017879172862466167,0.001251424055459354,0.5972906345217098,0.031442637523186615,0.07905382413435452,0.0012514240697962162
1,0.0010793801187206863,0.5315900991900924,0.026527845502917143,0.07098706164787262,0.0010793801183605976,0.000965901897082408,0.4667487586366719,0.025502664427011473,0.06963710420824624,0.0009659019059712627
2,0.0009129909794992058,0.4987398296157606,0.02425193645999814,0.06536768475454183,0.0009129909812079597,0.0009637568771077567,0.5270935893058777,0.02729138578724098,0.06939176381955593,0.0009637568699393256
3,0.0007848005623635546,0.4754410563690827,0.02220284975973403,0.06039332504259282,0.0007848005650042047,0.000799304342041884,0.47660098624934116,0.023349503110268434,0.061741396913240695,0.0007993043796044632
4,0.0007015122612286792,0.4644289116485789,0.020958774001655,0.05698131261674457,0.0007015122709810796,0.0007765371543974639,0.47536945298974737,0.024449333842164776,0.06094059715130059,0.0007765371059388693
5,0.0006386188201327192,0.44801809765148415,0.01980315629418042,0.05423060247519026,0.0006386188222582424,0.0006522163720067425,0.43349754164371584,0.02144990743050728,0.056344044032355246,0.0006522163611107272
6,0.0005668203606308557,0.4284425459546941,0.01862689990641822,0.05107571769120364,0.0005668203667573636,0.0005581385660755994,0.4051724049845353,0.019101109796116504,0.051694515193330834,0.0005581385553229527
7,0.0005302003815512272,0.42165482727481485,0.017893710022215865,0.04910237100182332,0.0005302003819529928,0.000480183471467924,0.3337438381070574,0.017155431114651006,0.04774690034060643,0.0004801834499626306
8,0.0004903030674605177,0.41008420080127467,0.017076525462584126,0.04702874713980949,0.0004903030654675272,0.0005155227412561441,0.405172411150533,0.01892063286834456,0.05067946304902067,0.0005155227547327946
9,0.0004546167899252453,0.40153511105493,0.016462224460052115,0.04523660412220621,0.0004546167897518693,0.0004697683203639692,0.41502462804611095,0.017277296880269286,0.04674029854938314,0.00046976831763996535
10,0.00042317775784808464,0.39397410872240957,0.01585347097688621,0.04360987972039232,0.00042317775632687684,0.0003906094970633482,0.3608374415066442,0.01606879439296687,0.04254101403975134,0.00039060950021745794
11,0.0003968544162457615,0.3878021534382512,0.015354200316767387,0.04222693631158981,0.0003968544150521344,0.00035792300113467635,0.34975369105785353,0.014847934447926254,0.03915064726850669,0.0003579230118873231
12,0.0003711348380982024,0.383506128464399,0.014871129191138413,0.040753858193293385,0.000371134839897812,0.00038556832466916794,0.3386699541155341,0.015119391681598912,0.03986729666810905,0.00038556834173003406
13,0.0003519164916291734,0.3757732840888019,0.014496288753521887,0.03967001710769042,0.0003519164909765127,0.0004017748902930323,0.34605911051111266,0.015853704049669463,0.0408540566823459,0.00040177487194184856
14,0.00032951963529864053,0.3706037353688819,0.014004608961437843,0.038432474091806106,0.0003295196366381369,0.0003451420342764161,0.2955665029034826,0.014733569659843234,0.038963798066518576,0.0003451420360685239
15,0.0003168809060765987,0.36246992836963793,0.013693469753007713,0.03753838888952578,0.0003168809078820431,0.00030046034946388525,0.2721674902538948,0.013358965873938476,0.03622854681768147,0.00030046035347820667
16,0.000306446241652019,0.3655201059181757,0.013486961191361122,0.036781653867703094,0.0003064462437642056,0.00040214451983584815,0.31773398831266486,0.014352947248724001,0.041119740367522965,0.00040214455610810976
17,0.0002873598900554936,0.362613128975114,0.013162170703150396,0.03585570100692761,0.00028735989150001584,0.00031899357163817554,0.32389163170835655,0.013694214391444116,0.037909992332822585,0.00031899355371709767
18,0.0002797764990428235,0.3571428576276698,0.012950004792063473,0.03520244035495558,0.00027977650061987837,0.00029050532590512996,0.3189655155530704,0.012951104126393501,0.03516733595009508,0.0002905053254750241
19,0.0002642139719406011,0.3525890711486264,0.012565503045741581,0.034144572268261175,0.0002642139745208195,0.00030867994272349667,0.3633004981895973,0.01418825462368762,0.03677416753409238,0.0003086799478847671
20,0.0002552420748615328,0.35377763862468653,0.012414686474693059,0.033736674705180346,0.00025524207694913,0.00029638462840164253,0.3793103487914419,0.013961975173703555,0.03659670634809973,0.000296384632415964
21,0.00023987163480784326,0.3514005041582326,0.012064986867790254,0.03268159175374238,0.00023987163435231445,0.0003215795706296936,0.3312807911135293,0.014180759646989442,0.03692255042530046,0.00032157959392709485
22,0.00024122949283285008,0.34618799476750406,0.012055041486921674,0.03254068066723545,0.00024122949264530392,0.00026589075491644366,0.3756157590691092,0.013016026572604191,0.0331570363048409,0.0002658907580705534
23,0.00022310785587484485,0.3457154320421286,0.01170145600459303,0.031484183390707084,0.00022310785569104962,0.0002505266765107314,0.2807881768260683,0.012020335968565471,0.03290922794803023,0.0002505266567975457
24,0.0002213756409534032,0.346503036279137,0.011618026205965786,0.03128879681485228,0.00022137564191488987,0.00025070284773123086,0.29187191949395713,0.011936048100807985,0.033543690974856245,0.00025070286249819905
25,0.0002151046089609274,0.34025948008835855,0.01143033118212871,0.030736683505115804,0.00021510461066259623,0.00023657277399493986,0.27586206984637407,0.011998725339329889,0.031601389025893115,0.00023657276729245676
26,0.00020759864469028645,0.34090388459647997,0.011284578222854398,0.030335206947499485,0.00020759864365211425,0.0002867452726582423,0.31773398867968855,0.013386135819950714,0.03535360976906833,0.00028674526570486407
27,0.00019821327921389572,0.3398871589296257,0.011115276674763596,0.029706756563967946,0.00019821327972068713,0.00030909733903557613,0.3312807899390535,0.014198927575804918,0.038153991396791244,0.0003090973464190602
28,0.00019965272819468606,0.3361925777717477,0.01110712099196862,0.02976075689785156,0.00019965272993803184,0.00021298151017250401,0.2783251255016609,0.011206948863608497,0.029693346911022815,0.00021298149583564172
29,0.00018933971357913113,0.3315099101013875,0.010879716103629125,0.029069096585105123,0.0001893397143359841,0.00023710635663331327,0.275862067644232,0.012242506767435027,0.03171739056522917,0.00023710635641826033
30,0.00018679029750610037,0.33050750482343894,0.010759402521141109,0.028682172334706994,0.00018679029804414947,0.00023434200456590745,0.33251231901457745,0.011783731004837992,0.03197482523733172,0.0002343420186877168
31,0.00017629345731012285,0.3245933104183976,0.010508778530526904,0.027965417789650178,0.00017629345719551132,0.00020756551675014473,0.2955665030502921,0.01069852465699459,0.029329479860114346,0.00020756552044188677
32,0.00016957289001260124,0.3252806742218423,0.010352679744189136,0.027495621171060712,0.00016957289061691664,0.0002578981706024987,0.2770935929761144,0.01175530734265526,0.032127384041330496,0.0002578981616419598
33,0.000167590649863045,0.3228176202514502,0.010307254189326003,0.02735660749516706,0.00016759065279835087,0.00026576307440506926,0.27093596029751404,0.013482866822535475,0.03419657069914447,0.00026576306186031475
34,0.00017099508414534722,0.32656948229150545,0.010353380008449682,0.027560754327910306,0.000170995085482343,0.0002660291290783502,0.3004926135534136,0.012611164977507932,0.033260911859094806,0.00026602911674864866
35,0.000157375859056133,0.32280330020822956,0.010009958684574166,0.026504576904619187,0.000157375860511908,0.00024178670325002225,0.26477832270079643,0.012515060314587477,0.031442436339159316,0.00024178669407443038
36,0.00015967769190755588,0.3266267618182558,0.010082400418747153,0.026631167037814756,0.00015967769160539816,0.0002139975105568863,0.26231527056893694,0.010938513785453853,0.029169101864466526,0.00021399749084370065
37,0.00015775021445011466,0.32389162690119994,0.010050234987169695,0.02648953550965403,0.00015775021570417334,0.00021246132246457186,0.25985221601472114,0.011928583554960237,0.030524478564635287,0.0002124613388085949
38,0.0001480419321936489,0.32188681486611215,0.009780336831897874,0.025724074699907302,0.00014804193180063547,0.00021768024410184224,0.27955664907182964,0.011459563051355003,0.0298561651186256,0.00021768026403008083
39,0.0001512142102091257,0.321800893956388,0.009912596239469051,0.026013045688359812,0.00015121421121687376,0.00019217821191067308,0.2857142835855484,0.010876700139875189,0.028319876806195732,0.00019217820933003786
40,0.00014813860095473148,0.32205865639023445,0.009782762338446493,0.02565979159634822,0.00014813860080698679,0.00019076062038625715,0.2376847305321341,0.010601125584153706,0.028066588464775697,0.0001907606141138799
41,0.00013877100206463906,0.3157291794117885,0.009491056065968225,0.024859594237513865,0.00013877100334474583,0.00022894785170451384,0.35221674920890134,0.01250900208876638,0.03109784128850904,0.00022894784991240607
42,0.0001338196353695181,0.3138675687204919,0.009368720442109575,0.02449099368899412,0.0001338196372033028,0.00022577400035551736,0.26354679685508087,0.010343502982166308,0.03016398156181051,0.00022577399566019497
43,0.000141931812917937,0.3169320666122708,0.009591985484162662,0.0251445411812774,0.00014193181313298993,0.00027139664107470274,0.2770935962793275,0.012213182323635212,0.03376038878091744,0.00027139664867323977
44,0.00013181814571073142,0.31263604197215417,0.009304606495894555,0.024258755850883603,0.00013181814448355434,0.0001873510617021875,0.27586206434101895,0.010711885594161861,0.027852052978694145,0.00018735104625421838
45,0.00013714614538232677,0.31411100968484656,0.009432617462475845,0.02461276833340995,0.00013714614649718452,0.00021593715078564444,0.29064039269398,0.011054097583031126,0.029997290162543946,0.00021593714899353664
46,0.00012845504062602723,0.3157005396599362,0.009204187944221178,0.023920889814739676,0.00012845504002504597,0.0002291488184208243,0.29310344827586204,0.012149262856783832,0.03141788807078242,0.00022914883096557883
47,0.00012391428485174745,0.3107601109913895,0.009035547014952358,0.023579078089193607,0.0001239142856383994,0.0002098184625452999,0.31157635321170823,0.011503246654137015,0.030378416198961842,0.00020981846792162329
48,0.0001222875001788264,0.3109319512198329,0.009051077195723496,0.02348709351390938,0.00012228750018591146,0.00017969865815569487,0.2610837456407805,0.009927322395292702,0.026283352943183166,0.00017969865536000671
49,0.00012585429259575964,0.308297056933936,0.009115701346403281,0.023692065450228533,0.00012585429217523947,0.00018913758660722845,0.299261088001317,0.010366064404582449,0.027628640722244833,0.0001891375975749281
50,0.00011883830534472885,0.311046512571926,0.008919158371105433,0.02308812550218815,0.00011883830533285092,0.00017652177309079482,0.2894088697844538,0.010070637964960097,0.02639818239241398,0.00017652179022334524
51,0.00012314825997803366,0.3121491588821989,0.009023034894691266,0.023384482654741724,0.0001231482607717707,0.00024374922880274357,0.2758620703602072,0.011288833024503269,0.031016397266992794,0.00024374921457340776
52,0.00011693878799976449,0.3090130608233953,0.008820325685173156,0.022792447754307287,0.00011693878863012798,0.0001713001263027396,0.269704437094369,0.009775975829201379,0.02567450593918415,0.0001713001254066857
53,0.0001166594633484655,0.3121348391505216,0.008847590268213251,0.022836198798649766,0.00011665946327261349,0.00021983913452481492,0.3066502449841335,0.011521645193102913,0.03014354452747723,0.00021983912914849156
54,0.00011033460498809709,0.30498911775174875,0.008606543216497125,0.022233433683149655,0.00011033460531630286,0.00019623830593638397,0.29187191978757604,0.010870797371519317,0.02810425071844033,0.00019623829618731762
55,0.00010906791086021454,0.30738057092690824,0.008581965132968014,0.02210209187560201,0.00010906791022130728,0.00018647171183044247,0.2906403915195042,0.011184719207655326,0.028859817225651202,0.00018647171652576487
56,0.0001108603813189378,0.310903311171801,0.008708302304378064,0.022353104395824535,0.0001108603830172725,0.00022695621683748596,0.3066502435160388,0.01238843822493929,0.030485376422041157,0.0002269562170525389
57,0.00011300281309818195,0.3099868259671041,0.008711578016681388,0.022420348034293974,0.00011300281329093773,0.00017705677138679326,0.25246305550847736,0.00960394405195572,0.026130930222387383,0.00017705678482760165
58,0.0001006193124771272,0.30400103179108223,0.00829634498512469,0.021315297562006324,0.00010061931357989864,0.00016135293368153787,0.2931034547354787,0.009792234404517219,0.025773848916215848,0.00016135293447006532
59,0.00010388135933925894,0.30809657536519597,0.008439308757478598,0.021645304396652947,0.00010388135972998011,0.0001847742167255598,0.32635467341674373,0.011499952685473293,0.027874602812337758,0.00018477419611632025
60,0.00010280266112664335,0.3069509691027981,0.00841714381502773,0.0215314069798248,0.00010280266163051738,0.00016043007784847656,0.284482758253666,0.009677974011730678,0.025362458502130557,0.00016043008311727346
61,0.00010512406349669069,0.309342422398734,0.008485873650411853,0.021726280895730435,0.00010512406368611231,0.00015289579563873952,0.2894088733078811,0.010049402644958697,0.026481927175239978,0.00015289580191111678
62,9.509671178381967e-05,0.304903196833916,0.0081151661054768,0.020801762142621416,9.509671233937309e-05,0.0001557238730877234,0.3054187184777753,0.010098782927715426,0.025778963446176698,0.0001557238748798312
63,9.962029277267889e-05,0.30816817648349476,0.008309733939721672,0.02120939186921537,9.962029257283803e-05,0.00019237583871154352,0.2906403896843859,0.010861762335955216,0.028367929435862697,0.0001923758335502731
64,9.347675665279605e-05,0.3010797344454581,0.008045097984972544,0.020582111130760566,9.347675668551245e-05,0.00017540507900856638,0.2832512345366877,0.010991482509144128,0.027833629858317634,0.00017540508148167512
65,9.922455387877693e-05,0.30394375200656176,0.008304983622210244,0.021194376575714987,9.922455509449284e-05,0.00016020114844426367,0.291871924779098,0.009850172284678578,0.02567721965718152,0.0001602011421718864
66,9.038188881506284e-05,0.30236854219333537,0.00791824212546285,0.020254988565851933,9.038188832202481e-05,0.00014453386224684732,0.3325123161517928,0.009256625804921677,0.024485241548327978,0.00014453386135079342
67,9.238605497265885e-05,0.3020535003970457,0.00801860685716866,0.020410197364856254,9.23860548092853e-05,0.00017900362846945078,0.3325123198220295,0.010025559332717229,0.02631090572241492,0.00017900364348731403
68,9.5039818579371e-05,0.30464543506199243,0.008134602975116922,0.020670531605342497,9.503981927933498e-05,0.00016476593858888143,0.34359606043458574,0.010562295580438792,0.02692433865970285,0.00016476593858888143
69,8.796826627914494e-05,0.30400103209579726,0.007855885883099517,0.019973780048473593,8.796826711789305e-05,0.00017975924018021497,0.26600985383165293,0.009968525954875452,0.02621058811401499,0.00017975923648847294
70,9.35367612845683e-05,0.30302726612585845,0.00806643672042924,0.02052576774585109,9.353676163007e-05,0.00015438564240432396,0.3140394118765892,0.009636951564568017,0.025219872915025414,0.0001543856414007436
71,9.537287263844625e-05,0.30467407540833774,0.008103946030874184,0.02058023843924513,9.537287322379867e-05,0.00016164774387120612,0.3041871916777982,0.010181198075523812,0.026510734111070633,0.000161647736702775
72,8.605564786836459e-05,0.2953660220559868,0.007803159230754125,0.019832349913938424,8.605564777292443e-05,0.0001629362824522624,0.25123152665316767,0.009829784582914978,0.026576085640071648,0.00016293628829453378
73,8.408604738584458e-05,0.2952085010078317,0.007707799253988487,0.019532842436665174,8.408604764820082e-05,0.00017893730291868493,0.29802955195234326,0.010096323102932845,0.026692905990874826,0.00017893730202263102
74,8.146321092255693e-05,0.2965402686711316,0.007638586855983526,0.019343976123133214,8.146321176651467e-05,0.0001668206447539874,0.30911329953834926,0.009748759904298288,0.025346518067523763,0.00016682065271094598
75,8.90428923408754e-05,0.30123725644787475,0.007925638053807343,0.020070815413335896,8.904289242943887e-05,0.0001614136098634011,0.2733990158059914,0.009800638755774263,0.02648170459373244,0.00016141359889570146
76,7.99423181309522e-05,0.2964686683449211,0.0075433677794732494,0.01909064181274477,7.994231906868303e-05,0.00016115682110422075,0.3300492606433154,0.009950095282986833,0.025089490360447338,0.0001611568308532871
77,8.272704103630732e-05,0.30054989228295437,0.0076843260407653945,0.019424434508492443,8.27270411925958e-05,0.0001827232398292316,0.2832512378399008,0.010681277517174265,0.027214824547761765,0.00018272322997263876
78,8.39027845197652e-05,0.3000630088093314,0.007702117068941636,0.019488242521029795,8.390278415175796e-05,0.00016673930478081558,0.27955664841118705,0.010516140614567425,0.026056027764757277,0.00016673929603532955
79,8.403458453493046e-05,0.3030415867529028,0.007711800361911674,0.019430406738426,8.403458468600931e-05,0.00018121078895723787,0.2598522135923649,0.01101313363485442,0.02841450622663122,0.00018121080709336868
80,7.924122999948802e-05,0.29705579164395807,0.007523437876101536,0.01895827408504436,7.924123020453849e-05,0.00017187043575293573,0.30911329953834926,0.009912804379288492,0.025791929401640823,0.0001718704384410974
81,8.144847197920902e-05,0.3001346099318979,0.007636432551256804,0.01924811140194011,8.144847190106478e-05,0.00015450877067518277,0.26108374964133857,0.009532235567389157,0.024972733468037522,0.00015450877605150613
82,7.903457896150478e-05,0.2970557914322793,0.007473881207741537,0.018923727086293786,7.903457898921995e-05,0.00014921965343038106,0.23522167928113139,0.009013645745483525,0.023019783107077547,0.0001492196571221231
83,7.687308644574583e-05,0.2973994737533049,0.007442841533611385,0.018656655118970022,7.687308680854346e-05,0.00015633972189641498,0.25738916322221894,0.009413515804840133,0.024266533278332555,0.00015633970207570285
84,7.376385766583316e-05,0.2941774556349064,0.007331625454517004,0.018375099278659546,7.376385767458532e-05,0.00014284160278486363,0.2931034500375757,0.009749992741409487,0.024606716851222104,0.00014284160647660567
85,7.422824293030304e-05,0.29373353266607777,0.007325974474831227,0.018418368205397394,7.422824346168383e-05,0.0001493760682395866,0.28078817770692516,0.008827872257771457,0.022843416514141218,0.00014937607092774827
86,7.698116011826789e-05,0.30052125147953657,0.007455701665560812,0.01867596309779086,7.698116017744912e-05,0.00016201231888153596,0.2894088613429093,0.010150210073979324,0.025938427213377552,0.00016201230981347054
87,7.849164649337532e-05,0.2981011576208821,0.0075198303213432,0.018885088837831982,7.849164671926425e-05,0.0001640311018517929,0.2918719219897181,0.009984420103209065,0.025621879570589864,0.00016403110464748106
88,7.626666136437493e-05,0.29633978762646723,0.0073714062625618885,0.018458024711805937,7.626666165611341e-05,0.00014243005555417856,0.2660098501614162,0.00959460552451499,0.02491037810927835,0.0001424300458051122
89,7.573382593179823e-05,0.30020621015141546,0.007393469498164697,0.018534264724056365,7.573382674804081e-05,0.0001608323765305855,0.2697044389294873,0.00889858338302873,0.022784329391098375,0.00016083237289260668
90,6.983332711810628e-05,0.29288864811748583,0.0071225793704295355,0.017847122477173554,6.983332734378682e-05,0.0001614100727802624,0.2623152720370316,0.009524635658622375,0.02428415226818893,0.0001614100898052864
91,7.222320732682143e-05,0.2960677067668649,0.007212115629550647,0.018081090619538127,7.222320745706183e-05,0.0001833256424531992,0.3128078812595659,0.010489779808948486,0.027602881009649173,0.0001833256424531992
92,7.170885378661272e-05,0.29535170178316295,0.0072402727013399,0.018095825380199822,7.170885372930696e-05,0.00013791454077515927,0.251231526286144,0.008743847846489381,0.0232299051609973,0.00013791454525542872
93,6.970808336027889e-05,0.2902394323757539,0.007149115768789917,0.01788461301966551,6.970808358429236e-05,0.0001626849076507058,0.2623152755604589,0.00985812715121678,0.025036775025314296,0.0001626849132420821
94,7.297134480387494e-05,0.29217264343209726,0.00726201712316132,0.018198527394658322,7.297134482825595e-05,0.00018799448302107418,0.31280788962770567,0.011718829538618108,0.02926515209777602,0.00018799447137237356
95,6.844922381334673e-05,0.293246649885532,0.007090897004450053,0.01771966203972945,6.844922353108976e-05,0.00015639518928115388,0.2844827572994044,0.00940908810463298,0.025173729542514373,0.00015639518928115388
96,6.705856367777483e-05,0.29499369974240963,0.007060538488330856,0.01752306286726556,6.705856404244793e-05,0.00016229343991250653,0.23399015093965483,0.010505083466655222,0.026689566304824622,0.00016229343901645263
97,6.498192613309855e-05,0.2902251126346876,0.006962275683552519,0.017299658870129245,6.49819263154351e-05,0.00016206775924128945,0.2697044334241322,0.010190994286074721,0.026491811287960982,0.000162067767198248
98,6.793473816499514e-05,0.2947502585283935,0.007079402021219791,0.01764282855729207,6.793473836817016e-05,0.00016075532637958604,0.26231527005510374,0.010100783757278192,0.025851087250145784,0.00016075532379895082
99,6.813667853179907e-05,0.29742811437235733,0.007104679529602834,0.01767211233465534,6.813667887229955e-05,0.0001587887119895806,0.25123152907552393,0.010832295936573609,0.02608176863986283,0.00015878870492867594
