epoch,huber_loss,l0_loss,l1_loss,linf_loss,loss,val_huber_loss,val_l0_loss,val_l1_loss,val_linf_loss,val_loss
0,0.0017741220753646285,0.6227374251427035,0.035171701105307034,0.08806427332555249,0.0017741221034848836,0.0020609353938520762,0.490147778700138,0.03609649824171231,0.10039863834533785,0.0020609354225258007
1,0.0010759599381187411,0.5263059887826368,0.026383970047596163,0.07064905116454694,0.0010759599455072266,0.0017840162480451864,0.4926108287766649,0.03476149875101785,0.09866388898177687,0.001784016176360875
2,0.0009113894004636753,0.4966061378002631,0.024085414892615002,0.06497190413474423,0.000911389395974237,0.001502304497344667,0.49507389162561577,0.03150246332725281,0.08774976784666183,0.001502304423939932
3,0.0007838304652380738,0.48235765552927723,0.022245915820003785,0.060397144577315834,0.000783830464919662,0.001346837209074258,0.463054185870833,0.029834843052578677,0.08545971232388407,0.0013468371230530842
4,0.0006931589721020378,0.4640136300537619,0.02065878391908374,0.05652557981745397,0.0006931589699765146,0.0010972057447397137,0.3854679817636612,0.02555679642765099,0.07415539275836475,0.0010972057447397137
5,0.0006160832809893066,0.4474309753297544,0.0194586321766167,0.053264574882555066,0.0006160832809209564,0.0009167273807009049,0.38423644982535266,0.022689609921404293,0.0679738416240133,0.0009167273233534558
6,0.0005631028625187422,0.4360178691942212,0.018524415790074463,0.05071814282055655,0.0005631028628788308,0.0008845599779682555,0.3953201930804793,0.02254366363614357,0.06926964555541283,0.0008845599923051178
7,0.0005143556312300685,0.42463340439727754,0.01764115003805135,0.048368607213370086,0.0005143556366897457,0.0007956683205032327,0.36206897094919177,0.021482124805377034,0.06252648402464214,0.0007956683428687379
8,0.0004714924183587122,0.40968323890826097,0.016722334710737505,0.046004305618742254,0.0004714924197490544,0.0007491571785138893,0.29802955988005464,0.02120900540406187,0.06313139479148563,0.0007491571856823204
9,0.00044024448520311093,0.4027093584817946,0.01613167946440601,0.04429415568025685,0.0004402444837444185,0.000814070722106569,0.36822659966393645,0.02156324545150907,0.06308660955338055,0.0008140707436118624
10,0.00040011108743052536,0.3908380112670612,0.015407779563962219,0.042275160718685756,0.0004001110903137351,0.000872102885488696,0.34236453201970446,0.023510084170939888,0.06665016028094174,0.0008721029491443646
11,0.00038497313514984345,0.38946328324193547,0.015143976895816548,0.041382149361421365,0.00038497313549076074,0.0007565556406020531,0.33374384493369774,0.0211276934284882,0.06157219404437272,0.0007565556701359895
12,0.00036773091648000704,0.38420781284922356,0.014800545684227211,0.04043825966433955,0.0003677309165075138,0.0006870654403872035,0.3866995091508762,0.019702353528494317,0.058536733165750365,0.0006870654861217942
13,0.0003378168551348863,0.37298086837663014,0.014120847565473075,0.03861496652197914,0.0003378168552949257,0.0007093244345785289,0.38423644982535266,0.021251703424406757,0.0596690619630473,0.0007093244256896743
14,0.000323090222497203,0.37008821180881757,0.013850762115005967,0.0378565180969692,0.0003230902219479011,0.0006638534146010086,0.3694581301341503,0.01943144944537743,0.05628222654679139,0.0006638534123071107
15,0.00030200275006705073,0.36272768946086054,0.013481296461117368,0.0366817863264587,0.0003020027499278498,0.0005998266685932985,0.35098522064721055,0.01845523269085461,0.05320554494564169,0.000599826705295666
16,0.00029892198129245317,0.36683755291431464,0.013396671054329347,0.03630150023065546,0.00029892198131329165,0.0006058772560209036,0.45197044048696905,0.019482665397043297,0.05324504597874111,0.000605877237239614
17,0.0002832973766463446,0.36380169572907634,0.013031508238660294,0.035347723197019114,0.0002832973775557351,0.0005293175725213578,0.31403940820635246,0.01770861544118726,0.05000817628916848,0.0005293176163921564
18,0.00027326234135177435,0.3573146983639715,0.012843803118311337,0.034767066983802476,0.0002732623423311821,0.0005811843483449589,0.3546798112504001,0.018319986916601364,0.05369910392267951,0.0005811843474847471
19,0.00025712314140094775,0.3533050749202968,0.012443319330394597,0.033681037339868075,0.0002571231405674092,0.000492947615093547,0.31527094109892256,0.01608133816109796,0.047542441269300253,0.0004929476186777625
20,0.0002478428962549175,0.35051265957429517,0.012214038963453636,0.033039716247997106,0.0002478429008914755,0.000587574543638999,0.36699507961719496,0.01746889935999081,0.05129009503595935,0.0005875745463630029
21,0.0002376235388672935,0.34711879952804836,0.012007086334741734,0.03238777196623094,0.00023762354077067866,0.0005801496247352638,0.336206898240033,0.01646401728572223,0.05037286895983325,0.0005801496551294118
22,0.00023129494581597935,0.3462309551506685,0.011929046742945417,0.0319921523692151,0.00023129494727008727,0.0005541467201022037,0.3522167525855191,0.016846382568402242,0.04849306965622996,0.000554146709349557
23,0.00022775555998173219,0.34856512808679563,0.01175770109352068,0.031669700332711465,0.00022775556028722404,0.0004877988961605548,0.3399014790803928,0.015756448584016907,0.04668613923300663,0.0004877989069132015
24,0.00021237737870757252,0.34088956390456626,0.011427076172174519,0.03066118050435777,0.000212377380590536,0.0005216530136812221,0.3386699592538655,0.01724473059434315,0.04970616450891119,0.0005216530351865156
25,0.0002087706802141701,0.3446700661992109,0.011378657361867007,0.030436899111947493,0.00020877068075972102,0.0006138726188904454,0.3633004908491238,0.018121401499498067,0.053156966609614234,0.0006138726287828804
26,0.00020765312764812932,0.3434528589849552,0.011317110031494087,0.030276621864298383,0.00020765312713050193,0.0004481007015272938,0.2647783218933444,0.01474615719554753,0.04447851480521592,0.0004481007051115094
27,0.00019296614928493517,0.334087525262553,0.010929401621144823,0.029227075064788468,0.00019296614950748997,0.0004628760792633858,0.30788177545434736,0.015794234799927677,0.045945995234943963,0.00046287608284760137
28,0.00018694420393246093,0.3378393870064286,0.010859073770228978,0.02893522738915772,0.00018694420535322732,0.00044707375566539325,0.3399014837048911,0.01589155848151798,0.045697431240616176,0.00044707377272625937
29,0.00018709736387632786,0.3337008830389079,0.01081280381717398,0.028823068870112226,0.00018709736251849363,0.0004418514094893532,0.29926108484491337,0.014728042980646852,0.04436633034879938,0.00044185140590513757
30,0.00018012355072211363,0.3326268765479173,0.010665285235352158,0.02830801815987794,0.00018012355069752425,0.0005082737760827074,0.3423645323867281,0.016466482914066667,0.04737973712347998,0.00050827377163828
31,0.00017747338502705452,0.33327128072401024,0.010536976753325312,0.02800080211354495,0.0001774733847386502,0.00044338846592957456,0.3472906378983277,0.015671879268742254,0.04552249234224775,0.00044338845345650435
32,0.0001629319172448676,0.32777236910319874,0.010156593165844883,0.026964996209154084,0.00016293191970714036,0.0005108337209094316,0.3165024605584262,0.01648078530824977,0.04850614527836809,0.0005108336913754953
33,0.00016684300569887682,0.32913277644323913,0.010334232492379435,0.027309074661925885,0.00016684300593143404,0.000471466861056219,0.3214285697402625,0.01614805808740443,0.04555359436887239,0.0004714668583322151
34,0.00016097462707748185,0.32800149017199576,0.010129140833737784,0.026751734957466838,0.00016097462760594525,0.000543353180922889,0.3275862131359542,0.01686758737038509,0.04746652412884341,0.0005433531845071046
35,0.0001590816688209689,0.32734276662698136,0.010077440616952016,0.026621301114531006,0.00015908166865801211,0.0003931428222077454,0.3177339914690685,0.01464952130256028,0.042815802297715484,0.0003931428087310948
36,0.00015167751399030953,0.324178028050697,0.009849034693678493,0.026017475848159048,0.00015167751402823552,0.0004538757070782021,0.306650247333085,0.015578005889549924,0.04635531231393955,0.0004538757070782021
37,0.00015095494923641998,0.3245217105586486,0.0098139640280561,0.025902986351086083,0.00015095494915681704,0.00042052628840044546,0.28448276008878437,0.015327762518757082,0.041879718435074896,0.0004205263242426012
38,0.00014386343887693175,0.32346202388340933,0.009666430908762604,0.025417173006150925,0.00014386344008889674,0.0004420708647006985,0.300492613590116,0.01490306594578797,0.043385314677149206,0.00044207085308784003
39,0.00014517413443975607,0.3234620240024786,0.009712439614072525,0.025478782322608137,0.00014517413516535133,0.00044833901759783,0.3066502449841335,0.015804142902233625,0.04467402765609948,0.0004483390068451833
40,0.0001397595827439386,0.3201397649251605,0.009578332225975088,0.025007912328985086,0.00013975958308777323,0.00037439194667896283,0.31650246386163927,0.013644414559337013,0.03883908518356056,0.00037439194667896283
41,0.00013434461877914278,0.3174046293056384,0.009422100871539552,0.02464604108133551,0.00013434461900503172,0.00039257454798267836,0.3091133050437044,0.014575110445615692,0.042573080953265646,0.0003925745882692614
42,0.00013284004403582626,0.31985336342571064,0.009355160619827538,0.024341328154495252,0.0001328400441016758,0.00039780744867000194,0.30788177692244206,0.014804590644837894,0.04147225790863554,0.00039780741999627736
43,0.00013319117052564886,0.31731870841554577,0.009319669614366864,0.02435268052558211,0.00013319117059712478,0.00044675818584249196,0.3004926117182952,0.015179893125784515,0.04598132363093898,0.00044675819028691926
44,0.000125544287733901,0.3135095665517071,0.009138482605598023,0.023729909881108683,0.00012554428738860765,0.00040908596533456164,0.3103448282468495,0.014403432217688103,0.04083770687870791,0.00040908593221640976
45,0.00012161161654426376,0.3141253300063224,0.009026068111998763,0.023390442290215207,0.00012161161827760709,0.0003747527933165688,0.341133003788335,0.014671973760235192,0.03992267496186524,0.00037475280492942726
46,0.00012533153913982066,0.31316588490754144,0.00914121970647099,0.02368315654042978,0.0001253315393657096,0.00041829892064288734,0.36453201691505355,0.015212569234369717,0.04301989575838808,0.00041829890630602507
47,0.00012401567654306853,0.3151277360362427,0.0091090327359118,0.023594585701743002,0.00012401567638448783,0.0003910932562020355,0.3288177344305762,0.015160099240799843,0.04166398131348229,0.0003910932570622472
48,0.00012947543867225118,0.3170179875036438,0.00925736563838869,0.024078155591740806,0.00012947543928698582,0.0003944422124673984,0.3103448309628247,0.014385368147396983,0.04183140738403856,0.0003944422187756178
49,0.00011459309971371223,0.31577213964899703,0.00876230772092609,0.022720856191640573,0.00011459309949344967,0.0003314586199293592,0.29310344570669633,0.013154754667483233,0.03754762389463157,0.00033145861139892614
50,0.00011371160080340671,0.3111610732416112,0.008746340428508356,0.0225781534017131,0.00011371160156213514,0.0004693885294266339,0.29926108337681867,0.0166934088303758,0.04758253612835419,0.00046938851322597946
51,0.00012807438704802307,0.3179344713477925,0.009119145187264102,0.02365392389970692,0.00012807438730704515,0.0003373892459556176,0.268472909707154,0.012830966147662971,0.036644281094591016,0.00033738924373340396
52,0.00011120225269210922,0.30957154457116265,0.008614242358303052,0.022279439793714224,0.00011120225190545727,0.00034331512798582725,0.2832512332154025,0.013522262143640976,0.03957785996310229,0.0003433151333621506
53,0.00010445896507394763,0.31126131394916223,0.008412851400573951,0.021723594839048455,0.00010445896612962415,0.0003377569841078753,0.2746305404038265,0.013168981982385877,0.03789400210227872,0.00033775698281755773
54,0.0001087936217877779,0.30975770548554493,0.00861986490349646,0.022214214815969954,0.00010879362284157896,0.00034687678278607357,0.2610837437689598,0.013437988658623742,0.03843359821682493,0.000346876761710886
55,0.00010551393848930041,0.3104593887825283,0.0085194142424795,0.021876325925293812,0.00010551393904860474,0.0003375829911585484,0.27216749175869187,0.01277118112451484,0.0370124337157886,0.00033758300370330293
56,0.00010871686688841176,0.31117539305565545,0.00858634728775101,0.022029035418277405,0.00010871686818373059,0.0003241441331447098,0.2992610863130081,0.013140638354303215,0.037959028696044915,0.00032414411386163
57,0.0001067342831173995,0.31038778875975254,0.008513917846950653,0.0218541286423758,0.0001067342829819495,0.0003317010680269771,0.2623152720370316,0.013002185848325932,0.03729228117489462,0.00033170104429947
58,9.791134323500062e-05,0.3057480818660402,0.008199007762041207,0.02104390062946988,9.791134344505232e-05,0.0003186435291166257,0.2955665034173157,0.013162325723601386,0.036862317729612876,0.00031864351563997513
59,0.00010689964124150746,0.30769561289091923,0.008513203843628293,0.021849345341092216,0.00010689964090100698,0.0002888978286611898,0.26477833011467466,0.011992540554570153,0.034361624411247634,0.00028889782823108396
60,0.00010034670752714714,0.2997050072909467,0.008281104422708605,0.02126534308618096,0.00010034670754652692,0.0003195963407840277,0.2931034470279816,0.013165169395506382,0.037512585814363265,0.00031959635239688615
61,9.658131274692104e-05,0.303600069798204,0.00817123173345753,0.02092062591336414,9.658131316889991e-05,0.00031601870833928214,0.29926108704705545,0.013235264232960241,0.03712720796465874,0.0003160187105614958
62,9.343438592883052e-05,0.30223966175996503,0.008072867338553195,0.020606192194056825,9.343438568022766e-05,0.00029954926695461323,0.2586206931785997,0.012709882426915203,0.03545015877837618,0.0002995492647323996
63,9.602854585142042e-05,0.3053184794231111,0.008210915078232225,0.020901394072591045,9.602854638467668e-05,0.00031765852696399936,0.2623152720370316,0.013730072865969148,0.03772562562391676,0.000317658521587676
64,9.662022977744058e-05,0.305203918573755,0.008168936743915145,0.02084145383497083,9.662022970596466e-05,0.00033488578621580225,0.369458130501174,0.013276011627993266,0.03734283479563708,0.00033488578621580225
65,9.463229793418867e-05,0.3006644530486632,0.008132678259622661,0.02066277334517149,9.46322987729368e-05,0.00033050278382917197,0.2881773383599784,0.013455403899874888,0.03736172196239673,0.0003305027802449564
66,8.650520638537393e-05,0.29993412865933744,0.007815058279070038,0.019914547366028556,8.650520736665713e-05,0.0003133088166354077,0.31773398684457016,0.013436149236897529,0.0364915881801415,0.00031330882918016224
67,9.265422693606053e-05,0.300750373755244,0.00802127692124746,0.020359482555904636,9.265422869691062e-05,0.0003063532619437735,0.304187190356513,0.01330185977494335,0.03743929682033403,0.0003063532856712806
68,9.07755258599365e-05,0.2980725177913573,0.007964671987692176,0.020237982071185438,9.077552721443656e-05,0.000369253853798197,0.2795566536229232,0.013392125371054475,0.03766971729292071,0.00036925384390576205
69,8.759144123622751e-05,0.30073605306076967,0.007882617168177142,0.01998187925987503,8.759144141002029e-05,0.00025656912210592406,0.2844827587674991,0.011972062097027385,0.03366181579202854,0.00025656912927435517
70,8.979070657544741e-05,0.3042874337847337,0.007941969793612325,0.020140895969087705,8.97907066067051e-05,0.00028169269034388964,0.3029556653916542,0.01218307021950266,0.03439305435517445,0.0002816926885517819
71,8.474308580694252e-05,0.29768587551820674,0.00773025855729509,0.01959057238116401,8.474308612139493e-05,0.0002934370895852266,0.29310344570669633,0.012282560226218453,0.034968022018524225,0.000293437086216064
72,8.11547720472012e-05,0.2980725178502518,0.007602475376248954,0.019235999859612992,8.115477217369066e-05,0.0003113846421176384,0.2697044337911559,0.012766202232740782,0.03569688824156822,0.00031138464971617544
73,8.781959321928968e-05,0.3005498918322835,0.00785229161190421,0.019860362808292318,8.781959291859067e-05,0.0003015228568374413,0.26231526910084224,0.012382971870671645,0.035932735709721234,0.000301522887374958
74,8.378214475519212e-05,0.29745675407555766,0.0076937077773218746,0.019496022911501418,8.378214518050514e-05,0.0003000409159553581,0.26600985236355823,0.012392156459207606,0.0349061549664131,0.00030004094111655145
75,8.581191758722573e-05,0.30073605313844215,0.007791928052325013,0.019672068262538686,8.581191815319838e-05,0.00029834552930112874,0.24753694522557002,0.012817987612462396,0.03573408893543511,0.0002983455324552384
76,7.867296621469915e-05,0.29472161794817725,0.007527354918772401,0.018975594877180573,7.86729661678126e-05,0.0002895600715562646,0.2697044348922269,0.013044184454592872,0.0363103571196495,0.00028956006617994126
77,8.092815650107675e-05,0.29828731903544076,0.007608403036785269,0.019192184164530328,8.09281565723443e-05,0.00027556506694085766,0.2807881768260683,0.012068494301050755,0.0342415744447943,0.00027556504364345644
78,7.812143318770193e-05,0.29546626236877405,0.00749716318845352,0.01888784017260857,7.812143347777332e-05,0.0002940499397674851,0.30788177398625266,0.012927852181047935,0.03549718631091964,0.00029404994535886135
79,7.512169644651973e-05,0.29043991356296,0.007393448449890416,0.01855953528606292,7.51216970039486e-05,0.0002969941996718101,0.28571429019197453,0.012612066424355424,0.03522023696250516,0.00029699419429548673
80,7.771294022839673e-05,0.2934900915263199,0.007454424619407737,0.018750718591886484,7.771294021985296e-05,0.00032852158788247536,0.26600985111567776,0.013317207259864643,0.03820571842892417,0.0003285216035096553
81,7.477173180143052e-05,0.29569538385879474,0.007358432279761869,0.018497706282197206,7.477173218548339e-05,0.00033076751556848475,0.22044335041433719,0.012560664547671532,0.03759037037127711,0.00033076752051470224
82,7.382150423280229e-05,0.29606770636911367,0.007345131276227019,0.0184329384498841,7.382150414757297e-05,0.0002955943797634722,0.2586206887743156,0.012733586696825297,0.03592254896762923,0.0002955943793333663
83,7.795046674604597e-05,0.29792931669167955,0.007491109501082877,0.018819191735927072,7.795046660351089e-05,0.0003062459622857303,0.2450738933873294,0.013136221701508672,0.037055481775787665,0.0003062459878053452
84,7.673181865971042e-05,0.2941488148891027,0.007416244847211346,0.01863506198220014,7.673181866658711e-05,0.00025723520047008403,0.2931034470279816,0.011929205586684161,0.03326983002973308,0.00025723520183208596
85,7.431325482230283e-05,0.2932323295832609,0.007300553704944946,0.01835801893552222,7.4313255194061e-05,0.0002723880239912616,0.22167488000369423,0.012094618670018436,0.03388367451984307,0.0002723880257833694
86,7.462552764303537e-05,0.2927740867756352,0.007326188693373588,0.018374192832554842,7.462552858410034e-05,0.0002577058809495123,0.2733990158059914,0.01198774879440445,0.0333084213763035,0.00025770588410362196
87,7.415721431585542e-05,0.2945640976059026,0.007327903308725884,0.01834212289429601,7.415721551927663e-05,0.00025922215725478757,0.2179802943920267,0.011958457942446465,0.03340532343485966,0.00025922217832997517
88,7.525884920549122e-05,0.29483617924905775,0.007399966512711863,0.018497087963813972,7.525884972832824e-05,0.00030624292451966316,0.2881773401950968,0.012879047405176562,0.03561583342113225,0.00030624292631177097
89,7.272648199125971e-05,0.29174304144197294,0.007273307624832606,0.01822110086483997,7.27264820362708e-05,0.0003050045769637579,0.29926108117467665,0.013279089259139716,0.03489234782938887,0.00030500456800321894
90,6.759331349198549e-05,0.29124183808644893,0.0070277129672350344,0.017517247267032438,6.759331425759061e-05,0.0003190597834259391,0.2684729093401303,0.01281316715104533,0.036073167601903086,0.00031905977131129045
91,6.962372977260971e-05,0.29681235055925376,0.007180086358235154,0.017890333302356606,6.962373027460828e-05,0.0002789441787172109,0.2980295547417232,0.012700197401598756,0.03398279474103098,0.00027894414961338043
92,6.923995465333412e-05,0.29046855403605654,0.007113659148833095,0.017744836806263,6.923995473147836e-05,0.0003032100466057071,0.24753694632664103,0.012960477291693535,0.03695483819531103,0.0003032100623045713
93,7.22839015429154e-05,0.2923874449949792,0.0072798376321674815,0.01810168473376265,7.22839022082875e-05,0.00027459438831724334,0.25246305257228796,0.01243593696082754,0.03457058624827803,0.00027459437491227713
94,6.803690780613877e-05,0.28962366896808345,0.00705957678566497,0.017614096210754597,6.803690743625606e-05,0.00024713667194482873,0.24137931254696962,0.011754184484188192,0.03205813158285148,0.000247136661407235
95,7.232341848193332e-05,0.2946500183389432,0.007302094683450567,0.018123256317974127,7.232341853590494e-05,0.0002603321035135666,0.28325123541754454,0.012083852929728372,0.033431422754461544,0.0002603321286030756
96,6.630880984494523e-05,0.28615820920847035,0.0069886441282784595,0.017375679316814496,6.630880985703154e-05,0.000301140137954404,0.2857142828515011,0.012694255747084547,0.03549874548254342,0.00030114014512283517
97,6.563376896636525e-05,0.2879195795016254,0.006976104698922011,0.017333880036037388,6.563376968174966e-05,0.00029282914612240393,0.25862068642536407,0.012953341406370913,0.03606741636844692,0.00029282913759197084
98,6.603325217816589e-05,0.29234448485592823,0.006990848582789348,0.01739554488733761,6.603325239863683e-05,0.0002653175492408534,0.2746305444410869,0.012222114243897898,0.033488256324614794,0.00026531754701863974
99,7.062571414054794e-05,0.2905258341423629,0.007168392675562495,0.017806281443038308,7.062571500346867e-05,0.0002783321423669405,0.2967980302906976,0.012873996200562992,0.033970365346652535,0.00027833212129175296
