epoch,huber_loss,l0_loss,l1_loss,linf_loss,loss,val_huber_loss,val_l0_loss,val_l1_loss,val_linf_loss,val_loss
0,0.0018109625973633371,0.6291957841216255,0.035483222925835584,0.08894824406998662,0.0018109625962197222,0.0013413368231098494,0.6736453221055675,0.0340297730098217,0.08279292329485194,0.0013413367674828237
1,0.0010971187214226096,0.5404685516171145,0.026681007712188353,0.07151792359760618,0.0010971187222328092,0.0009792559789356045,0.46059113388578293,0.025034833965556964,0.06753166770479949,0.0009792559448138724
2,0.000924272502073658,0.5103104572065891,0.024315694799935447,0.06560796801065276,0.0009242725029071965,0.0009012819469098938,0.5012315175509805,0.026066431390314268,0.06683518902715203,0.0009012819469098938
3,0.000787083464403985,0.4822430950384094,0.022280589418983164,0.060523978044540426,0.0007870834606230543,0.0007893089397140582,0.4408866943690577,0.023365645316140406,0.06167226326950078,0.0007893089683877827
4,0.0006925364903056631,0.4638131484312486,0.020747787800735624,0.0566000814169478,0.0006925364863763627,0.0006816698368145565,0.46182265965809377,0.021080747870682495,0.055178659559764295,0.0006816698945921116
5,0.0006279690043169954,0.44684385185403397,0.019649786067839983,0.05372701747764808,0.0006279690011078721,0.0005619175565254696,0.4396551675690806,0.01966287591609315,0.05172567825599257,0.0005619175706472789
6,0.0005520014520514894,0.42864302757037903,0.01825930969432203,0.05017338451717178,0.0005520014530517357,0.0005288380212517537,0.3965517223762174,0.019361559466775414,0.05019403228839043,0.0005288380501405313
7,0.0005033406779730747,0.41625615640892605,0.01738598130871477,0.04783950702550041,0.0005033406756600054,0.0005795194152650869,0.4088669902291791,0.019389558014611306,0.05066615522935473,0.0005795194291718433
8,0.00046875281581330104,0.40437048779127727,0.0167412225776695,0.04596321270623483,0.00046875282222237863,0.0005291542315022938,0.3608374390108832,0.01912281865923863,0.048967679788179584,0.0005291542641903397
9,0.0004251560647861634,0.39494787476660664,0.015913217077653752,0.04374193835003616,0.00042515606651575584,0.0005273370472530793,0.4211822664502806,0.0193718791448424,0.0490203297013426,0.0005273370472530793
10,0.00040868485840371414,0.39268530133302054,0.01563625528601643,0.04276182037305656,0.00040868486007079115,0.0004923290123169774,0.3115763596713249,0.017231484251142723,0.047789686088785165,0.0004923290015643307
11,0.00039331355044347623,0.38850383718291814,0.015203930710378668,0.04166629661319728,0.0003933135473243751,0.0003911591553028324,0.3399014801814638,0.015807520749570408,0.041913926436249256,0.00039115916605547913
12,0.0003685633808277368,0.3798831478717237,0.01478926464547185,0.04042331684243776,0.0003685633805493349,0.00041313222901932344,0.37315270568936915,0.018272678078762417,0.04423559646080867,0.00041313220349970854
13,0.00034212747202995414,0.37485679888666557,0.014206567603726867,0.038890046662669035,0.00034212747359950717,0.0003855925253644044,0.36330048952783855,0.015191782293428342,0.04165352548798317,0.00038559253432494337
14,0.0003210794888224142,0.3686705239100928,0.013836087070483156,0.037840272678278476,0.0003210794907603912,0.00037583678490837825,0.3103448250904459,0.014980038008629688,0.04025686643283649,0.0003758368012524013
15,0.000309728145893631,0.3597061522462917,0.01357479725318555,0.03703060884509645,0.00030972814685220027,0.000410712790030876,0.3423645345888702,0.016991978648848133,0.04458590613430357,0.00041071280436773825
16,0.00030142629295529927,0.36351529427145013,0.01338612814120729,0.03645766343311566,0.00030142629383634944,0.0003816744255583293,0.34113300742186936,0.01473971370956287,0.039212632043461496,0.0003816743877090128
17,0.0002840395281735224,0.36350097402764675,0.013082154190182936,0.03553640262454984,0.0002840395281385138,0.0002897028819017865,0.2955665107577892,0.013119803204802162,0.03474912516258914,0.00028970289107737836
18,0.00026926343197141627,0.3526463518276604,0.01272398860421365,0.034547445693444125,0.0002692634304702134,0.0004919338439478828,0.38300492662220753,0.015849597802560025,0.04438240137042964,0.0004919338331952361
19,0.0002679048590750301,0.3540067593401166,0.012760270401764598,0.03446910582149506,0.00026790485985355507,0.0003615309356848292,0.32512315300297856,0.014104865147305534,0.038782569244871,0.0003615309195558591
20,0.00025582609600722394,0.3478491237150843,0.012450465256001927,0.03373012912633261,0.0002558260974584145,0.00029802208839745944,0.30295566355653586,0.012967598688756597,0.035349365736683604,0.00029802209893505324
21,0.0002379100221898371,0.3445984652089436,0.012001558976818287,0.03248252976194548,0.00023791002413531598,0.0002948328680754525,0.32389162620300144,0.013987766780656547,0.0369747190694944,0.00029483287545893654
22,0.00023376288577024325,0.3449851083049101,0.011952351468482614,0.03224404472787296,0.00023376288568313847,0.0004254588170557425,0.3423645342218465,0.016445047933186217,0.04447255503808336,0.0004254588425753574
23,0.0002330703180562537,0.3448275867736494,0.011928994924963965,0.032143180848157225,0.00023307031998006056,0.0003328597634885084,0.3362068927346779,0.014888201652122249,0.03940151960318312,0.00033285975990429283
24,0.00022511694551079347,0.34194925027210316,0.011717413908619847,0.03152810404330461,0.00022511694556664056,0.0002907540472402132,0.31650246386163927,0.012600628613251183,0.03473631994514336,0.0002907540562007521
25,0.0002139922027720632,0.337094741931164,0.011460639120598425,0.030712974641114894,0.00021399220365019602,0.0003345903718707569,0.34236454068146316,0.015133755588949901,0.03979495920130772,0.0003345903606880043
26,0.00020873071461930065,0.3341161651279266,0.011384765467059044,0.0305766501348828,0.00020873071372658092,0.00026436666860543375,0.38669950401254477,0.012393579910064272,0.03295963477765398,0.0002643666634441633
27,0.00020208192546134423,0.33730954349703335,0.011173569229960113,0.02993755241898016,0.0002020819262519555,0.00024243076277433395,0.36083744165345366,0.012707655969548402,0.032652019454267225,0.00024243076972771215
28,0.00019854944045070684,0.335104251258875,0.011157036691049244,0.029726237565004168,0.0001985494419435743,0.0002955304266766787,0.2894088686833828,0.013517607774200111,0.03464454317951731,0.00029553042087024947
29,0.00018831476372854064,0.32989174096936524,0.0108636950384021,0.028984495803205088,0.00018831476408612865,0.00023261456527538468,0.3288177358986709,0.011374593111388201,0.030857804658010676,0.00023261454018587568
30,0.0001869485852271489,0.3330421595160857,0.01083192613098746,0.0289605971615045,0.0001869485863695134,0.0002528163168597691,0.3128078782866741,0.012063960898025283,0.033079124454941065,0.00025281630094585195
31,0.0001770078379420239,0.32880341431139015,0.010630076301135511,0.028276546342390785,0.00017700783801829267,0.00024240154080813192,0.3263546817114788,0.012414199047781564,0.03256895312387955,0.0002424015285859568
32,0.00017762668059263754,0.32838813259451644,0.01055764101404278,0.02808068142959528,0.00017762668210717699,0.00027266327834233933,0.32758620851145587,0.013025560402517835,0.03337812622816398,0.0002726632749731767
33,0.00017465814043307598,0.33043590478828677,0.010536964546854072,0.027957309585421856,0.0001746581399746298,0.00022484240857047015,0.33251231497731704,0.011666072330671578,0.030937757031083694,0.00022484241215468573
34,0.0001712774312118515,0.32581051743164385,0.010476238998866225,0.027681333092045048,0.00017127743129812274,0.0002292498138737796,0.29679803080453077,0.011725987491239175,0.030897618000730504,0.00022924980469818772
35,0.0001629612488297185,0.3246649111163262,0.010245953055286645,0.02700549607051103,0.0001629612486630108,0.0002504777305345441,0.2931034475418147,0.012607291666561453,0.032808124808034876,0.0002504777323266519
36,0.00016100789314287252,0.3225741789072687,0.010166948860777276,0.026828341298927718,0.00016100789369175763,0.00023099003469209036,0.2955665043715773,0.011736352340744927,0.031732567278622406,0.00023099003132292771
37,0.00015526260083159127,0.32380570561933086,0.009956285855037753,0.026264863426303423,0.0001552626009532879,0.00023286098278422376,0.3263546802433841,0.011595318167300648,0.030901290090947317,0.0002328609935368705
38,0.000147366913413425,0.31779127117762357,0.009824841726490875,0.02574140311541331,0.000147366913548875,0.00019907265207087942,0.2795566536229232,0.010579616625063818,0.028183665603692894,0.0001990726638271065
39,0.00014763385992039386,0.31746191012209285,0.009792314169404355,0.025779178364464632,0.0001476338614382675,0.00018807111025255705,0.2906403918865279,0.010387039995692633,0.027812404044229407,0.00018807111182961192
40,0.0001443985660221459,0.3196099217785212,0.009724166626842586,0.025508661981151814,0.00014439856646642193,0.00023393374463437776,0.29187192602697853,0.01250861502101122,0.033506315825461166,0.00023393376950883385
41,0.0001480089512159314,0.31925191943561354,0.009874123397881483,0.025771397168514742,0.0001480089507749895,0.00023992124176756228,0.3029556626022743,0.012113802190044244,0.03242813457225637,0.0002399212419826152
42,0.00014005979422352917,0.3133950053353274,0.009591833175552514,0.025140659261491886,0.00014005979408807917,0.0002076925478374994,0.24630541857240235,0.010710119260612673,0.02847784907176283,0.0002076925632854685
43,0.00013517509115947447,0.3140966907973237,0.009477011696603553,0.024735942216109287,0.0001351750911698937,0.00021314488563587973,0.29310344607372,0.010768056113107745,0.029300223081716762,0.00021314489997274202
44,0.0001347302749576835,0.3131086049523123,0.009451502103067022,0.02468249968000534,0.00013473027412747916,0.0002184862482706727,0.30172413763741557,0.011167796227732315,0.028826689320098003,0.00021848625543910386
45,0.0001314338505995036,0.3119629971919457,0.009330404372310749,0.024291641092225986,0.0001314338509218746,0.0001803250914397122,0.29556649923324585,0.010126972034243233,0.02700045067137979,0.00018032509513145423
46,0.0001424567937292138,0.31900847842858165,0.009706866140797972,0.025235879790519694,0.00014245679363877488,0.00017746736804766607,0.2857142872557851,0.010286524474363902,0.02781556306287573,0.0001774673501265882
47,0.00012356527411145802,0.30594856280998645,0.0091095608117622,0.023627754857022985,0.00012356527470181169,0.00019751002712707435,0.2980295622290062,0.010621873473776092,0.02837869728653889,0.00019751002891918212
48,0.00012137936423942399,0.3051752785248696,0.009002248609698015,0.02336114318171824,0.00012137936350153403,0.00020579764973016666,0.3559113334992836,0.011909392267795913,0.030062391436452347,0.00020579764614595108
49,0.00011927030144277818,0.3026835839072581,0.008976471808789473,0.023278573553005007,0.00011927030079157622,0.00019722401916153794,0.2709359597102762,0.010496973289461265,0.02775067831458423,0.0001972240353980345
50,0.00012037233990716895,0.30444495386838477,0.009010824147705319,0.023405673574480843,0.00012037233990862763,0.00020450263680130924,0.30911330467668074,0.011183273790431728,0.02922633876611153,0.00020450264396974037
51,0.00012265128170446817,0.30951426428390516,0.009136196519713901,0.023583066072739616,0.00012265128203496617,0.00018581623313868227,0.3091133025479434,0.010454578178342928,0.02720491844114705,0.00018581623873005856
52,0.00011177704418554216,0.3051609587727072,0.008740515204119618,0.02253442892401656,0.00011177704521704606,0.00018578286710243416,0.29926108579917493,0.011204492548489806,0.027915373059182333,0.00018578285971895006
53,0.00012149696336534784,0.3102302679843046,0.009072756258470377,0.023430109368772704,0.0001214969638986041,0.00021174458709139415,0.31034482582449324,0.012389853023212825,0.029923655973573035,0.0002117445819301237
54,0.00011118777581180873,0.3021537408135385,0.008694697112368453,0.022410627279329482,0.0001111877757024068,0.0002016497843582275,0.3115763526978751,0.01074197399315282,0.028192238414228844,0.00020164977023641814
55,0.00011057273737758756,0.30468839625303573,0.008681377433516749,0.022383996814588376,0.00011057273760681066,0.00020204013629427658,0.3325123180603159,0.01052692850473626,0.028133458499177335,0.0002020401361867501
56,0.00011040568842791474,0.30637816576802906,0.008721092400981907,0.02244955245836475,0.00011040568795196426,0.00018829134331036616,0.2795566554580416,0.010855739261826565,0.028631378093670154,0.00018829133614193502
57,0.0001096555632611828,0.3054903207748176,0.008685205904012599,0.022302326913579473,0.00010965556313094241,0.00017414835120093655,0.25369457959247926,0.009958230050766997,0.026616326345158328,0.00017414834446261127
58,0.00011009928528614658,0.3058340020195249,0.008666827402432156,0.022214418784576,0.00011009928515257204,0.00021630143203366586,0.291871924779098,0.010609406317249307,0.028834882444642447,0.00021630142307312692
59,0.00010762336928569452,0.30069309266821626,0.00859151271554682,0.022019772323910888,0.00010762336974414071,0.0001806097270807898,0.2586206895083629,0.010210357592647592,0.02700307968031303,0.00018060972338904778
60,0.00010119720511785331,0.30022052956728174,0.008389519217291475,0.021472944728031487,0.00010119720515765478,0.0001740122631234071,0.27832512498782774,0.010060772102491315,0.026606614650984114,0.00017401228147459084
61,0.00010084688044810382,0.3009794949580473,0.008388650499433424,0.021416457503076365,0.00010084688093113939,0.00019167148716159375,0.3091133050437044,0.01069399716305028,0.029104385442407846,0.00019167146924051588
62,9.732155228451204e-05,0.3001059695919541,0.008254382287189775,0.021125557143503632,9.732155259896444e-05,0.00017370863741216722,0.2586206891413393,0.010113271476306352,0.02700523131072815,0.00017370863741216722
63,9.910548227957642e-05,0.29974796729172365,0.00835213026401863,0.021265965703809103,9.910548269634567e-05,0.00017019637045020402,0.2894088659674076,0.010441901382480936,0.026731711615042147,0.00017019636865809625
64,0.00010030395157252532,0.3018530195448554,0.008368162805910588,0.02134597698743605,0.00010030395272905998,0.00015876078510799175,0.2746305385687081,0.009306013370804452,0.02507604117243748,0.00015876077256323724
65,9.549015291484493e-05,0.3005642123688522,0.00823155616292501,0.020943311335422293,9.549015311801994e-05,0.0001648012368757452,0.280788177193092,0.009956570234369909,0.026370392433308028,0.00016480124225206857
66,9.228853768354785e-05,0.2986310008106253,0.008102834769608387,0.02053139976068208,9.228853732741852e-05,0.00017207957691802033,0.25369457959247926,0.00961774968418288,0.02546704026498818,0.00017207958129076333
67,9.364955480927953e-05,0.29857372026261025,0.008172649853722094,0.020750718250053864,9.364955519249886e-05,0.00019008821505724034,0.2586206931785997,0.010268175834560482,0.026457149865738865,0.00019008820778128273
68,9.92089074514305e-05,0.30248310332777495,0.008330878226835694,0.02116291217162594,9.920890779026392e-05,0.00014977271036644067,0.2795566536229232,0.009359568100551078,0.025095049906613792,0.000149772707678279
69,8.483181149682864e-05,0.29477889824525055,0.007792365176721413,0.01973613872783772,8.483181211823159e-05,0.00015985609561674013,0.2807881731558316,0.009442016870021967,0.024541627588163455,0.0001598561053658065
70,9.320827805454245e-05,0.2998052476114158,0.008165590996026177,0.02064328184336388,9.320827778510113e-05,0.00016849659714621853,0.2955665052524341,0.010410040383011543,0.02641941391372035,0.0001684966034185958
71,9.208272821833935e-05,0.2983016384316755,0.00804668386495715,0.0203355232574603,9.208272821312973e-05,0.00018359255131673565,0.33004926255183853,0.010698541943809668,0.028375310043396034,0.00018359257113744775
72,9.519964074499185e-05,0.29906060330690093,0.008203087668827084,0.020808498907142068,9.519964100880679e-05,0.00015461011437052318,0.2709359639677508,0.009926278605194662,0.025229007336012837,0.00015461012153895434
73,8.462176272375666e-05,0.2946929780085454,0.007780887976988488,0.019686036591879747,8.462176353979086e-05,0.00017617320991838076,0.2266009840471991,0.009801879291207039,0.02524781393190029,0.0001761731936818842
74,9.241608310417022e-05,0.29994844842046203,0.008087298526731755,0.020400672633448837,9.241608399647319e-05,0.0001733304963609447,0.23645319969489656,0.009908124331953785,0.026938394941573074,0.0001733304918806752
75,8.283685243114602e-05,0.29543762240182875,0.007761483018349795,0.01952791900558254,8.283685230278109e-05,0.00016427974745240108,0.26970443291029905,0.009713683185612627,0.026371486319843773,0.00016427974307965808
76,8.450546219456047e-05,0.29764291470229576,0.00781401206674911,0.01961223141346048,8.450546130371619e-05,0.00017576838248257933,0.253694582161645,0.01017698830479912,0.026583283735907137,0.0001757683907621173
77,8.012005734824113e-05,0.2940199341915607,0.007628530225864728,0.0191781618574762,8.012005753578729e-05,0.00015139745883419972,0.2302955632726547,0.009096071807658437,0.023705700100422493,0.00015139746521410343
78,7.958132521233977e-05,0.29054015402084965,0.007606035086803966,0.01915260040952258,7.95813251862917e-05,0.0001465588770927219,0.2660098547859145,0.009094403896095424,0.0234093299511765,0.00014655888684178827
79,8.53988958067112e-05,0.2936905721365306,0.007828060756617258,0.01964867404457329,8.53988959111119e-05,0.00016217624785532265,0.2573891580838875,0.009642486634843161,0.024651045612807343,0.0001621762577119155
80,7.63546393450071e-05,0.28820598093321853,0.0074777212607150334,0.018801226565766486,7.635463913995664e-05,0.00019686593667098224,0.27955664907182964,0.01069042367833148,0.028581784505929266,0.0001968659385706165
81,8.465044103926628e-05,0.2943636165979406,0.007841324272364641,0.01963306949098892,8.465044092986435e-05,0.000172202868557425,0.26970443291029905,0.010021023378877216,0.026155357382127216,0.000172202872930168
82,9.664992733237353e-05,0.29835891940859616,0.00825195794295392,0.020732536929835482,9.664992811048173e-05,0.0001607399841448237,0.26231527005510374,0.009684406464066118,0.0257493166133688,0.00016073999332041558
83,7.695876468259705e-05,0.2890651857563414,0.007483750955726722,0.0188214121251869,7.695876445358234e-05,0.00015441207015190705,0.26970443437839375,0.009051054174750309,0.023692008328114824,0.00015441208169308119
84,7.544617910786346e-05,0.2870460538922723,0.007440257377051707,0.0186137489360801,7.544617947920486e-05,0.00013278442990663348,0.23275861878113208,0.00901896309960872,0.023908640005685426,0.000132784425426364
85,7.598057179291822e-05,0.2910986373145319,0.00747462794533464,0.018734452249272088,7.598057191961608e-05,0.0001719361674350232,0.26108374560407815,0.01016538524587313,0.02667387656573885,0.00017193615657485004
86,7.377767008091156e-05,0.28317963190505646,0.007383532737337905,0.01845563666933228,7.377766967977115e-05,0.00016427023745321995,0.2524630544074063,0.01013785785091628,0.025522695725847935,0.00016427024304459625
87,7.909691032349225e-05,0.2891511063122718,0.007592518983416491,0.01904264702787607,7.909691021929993e-05,0.00013487872290837905,0.29679803396093435,0.008996283938291626,0.023350020604474202,0.00013487871315931267
88,7.005865388742019e-05,0.28588612730754503,0.007252815227645317,0.018036096019979565,7.005865357859417e-05,0.00015804015731254336,0.27216748625333675,0.009269751516615816,0.024170795382170256,0.00015804016000070504
89,7.737378930360267e-05,0.2928456876045828,0.007533593964114826,0.01884636009093436,7.737379006941616e-05,0.00017488411542548903,0.3115763565149213,0.00982066153277978,0.025358151589414756,0.00017488412886629745
90,7.700734852464646e-05,0.29191488246165104,0.007497450598585027,0.018721429919131567,7.700734884764262e-05,0.00017729611085840212,0.29926108154170034,0.010328125360013523,0.026643430979307648,0.00017729611802683325
91,7.729588693825075e-05,0.28854966233967233,0.007509402466675649,0.01880848233675848,7.729588743128877e-05,0.00015860154493333397,0.3029556672267726,0.009445767427606536,0.024890212020997345,0.00015860154672544174
92,7.156183006106777e-05,0.2896236688626708,0.0072694728184305325,0.018125704776598976,7.156182962346006e-05,0.0001330521687311281,0.30049260892891533,0.008844867316556388,0.023064737249477742,0.00013305216335480474
93,6.836672088912754e-05,0.2888360645104341,0.00712843752487054,0.017720928914392184,6.836672104541602e-05,0.00020588807457871047,0.2869458146430002,0.009998187271355114,0.02669776528339668,0.00020588807547476437
94,7.545185587142583e-05,0.2895663886407094,0.0074329164989509425,0.01856161901379073,7.5451856058972e-05,0.00014986514456207713,0.24261083751182838,0.009111464943443172,0.023840376400742037,0.00014986514993840048
95,7.262328624212709e-05,0.2879052590077338,0.00731844468121634,0.018285682405111376,7.262328644863625e-05,0.00015535093868309586,0.24014778750870616,0.009121510755325773,0.024143225839132157,0.00015535094484794664
96,6.867583661462887e-05,0.28658781150971124,0.007152986295344363,0.01778359827913599,6.867583670131688e-05,0.00014364378263151935,0.2857142883568562,0.009103706019375418,0.024093039820126713,0.00014364379248811215
97,7.034372550247772e-05,0.28681693263057445,0.007210088345022766,0.01790141580936418,7.034372587048496e-05,0.00018959810665987543,0.2931034470279816,0.01056451175196711,0.02830973788728855,0.00018959811293225268
98,6.813516003052613e-05,0.2842822783783561,0.007143699781373203,0.017692113267777403,6.813516009304151e-05,0.00017026735021241854,0.2586206869391972,0.009600049662380823,0.025915119723586615,0.0001702673555887419
99,6.63988717729076e-05,0.2862298095969895,0.007072392992295691,0.017555873776177986,6.639887134217658e-05,0.0001615061851696047,0.2524630518382406,0.009812376686725122,0.025964374043818177,0.00016150618248144302
