epoch,huber_loss,l0_loss,l1_loss,linf_loss,loss,val_huber_loss,val_l0_loss,val_l1_loss,val_linf_loss,val_loss
0,0.0017740957825394226,0.6206466929327924,0.03524852910186075,0.08841622544258154,0.0017740957653118489,0.0009791679133252778,0.7081280918837768,0.026878544886417575,0.06432462991972275,0.0009791679500276453
1,0.0010815709038569136,0.5287547216104442,0.026472733069694776,0.07103357264196555,0.0010815709011329096,0.0008050213793574791,0.6071428512704784,0.022759605043113525,0.05967647475855691,0.0008050213802176908
2,0.0009081538989514074,0.4996276753391784,0.024035862612001694,0.0651327811961684,0.0009081539024672728,0.0006725809118524653,0.6219211799170583,0.020408039151007317,0.053035180098170716,0.0006725809664759106
3,0.0007930193249670367,0.47922155774190045,0.022311682987525873,0.060740472753570106,0.0007930193289680216,0.0005967873095573739,0.605911325938596,0.018105309585045123,0.05171069425755534,0.0005967872952205115
4,0.0006964873405247866,0.46397067015626364,0.0208711154705157,0.05686503082517223,0.000696487341941802,0.000660905289908715,0.6330049193551388,0.02220348568789184,0.05713718806581544,0.0006609052890485034
5,0.0006343005874222159,0.44471015954689547,0.01970108698505978,0.053968377277572574,0.0006343005903396006,0.000677621428191827,0.5504926002671566,0.018969994075045796,0.0532305005368928,0.0006776214104141177
6,0.0005649639642897435,0.43249512883922137,0.018490828262747224,0.050812995378369724,0.0005649639649749122,0.000641623602232671,0.6206896602373405,0.01801104378413978,0.05066101627396832,0.000641623622734384
7,0.0005250329034007296,0.4231870760356988,0.017751426912604337,0.04888293364975396,0.0005250329067765606,0.0006005467333443224,0.5529556585650138,0.018409772487036114,0.05174857106408462,0.0006005466983623784
8,0.00047745648851377416,0.4092249959649219,0.016832904113668497,0.04639634968552246,0.0004774564926814667,0.0005282514711114775,0.5184728948059928,0.016453222509271698,0.04628384537224112,0.0005282515006454139
9,0.00044040546361229476,0.3977975707054343,0.016182555383040788,0.04446477282044199,0.00044040546523102655,0.000418104920315492,0.5135467911295115,0.013998609540864753,0.041154397183597966,0.00041810493106813875
10,0.00041525888926896944,0.3910098512454164,0.015680215562127127,0.04314164143033912,0.0004152588907901772,0.0006636002912757267,0.6268472871169668,0.01903476539467062,0.05083465655081965,0.0006636002813832916
11,0.0003809377560309402,0.37951082588420015,0.015024365092468624,0.04120183394647181,0.00038093775603760847,0.00040032339502834793,0.5726601004306906,0.013979321217228627,0.039001334990773885,0.00040032340757310245
12,0.0003617301883950773,0.3780072169425985,0.014643864234682585,0.040061048580264665,0.0003617301862128735,0.000471040256607594,0.5775861991156498,0.015707507660713396,0.04295681367440177,0.0004710402700125602
13,0.00034295314310804804,0.37319566902750095,0.014194832390191554,0.03896217008883846,0.00034295314378904903,0.0003898511701659185,0.5504926119018071,0.013367380712897026,0.03900950327699114,0.00038985117375013405
14,0.0003252482089843422,0.3671382744894198,0.013867024210441602,0.03778358437588229,0.0003252482120817713,0.0003334513548279888,0.4766009819918665,0.01180033289409917,0.03565500102239876,0.00033345137791033705
15,0.00029889400951314625,0.36397353682471983,0.013399924663245346,0.03635655028468344,0.00029889401321322366,0.0003184568724526767,0.5788177263927577,0.011332829574609331,0.03310843711269313,0.0003184568417717914
16,0.00029850285903720646,0.3644890599639873,0.01337543090924694,0.03627145963169695,0.00029850286319739716,0.00032633840332376617,0.5098522183636727,0.01314384300775569,0.03667355086562669,0.00032633841364630706
17,0.00027796369302295916,0.3565700541627354,0.012880974746623858,0.034997065433790005,0.0002779636914884148,0.00024880644626051803,0.524630540550636,0.010764553229980574,0.03087690004647659,0.0002488064310276018
18,0.00026571409305350784,0.3554101276351955,0.012688691875480072,0.03430055526433764,0.0002657140934911156,0.00032183591114687434,0.5825123127017703,0.01426662101864521,0.03631316661247479,0.0003218359595337846
19,0.00025830967381484883,0.35177282677993893,0.012554024295120243,0.033800628064640924,0.0002583096771565047,0.00024209897835444192,0.48891625219377977,0.011301190239088288,0.031247437715970824,0.000242098985737926
20,0.0002461473435385626,0.3457297519112264,0.012150000855132471,0.032830607555725554,0.0002461473454452819,0.0002881693989244918,0.5529556535734919,0.011285396292805672,0.03270897335313224,0.0002881693989244918
21,0.00023506988978440782,0.3444982247988524,0.011919481985632453,0.03218579088865956,0.00023506988973231167,0.0002553798076943288,0.4963054163702603,0.011514766797827088,0.03225468804720294,0.0002553798184469755
22,0.00022560359709394425,0.34601615332617547,0.011774761189274197,0.03156288402612328,0.00022560359750029425,0.00022823985798222477,0.5073891606897556,0.010542566984378058,0.031073886313902333,0.00022823985708617087
23,0.00021606498585422914,0.34066044283832986,0.011577433384553764,0.030969409969846453,0.0002160649863197604,0.00029204055443125105,0.4408866986632347,0.010545158533957499,0.030085011151403628,0.00029204057034516815
24,0.0002115002861593752,0.3382833091835957,0.011401922096067165,0.030554448711799038,0.00021150028596140982,0.00022963373070918804,0.5529556637033454,0.010699002283253694,0.02940511997110151,0.0002296337161572728
25,0.0002022273541105176,0.33635009795611687,0.011249329640265131,0.029968192969134225,0.0002022273528497906,0.0003132871951775401,0.5246305382016845,0.01230064473514046,0.03432413742973887,0.0003132871789410435
26,0.0001933076645946297,0.33891339312015306,0.01109072971310834,0.02945915255249605,0.00019330766505015848,0.0002389739899712,0.4753694524025095,0.010395391201921579,0.03060724253174413,0.0002389739843798237
27,0.00019337272944841343,0.333600642497371,0.010989575473281636,0.02928129691132986,0.0001933727291479228,0.00023800443697048654,0.5406403920333374,0.010817674525412433,0.02887680253995757,0.00023800443955112176
28,0.00018791288132222965,0.33261255701511555,0.010822077191510873,0.028824977126915247,0.00018791288017986512,0.0002687011921466925,0.5270935960591133,0.01044040371943724,0.03042731287297357,0.000268701204010446
29,0.00017573964187319466,0.3283594915777127,0.01055237720061641,0.02793573593296796,0.00017573964140432926,0.0002304164944299763,0.47906403518809476,0.010361198712085268,0.029702924173600567,0.00023041648088164142
30,0.00017481004854089186,0.3282162906111878,0.01051915475104492,0.027853354406875426,0.00017481004758899087,0.00023838583148586944,0.463054193064497,0.010691626006599718,0.03015539056525148,0.00023838581266873767
31,0.00016751022518350232,0.32518043419925985,0.010327502237674481,0.02727094057233408,0.00016751022607955623,0.00018970313768867136,0.4938423621096634,0.009464724498612834,0.026769053282702498,0.00018970313568151065
32,0.0001674104326708126,0.33102302768359765,0.010335791752611697,0.027202331933235267,0.00016741043386902417,0.00022253945071004752,0.5246305442208727,0.010125270397792308,0.028411519525600185,0.0002225394487028868
33,0.00016455358823470125,0.3279012499556589,0.010280839091356554,0.02701733664518056,0.00016455358967713965,0.00022157830258732745,0.4938423632107345,0.009762114430020742,0.02790149502235974,0.00022157830237227452
34,0.00016816018832888313,0.3278582892020566,0.01038912474081754,0.02724578578719887,0.00016816018905822932,0.0003933276138251207,0.4987684694563814,0.011762296583668645,0.033387912868572574,0.000393327621495342
35,0.000154401489274967,0.3248081114828102,0.009961493657370552,0.026114986850844343,0.00015440148969173627,0.00023975807150052814,0.46798030191601203,0.010945106489501269,0.030712516033297103,0.00023975809479792937
36,0.00014553285648065113,0.3171182277233948,0.00973477182737644,0.0255548669987032,0.00014553285780055937,0.00020243873235625056,0.46674876494947914,0.00935895898117881,0.02619900756281585,0.00020243873862862779
37,0.00015003868453782306,0.324049147216588,0.009870168870597265,0.025779708628426958,0.00015003868540261928,0.00020659481171086163,0.5073891519912945,0.009320239637395726,0.026769645319416606,0.00020659481271444202
38,0.00014061773321357826,0.31739030873407437,0.009594003927741046,0.025077045334274517,0.00014061773277076092,0.00024456423903004555,0.4384236417967698,0.0094383904283747,0.02794419743781313,0.0002445642479905845
39,0.00014579132521960172,0.31899415856545865,0.009788720416683336,0.025469060124195017,0.00014579132646990947,0.0002763199214502398,0.5073891569828165,0.012494501038431534,0.031540884760213016,0.0002763199445325881
40,0.00014269502450437984,0.31893687755695693,0.009648727621250039,0.025211446146410427,0.00014269502484446356,0.00023902893999234196,0.4470443294700143,0.009039194752081422,0.026169502603009417,0.00023902892207126408
41,0.00013609802269575318,0.318235193651397,0.009481425607443174,0.024639993832296304,0.0001360980231887912,0.0002261753105288922,0.43349753077981507,0.009731369262808943,0.02678592800360008,0.00022617534368288625
42,0.0001273688616818515,0.31299404383921137,0.009197450883654321,0.02387579795438743,0.00012736886133801688,0.0002850575801679002,0.48275861415663374,0.0102623763214338,0.028156754647936728,0.0002850575647199311
43,0.00013481515181311125,0.31893687806950977,0.00944247250228067,0.024469820182501198,0.0001348151514901151,0.0002210223033328614,0.4519704429460277,0.009079393079697058,0.025692114083490935,0.00022102230786689411
44,0.00012585920252098452,0.31667430502556626,0.00916243029902583,0.023770980225180975,0.00012585920269811144,0.00017229247693958225,0.5283251183079969,0.009064854012591205,0.0248251791694775,0.00017229244821209442
45,0.00012232539954135107,0.3070941699225136,0.009051970205774305,0.023512876137637855,0.0001223253990814462,0.00019643370159890208,0.5024630446445766,0.00888176099511937,0.024612973999287108,0.00019643369722615909
46,0.00011652118821114179,0.31020162777794036,0.008916358004126436,0.02304132788415722,0.00011652118754764513,0.00018545448919270746,0.4901477794341853,0.008955914079867707,0.02424845439863616,0.00018545450395967563
47,0.00012058021777483967,0.31202027829775136,0.009006666546701994,0.02325078090854473,0.00012058021791549929,0.00020736546809481128,0.45197044158804006,0.00869333957610973,0.024819426541331367,0.00020736547393708266
48,0.00011997463211217162,0.31392484893946593,0.009005221089041775,0.023176804784101123,0.00011997463118486003,0.0001828410991239866,0.49014777811290006,0.008867372958255666,0.025523038993915313,0.00018284108030685485
49,0.00011610789122309437,0.309227862003463,0.008855190724528141,0.022841324829361475,0.00011610789169904485,0.00024334878034647692,0.5172413716762524,0.010627611310868134,0.02849371069721107,0.00024334876690566853
50,0.0001201097454143474,0.31322316507444936,0.008969509612619731,0.02308865405511598,0.00012010974487254738,0.00020561931195887942,0.4310344774734798,0.009370822067202753,0.026297345904293907,0.00020561932002336448
51,0.00011235047851845718,0.306807767966418,0.008723736825869723,0.022456374986555783,0.00011235047885520674,0.00023975632290511846,0.5184729012656094,0.011153465641543197,0.030092523832406317,0.00023975633498392494
52,0.0001135755193114566,0.3070368894747899,0.008747851144845067,0.02245365826910011,0.00011357552020563503,0.00019047667705433862,0.4704433463770768,0.008869057532693512,0.024612561510554676,0.0001904766788464464
53,0.00010366836258305285,0.3068507286380801,0.008454879005818873,0.021658410279466286,0.00010366836228089514,0.000175105019107953,0.3830049229519708,0.00822592659261573,0.023237477006216353,0.00017510501905418978
54,0.00011068149327428633,0.3083400171950437,0.008678571633973882,0.022254541669301676,0.00011068149277937286,0.00017598839417923463,0.4162561605716574,0.008592985588781939,0.02348536111671349,0.000175988391043046
55,0.0001053284550057917,0.30629224475716,0.00851808397840038,0.021758380814595538,0.00010532845430582773,0.0001715161164378371,0.400246306593195,0.008891661378458655,0.024463789803641185,0.00017151613340909784
56,0.00010304625883952605,0.3051179986362168,0.008429079629006695,0.021574181573364534,0.00010304625837753734,0.00017934768174885626,0.4519704355688518,0.008602269766898138,0.024170923812929634,0.0001793476912649486
57,0.0001031168726752109,0.3049175167277665,0.008465983024148041,0.021611040608680222,0.00010311687329140424,0.00018267641807424612,0.4359605876095776,0.00887629825832882,0.02521751436583808,0.00018267641785919318
58,0.00010196079402842297,0.30374327062048007,0.008405716592823236,0.021415550115993377,0.00010196079424347591,0.00026199735225530417,0.4593596103156141,0.008861474009239909,0.02545421792588798,0.00026199737017638204
59,0.0001020068040175539,0.3051323183730154,0.008398304819191823,0.02138217744661922,0.00010200680412549713,0.00024119127830524878,0.5036945768030994,0.00989681925037371,0.028441095687999515,0.00024119127067086962
60,0.00010076705279218275,0.3066072870988639,0.008345757107051837,0.021234871442349167,0.00010076705231143942,0.00016979761162900085,0.44458127763177374,0.00885071970403121,0.0235736525704708,0.00016979760781181129
61,9.878649522741298e-05,0.30117997654641887,0.008229256046360628,0.020917609698775128,9.878649575733509e-05,0.0001590046084691252,0.41502462364182685,0.009198401435255417,0.024235060924820126,0.00015900460488490963
62,9.369375854234951e-05,0.3007933328956492,0.008097456373231223,0.020565789471916972,9.369375928211494e-05,0.00017709404611765072,0.41625615543332595,0.008020793654373274,0.02248008784567341,0.00017709404434346402
63,9.209743256067036e-05,0.29853076029554826,0.008054709659087222,0.02040216037410351,9.209743239396266e-05,0.00016563538815829044,0.34975369472809026,0.007761442315824366,0.021330380917806636,0.00016563537511174575
64,9.294950233065377e-05,0.30203918041058564,0.008049983809811886,0.020425451283173173,9.294950318503073e-05,0.00016345209702293119,0.43349753298195715,0.008511056520246666,0.023536990841694652,0.00016345209243513525
65,9.882133574034755e-05,0.30421583301980193,0.008265670071712247,0.021047879646968932,9.882133526106291e-05,0.00019769067485361438,0.395320193153884,0.008419391332111628,0.023790657391835904,0.00019769068919047667
66,9.031411278414215e-05,0.3027551847421805,0.007991841790175752,0.020187890746368585,9.031411264681668e-05,0.00018314766769126525,0.39532019425495507,0.009100528367395912,0.02554818106989555,0.0001831476699314
67,8.626617057788576e-05,0.29374785305199613,0.00782218356589055,0.019780008574489576,8.626617175671759e-05,0.00016683060095216528,0.4236453186555449,0.008318211415351318,0.023613754870929742,0.00016683061444673693
68,0.00010216579632849271,0.30286974539180733,0.008313052993013206,0.021091221255223707,0.00010216579536825635,0.00016043017840364449,0.401477836182552,0.008397251053304949,0.02398338690950659,0.00016043018109180616
69,8.530613179093251e-05,0.29575266447210585,0.007785965128442101,0.019642294296144037,8.530613181885606e-05,0.00018086793531478483,0.41625614956094714,0.009008754728352789,0.02410469577633982,0.00018086792590621897
70,8.487674106314286e-05,0.2985450805303895,0.00779923750386359,0.01966019326867701,8.48767411100294e-05,0.0001697781269370895,0.4729063976280795,0.00914507289531783,0.023957029810826768,0.0001697781354316804
71,8.471155849703946e-05,0.2980581974784169,0.007766361930020822,0.01963973863401148,8.47115591065645e-05,0.00020254144547283512,0.49137931724487266,0.009729193977717989,0.027043975843804812,0.00020254145801758963
72,8.901235892790772e-05,0.297370833656621,0.007909558500156962,0.019967417895041945,8.901235977186546e-05,0.000156319624178193,0.4137931013929433,0.007605112946862952,0.020900053752063236,0.00015631962127497838
73,8.341366148431812e-05,0.29625386689940136,0.007678460012706331,0.019420378862051488,8.341366230222777e-05,0.00015247997532416883,0.4027093596793161,0.007833134412783854,0.021748089015924284,0.0001524799749299051
74,9.130506304087023e-05,0.297771796223934,0.008019685920509067,0.02023811050733281,9.130506240342167e-05,0.00017460942506865285,0.43349753577133704,0.008085475025671016,0.022942420214488002,0.00017460943761340737
75,7.977285393886058e-05,0.29212968363915814,0.00752831418321146,0.018976306150924393,7.97728538259161e-05,0.00015673030694984496,0.45812807617516355,0.007926959058113874,0.02186598023170321,0.0001567303239211057
76,7.994773562340438e-05,0.2930175292977067,0.007568298339416338,0.019032600967825716,7.994773519809136e-05,0.00019103646195729336,0.46428571546019004,0.008359619324540563,0.023660701015973326,0.00019103646050568605
77,7.993900234207586e-05,0.29346145105493043,0.007532578815386742,0.018970750210552157,7.993900228810424e-05,0.00017465393127700924,0.4864532065949417,0.008276384989065784,0.02312502242037522,0.00017465394382176375
78,8.17103393132517e-05,0.30047829117404457,0.007615301661813897,0.0192318485690963,8.17103395476844e-05,0.00018778435159098986,0.506157636936075,0.008392663103679717,0.02386257677279376,0.00018778435786336712
79,7.581925387412379e-05,0.2932180100816135,0.007428969039753172,0.018581164845077987,7.581925378368486e-05,0.00015465854902251675,0.4088669938994159,0.007542288050128908,0.020958544966292205,0.00015465855445260333
80,7.855990012039602e-05,0.29436361654331383,0.007511043000006288,0.018848645448932645,7.855990035816287e-05,0.00017427055696639108,0.5024630459658618,0.00841999579945882,0.023775990309166203,0.00017427055596281072
81,7.907805134101338e-05,0.2950939399254583,0.007560362205195689,0.01896643251646257,7.907805147646338e-05,0.00017539005854675716,0.4384236504585285,0.008784825769092503,0.023270987047644083,0.00017539005630662244
82,7.936099589875436e-05,0.2978577167162754,0.007532972880437593,0.018927872148130645,7.936099660392794e-05,0.0001513253670153403,0.36453202278743235,0.007591518428947391,0.021425573159871723,0.00015132537637014296
83,7.576234643658838e-05,0.29175736127607543,0.00738218946699068,0.018482803521836396,7.576234611359221e-05,0.0001758585523858694,0.41009851996534563,0.007780020634455634,0.02178431291298326,0.00017585854521743824
84,7.45057928724729e-05,0.2922012839022064,0.007334039844676036,0.01828394597438932,7.45057924644558e-05,0.00018424075164945723,0.52093595310385,0.007855744188275244,0.02277695789951556,0.0001842407757891491
85,7.835462591610649e-05,0.2943636158741358,0.007537253672457222,0.018847253202983607,7.835462502338675e-05,0.000143420732039769,0.3817734016573488,0.007703607323868522,0.02078317346170618,0.0001434207244233109
86,7.080061788989791e-05,0.29065471494019623,0.0071961259890987025,0.01801316583596758,7.080061794032699e-05,0.00014578419920097775,0.5295566514207812,0.007600007753066828,0.020359757448101572,0.00014578419516873524
87,7.210663094535032e-05,0.29076927620992243,0.007268207285458047,0.01814038640882332,7.210663113289649e-05,0.00018251137924810707,0.4568965548071368,0.008448437413687043,0.02419494407187248,0.00018251137577141794
88,8.054830427719766e-05,0.2963684276557212,0.007601310174399235,0.018969839077587133,8.054830369184525e-05,0.00020641009740501623,0.4445812873946035,0.007985995564004178,0.022630831281760057,0.00020641009292474678
89,6.971884742105887e-05,0.2910413578637469,0.00714557226353044,0.017851317204515375,6.971884756171851e-05,0.00015389072217963053,0.4236453182885212,0.007744012964806827,0.02147614339302326,0.00015389072800398083
90,6.719726523297623e-05,0.2877906986995243,0.007057513965910237,0.017525800132819066,6.7197265019382e-05,0.00020297432616966652,0.4519704437901821,0.008206528031125005,0.024035540386447177,0.00020297433747786667
91,7.20327673055727e-05,0.2932466497357351,0.007250592699218941,0.0180998867303914,7.20327668419169e-05,0.00017376878540610247,0.4014778260526986,0.007475769360609389,0.02110528556418977,0.00017376879739530358
92,7.171739687362568e-05,0.29264520577977976,0.007249111938495682,0.018026006673754494,7.171739696739876e-05,0.00020950595656363407,0.3965517223762174,0.007743656167329239,0.022183977347326102,0.00020950594720883144
93,6.790900316834656e-05,0.289509108336381,0.0070843151487529135,0.01761757675579667,6.79090028870273e-05,0.00017247644459956045,0.43472906903093084,0.007872115806882898,0.021740120482341998,0.00017247643115875206
94,7.200403813837947e-05,0.29152824033659025,0.007243412696423647,0.018083016670641144,7.200403832592563e-05,0.00019962919562432246,0.48891625439592185,0.009065553525306762,0.02709094569857778,0.0001996292068429172
95,6.634964537707117e-05,0.2870460543267259,0.007003551432157637,0.017426473939118517,6.634964529205025e-05,0.00017160883670763958,0.4901477720937118,0.008325357818196119,0.02229253227450871,0.00017160882013064253
96,6.612325504888322e-05,0.28760453714028994,0.007005272806586986,0.017425438016130265,6.612325563756979e-05,0.00018813166636319858,0.5036945841435728,0.008242497860632947,0.02271879791038964,0.000188131662778983
97,7.243288305015206e-05,0.2954949036373731,0.007280945784668067,0.01805519147118092,7.24328831960213e-05,0.0001833793791636063,0.4581280733857836,0.008550087726340064,0.023124369751350047,0.00018337937910984308
98,6.923915906667035e-05,0.29245904520681487,0.007129365334073687,0.01768607508171568,6.923915886516242e-05,0.00015617634394200945,0.48029556195136947,0.007553655450035052,0.021494001342818654,0.00015617635967671582
99,6.282604141350926e-05,0.285026922417419,0.006836550859669333,0.016939071773128155,6.282604173317128e-05,0.00019793955876871603,0.5036945829323947,0.009083925815198221,0.023534203737313523,0.00019793956104469294
