epoch,huber_loss,l0_loss,l1_loss,linf_loss,loss,val_huber_loss,val_l0_loss,val_l1_loss,val_linf_loss,val_loss
0,0.001739548927267495,0.6201025300886175,0.03497879046123948,0.08771705404901295,0.001739548936269711,0.0017177890903050347,0.5406403833715786,0.0366634579898395,0.09391917025881448,0.0017177891476524837
1,0.001073751803987129,0.5264491906641603,0.026329121280767545,0.07073168665501844,0.001073751813102706,0.0014688645574388098,0.5443349796269328,0.03467013006984013,0.08659552509341334,0.0014688645431019476
2,0.00091343088293799,0.49931263349381,0.02417997940181952,0.06530180023781472,0.0009134308860787631,0.0010734633624317408,0.4027093596059113,0.02709892522451913,0.07645929834158549,0.0010734633843671403
3,0.0007939398062047677,0.48076812611411207,0.02230650100469511,0.06068005099822626,0.0007939398168440532,0.0008661734689201407,0.4322660107330736,0.024142208532086148,0.06871015187628164,0.0008661734545832784
4,0.0007037788014950583,0.4671640479543499,0.020905951102338803,0.05694098068002826,0.0007037788041623816,0.0008157965290736352,0.33251231439007917,0.02328655367781376,0.06571399813215134,0.0008157965707939045
5,0.0006313517623108502,0.449220984955672,0.019689919757945356,0.053729996902221376,0.0006313517634511309,0.0009069961941287178,0.40640393618879644,0.023135515819923045,0.06638853639144028,0.0009069961802219615
6,0.0005670616775717105,0.4346288213605992,0.018534213510170275,0.05087005070934851,0.0005670616751961258,0.0007161629095781374,0.3337438439794362,0.021746611828213844,0.060895236346668796,0.0007161629167465685
7,0.0005163074365007025,0.4204089798819351,0.01761400362385804,0.04842844256005182,0.0005163074401966122,0.0008286411935358028,0.36945812411496204,0.022619524823841202,0.064242281753735,0.0008286412302381703
8,0.0004839452908770453,0.4141367841236697,0.01703232266475102,0.04669818206311385,0.00048394528955088555,0.0006244477990549058,0.32389162561576357,0.018876136042030867,0.0549032395990024,0.0006244478243594677
9,0.0004449882611943704,0.40547313443699273,0.016321163395241967,0.04480369102842709,0.00044498826295813785,0.0005905654124675888,0.3460591122728263,0.01953962385617747,0.05213348005939587,0.0005905654308187725
10,0.00042080786280551224,0.3928571424209822,0.01579195599682285,0.043362815176214785,0.0004208078645409394,0.0005926009837602233,0.3509852177844259,0.018834817622389113,0.053441120155632786,0.000592600969423361
11,0.00039045481601340055,0.38376389053719656,0.015156318430221956,0.04162835585727378,0.0003904548167902584,0.00055578588030652,0.28694581229404864,0.01872187155973295,0.05310828242395899,0.0005557858267583394
12,0.00036456363287263357,0.3756300835311242,0.014671242141163452,0.04025367017814467,0.00036456363230249323,0.000584575435200596,0.29926108521193706,0.01881190676132006,0.05391664951672695,0.0005845754712578046
13,0.0003485724794932879,0.37391167340348,0.014396025448088412,0.039334835614042434,0.0003485724787014263,0.0006505069420374746,0.26477832607741425,0.018855983148250967,0.056325199385288315,0.0006505069704961463
14,0.0003348437401505001,0.37030301344211686,0.014097038016422281,0.038586385719677006,0.0003348437411924232,0.0006038639392661335,0.2709359626464656,0.018107770611830238,0.0531883993245698,0.0006038639818466145
15,0.00031609309360474747,0.36584946692932213,0.013681022299730804,0.03743327415099835,0.0003160930965429707,0.00046379672359959614,0.29310345011098043,0.015681093710066357,0.04582811383704834,0.00046379669112660304
16,0.00029591667301965267,0.36073719826278877,0.01329294800118631,0.0362283885711564,0.000295916673801095,0.0005630850469351751,0.28078817954204355,0.016943920555116215,0.04959353573363403,0.0005630850414871674
17,0.00029036004229415714,0.35695669691130966,0.013131257372412492,0.03581029680121282,0.0002903600443021514,0.0006240920855874755,0.29556649754493697,0.018093571149436712,0.05376470744096,0.0006240920963401222
18,0.0002770908225194177,0.35648413398279083,0.012877028239420418,0.03496344486243578,0.00027709082520007756,0.00043332828105578723,0.2783251236665425,0.01450426260862738,0.042851525519428585,0.0004333282707332464
19,0.00025573613382964805,0.3487942498119676,0.012416336294389499,0.03368455392983579,0.00025573613558174603,0.0004789625773931225,0.3128078800850901,0.017132663934175018,0.047813104162809296,0.0004789625693644796
20,0.00025988755632507546,0.34809256552188633,0.012483510817179723,0.03380903241034994,0.00025988755535608695,0.0003937999191011527,0.2586206887743156,0.01474156817467195,0.042332475096574555,0.0003937999192086792
21,0.0002468804276534169,0.35154370528095596,0.012180427317869787,0.03294119904265243,0.0002468804286224054,0.0004288831102349818,0.3251231588019526,0.015240513976534894,0.0429237862691063,0.0004288830813462043
22,0.00023235421815532818,0.34734792167657785,0.011863777463576483,0.0320261799832679,0.00023235421980823505,0.0004458539878944935,0.2980295562098179,0.0163522977014921,0.044681656977225995,0.00044585400495535967
23,0.00022987027853697841,0.343724940238041,0.011825051976361215,0.031795534663762726,0.00022987027874536302,0.0003818743262214017,0.2795566454015929,0.014386538328979109,0.04105214440617068,0.0003818743369740484
24,0.00021415283507730497,0.33887043220779167,0.011461040775624183,0.030742136176868887,0.00021415283580290023,0.000346621883266922,0.26847290882629715,0.013495331758569026,0.03946686900344682,0.0003466218566003581
25,0.00020741470979670687,0.3403454012968229,0.011323159861488586,0.030321718946736024,0.00020741470969251456,0.0003852852964412485,0.32635468288595454,0.014261703832726466,0.039730317000611665,0.0003852853157243283
26,0.00020455432379843768,0.3385124308131708,0.011267870941891479,0.030187860863070532,0.00020455432435065695,0.0003603244715902422,0.2179802967409782,0.01379479716986124,0.03909571867968355,0.0003603244928804827
27,0.00020230853256976677,0.3360780164700137,0.01118286805946936,0.029829713304578637,0.0002023085333958034,0.0005503925589472973,0.33251231717945906,0.01602721106481229,0.04603813555587102,0.0005503925715637361
28,0.00019175280862562631,0.33265551725829884,0.010903177775317983,0.029147078317059472,0.0001917528102389401,0.0003320081269507884,0.28078818101013825,0.012861330438350221,0.03574733093858059,0.0003320080981695373
29,0.00019474426194933714,0.33530473186908577,0.011045162462780775,0.029400872624941107,0.00019474426178971453,0.0003695690063825634,0.27463053988999336,0.013953363834857353,0.04103612867665702,0.00036956902788785683
30,0.0001764816369431112,0.32699908407379197,0.010545444589062137,0.028053409362339642,0.00017648163650550348,0.00040221032890114987,0.2746305417251117,0.014930755762484274,0.042609974907096386,0.0004022103472523336
31,0.0001779665203211445,0.33059342505971734,0.010600271745718164,0.028110318884201436,0.0001779665193275666,0.00040122270245756495,0.2709359608113472,0.014255507142636282,0.04146452716051651,0.000401222710056102
32,0.00017691605158543373,0.3318249526842174,0.010570744935546687,0.027915998304817346,0.00017691605167545588,0.000380692889915637,0.3091132986574925,0.013683448976887565,0.038295988452258366,0.00038069290203028566
33,0.00016797677889589355,0.3260109987460279,0.010315699909272448,0.02725904378510806,0.000167976779809035,0.0003315686442722392,0.2573891605062438,0.013004392651574952,0.03741535726989725,0.0003315686425876579
34,0.00016101920790920646,0.3245646701207042,0.01016870917071044,0.026861481348056677,0.00016101920672099732,0.00031549815988005255,0.3066502458649903,0.012938441515996539,0.03542894303908783,0.0003154981830699273
35,0.00016369013617655536,0.3221445763098482,0.010229951778290412,0.026934670380734164,0.00016369013742019482,0.0003425131179951475,0.2709359652156313,0.014395106675589613,0.039986829057776285,0.00034251312157936313
36,0.0001603149919888914,0.32326154274954966,0.010161200489999076,0.026771308517286027,0.0001603149925552808,0.000324933124225004,0.2709359639677508,0.01302734816566183,0.03601655716379288,0.0003249331047268713
37,0.00014441299572437536,0.32049776703931854,0.009663831501168946,0.025417594652550814,0.0001444129966412677,0.00033213108206819284,0.29064039423547944,0.012815876749201949,0.036814040976938946,0.0003321311002043236
38,0.00014184949830819564,0.3189798383216553,0.009637019589605438,0.025302755440917025,0.00014184949929135432,0.0003201778277180162,0.2943349769843623,0.013639677357240558,0.03543901976583333,0.0003201778115890461
39,0.0001461047085947344,0.3182638342128353,0.009746597471970991,0.0255309654481266,0.0001461047095737254,0.0004026483049188406,0.29802955804493625,0.014148405693434729,0.04277026497304733,0.00040264832305497136
40,0.00015263612153413472,0.32170065408402915,0.009918511020701844,0.025955619970211726,0.00015263612203905068,0.0003706770903187726,0.3115763578362066,0.013787169326005017,0.03960432455384085,0.00037067712436882056
41,0.00013865753073183813,0.31519933646146425,0.009544702725036217,0.024899745892307843,0.00013865753193963542,0.0003118505317194782,0.23399014910453647,0.012260991465208565,0.03484805528386473,0.0003118505246585735
42,0.0001287739285292022,0.31332340525323027,0.009240944621568532,0.024126892889029267,0.00012877392829997912,0.0003190153073608357,0.2672413782826785,0.012816832974332894,0.03702517586939147,0.00031901530714578273
43,0.00013673608712564664,0.31657406418443557,0.009475866975368388,0.024702890018364596,0.000136736088432635,0.00029923994165961056,0.26231527152319845,0.013029438668283922,0.035146600589743386,0.00029923995420436507
44,0.0001332656213970545,0.31537117723190766,0.009369770151878053,0.024429308024144062,0.00013326562060519292,0.00030216376296889145,0.26600985199653454,0.012546872376037643,0.03509621915815793,0.0003021637684527413
45,0.00013619717542763012,0.31771967143011554,0.009484841001275208,0.024601886482192987,0.0001361971747678844,0.000299107691524275,0.27216749040070426,0.011883581428802366,0.03367712993743678,0.00029910770933782644
46,0.0001261650048419464,0.3075524130971629,0.009169852336196905,0.023882721027327147,0.00012616500477943102,0.00032801495083915113,0.2832512327015694,0.013307204580145516,0.03723387095361508,0.000328014965068487
47,0.0001256146663975325,0.31547141829154546,0.009191603572789087,0.02375618156025617,0.00012561466544417285,0.0003155408283535579,0.24507389584638803,0.01275211780015471,0.035876450353655324,0.0003155408498588514
48,0.00011887137274330184,0.3098865860691389,0.008949922059462804,0.023211225017355553,0.00011887137264431914,0.0003341112271587254,0.258620690609434,0.012483672651787991,0.03648339133030675,0.00033411123970347994
49,0.00011970494063703994,0.310044106999505,0.009006155584504051,0.02325911446776327,0.0001197049407203938,0.00034301551759961,0.2586206959679796,0.012825956623175462,0.03717260607724707,0.00034301551580750224
50,0.000110761584812661,0.3046597556015486,0.008674615515044552,0.02245949854036591,0.00011076158552262742,0.0002771861264443431,0.2586206854711025,0.012435766281055406,0.03371266035243795,0.00027718611748380416
51,0.00011808551262368088,0.3087696194186122,0.008921249779657183,0.02303143208119871,0.00011808551376125255,0.00028606644215686204,0.28325123138028413,0.01158964237097302,0.03214999541566877,0.0002860664457410776
52,0.00011724509372922167,0.30982930551899,0.008923704875809164,0.022962596407229512,0.00011724509410243854,0.00033162040532718005,0.2463054198936876,0.011860460712771697,0.0342827342872696,0.00033162040152791153
53,0.00011799730384248809,0.3069223287393819,0.008895918983837655,0.02297013417430037,0.00011799730461872082,0.0002668981184165585,0.28201970825054373,0.01191113768099564,0.03425611988664261,0.0002668981237928819
54,0.00010779909295936555,0.30604880285049335,0.008591410086471756,0.022134766097002687,0.00010779909374976844,0.0002789322634226427,0.25862069229774287,0.012018612384098798,0.03372442565417936,0.0002789322634226427
55,0.00010503787826421123,0.3055332810632387,0.008530249669736062,0.021875749659288266,0.00010503787961016752,0.0002899640871313965,0.2857142850536431,0.011629235577480546,0.03350200100338518,0.00028996410125320583
56,0.00010644345368403664,0.302526063468533,0.008552960465959962,0.021955190567106184,0.00010644345428835205,0.0003294662733088027,0.2672413830539863,0.013017884166590098,0.03532369044870872,0.00032946627710807124
57,0.00010593534717338398,0.306950968835639,0.008549405872771235,0.0218952094484366,0.00010593534670451856,0.00031102969531391934,0.27093596433477446,0.0118412960256482,0.03485074444797826,0.00031102968613832746
58,0.00010430434717100165,0.3050034377774718,0.00847956666471952,0.021723076877847736,0.00010430434717287711,0.0003098400176779179,0.24507389118518735,0.012272374011722985,0.03508051849094224,0.0003098400371760506
59,0.00010136294739193489,0.30686504833049444,0.008405311836660812,0.02145295112354,0.00010136294752217529,0.00029905712526759565,0.2586206887743156,0.012448441237211227,0.03577908459738851,0.0002990571651240728
60,9.784101942820522e-05,0.2983732393997507,0.008252616654826515,0.02112572775520568,9.784101929608937e-05,0.00028423997880363367,0.21305418888042713,0.011585940767464966,0.032953405110486625,0.0002842399574058667
61,9.95519707569496e-05,0.30060717191212993,0.008308961034887609,0.02121345455210832,9.955197144024278e-05,0.00030669421034267523,0.2832512298387847,0.011763295222973001,0.03358177027752247,0.00030669421751110634
62,9.956431162960545e-05,0.3046740754800354,0.00830075412209591,0.021283192293344393,9.956431228601702e-05,0.0003083437972093056,0.2844827567855713,0.011902964279385917,0.033653094089163345,0.0003083438077468994
63,9.687414638923683e-05,0.2998482082173551,0.008237887395865706,0.02102231411486335,9.687414585264642e-05,0.00030563989300923103,0.27955664943885333,0.01247785413371665,0.03455862341439489,0.0003056398804644765
64,9.221435509005272e-05,0.3015379776721736,0.00808169967019588,0.020580223068421662,9.221435582815106e-05,0.000269526455166011,0.23152709286201176,0.011840117920942495,0.031928963739002864,0.0002695264406140958
65,9.578896877778511e-05,0.30561920193071246,0.008171297437897079,0.020846150878649123,9.57889692116419e-05,0.00026865012481667587,0.24753694581280788,0.011305515177254312,0.03282119709025756,0.0002686501051034902
66,9.600879473976423e-05,0.3020535005630599,0.00817725345797398,0.020828310889327958,9.60087947847753e-05,0.00024582823784907205,0.2635467978093424,0.01094051454619968,0.03055325675333662,0.00024582824490997676
67,8.669843951559348e-05,0.29984820799031253,0.00785693444994667,0.019940673424958883,8.669843979691272e-05,0.0002865061829347746,0.2746305429729922,0.0122342066554894,0.033150855571104976,0.0002865061687054388
68,8.827266276427435e-05,0.29618226644430584,0.007937376344180007,0.020165525837976907,8.827266320709169e-05,0.0002837426045203003,0.270935966683726,0.011564374277414066,0.032982734311830825,0.0002837425939827066
69,9.485174844000076e-05,0.30213942095681706,0.00817816153421327,0.020776531549386346,9.485174846792431e-05,0.00025891504410179467,0.27832512718996977,0.011872356165695954,0.03223378004809025,0.0002589150567540757
70,8.624197127486693e-05,0.29686963147471923,0.007841941793324926,0.0198162679898379,8.624197113274863e-05,0.00027567189133191584,0.31034482949473,0.012093847099086041,0.03394178424966453,0.0002756718787871613
71,8.824903364306181e-05,0.29877420151553924,0.007913638054909519,0.020019592059741406,8.824903387416035e-05,0.00025718746778671055,0.28448276280475954,0.011362340471023703,0.03178753301024143,0.000257187464202495
72,8.803717125711804e-05,0.3023112621740905,0.007926579555847593,0.020046354330419344,8.803717092036847e-05,0.00027505260393432954,0.2573891660115989,0.011422572015174505,0.032809234513291,0.00027505261637155755
73,8.248519234498085e-05,0.29747107383966964,0.007734734150677619,0.01949919573514578,8.248519236915346e-05,0.00026500910623635627,0.3029556681076294,0.011160925503251293,0.03203493779699497,0.000265009116989003
74,8.069743160699463e-05,0.29490777964781945,0.007618129194146202,0.019274121567063644,8.069743183246679e-05,0.0002704936597528386,0.2302955651077731,0.01071644108283696,0.030165926668003863,0.00027049364563102923
75,9.004371128465752e-05,0.2994472452446089,0.007968157394704339,0.02017762458851538,9.004371090914844e-05,0.00027539886550271306,0.250000002202142,0.01175868976402459,0.03284628624142391,0.0002753989086208264
76,8.72750532088035e-05,0.297256273657821,0.007900289772243769,0.019940546648740096,8.727505364453576e-05,0.00024784598978387716,0.3004926157555557,0.011219880814329156,0.03117891769911268,0.00024784600347558063
77,8.284732659160989e-05,0.29608202599921934,0.007715896743392728,0.019471209847279423,8.284732740597702e-05,0.00025463721055704917,0.2635467956072004,0.01128244463335998,0.03052471669877104,0.0002546372106645756
78,7.839054974194415e-05,0.2958099443560641,0.0075388943340327615,0.01901319638159869,7.839054930767058e-05,0.00023485884354122928,0.27216748856558587,0.011010880260888872,0.030305725976531143,0.00023485884891755263
79,8.45286423431769e-05,0.29794363709253496,0.007798655977309849,0.01962273405469644,8.452864262970576e-05,0.00026550020230016463,0.22660098536848436,0.010930497281877278,0.031195163093690803,0.00026550015581288864
80,8.09103458343449e-05,0.2957383441980017,0.007599232120628043,0.019182950810230873,8.091034538444249e-05,0.00025871699594054144,0.27832512535485143,0.011173892376274605,0.031539373999011924,0.000258716999524757
81,7.580732224157574e-05,0.29356169162804846,0.007442810553665797,0.018671373545797877,7.58073223789012e-05,0.00021717159183331182,0.2623152724040553,0.010380991340013855,0.02891775033450479,0.00021717157369718101
82,7.674278721853511e-05,0.2948075385642825,0.007452038708898856,0.018743073318726773,7.674278747568174e-05,0.0002418138571955227,0.22413793000681648,0.010177590813157446,0.02907344266735568,0.0002418138375898635
83,7.759107843969401e-05,0.293618971851717,0.007537867009374288,0.018835881346460488,7.759107889438927e-05,0.00023031001494798277,0.284482760455808,0.010655668545789613,0.03038672855114702,0.0002303100202705429
84,7.590535872931871e-05,0.29523714165334397,0.007429668370477266,0.018655309087703208,7.590535886664419e-05,0.00023170621429680126,0.2660098464911794,0.010663594408281919,0.029621693961726033,0.00023170621598138258
85,7.286247366881071e-05,0.29361897207577214,0.007324238588189757,0.018316190911189998,7.286247395867372e-05,0.0002659263447434022,0.23399014785665598,0.01132849293297588,0.03312933681707077,0.00026592636445658784
86,8.118811514446962e-05,0.29674075001709677,0.007618413591882887,0.01915827552552275,8.118811523636725e-05,0.0002494250197540464,0.2500000018351184,0.010925393900260549,0.031136820166202013,0.00024942501996909935
87,7.35584655281398e-05,0.2949220993573046,0.007366521901362816,0.018402706521697346,7.355846545520518e-05,0.00023337194407611095,0.21798029806226346,0.011019361556365426,0.02935972411570878,0.00023337193506180878
88,7.169774961461574e-05,0.29066903455152393,0.007270080661035196,0.018220646946389783,7.169775001242199e-05,0.00022157844312442008,0.2364532018970386,0.010388343994106566,0.02905788903899968,0.00022157843932515156
89,6.831904020480342e-05,0.2885067029944167,0.007126193176113177,0.017807038651182026,6.831904030566158e-05,0.00021908267896425719,0.23522167465663307,0.010460957081924224,0.0287002568119412,0.0002190826753800416
90,7.480168693518211e-05,0.2931893697531926,0.007413867089509246,0.018503394887544388,7.480168676659896e-05,0.00024866262624146913,0.29064039460250307,0.010752835577087743,0.030000879837594596,0.00024866264063209465
91,7.30720677730928e-05,0.29373353339286995,0.007349541660838673,0.01835557190967671,7.30720678218548e-05,0.0002148514801322074,0.32019704602328425,0.010721314716808901,0.028484956916476706,0.00021485147475588405
92,6.969583430980802e-05,0.28801981994073705,0.007175656295713195,0.01793619115792214,6.969583525441553e-05,0.000232849614190057,0.2278325103333431,0.010413892025797825,0.029513636668180597,0.00023284962684233797
93,7.012226587129421e-05,0.2910699975976748,0.007212220044985417,0.018005810174414594,7.01222655189158e-05,0.0003009568019586574,0.2647783292338179,0.012556441605384714,0.03639455223134879,0.0003009567893063764
94,7.15876725066645e-05,0.29453545723181707,0.007280377928385875,0.018144843282077966,7.158767236246233e-05,0.00022469170829120637,0.2536945849510249,0.010992491824249622,0.029687470632600667,0.00022469172789686557
95,7.078868412161582e-05,0.2920437631707159,0.0072282441611500855,0.01803015563793857,7.078868417558743e-05,0.00023132813663243114,0.3066502452043477,0.011135144847367197,0.03114543701957893,0.00023132811876511652
96,7.647091197171022e-05,0.29250200568429585,0.007430145544865143,0.018540358823881036,7.64709128312968e-05,0.0002961275972061208,0.2586206913434813,0.01218938275144018,0.03457795589097908,0.0002961276188189407
97,7.593677692048763e-05,0.2902251125382372,0.007374659554386503,0.01850750875172874,7.593677713408188e-05,0.00023540084715072395,0.2795566527420664,0.010237972761316253,0.028619165114801507,0.00023540084367403485
98,7.332445663613154e-05,0.291642800945247,0.007290612933797697,0.018143237271351594,7.332445706144455e-05,0.00023277229699707622,0.2635467974423188,0.010460109486625405,0.029176593294798447,0.00023277229151322639
99,7.190164015623896e-05,0.29397697410884355,0.0071918786197859375,0.017875337147647156,7.190164143863795e-05,0.00023117140012195682,0.2881773387270021,0.01005061154295071,0.02813019177743367,0.00023117139116141789
