epoch,huber_loss,l0_loss,l1_loss,linf_loss,loss,val_huber_loss,val_l0_loss,val_l1_loss,val_linf_loss,val_loss
0,0.001770507237030137,0.6213770170711763,0.03504910318187107,0.08763814849638389,0.0017705072461690532,0.0018547191875275646,0.4568965524581853,0.03422089541340109,0.09797686588000781,0.0018547191588538401
1,0.001074940605809219,0.5285828822048168,0.02654609110930597,0.07078756983230301,0.0010749406123341583,0.001583678522284872,0.4852216732619431,0.029879280150377104,0.08619023672318811,0.001583678480134497
2,0.0009170219180250751,0.5025060112765325,0.024287981798012195,0.06549468415594378,0.0009170219185935483,0.0013225138356009949,0.4014778245846039,0.027206813255921374,0.07939317660965943,0.0013225137719453262
3,0.0007866175058251668,0.4833743812422229,0.02239977306958302,0.060506394779744295,0.0007866175085074937,0.001206886001204237,0.35714285993223704,0.02684594843114538,0.0756105302736677,0.0012068860442148238
4,0.0006926928014410165,0.46251002161062954,0.0207869594055476,0.05656981299305777,0.0006926927985353012,0.001050698547681399,0.3842364485040674,0.024072425109632496,0.0696586223475158,0.0010506985405129678
5,0.0006200928581288238,0.4476171360350185,0.019527328759175774,0.05338674148627676,0.0006200928546829756,0.0008375130961087115,0.3435960555898732,0.021609429049814863,0.06304351264253039,0.0008375131037072485
6,0.0005671741228279886,0.4317504851065806,0.018560650347997566,0.050827694310372346,0.0005671741229605213,0.0007646431231164727,0.3017241413076523,0.020132027080126583,0.058885434027669464,0.0007646431007509675
7,0.0005197763739456137,0.4254210083457883,0.017770811075404215,0.04867778560117882,0.0005197763764595659,0.0010457796682924803,0.49014778251718416,0.025070157883863145,0.06811672502330371,0.001045779712163279
8,0.0004682814986829971,0.4102274017567036,0.016775720644322308,0.046124892802015996,0.0004682814988555396,0.0007474914814226256,0.32389162436788305,0.02014945144650384,0.05653951917155623,0.0007474914240751764
9,0.0004397071821423039,0.40010310371900043,0.01619410969450112,0.04438584838551178,0.00043970718139211927,0.0006737608740420489,0.36945813145543555,0.01956797692135637,0.05259018668473648,0.0006737609242210669
10,0.0004097609563208609,0.3899358458546432,0.01558738373984315,0.0427949010806455,0.00040976095818298587,0.0008024949060863094,0.29926108579917493,0.020300107471314558,0.057579821810640135,0.0008024948738283693
11,0.00039309359180238033,0.3867281469822558,0.01525339722678813,0.041742183569477745,0.0003930935931152035,0.0006541308523683345,0.2672413797507732,0.017465998446155945,0.05100472401735818,0.0006541307986051009
12,0.00035429229839022467,0.3756014428207426,0.014521569905121693,0.03980631804513449,0.0003542923007107959,0.0005253667539166828,0.31773399381802,0.016474693435533292,0.04714861207554493,0.0005253667395798205
13,0.00034402948516028763,0.371233818877814,0.014239385458135563,0.03895724470004728,0.0003440294843825962,0.0006005023097162929,0.30049261722365034,0.017854160945770775,0.04926801192129187,0.0006005023061320773
14,0.00032714978845793284,0.3735250313044523,0.013974536359081828,0.038008304844902835,0.0003271497885204482,0.0006819017986443555,0.3596059081002409,0.019496565225896576,0.0529283138698545,0.0006819017556337685
15,0.0003109960506915984,0.36226944714231524,0.013608923164287108,0.03702808839685832,0.00031099604927458296,0.0005807672604187874,0.29187192382483645,0.017040406385886258,0.04732758232525417,0.0005807672460819251
16,0.00029481642104374885,0.3581309430715158,0.013240377198215943,0.036072654524144404,0.00029481642079952206,0.0005792385031580421,0.29064039386845575,0.01663706079584184,0.047754861212569506,0.0005792385352009293
17,0.00028517859453509685,0.35967751193963615,0.013053596905989685,0.03549241974191463,0.0002851785943058738,0.000508384162825624,0.28448276096964115,0.01598412669240841,0.04553346550596759,0.0005083841233992527
18,0.0002681113793716652,0.3535341974145113,0.012683782295006711,0.03437441315679892,0.0002681113794000055,0.0006574785708606913,0.30788176994899225,0.01721867293192835,0.051274138241272256,0.0006574785603230975
19,0.0002655746987421623,0.35243155089426675,0.012659111709001821,0.034159849584764125,0.0002655746986938171,0.0005791999038803194,0.2918719196407666,0.01761876639400797,0.04926958589314533,0.0005791999146329661
20,0.0002494740152395035,0.3487369694393557,0.012280604839254534,0.03310666752746355,0.00024947401782347286,0.00045735246084373574,0.29064039240036105,0.014114559476672135,0.040853865151041245,0.0004573525184062378
21,0.00023195263664599843,0.342593653580996,0.011903692567077651,0.03210451823433799,0.00023195263840393115,0.0004684288282517408,0.27955665178780487,0.015295198095476099,0.043662438692130476,0.00046842886409389654
22,0.0002362696887559017,0.3425077335094515,0.01202647134286969,0.03239241606210301,0.0002362696905546778,0.0004843376399696864,0.3263546817114788,0.015744211074203398,0.045065378871163714,0.0004843376366005238
23,0.0002219968423471119,0.34306621685690697,0.011658526906302577,0.03137019126213936,0.00022199684348947642,0.0005003920635277305,0.302955669061891,0.016587975847860568,0.04639895102513835,0.0005003920630976246
24,0.000214890965756434,0.3378966670828609,0.011485999076288871,0.030837559483169498,0.000214890966708335,0.0004710335075296691,0.28448275399619133,0.014648230136211577,0.041864540739893326,0.0004710334788559445
25,0.00020825693540254745,0.33954347661030715,0.011365696171415772,0.03039561932741561,0.0002082569367503792,0.00042246434092923097,0.2967980289694124,0.014814975432904777,0.03992400821206605,0.0004224643467356602
26,0.00020636165945471082,0.33772482602477333,0.011335485504248996,0.030219388275468818,0.00020636166004110517,0.0004795565933110697,0.2992610876342933,0.01492698866818926,0.042301127898135206,0.0004795566506585189
27,0.00019572388458906817,0.3322688745831293,0.010989308103843064,0.029454979653247122,0.00019572388534675465,0.00047354245699742544,0.31157635233085146,0.015574568157712814,0.04185858734979712,0.00047354243570718493
28,0.00019346997730432955,0.33751002486263004,0.010999523458631297,0.02930605404978595,0.00019346997810661034,0.0004322489318833572,0.30049261773748354,0.014100078585112624,0.03982909763314454,0.0004322488890878232
29,0.00018182131491406431,0.3302211027060236,0.010685849589984815,0.028392769244801126,0.00018182131374377627,0.0004166396083298777,0.27586207131446877,0.013550693150885,0.03773869605266989,0.0004166396318423319
30,0.00018589370852143414,0.33235479515911803,0.010804101984853176,0.02872093963573456,0.00018589371022351977,0.0004325412514733077,0.28940886927062065,0.013757454887436234,0.03901457180970995,0.0004325412837312479
31,0.00016768758204125834,0.32752892721531,0.010321670095876383,0.02736884600757402,0.0001676875823129919,0.0003772768043033237,0.2857142865217378,0.013278858938020438,0.037191650706338765,0.0003772768367763168
32,0.00016950148281725912,0.32483675174252086,0.010342559875090983,0.027488782173215744,0.0001695014818757774,0.0004494255369935148,0.2623152720370316,0.014286038135476594,0.03940456061454242,0.0004494255262408681
33,0.00017150966758506145,0.32924733688118724,0.010421528867815577,0.02760519305138889,0.0001715096670120037,0.0004225553034101108,0.32389162121147946,0.013823569697222392,0.03908882731470862,0.0004225552784281283
34,0.00015755838222097126,0.3205264070062638,0.010025041311928507,0.026513107965465285,0.0001575583823176617,0.00046377911047753076,0.29926108579917493,0.014063897542655468,0.04050844601295852,0.0004637790712662124
35,0.000154489492825018,0.31968152239493647,0.00998448031819074,0.026305528157895844,0.00015448949428371037,0.00043379289618225336,0.291871924779098,0.014579471512674698,0.041843901438812905,0.0004337929163255449
36,0.00015086290482172653,0.31876503681382684,0.009902131993817339,0.02596194349845594,0.00015086290533226888,0.00045972100404272396,0.3263546811242409,0.015268755044439449,0.04221999206639863,0.0004597210130032629
37,0.00015774895384357146,0.32340474379886835,0.010107561400234239,0.02657356607759821,0.00015774895395443208,0.0003682030696052544,0.27955665494420845,0.01316974479980363,0.037026090740129865,0.00036820307698873846
38,0.0001533260736365938,0.3188079967275424,0.009980574610790004,0.02614106886560004,0.00015332607514821587,0.0003922924587475549,0.29064039702485933,0.014083933833013908,0.03990637740404735,0.000392292415736968
39,0.00014952406687135077,0.319180319176833,0.009846337769521527,0.025809927550959094,0.00014952406740273156,0.0003822294475047349,0.30172413998636705,0.013622444265251383,0.03647405905603188,0.00038222944033630376
40,0.0001362100430199359,0.314311491222859,0.009458990883306633,0.02477450471355195,0.00013621004281613573,0.0003889116392358495,0.24507389155221102,0.014095860326965455,0.039415436168315963,0.0003889116645404115
41,0.00013786350493872801,0.31421125072912054,0.00950864974271388,0.0248805803714858,0.00013786350509835065,0.00041077458778547647,0.2894088697844538,0.014117114470693571,0.038898807982432435,0.0004107745987531761
42,0.00013566776989680984,0.31454061283194906,0.009445047952190574,0.024659625336404915,0.00013566777028565556,0.0004438390359130523,0.24384236563309072,0.013262958109855946,0.03826680694124088,0.00044383902516040557
43,0.0001321942097565408,0.3112899538640414,0.00933580124374214,0.02437406078099211,0.0001321942102704173,0.0003667638261929806,0.2869458161110948,0.014241730220836078,0.03876059827179157,0.0003667637742218548
44,0.00012894210799589722,0.3122350794658695,0.009245565940260755,0.0240267978194597,0.0001289421067749717,0.0005938316786574576,0.3497536948748997,0.016079751389293837,0.04714874892032205,0.0005938316463995174
45,0.00012943935123280734,0.31429717124109346,0.009256576527565587,0.024138266650021164,0.00012943935137492568,0.00037213231560491997,0.249999998898929,0.013319745912156962,0.037726588987658176,0.00037213232478051185
46,0.0001234052363436009,0.3065356867671054,0.009086295970442342,0.023623057325171202,0.00012340523716672017,0.000342618330958726,0.26724137523638203,0.013543231013630117,0.03771455433641748,0.00034261828995529983
47,0.00012668343547321458,0.3115477147785805,0.00918751970558837,0.023802224511995713,0.00012668343520085587,0.00038248274523794667,0.2869458095046687,0.01409691470799041,0.038621072946437476,0.00038248274502289376
48,0.00012754718119885387,0.31047370959351134,0.009191923241260853,0.0238354527961767,0.0001275471820305169,0.0003472747040477815,0.25492610734671795,0.013160031977031618,0.037028691781859094,0.0003472747040477815
49,0.0001131450140347419,0.3056908016167654,0.008738113204370436,0.022638464603871398,0.00011314501487161458,0.0003381829828240684,0.2610837437689598,0.013178836485471926,0.03567202387405147,0.00033818300612146963
50,0.00011787578965601292,0.30826841637377805,0.008929804314281255,0.023092115695984867,0.00011787578993587347,0.0004424797042715707,0.2918719234578128,0.014681708751237157,0.04017698962076251,0.0004424796917268162
51,0.0001136126195551981,0.3044879146322296,0.008781426836032221,0.0226766878358319,0.00011361261919385916,0.0003727447909499138,0.2955665056194578,0.013610006369687067,0.037625045868857156,0.00037274480012550567
52,0.00011199983351840135,0.3057051217389388,0.008739505316419848,0.022495097576737958,0.00011199983304620179,0.0003413312574257854,0.2598522150604596,0.013854989915021829,0.03641884653769397,0.0003413312484652465
53,0.00011256219325451586,0.30614904471672966,0.008734854221038212,0.022584347367612737,0.000112562192794611,0.0003291604725880264,0.2598522165285543,0.012775277319763387,0.034085617983355895,0.0003291604564590563
54,0.00011154713408035035,0.3051036781926843,0.008657965531625192,0.02230750347646281,0.00011154713423851427,0.00032204410568478385,0.27709359723358906,0.012909803007330214,0.0352582088281662,0.00032204410747689165
55,0.00010463670256622862,0.30033508999328024,0.008469137076958707,0.02181433624369126,0.00010463670264958247,0.0003208314362377745,0.26354679612103354,0.01183586464414896,0.033593293940052026,0.00032083143960693716
56,0.00010366157595380153,0.3020248600037555,0.00846479379441062,0.02168095734698903,0.00010366157695238066,0.0004909194788976981,0.2598522227679567,0.014507908745682592,0.04131960576134069,0.0004909194950266681
57,0.00010296957389258676,0.3009222143515646,0.008439124155799643,0.021589220546186824,0.00010296957409242762,0.0003355535500214935,0.2672413793837496,0.012502216894564957,0.034781262764863194,0.00033555353410757635
58,0.00010378636120647807,0.30365734997279376,0.008454747723264204,0.02165811992586359,0.00010378636163554201,0.00040618575938227195,0.23152709234817861,0.014418556662322266,0.04102739677053367,0.0004061857647585953
59,0.00010172982777513957,0.30248310329875444,0.008388347905564501,0.021445288020604896,0.00010172982742421987,0.0003619671337165425,0.2709359639677508,0.013558421857434834,0.0383328211406622,0.00036196715859099855
60,9.807677038151482e-05,0.2998195676862176,0.008277861142148223,0.021158605740148596,9.807677091810523e-05,0.00038971727978601004,0.2647783215263207,0.013181042944636252,0.03668566234409809,0.00038971732301164985
61,0.00010375615716937658,0.3044306341042728,0.008473879145292967,0.021544156366461384,0.00010375615704767997,0.0003629924433840338,0.24876847444790337,0.014396893557876789,0.03860480139224694,0.00036299244180697894
62,9.788421254251547e-05,0.30066445305207734,0.008247497912895573,0.02105229950215173,9.788421226307169e-05,0.0002901569039149673,0.2684729089731066,0.01148640850714862,0.03170616265037671,0.000290156877140877
63,9.231088244549556e-05,0.2989460428919985,0.008056675434848302,0.020559419215797545,9.231088229962632e-05,0.0003549650411397962,0.2500000013579876,0.012920026084766011,0.03498548002262127,0.0003549650662293052
64,9.13053671621868e-05,0.2979293163528228,0.007995466912404917,0.020421998390004165,9.130536748184882e-05,0.0003495783209020795,0.23768473163320514,0.013146303529883253,0.03618157785294091,0.00034957836771193487
65,9.74830904516864e-05,0.2995904469921261,0.008255490997694378,0.02098929078278382,9.748309118436674e-05,0.0003595498953647728,0.23645320387896646,0.01380960729542037,0.03612618018033469,0.0003595498666910482
66,9.926590660945921e-05,0.3045738345808638,0.008280372586089985,0.02106415593027019,9.926590632480582e-05,0.0003823867990128384,0.2881773482696176,0.013192097046251955,0.03795080915497148,0.0003823867990128384
67,8.504304594258247e-05,0.29429201604938204,0.007739986595145565,0.01968563599978229,8.504304568731131e-05,0.00031628957811944883,0.26970443070815703,0.012127703179609893,0.03333334825712765,0.0003162895978326345
68,8.473910854712279e-05,0.2958672248584146,0.007773407595429511,0.019697933910863327,8.473910783194674e-05,0.0002618020817177517,0.24384236489904337,0.011147539865390714,0.030786665073903322,0.0002618020673808894
69,8.873259501306912e-05,0.2995188462306085,0.00793922265178782,0.020084911036569834,8.873259488803834e-05,0.00028264058504099933,0.2684729023666805,0.011544170014083092,0.03182120238582195,0.00028264058704816005
70,9.097695611805423e-05,0.2981441178154134,0.008005829706364705,0.02028694935671124,9.097695657316625e-05,0.0003396243295974094,0.26231526910084224,0.013960733775765144,0.03657297049580243,0.0003396242955473614
71,8.618330970222494e-05,0.29682667035323973,0.007788655546037503,0.01982553255875404,8.618330997833457e-05,0.00039789894114883865,0.2610837446498166,0.012700267769212794,0.0368299569585934,0.00039789892681197633
72,9.097527867515845e-05,0.3008076530421486,0.007991137616686298,0.020200179689268804,9.097527908484263e-05,0.0002529923578298747,0.23029556694289147,0.011833208002920809,0.031181696132559493,0.0002529923524535513
73,8.173145867794784e-05,0.28988143036060693,0.0076178147116709475,0.019287612630661012,8.173145862064207e-05,0.0002968090203856783,0.23152709469713015,0.012239237311364982,0.03413349011995522,0.0002968090490594029
74,8.164557724045461e-05,0.29391969347376706,0.007606587420145248,0.019223040371714167,8.16455775307344e-05,0.00032152266783830183,0.2598522183636726,0.013001280928516917,0.03574996605845801,0.00032152266783830183
75,8.280455009901605e-05,0.2949507397612642,0.007718992501934497,0.01949026290367214,8.280455000170044e-05,0.000260147660281945,0.24753694401439189,0.011624982759466607,0.031777985531634884,0.00026014769612410076
76,7.95358957054672e-05,0.292373125304272,0.0075714003381607735,0.01906167921827937,7.953589590530806e-05,0.00027234505419275294,0.28571428417278627,0.011756563306845762,0.032037801508392603,0.0002723450561999137
77,8.059810911895788e-05,0.2943206556676548,0.007634791567415274,0.01921030064665574,8.059810970910313e-05,0.00029444554204171696,0.24384236438521023,0.011521134585178838,0.03296042340142386,0.00029444554562593257
78,7.985154247043246e-05,0.29220128373277804,0.0075938563783708455,0.01911677225179324,7.985154231226853e-05,0.00031235040649496424,0.2783251231894117,0.011834787443427029,0.032931289649362046,0.0003123503761366583
79,7.695656564339578e-05,0.29638274773991197,0.0075197779866212205,0.018880859781080114,7.695656610705158e-05,0.00034469146253667275,0.2684729103310942,0.012702526533838564,0.03585849428008049,0.0003446914604219856
80,8.106804758115823e-05,0.2972133126178549,0.007624498541962054,0.019165443244814506,8.106804736422984e-05,0.0003467567211700594,0.2499999970638106,0.011834244399785702,0.03454747963971986,0.0003467567282309641
81,7.702810401040026e-05,0.29298888841917703,0.007469110821263547,0.0187701858808542,7.702810416856419e-05,0.0002500482393586962,0.2783251194824726,0.010568254232736938,0.02872558067474753,0.0002500482716166364
82,7.86384867506353e-05,0.2954089822564929,0.007531706012016392,0.018921468755961582,7.8638486917343e-05,0.0003333023176247511,0.3078817794916078,0.01358895709857418,0.036811007113365705,0.0003333022959044047
83,7.716239021461423e-05,0.29453545716609425,0.007492972497838654,0.018782067656971966,7.716239059324909e-05,0.0002887021912074891,0.2758620718283019,0.011315668111878075,0.032414786251527924,0.000288702175293572
84,7.30245312275812e-05,0.29161416064413953,0.007312063246612041,0.01833663566683718,7.3024531962137e-05,0.00029659989789435683,0.26108374428279296,0.011396459693758946,0.03149660389521733,0.00029659987370090176
85,7.71350482940945e-05,0.2957383444113876,0.007437250761572143,0.018708044510980862,7.71350485962522e-05,0.00036029669635681425,0.2598522165285543,0.01244470405075791,0.036324826972972,0.00036029669467223295
86,7.545719694881875e-05,0.2933468907057508,0.0073810542093649435,0.018515697104805374,7.545719732578654e-05,0.00024486470805094553,0.2832512341696641,0.010457715437073132,0.028299008601624976,0.0002448647671905025
87,6.957780411048553e-05,0.29159984037899755,0.007168750441305084,0.01788782812022283,6.957780468708579e-05,0.00028168789244123867,0.225369455448806,0.01093725148092937,0.03133296584848113,0.00028168791383900564
88,6.848617726908196e-05,0.28968094935776617,0.007130417636640371,0.01778111223173882,6.848617742349497e-05,0.0003104719189695298,0.23522167502365676,0.011199915130150142,0.032417185595396705,0.00031047194785830735
89,7.240108250278438e-05,0.2953660223180246,0.007292311727122132,0.018288746647682284,7.2401082963106e-05,0.00030196526495274156,0.2487684740808797,0.012062040758617406,0.03388677749397426,0.0003019652364940699
90,6.999215771319772e-05,0.2928886477760685,0.007183780503027275,0.01794364785815872,6.999215774612248e-05,0.0002725167334592429,0.2266009873504122,0.010824667496303913,0.029925513489566413,0.0002725167422047289
91,7.017969394739936e-05,0.2923874448182957,0.007203390543426013,0.017959912991622157,7.017969443710323e-05,0.0002670522715857372,0.24137931071185126,0.011472878427120853,0.03190226562945126,0.00026705225904098266
92,6.988514314032708e-05,0.2916714403467198,0.0071787095510996496,0.017941261395167184,6.988514308823093e-05,0.00028861902694027466,0.24999999816488164,0.011279775040783906,0.03161636214207839,0.000288619041277137
93,7.008971557437871e-05,0.29039695332916565,0.007176456903446214,0.017890366583935398,7.008971563522701e-05,0.00026536143265591173,0.2623152709359606,0.011109036930235737,0.03051224284864999,0.00026536141473483386
94,7.813296461778343e-05,0.2994758861521591,0.007494379653297608,0.01871423133170841,7.813296482283391e-05,0.00028597439211745074,0.2647783270316758,0.011719677037573213,0.03144903237853438,0.00028597437240426507
95,7.515220736124123e-05,0.297141712363342,0.007347679190052361,0.01837123210826454,7.515220775904749e-05,0.0002786658396109998,0.18842364348507867,0.011477879996370212,0.031676793159008614,0.0002786658521557543
96,6.145963340604218e-05,0.28518444353300404,0.006783116321587398,0.01689209468196064,6.145963315743933e-05,0.0002808878170309148,0.21798029490585985,0.011678674785888254,0.032320829814878,0.0002808877919414058
97,6.640420450574654e-05,0.28799117957945475,0.006980177175558985,0.017383098457512618,6.640420500941218e-05,0.00023081201498409312,0.24630541747133133,0.010656789179175652,0.029550937669617788,0.00023081200132823177
98,6.483390228762812e-05,0.2875902170164094,0.006948110684388642,0.017259280143069013,6.483390238494374e-05,0.0002834193230783819,0.25615763767012234,0.010646387186874016,0.03140830925752964,0.0002834193159099508
99,6.746412229938801e-05,0.29137071821851845,0.0070702767791050464,0.01759846916806129,6.746412235481832e-05,0.0002555562709925554,0.24753694485854633,0.010803174814714,0.02972224141870226,0.0002555562657237585
