epoch,huber_loss,l0_loss,l1_loss,linf_loss,loss,val_huber_loss,val_l0_loss,val_l1_loss,val_linf_loss,val_loss
0,0.00178474266730368,0.6249999995595716,0.03538917640909281,0.08856723189476853,0.0017847426685306486,0.001348724875775776,0.80049261318639,0.034457031215352964,0.08280056814107989,0.0013487249474600875
1,0.0010920971605440579,0.52779527828618,0.026501538035333814,0.07121274620785359,0.0010920971629196426,0.0008752351253135175,0.5726601013115474,0.024711650754944445,0.06254247010781847,0.0008752351200088785
2,0.0009340078845469825,0.50890708887054,0.02439847684039964,0.06594777928390226,0.0009340078819780168,0.0008423317615470385,0.5578817622414951,0.02472891097915877,0.06415912354814596,0.0008423317454897528
3,0.0008077982984548752,0.48646751983712827,0.02269517327618822,0.06145690421046008,0.0008077983040395831,0.0006729059748287345,0.4926108380256615,0.0209433911230617,0.054654158688531136,0.0006729059569076566
4,0.000704454357528775,0.46551723860614774,0.02095042454572355,0.05709498638694967,0.0007044543629601119,0.0005576489903285108,0.43842364532019706,0.017863278139584465,0.04860289393020381,0.000557648987604507
5,0.0006319941309839657,0.44493928010527356,0.019670993800304154,0.05390158728527297,0.0006319941371788239,0.0005079773954331434,0.513546803461507,0.018837480369973653,0.047979074984495274,0.0005079773560067721
6,0.0005666884419746124,0.4299461542774768,0.018552792031411414,0.05088615735510751,0.000566688444391874,0.0004808579626311938,0.4384236479627675,0.01661261822110767,0.04596598393150738,0.0004808579419861121
7,0.0005118180440932659,0.4193349742564375,0.01760482993507168,0.0481878578484055,0.0005118180483859892,0.0004202698515395501,0.4384236416499603,0.015305791164890592,0.04228747254375167,0.0004202698873817058
8,0.0004717938514094042,0.411673730337643,0.016788580435627885,0.046015273740794435,0.00047179385527785643,0.0003890194016161233,0.4532019673603509,0.014930136644010767,0.04120801552542912,0.00038901941322898174
9,0.00043898961679649846,0.402909839978837,0.016175750987846453,0.044349651308921226,0.0004389896183735533,0.00047200680506791865,0.4581280719176889,0.01715280837264701,0.045806684132133214,0.00047200682470941997
10,0.0004142624687999374,0.3979407717334144,0.015747938067854468,0.042993198719820096,0.0004142624691033454,0.00036224171380498654,0.4113300545462247,0.014162852603189757,0.03943386785869528,0.00036224173531027997
11,0.00037990317100869116,0.39229865854774393,0.015083570786297188,0.04130454344122489,0.0003799031725782442,0.00032641848236989926,0.38546798308494645,0.013044735416769981,0.03658716492538382,0.00032641847340936036
12,0.0003636354739017263,0.3824034819928064,0.014764861752291799,0.04025955809111061,0.00036363547718670157,0.00032356973442712367,0.39285713948052503,0.013445414244908417,0.036211636614770136,0.00032356973170311987
13,0.00034690339474066515,0.37999770847269865,0.01431726932909516,0.03910324678101522,0.0003469033942613805,0.00031364993116270124,0.35467980442375974,0.012342702349638704,0.034553271264131435,0.000313649941915348
14,0.0003248541946309706,0.3733388704950559,0.01397201922125854,0.03797653651624399,0.0003248541961550957,0.000369989108813243,0.39408866598688325,0.013747830888981303,0.0370063627404826,0.00036998914909982606
15,0.00031749497428283554,0.36987341006199703,0.013816166089414297,0.03746707418092557,0.0003174949774902917,0.00028777234948737995,0.40270935843143557,0.013400990268206361,0.03498387245892597,0.0002877723674084578
16,0.00030164921173002004,0.36980180997819284,0.013429977916838743,0.0364653167711405,0.00030164920922356976,0.0003173342406155606,0.38793103580404387,0.013590620835242893,0.03709975133645417,0.0003173342101497282
17,0.0002876937617083162,0.36206896511607595,0.01315233609317429,0.03570096587235387,0.00028769376225761813,0.00038596384156738486,0.42487684273954684,0.01339784189324661,0.037046850379097634,0.00038596380938112903
18,0.00027422675287109964,0.3602646360572213,0.012864961518045791,0.03482378608567316,0.00027422675150242943,0.0002694300958242157,0.3608374390108832,0.012406594317241256,0.03390902560663047,0.00026943008234756516
19,0.0002640541932558912,0.3591763085627736,0.012681001241928419,0.03417557653450248,0.000264054195902376,0.00030022095468783006,0.3706896537043191,0.012061091346363422,0.03312205198436535,0.0003002209601358378
20,0.0002506631137337849,0.3516582662020097,0.012364450168803031,0.03331445209967498,0.0002506631145539868,0.00037944538934842173,0.3435960601409668,0.012821005827063704,0.038704978072731364,0.00037944539250253146
21,0.00024346415457787699,0.35185874693854485,0.012127679566277567,0.03264445289194853,0.00024346415364764803,0.0003048506933275904,0.32758621497107254,0.01189382079291373,0.03407725969815783,0.0003048506996358098
22,0.000230654127865818,0.3445268651302607,0.011937116307742798,0.03204438276322184,0.0002306541294382884,0.00024882437361076274,0.34113300595377466,0.011427002298310765,0.030841672325075554,0.00024882435389757707
23,0.0002285495682278148,0.3462166352363329,0.011826301626784276,0.03170746834456804,0.0002285495690480167,0.00024831651700224744,0.366995076827815,0.011113264565837794,0.030462723849295395,0.00024831651614203574
24,0.00021088464094704806,0.3397296379045162,0.011441759137473664,0.030662737494537934,0.0002108846420619058,0.00023803560115142353,0.3645320182363388,0.01053514179723163,0.027963738420546936,0.00023803559312278065
25,0.00021163112061332984,0.3416771690497449,0.011472617754744069,0.030587481620529152,0.00021163112107552693,0.0002446733606523912,0.34975369619618496,0.011171811150175891,0.030332733303528703,0.0002446733539499081
26,0.00019874086156448922,0.3356484146245649,0.011125813343468616,0.02965643875796366,0.0001987408603558584,0.00022783520470345806,0.3275862026390771,0.010311710290390576,0.028966107584646184,0.0002278351993271347
27,0.00020306663890790673,0.3380398678573386,0.011246380477860743,0.02991046828779756,0.0002030666398560568,0.0002808131558133583,0.3768472893191089,0.011985340586913924,0.0326302767423867,0.0002808131213332045
28,0.00019403437469971398,0.3304788637784683,0.011010193793571054,0.029344977493994197,0.00019403437494977554,0.0002800800617218816,0.34605911344730206,0.010686885652687456,0.02911918494721939,0.00028008007509100567
29,0.00019146952639851938,0.3325552760450233,0.010941325177146539,0.02904500110103258,0.0001914695288991349,0.00022316916448321064,0.31773398978075956,0.010508288959674353,0.029970631517212968,0.0002231691497162425
30,0.00017982664697754197,0.32734276641786325,0.010658731902649172,0.02826067414506032,0.0001798266465503535,0.00023833685812627521,0.3522167511174244,0.011137971594892992,0.030397234493728928,0.0002383368608144369
31,0.00017954686792689444,0.32699908439131015,0.01061204314154627,0.028175821613619822,0.0001795468678606281,0.0002532241990866617,0.37192118417453296,0.010850721153572862,0.029219100820680556,0.0002532241955024461
32,0.00016971404645102053,0.3251804341762142,0.010408729038682778,0.027506325473614795,0.00016971404686070472,0.00023346475748175507,0.3559113316641653,0.010907956178809328,0.030238995530408593,0.00023346474852121613
33,0.0001664151100553461,0.32383434550092177,0.01028943711769927,0.027232515806500164,0.00016641511185703958,0.00022798949557819903,0.3263546798763604,0.011217750608921051,0.029623883854359243,0.00022798950052441654
34,0.00016632196309384855,0.32254553908115813,0.010335705115339617,0.02726344440355581,0.000166321962708337,0.00019382366696527465,0.3571428562620003,0.010308287179859108,0.02627979658470659,0.00019382368037024092
35,0.00016482663398755814,0.321586093507807,0.010250861479955511,0.026936739847138277,0.0001648266346089611,0.00020662112157359452,0.32758620484121914,0.010508934269874847,0.028075550770010855,0.00020662113591045684
36,0.00015956187396277087,0.31928056008368644,0.010108845355367931,0.026548959218052663,0.00015956187365061072,0.00020579015768019555,0.33497536916450915,0.009643523316151403,0.0266671947621066,0.00020579014828955074
37,0.00014834997682592162,0.3155286983142045,0.009819093004559574,0.025779287416694063,0.0001483499776665452,0.00018381012947438514,0.33128078575498365,0.00972449617102522,0.026447804837391294,0.00018381012363211376
38,0.0001457631874494368,0.317762630566253,0.009762571469559174,0.025585621717332706,0.00014576318785578684,0.00021175804166318252,0.3066502477001087,0.009453544471174332,0.025900645667843045,0.00021175804252339427
39,0.0001468358336515412,0.31926624027262956,0.009805133987857446,0.025634960871352433,0.0001468358340333018,0.00020705799074967397,0.34975369619618496,0.010532051779036157,0.02851309527280589,0.00020705798135902916
40,0.00014813144473763262,0.31965288213735965,0.009811632272023791,0.02565364704634544,0.00014813144529443633,0.0002455744052075281,0.3251231566732153,0.010641568505521773,0.028015025629859254,0.00024557442147986677
41,0.00013702587146488881,0.31348092633979485,0.009480983247251336,0.024729895425102823,0.0001370258725603668,0.00021738723365433992,0.3288177344305762,0.009854569985288117,0.02720905677988905,0.0002173872103569387
42,0.0001314444282356459,0.3151563765703676,0.009347416871975349,0.024318991243234955,0.00013144442863532763,0.00020715013157726573,0.35344827116416594,0.009654642257087042,0.02701635533035389,0.00020715012978515793
43,0.00013999098546361476,0.31524229692656885,0.009602185878868533,0.024990491438023288,0.00013999098671475606,0.00019931370791579996,0.3374384259942717,0.009390001194413954,0.025772137549049747,0.00019931372268276813
44,0.00013188157997794453,0.3128794829838805,0.00935918765007807,0.02428502872840606,0.0001318815806101835,0.00020596825290761494,0.3916256126805479,0.009823168981178054,0.026501396781044642,0.000205968243947076
45,0.00013035084331768638,0.30964314422648803,0.009338491071459011,0.02419711983142689,0.00013035084310034122,0.0002714278175853413,0.36206896727895505,0.011702300742121753,0.030442887421679027,0.0002714277942879401
46,0.00013378581627654357,0.31444037206678377,0.009447937440866517,0.024464316063417896,0.000133785817219484,0.00018690601728880648,0.28078817733990147,0.009237371697067627,0.024680158655558313,0.00018690599399140526
47,0.00012977871237267833,0.31018730784226617,0.009246340124663114,0.02397988186936848,0.0001297787135742241,0.00019725061156798448,0.29064038909714796,0.010171647903881049,0.02676427996547645,0.00019725060938161298
48,0.00012220210957444142,0.3053041592936825,0.00902232031002581,0.023376620330129008,0.0001222021097605289,0.00018333649739343214,0.3362069000751514,0.009071824104144362,0.024333426462752477,0.0001833365188987256
49,0.00011773916180166125,0.3085834586228725,0.00893094892855676,0.02306827507880678,0.000117739162781069,0.00018221244807074103,0.36206896581086034,0.009730074972171208,0.02619051303842972,0.00018221244893095278
50,0.00012600239347560844,0.31548573726954393,0.009198890469815962,0.023754904252998827,0.0001260023944152147,0.00020338341398330937,0.3694581277851988,0.010231621577197989,0.0266389028522475,0.000203383383517477
51,0.00011624316739098388,0.30716576989194294,0.008834602593483017,0.022805981352427684,0.00011624316705235886,0.00017706386024835452,0.3362068964049147,0.009444860140494818,0.02603879430574443,0.00017706387949559214
52,0.00011242372923174044,0.3055762405570109,0.008729108129647742,0.02250681922570774,0.00011242372902814866,0.00019221881325953076,0.3300492603496965,0.009034917933013052,0.02427300437367315,0.00019221880243519972
53,0.00011805194801688877,0.30526119943886143,0.008947691349235844,0.02300276535065235,0.00011805194838156187,0.0001733813496774494,0.31773399895635146,0.0088762300148643,0.023517643225383876,0.00017338136555552437
54,0.00010890404964748194,0.30315614661470913,0.008645138212685888,0.02224326894160538,0.00010890405008321419,0.00018271714164485485,0.34729064156856443,0.009148801089691117,0.024161181490629766,0.0001827171354441619
55,0.00011190831389517485,0.3032850277979174,0.008740460371076019,0.02243842493344953,0.00011190831495418553,0.00019061854308450438,0.359605910302383,0.009909630693458571,0.027121941985681727,0.00019061855921347447
56,0.00011375225259259675,0.3059628835019001,0.008814525914516418,0.022623042888411892,0.00011375225217207657,0.0001857009601780429,0.40270936048676814,0.010187943190739953,0.025681819583248035,0.00018570095347555978
57,0.00010562838841777039,0.30040669132069714,0.008555021097149321,0.021867556680326323,0.00010562838844548555,0.00017623977260084896,0.34359605779201524,0.009098043071170306,0.024534866213798523,0.0001762397757191165
58,9.777095896352208e-05,0.2969985113942564,0.008266243222657699,0.021118417096730017,9.777095927130617e-05,0.000183159155030494,0.3288177372199561,0.008958914519053668,0.024901044981673434,0.00018315915008427648
59,0.00010353115260770612,0.2991894840057233,0.008470657748172438,0.02168058450630914,0.0001035311527327369,0.00017983720869684978,0.33620689581767677,0.009386819301017106,0.025117621936014134,0.0001798372360444146
60,0.00010275552928262238,0.2995188464025975,0.008433205268649527,0.021553660307417982,0.00010275552940952861,0.00016701038355659235,0.3004926117182952,0.008909539700361896,0.024335146399921383,0.0001670103929830793
61,0.0001032160561688264,0.29864532053675463,0.00843824287799668,0.02154598181754878,0.00010321605551241482,0.00017172130439235494,0.3128078794978522,0.008579933536445419,0.023255722367851606,0.00017172129363970823
62,0.00010312282527396065,0.30089357369452946,0.008430275122499246,0.02154451194262502,0.00010312282614396648,0.00018574529162004792,0.3115763480733768,0.009169999888542984,0.025194442716284925,0.00018574529427236745
63,9.498348801862315e-05,0.2955092231104267,0.008124270367147293,0.02071352621789235,9.498348866274003e-05,0.00017586326340713487,0.32142857289666615,0.008963105470639438,0.023501656132892436,0.00017586326924940625
64,9.445376398502971e-05,0.2987455617457625,0.008140620410657658,0.020689595039916422,9.445376391209509e-05,0.00017575498314355295,0.33620689545065313,0.008775974747729419,0.023416911614278856,0.000175754981315603
65,9.389439669257642e-05,0.2965832289578456,0.00813533183126858,0.02065032517054369,9.3894397514237e-05,0.00016637876910975276,0.3300492643135522,0.008700848240497078,0.024068483752496723,0.00016637878523872285
66,9.571658632176153e-05,0.296497309307098,0.008209325833392707,0.02086573874919084,9.571658623694899e-05,0.00019286887512629476,0.2943349766173386,0.009339170163414748,0.025651668707652044,0.0001928688895706835
67,9.875376550049818e-05,0.29934700492755395,0.008273341572181035,0.021102799277106933,9.875376480574382e-05,0.00019080080550016028,0.34359606043458574,0.009567575836600048,0.025343415836615514,0.0001908008170771766
68,9.254770198870925e-05,0.3010940550358001,0.008083723088625469,0.0204590359658002,9.254770275264729e-05,0.0001731334635721212,0.3411330013292764,0.008941983409556263,0.024271407435313235,0.0001731334487693109
69,9.104980379484e-05,0.2915998410695142,0.007999669259062203,0.020314562934534985,9.104980403448233e-05,0.0001685363780322893,0.30911330357560973,0.008842330189706217,0.024294337505483862,0.0001685363784982373
70,8.93242505675224e-05,0.29841619980766787,0.00791358131547667,0.020104462017711374,8.932425099283543e-05,0.0001710860234363523,0.346059115135611,0.008058331624646052,0.022207455902264035,0.00017108602698472571
71,8.449626288539608e-05,0.2947502586927006,0.007800631108627096,0.01972636810369147,8.449626266325807e-05,0.00015092598147612303,0.3423645342218465,0.008395044474857928,0.02252605780408594,0.00015092597609979967
72,8.686413416378547e-05,0.2955378632019893,0.007870742283862434,0.019905270888047714,8.686413415169915e-05,0.00017214670845134222,0.3300492631390764,0.008289008511441388,0.022195699454968788,0.00017214669945496113
73,8.623393321487267e-05,0.2951082605746948,0.00784719260323053,0.01982108088133833,8.623393337824622e-05,0.00017352445790712754,0.27586206580911365,0.007876198651645277,0.02150071817886066,0.00017352445342685806
74,8.886312121594064e-05,0.29502233977934544,0.007912100837489673,0.019992481957046022,8.886312111362379e-05,0.00017868900491530305,0.34113300595377466,0.009764651566046506,0.02527962542446376,0.00017868900760346473
75,8.918739425339462e-05,0.29685531079646227,0.007943587092717287,0.020070549976159608,8.91873942429754e-05,0.00019269287196966347,0.30911330137346765,0.009037526306040182,0.024530548886785953,0.00019269288322410036
76,8.155591944634316e-05,0.29098407674855226,0.007659939539006693,0.019232902515881035,8.155591920482538e-05,0.00018446771443042712,0.30049260290972707,0.009289795436478895,0.02381186208371165,0.0001844677130684252
77,8.438668589325466e-05,0.2967550701529269,0.007748857048411733,0.019517572062030933,8.438668589513012e-05,0.00016430700353012428,0.3337438454475309,0.008325039695838254,0.022515034881131404,0.00016430700041185676
78,9.718088505838536e-05,0.3006787729881783,0.008189765752197892,0.0206725538210227,9.71808863361999e-05,0.00021844373524459675,0.3386699491240121,0.009336326250650466,0.024555746915525402,0.0002184437397248662
79,8.252226054708543e-05,0.29161416058780565,0.007678807380476168,0.019323229504703728,8.252226118265854e-05,0.00017066255904730693,0.2894088659674076,0.009051958339866894,0.02475549176959275,0.000170662567111792
80,8.022892790107872e-05,0.2937621733389034,0.007590678828763204,0.01911620041290408,8.022892743742293e-05,0.00017244329741551527,0.3004926120853189,0.008726540939157526,0.023096196114870127,0.00017244328397470686
81,7.666705602698385e-05,0.28784797902945897,0.007433965062784019,0.018722496679150227,7.666705570065352e-05,0.00015861232460503985,0.28817733821316893,0.008400331138922223,0.02268894036011449,0.00015861232639714762
82,7.693516256157215e-05,0.2923015243536945,0.007495015038415083,0.018783429962911394,7.693516183931103e-05,0.0001551128188842045,0.31527093926380423,0.008148542456237112,0.022045489932809557,0.00015511281182329983
83,8.664720545724571e-05,0.294993700255816,0.007840711080790017,0.019720970739578805,8.66472061257436e-05,0.00018125628293956414,0.312807883168089,0.008018709021836079,0.02238384836119384,0.00018125628562772582
84,7.427779942239132e-05,0.2879768593151663,0.007314306443912644,0.01832205561663017,7.427779970892017e-05,0.000172851902578689,0.35837438497050056,0.008493879293848582,0.023184958615987173,0.0001728519016826351
85,7.452864113127099e-05,0.2883778216247092,0.007363207499296163,0.01845226899137865,7.452864145426716e-05,0.00017948584094743377,0.32389162840514346,0.008755541892878234,0.023813833010020515,0.0001794858315209468
86,7.8784794752091e-05,0.29114159833529324,0.0075459843547593325,0.01888487986868841,7.878479541371219e-05,0.00014582949710879108,0.33128079126033877,0.008513078010948421,0.022263297260615038,0.00014582949284357453
87,7.960202374074043e-05,0.28979551025406713,0.0075388866119186606,0.01895900894950161,7.960202408978467e-05,0.00017305445086596342,0.37192118226600984,0.009019912495805419,0.02434733618289379,0.00017305445445017897
88,7.502982080524417e-05,0.28790525911271964,0.007365150232612105,0.018381507007842815,7.502982049746008e-05,0.00016478081383619668,0.31773399594675733,0.008999437786491928,0.023000111986924275,0.00016478081566414664
89,7.451487239777797e-05,0.291671440793123,0.007344756526997347,0.01834738501605265,7.45148723838162e-05,0.0001591759246545775,0.33990148150274907,0.008046639108287143,0.022844502757408937,0.00015917592151838887
90,7.448041418061062e-05,0.28571428641931257,0.007351273323133672,0.018406743485779715,7.448041412830608e-05,0.00020426820275881854,0.35837437983216913,0.009370617167060745,0.02669359231597097,0.0002042682027229764
91,7.842189531044563e-05,0.2919721627233023,0.007506749811948757,0.018789976441180523,7.842189459485283e-05,0.0001565604550239809,0.3004926080480585,0.008345690608630186,0.022550831103853405,0.0001565604550239809
92,7.293415207716079e-05,0.28740405563087124,0.007276923231279499,0.018176202393209575,7.293415256332213e-05,0.00014983774246341144,0.2943349771311718,0.008049360781522661,0.021116482282029878,0.00014983774110140954
93,7.158265551925335e-05,0.2885353424782564,0.007200092291067878,0.01798597272259946,7.158265481595524e-05,0.00015651400294498967,0.32512315799450053,0.008359103110329858,0.022664415434443305,0.00015651402513128408
94,7.648440771300731e-05,0.29210104340035925,0.007407677202827026,0.01847670860399704,7.64844079976607e-05,0.00015890154245067525,0.3522167502365676,0.008398821868754814,0.02235429685360986,0.000158901543776835
95,7.637254076616113e-05,0.2937048922356584,0.0074278221843660265,0.01851501328976707,7.637254086514383e-05,0.00018508011855705746,0.3275862039603623,0.009130754677826548,0.023777268423235475,0.00018508013339570993
96,6.641126745405434e-05,0.2865305310009592,0.007005698764314757,0.017414727897904683,6.641126740362526e-05,0.00014347444360690383,0.316502467531876,0.0076853549337299,0.021091381996282802,0.0001434744355424188
97,7.100015428497392e-05,0.28585748777846753,0.007190111859224977,0.017931036276162195,7.10001538404895e-05,0.00016406780644147908,0.3140394109223277,0.008672045578198333,0.024068050462697527,0.0001640678010830768
98,6.503233908370896e-05,0.28684557267860633,0.006982167386161269,0.017305244207177353,6.503233915143396e-05,0.00014676067235422542,0.32019704969352103,0.008205612327701646,0.021806523066215916,0.00014676068762298376
99,6.982577623677907e-05,0.28940886800993704,0.007186566717456012,0.01788051529588072,6.982577632888508e-05,0.00014171094121167717,0.32266009698066805,0.007509759037750842,0.020017516735041964,0.00014171095398940567
