epoch,huber_loss,l0_loss,l1_loss,linf_loss,loss,val_huber_loss,val_l0_loss,val_l1_loss,val_linf_loss,val_loss
0,0.0017747511138932496,0.6218495802489298,0.03508919160328707,0.08817489882117047,0.0017747511163105111,0.0019268834954265304,0.46182265334528655,0.03845945888845791,0.10153512190568623,0.0019268835401575408
1,0.001092030304982832,0.5320197026239855,0.02660637732728785,0.07133320985479936,0.0010920303030656935,0.0016113308945377104,0.4014778264197223,0.034174832327318896,0.09142895369547341,0.0016113308211329756
2,0.0009204927475357107,0.5031074548791209,0.024153639487529563,0.06551315908235214,0.0009204927379683558,0.0013688360650569494,0.35714285908808263,0.030987900337708995,0.08807591301173412,0.00136883592340875
3,0.0007901193510668657,0.48038148436674427,0.02224356151719501,0.06070399955610684,0.0007901193509151618,0.0012356763088552675,0.332512317473078,0.03023214310664555,0.08241050374772162,0.00123567632319213
4,0.0006985378494775991,0.46392770977907405,0.02084248756040483,0.05697990374024866,0.0006985378471020143,0.0010836430621136144,0.3128078805989233,0.02656035166545748,0.0771452797017074,0.0010836431544430077
5,0.0006282203258154317,0.4536315707464455,0.019682060111111767,0.05377899858874818,0.0006282203273308047,0.001063143485225737,0.36206896860024024,0.027146590506575377,0.07445039952476623,0.001063143485225737
6,0.0005706007699116319,0.43142112307374264,0.01853796225072092,0.05088331485703811,0.0005706007728890315,0.0009207925965706703,0.3460591160164678,0.026017756802328113,0.06973392846695896,0.0009207926269648184
7,0.0005178184962219367,0.4219555490607453,0.017592349241506138,0.04838120714103128,0.0005178184959535373,0.0010128120491464663,0.326354678041242,0.02622954051923282,0.0747922901522937,0.0010128120204727419
8,0.0004729463979007247,0.4121319723344024,0.016769873097879084,0.046165346014237114,0.0004729464011932018,0.000967550599830583,0.2980295585587694,0.022868607881400972,0.0642864066795469,0.0009675506285043076
9,0.0004372879536690072,0.40417000713582873,0.016203829782901538,0.04442397365554602,0.0004372879516335062,0.0007032845663927551,0.29802955804493625,0.020652890315490405,0.05750433836370853,0.0007032845904786837
10,0.00040324894002023964,0.3935301864359889,0.01542813908614953,0.04241986516109856,0.0004032489391791993,0.0008960634557727559,0.2832512332154025,0.024944611847987904,0.06362647748566026,0.0008960635113997816
11,0.000384078189485924,0.3876446324558189,0.015013367933562472,0.04122636011074121,0.00038407818860404025,0.0007373254271361775,0.31773399161587795,0.02144836115059007,0.05790052757474589,0.0007373253769571594
12,0.0003538532281640324,0.37560144309046234,0.014448994385698008,0.039697209684019685,0.00035385323043542476,0.0008116326836199303,0.3201970447754038,0.02236562682857067,0.06440294996417802,0.0008116327320785248
13,0.00034892925826627213,0.37545824260362876,0.014339912286780878,0.039197294060292355,0.0003489292588005703,0.0007241875761339964,0.2697044337911559,0.022187288593629312,0.060875826813464096,0.0007241876073883562
14,0.00032273732803782685,0.3711335779965668,0.013852945078413574,0.03778099166057591,0.00032273732894138257,0.0006209996397311115,0.30049260672677325,0.019401484439745913,0.05327838132607526,0.0006209996262544611
15,0.00030890111259523206,0.36320025210088164,0.013532444139818123,0.03688544165624715,0.00030890111688795536,0.0006756249609061522,0.2820197064154254,0.020228572198983483,0.054813935563628895,0.00067562497882723
16,0.0002970668328885157,0.35848894485962024,0.01321885622587571,0.03609138248307569,0.00029706683403754857,0.0005862241008162976,0.27709359723358906,0.018553497976270216,0.050692946819836285,0.0005862241151531599
17,0.0002793431111569829,0.353877879127814,0.01290852771342178,0.035146048752790954,0.00027934310944822895,0.0007311396299072271,0.2709359611783709,0.020906296939465212,0.055974766593701736,0.0007311396218785842
18,0.00026738778402534953,0.34976801533977087,0.012683637518677269,0.03438435377985639,0.0002673877861021107,0.0008047415001496783,0.3608374404789779,0.02403522997617428,0.05971585357277264,0.0008047415574971274
19,0.00026139172523141353,0.3469612787632697,0.012493292320697224,0.03381683696479609,0.00026139172603369435,0.000586619124383083,0.25123152724040554,0.018100124320446564,0.05141008579231835,0.0005866191583614466
20,0.0002450037626603415,0.34381086115544707,0.012134561006676267,0.03282866986863838,0.00024500376152089434,0.0007191967578109335,0.30911330467668074,0.021620713890039275,0.059125035780991236,0.0007191966869868338
21,0.0002404963169524914,0.3493384129122055,0.012064584163226156,0.03251428186026263,0.0002404963148553085,0.0007891748289765763,0.30665024718627554,0.022716940155830877,0.06157860503041098,0.0007891747653209077
22,0.00023229129828285626,0.34434070418173673,0.011868572486998756,0.03203154621891842,0.00023229129834828903,0.0005529478841502531,0.25123152724040554,0.017946855444919887,0.049578626442865786,0.0005529479334690595
23,0.00022047635856826736,0.3427941354911534,0.011590481448281838,0.031269901357731986,0.0002204763581202404,0.0006967783174959237,0.22413793074086383,0.02067336446509279,0.05577429207821785,0.0006967783130514963
24,0.00022403409671694578,0.3401162796544447,0.011671305984887713,0.03129473440340567,0.00022403410066583444,0.000530948604083175,0.310344833091562,0.018348793595515448,0.047514684663470745,0.000530948609387814
25,0.0002018953536528654,0.3381544285803702,0.011210403013566862,0.03000309087079147,0.0002018953553962112,0.000582549233835998,0.3017241351416546,0.018270109628735504,0.048632471946072696,0.0005825492572050835
26,0.00020133578769546988,0.33245503586026753,0.011134910121750437,0.029834910571811597,0.00020133578731329246,0.0005653771274181752,0.31403941150956555,0.01832152805818713,0.04950298776327096,0.0005653771543714764
27,0.0001903815133355911,0.33039294392030966,0.010856590917751556,0.029063007379391784,0.0001903815148643007,0.0005285169432063592,0.2586206913434813,0.0181145555353517,0.048462164372646166,0.0005285169235648579
28,0.0001935885240403788,0.33284167806940235,0.010931593042794393,0.029177747439153075,0.00019358852498852885,0.0005846964527985879,0.29556649754493697,0.018070098150319652,0.05006310650207139,0.0005846964859167398
29,0.00018851142309586456,0.3333285607082599,0.010883667096363328,0.028925428399789482,0.00018851142313003964,0.0005425782931574019,0.25369458326271604,0.017659799567437524,0.05104228670667545,0.0005425782465625995
30,0.00018138223701765066,0.33122350874618645,0.010690090389253724,0.02838847522784623,0.00018138223668423526,0.0006947982544480855,0.32512315300297856,0.021359887075027808,0.05344835318294652,0.00069479830290668
31,0.0001718190830255864,0.3272568450600288,0.010408754446643511,0.027622488742893348,0.00017181908227540174,0.0005075919800013616,0.2758620663229468,0.017238258466748476,0.04647519178872038,0.0005075919863095809
32,0.00016532159241623866,0.32668404203296214,0.010234934355985078,0.02710476787845141,0.00016532159323268963,0.0006477519694321188,0.2709359584623957,0.02099133432462004,0.053234634269487685,0.0006477519614034759
33,0.00016534500211094026,0.32550979582325046,0.01026266903086971,0.027105333987290144,0.00016534500383344757,0.0004982345023827875,0.25123152261590725,0.01660401508982839,0.04478414011706272,0.0004982344916301407
34,0.00016259651173157474,0.32480811137782434,0.010190524610519317,0.026929753240159914,0.0001625965126201268,0.0004832973024748229,0.23891625278101766,0.01630051384950653,0.04566904671233276,0.0004832973105034658
35,0.00017454632387780015,0.328015810550659,0.010470936270421081,0.02759216480880638,0.00017454632355146983,0.0004917213567383496,0.2684729078720356,0.017552663209696708,0.04485442852739043,0.0004917213674909963
36,0.00015102056148452595,0.3205407268907254,0.009868476375383085,0.02599039798369231,0.00015102056355420206,0.0005452603080511791,0.2500000025691657,0.01727419234628748,0.04927495232062974,0.0005452603107751829
37,0.00015226385903551913,0.3213283318984835,0.00992281825688393,0.02607325365486707,0.0001522638587471148,0.0005026568939365685,0.27093596433477446,0.017483717537131804,0.04574835280259255,0.0005026568939365685
38,0.0001442699490479733,0.3216863335841627,0.009671312119586224,0.02542311306112475,0.0001442699490465146,0.0005618145461698875,0.2660098551529382,0.017241655302972628,0.04951314037216121,0.0005618145425856719
39,0.00014630031388010033,0.3209846500119115,0.009732877791300458,0.025579449356110975,0.00014630031474781392,0.0005413171493452905,0.20689655062306692,0.01787914825245518,0.04883695973698141,0.0005413171636821528
40,0.00014034907889853103,0.3233045031830732,0.00957740021784506,0.025094075964055107,0.00014034907927362334,0.0004751830619273551,0.2598522146934359,0.016764960935330156,0.04484159240655124,0.00047518304759049286
41,0.00013953115050501758,0.3193521603211284,0.00957597260353691,0.02501392380665932,0.0001395311509344983,0.00045037633003070583,0.33866995095913044,0.015937467881024178,0.04132894529350873,0.00045037635512021486
42,0.00013742570262254326,0.31945240080633147,0.00946721946937979,0.024738103029691472,0.0001374257028971942,0.0004697618768045798,0.24014778200335105,0.015391947655695412,0.042325295452854315,0.0004697619054783044
43,0.0001326553026620682,0.31896551827416686,0.009382701884038249,0.024386490788748206,0.00013265530469715246,0.0005194678579473162,0.27709359539847067,0.01686751953523441,0.0464625935175736,0.0005194678337180189
44,0.00013563933916828445,0.3174046293039313,0.009419645672535589,0.024546425818188354,0.00013563933942730653,0.000623347327598311,0.2450738889830453,0.017435850603093068,0.051871268308074606,0.0006233473688884744
45,0.0001310488267299365,0.3201111246611821,0.009264926184453168,0.024128803327489293,0.00013104882697999805,0.00044570619505921865,0.27709359723358906,0.015854247396105324,0.04280079706695867,0.00044570617082992137
46,0.00012341375066790902,0.3140250891182469,0.009083840184974021,0.023606400062920186,0.00012341375157959178,0.000497112335812695,0.2709359597102762,0.01678861749675033,0.045947404440694256,0.0004971122963863237
47,0.00011661594871730683,0.31280788269607945,0.008880418369117413,0.02300979278997476,0.00011661594850371259,0.00042785620566324463,0.2672413782826785,0.016013303955126866,0.04134403969266732,0.00042785622000010695
48,0.00012078780932599307,0.31431149145331577,0.009058123318231364,0.02344837865469682,0.00012078781092159416,0.00042817612557690315,0.22906403992270014,0.015140238860300902,0.04090206638859411,0.00042817614980620043
49,0.00012018162015498222,0.3082684169302884,0.009017961258636287,0.023245928036376557,0.00012018162139820491,0.0005539897693094013,0.23399014910453647,0.016727619584227724,0.04841831605422673,0.0005539897756176207
50,0.00011466418076919299,0.3059485631573786,0.008822588110566677,0.022794375995442703,0.00011466418045515735,0.0004080476251079843,0.24261083516287688,0.015050146559005594,0.039756512847439994,0.00040804763858463486
51,0.00012326769202470686,0.3116193153207375,0.009064468084423214,0.02350803735587131,0.00012326769287720836,0.00042930670566294855,0.2216748763334575,0.013984171825052776,0.03901665251279993,0.00042930671641559526
52,0.00011319999440668793,0.3096001843904449,0.008747518482748306,0.022617638933076823,0.00011319999315825563,0.00043443567062191336,0.22660098683657903,0.01585236324795655,0.042416527757210096,0.0004344356527008355
53,0.0001090908745199181,0.31015866769949096,0.008662692509631696,0.022231152136702896,0.00010909087384975314,0.0004004856079514024,0.2832512345366877,0.015341340545840158,0.0401655892323097,0.00040048560071128693
54,0.0001025635882400283,0.30915626182235495,0.008461513879126083,0.021637823911628502,0.00010256358845883216,0.00035302990709438353,0.21182265796978486,0.013559933751821518,0.03743896627881257,0.00035302989189730946
55,0.00010937206797767458,0.31073147077264895,0.008666516345706803,0.022257694042045466,0.00010937206900730301,0.00043704205046676267,0.27709359539847067,0.015661832587472325,0.043047056262716286,0.00043704205498287427
56,0.00010488201330784975,0.3089271404684744,0.008502723721561998,0.021808739355693267,0.00010488201364835023,0.0003872208924203643,0.23768472932095597,0.014159811169753227,0.03730481093189693,0.00038722091306544603
57,0.00011130596927548475,0.31217779983071914,0.008719164950147686,0.022341614213856085,0.00011130597035575066,0.0004616546097069318,0.2167487697207869,0.014815403098066159,0.042183373380323935,0.0004616546115707239
58,9.667298021445547e-05,0.3019389397367495,0.00821694511980922,0.02098650807511159,9.66729807074935e-05,0.0003725533184980781,0.22413793074086383,0.01503072368907811,0.03988895312025042,0.00037255332208229364
59,9.899037304236192e-05,0.3049891175959771,0.008291863845817054,0.021169677769270416,9.899037270206982e-05,0.0005352690849187118,0.23275861694601369,0.017541419613757745,0.046747599145755395,0.0005352690697216379
60,0.00010249175692966701,0.3039580715709446,0.008418931177273044,0.021542454413452542,0.00010249175767985166,0.0004230943179271858,0.29679802772153185,0.016362753738029836,0.04164688386426771,0.000423094350185126
61,9.650247995338132e-05,0.30443063413798777,0.008206710228238753,0.020923242170305195,9.650247991691402e-05,0.000376214513129651,0.2647783270316758,0.014573194586621423,0.03872753819221346,0.0003762144934881497
62,9.950504937306586e-05,0.30513231872211466,0.0083289941706829,0.02123413491081491,9.950504960228895e-05,0.000334634058225643,0.2401477853065641,0.013887579474836735,0.03701929212203754,0.0003346340645338624
63,9.434909263268333e-05,0.3034568684014931,0.00815094133404451,0.02071180364562149,9.434909282543911e-05,0.00038853813343557526,0.22167487816857587,0.014132393257958549,0.03855361624304297,0.00038853812985135966
64,9.756297426393011e-05,0.30982930558172544,0.008298258536404259,0.021102395800939575,9.756297398261086e-05,0.0005646432925410238,0.24753694948304464,0.017922931245248307,0.04824148768127846,0.0005646432969854512
65,9.786093422994472e-05,0.3069366487433396,0.008249434370933548,0.021010523556451787,9.786093524394432e-05,0.00037568108099248957,0.2352216742896094,0.014267072333894633,0.039143201771187665,0.00037568111411064145
66,8.993481304229595e-05,0.3036716700693609,0.008007190541061991,0.020308896901783956,8.993481362764837e-05,0.00042043495570593905,0.2635468011125555,0.015194156106212749,0.04068939253834668,0.0004204349574263625
67,8.798075180094726e-05,0.29752835482683276,0.007913826849673919,0.020060456839134783,8.798075215332566e-05,0.00035507648673167755,0.24507389030433052,0.013055178405616083,0.03594707970145007,0.000355076463362592
68,9.49257499091212e-05,0.30433039357383196,0.008215209377576627,0.02079080862608432,9.492575054136016e-05,0.00047986174998414965,0.31157635871706335,0.018525323651620906,0.047450142852925314,0.00047986176073679636
69,9.014209571054407e-05,0.3051895981327831,0.008026781104239824,0.020280470609833918,9.014209642426142e-05,0.00037179271340154554,0.21305418572402351,0.014462180362252766,0.03886698424962941,0.0003717927106775417
70,8.72447016768551e-05,0.298659641399377,0.007868626728113615,0.019901202059748765,8.724470228117051e-05,0.00037787475253586093,0.2401477823703747,0.013762892531276924,0.036484949896341476,0.0003778747901701245
71,9.289363829953196e-05,0.2998911678673257,0.008059345704684416,0.020439029450237373,9.289363850458242e-05,0.0003985619073386162,0.2512315332595938,0.014887448592946446,0.04119433596583423,0.00039856194404098365
72,8.856832683391336e-05,0.3016095781204408,0.007897107888769364,0.02005710444419634,8.856832684808352e-05,0.0003957667047808204,0.24753694706068838,0.014246666739726889,0.03934854320411024,0.00039576671015714373
73,8.184524047758561e-05,0.29427769608938187,0.00765638368388068,0.019394994522118958,8.184524082329571e-05,0.00034449410702507905,0.26847290662415507,0.013936710943068777,0.03822545498939864,0.00034449411512540626
74,8.22172589394659e-05,0.2993040447027218,0.007729771714233974,0.019433965117613302,8.221725909200344e-05,0.00039208295417885326,0.24014778148951788,0.015861656750767984,0.04036702612057108,0.0003920829353975637
75,8.344608942861702e-05,0.2986739608084149,0.007748318054567246,0.01954053228719742,8.344608945654056e-05,0.000411585901503731,0.28078817521116417,0.01664282743052896,0.041841197667157125,0.00041158590594815835
76,8.198224322734126e-05,0.2984162002327325,0.007701356657796177,0.019421173057486144,8.1982244046918e-05,0.00037381610782355934,0.21428571479954742,0.014828063455855318,0.03924775211681873,0.0003738160979311243
77,7.908363585332682e-05,0.2945784174400051,0.007572069589267558,0.019031199434737352,7.908363661726486e-05,0.0003815986982516926,0.20197044144123058,0.015559149240808827,0.041375815629812296,0.0003815987305096328
78,7.758236335409431e-05,0.2945640979460396,0.007507836312053027,0.01889039998888365,7.758236308840391e-05,0.0003453727784765003,0.2229064048217435,0.012988192942268743,0.036436061737279,0.00034537278836893533
79,7.974280239408613e-05,0.3024258230114969,0.007586668903843082,0.0190786361085226,7.974280268749168e-05,0.00039400420225629113,0.2647783270316758,0.015346464838630754,0.04104264397999923,0.00039400420225629113
80,7.894773163917958e-05,0.29669778936976066,0.007586319276983846,0.019036365144335862,7.894773159416851e-05,0.00034338438076545196,0.20812807969859082,0.01372319911354281,0.03755737929214985,0.0003433843771812364
81,7.670864206280156e-05,0.29293160796718565,0.00747633742203541,0.018797580768048137,7.670864175730971e-05,0.00036891611581702665,0.2339901460215376,0.013357822622718483,0.03690336067504777,0.0003689161166772384
82,7.869033554113021e-05,0.29833027876479096,0.007555111663116007,0.018970537808350216,7.869033575305738e-05,0.0003566735179944588,0.21674876898673956,0.013171321143547595,0.03576775282401169,0.00035667351261813545
83,7.353355939655466e-05,0.29172872123615223,0.007354847914844953,0.01843531296577491,7.353355958576789e-05,0.0003540610302878507,0.248768472612785,0.013804507827193573,0.03659220355484873,0.00035406103301185456
84,7.794917588226342e-05,0.29500801986927755,0.007503397308343564,0.01887085425740763,7.794917544132154e-05,0.00041221825275776605,0.23029556400670206,0.01709092623127505,0.043110618835746364,0.0004122182455893349
85,7.500003107324723e-05,0.2912991187595081,0.007393287735691266,0.018551088668135436,7.500003117222992e-05,0.00034460483412510653,0.24014778479273097,0.013406998276013165,0.03626454282056522,0.00034460481348002486
86,7.490556030256606e-05,0.2947216183250167,0.007358434526181483,0.018482097061223977,7.490555997102612e-05,0.0004783903579502894,0.2413793112256844,0.016849582441371358,0.04497969877250089,0.000478390323111714
87,7.010349624789404e-05,0.29264520634098456,0.007188743395556516,0.01801683953778108,7.01034967134253e-05,0.00034141086894683907,0.26108374428279296,0.013174010059920143,0.03536043896940835,0.00034141084385733004
88,7.290363743756411e-05,0.29467865817017513,0.007307832333749965,0.018264225134531076,7.290363743381317e-05,0.00032708823620376126,0.2315270954311775,0.012887149168352775,0.03681888280830947,0.00032708821290636003
89,7.661526602179202e-05,0.2965975494478963,0.007475284904535821,0.018693299397744254,7.661526580986485e-05,0.00034420009496853474,0.2007389186785139,0.013830908863195058,0.03712638053731084,0.0003442001156136164
90,7.233892451013774e-05,0.29135639910822075,0.007286548905293531,0.018198378717528715,7.233892520822623e-05,0.0005141791273676905,0.20812807911135292,0.01596223488633562,0.045120046643788006,0.0005141791417045527
91,7.18777338949345e-05,0.2943063357849003,0.007277111061139725,0.018171861868593677,7.187773398162251e-05,0.0003471486503401716,0.21305418704530876,0.013255747470986373,0.035872612460493454,0.00034714867184546503
92,6.712707306274931e-05,0.28707469439396255,0.0070713500167448136,0.01761686760758938,6.712707306462477e-05,0.00036491324465315827,0.21798029490585985,0.014410832699553426,0.03921184411703659,0.00036491325454559323
93,6.789473628640298e-05,0.2906117549667327,0.007110312222654096,0.017685158035935237,6.789473640288999e-05,0.0004191382708122009,0.26600985111567776,0.01457623865345282,0.039221566665935986,0.0004191382941096021
94,7.139171131806942e-05,0.29349009107820956,0.007254584214114176,0.01810659026235866,7.139171147248243e-05,0.00035485469540030574,0.2500000016883089,0.014421151928016412,0.03613657658470088,0.0003548547115292758
95,7.65879539999859e-05,0.2971703526746921,0.0074627484663423015,0.01861040985908648,7.658795413616526e-05,0.0003857595927490316,0.2253694557791273,0.014163726110360013,0.038801340120179315,0.00038575959360924336
96,6.86542462104466e-05,0.2958815458371189,0.007116859371354915,0.01772407060541338,6.865424637006923e-05,0.0003547443313813158,0.24014778295761258,0.01478397220905338,0.03766486446001553,0.00035474435109450144
97,6.484849056597379e-05,0.28847806241761464,0.00694543352008215,0.01729383664074438,6.484849133699691e-05,0.00030012430050846173,0.22290640361056538,0.012161350923732583,0.03255072797607318,0.00030012428753360134
98,7.173346045490287e-05,0.2895950284049381,0.0072034122823769675,0.018019102382077712,7.173346088229973e-05,0.0003347525927507699,0.2105911327847119,0.013933960655750019,0.036248456448169764,0.0003347525900267661
99,6.474019413549577e-05,0.2902967130424115,0.006969027685850555,0.017295715884005837,6.474019425385823e-05,0.000290043140733454,0.2561576339998856,0.012584752288504775,0.03361389292358177,0.00029004312904891123
