ps_idx,infoset_idx,auginfoset_idx,history_idx,actionseq_p0,actionseq_p1,6,7,8,9,10,reach_prob0,reach_prob1,chance_prob,expected_value_p0
0,0,0,0,0,0,0,0,0,0,0,0.00329358,0.0,1, -0.0351361
1,1,1,1,0,1,0,0,0,0,-1,0.00329358,0.0351734,1, -0.0978683
1,1,2,2,0,2,0,0,0,0,-1,0.00329358,0.0,1, -0.0971323
1,1,3,3,0,3,0,0,0,0,-1,0.00329358,0.00699936,1, -0.00627683
2,2,4,4,1,0,0,0,0,0,1,0.000525717,0.0,1, 0.162013
0,3,5,5,1,1,0,0,0,0,0,0.000525717,0.0351734,1, -0.0816248
1,4,2,6,1,2,0,0,0,0,-1,0.000525717,0.0,1, -0
1,4,3,7,1,3,0,0,0,0,-1,0.000525717,0.00699936,1, -0
2,5,4,8,2,0,0,0,0,0,1,0.00071468,0.0,1, -0
2,5,6,9,2,1,0,0,0,0,1,0.00071468,0.0351734,1, 0.0617461
0,6,7,10,2,2,0,0,0,0,0,0.00071468,0.0,1, 0.0226352
1,7,3,11,2,3,0,0,0,0,-1,0.00071468,0.00699936,1, -0
2,8,4,12,3,0,0,0,0,0,1,0.0403157,0.0,1, -0
2,8,6,13,3,1,0,0,0,0,1,0.0403157,0.0351734,1, -0
2,8,8,14,3,2,0,0,0,0,1,0.0403157,0.0,1, 0.199307
0,9,9,15,3,3,0,0,0,0,0,0.0403157,0.00699936,1, 0.0405947
3,10,10,16,0,4,0,0,-1,-1,1,0.00283201,0.0533935,1, -0.203094
4,11,11,17,0,5,0,0,-1,-1,-1,0.00283201,0.0,1, 0.0329921
4,11,12,18,0,6,0,0,-1,-1,-1,0.00283201,0.0336836,1, -0.105693
4,11,13,19,0,7,0,0,-1,-1,-1,0.00283201,0.016313,1, -0.0643734
3,12,10,20,1,4,0,0,-1,-1,1,0.00986164,0.0533935,1, -0
5,13,14,21,1,5,0,0,-1,-1,0,0.00986164,0.0,1, -0.0112083
4,14,12,22,1,6,0,0,-1,-1,-1,0.00986164,0.0336836,1, -0
4,14,13,23,1,7,0,0,-1,-1,-1,0.00986164,0.016313,1, -0
3,15,10,24,2,4,0,0,-1,-1,1,0.000882478,0.0533935,1, -0
3,15,15,25,2,5,0,0,-1,-1,1,0.000882478,0.0,1, -0.0423469
5,16,16,26,2,6,0,0,-1,-1,0,0.000882478,0.0336836,1, 0.00151941
4,17,13,27,2,7,0,0,-1,-1,-1,0.000882478,0.016313,1, -0
3,18,10,28,3,4,0,0,-1,-1,1,0.0312735,0.0533935,1, -0
3,18,15,29,3,5,0,0,-1,-1,1,0.0312735,0.0,1, -0
3,18,17,30,3,6,0,0,-1,-1,1,0.0312735,0.0336836,1, -0.102272
5,19,18,31,3,7,0,0,-1,-1,0,0.0312735,0.016313,1, -0.10068
3,10,19,32,0,8,0,0,-1,-1,1,0.00283201,0.00150426,1, -0.0641505
5,20,20,33,0,9,0,0,-1,-1,0,0.00283201,0.000334981,1, -0.0350201
4,11,21,34,0,10,0,0,-1,-1,-1,0.00283201,0.0,1, -0.0936845
4,11,22,35,0,11,0,0,-1,-1,-1,0.00283201,0.0156095,1, -0.152971
3,12,19,36,1,8,0,0,-1,-1,1,0.00986164,0.00150426,1, -0
3,12,23,37,1,9,0,0,-1,-1,1,0.00986164,0.000334981,1, -0.0351072
4,14,21,38,1,10,0,0,-1,-1,-1,0.00986164,0.0,1, -0
4,14,22,39,1,11,0,0,-1,-1,-1,0.00986164,0.0156095,1, -0
3,15,19,40,2,8,0,0,-1,-1,1,0.000882478,0.00150426,1, -0
3,15,23,41,2,9,0,0,-1,-1,1,0.000882478,0.000334981,1, -0
5,16,24,42,2,10,0,0,-1,-1,0,0.000882478,0.0,1, -0.0372997
4,17,22,43,2,11,0,0,-1,-1,-1,0.000882478,0.0156095,1, -0
3,18,19,44,3,8,0,0,-1,-1,1,0.0312735,0.00150426,1, -0
3,18,23,45,3,9,0,0,-1,-1,1,0.0312735,0.000334981,1, -0
3,18,25,46,3,10,0,0,-1,-1,1,0.0312735,0.0,1, -0.00958385
5,19,26,47,3,11,0,0,-1,-1,0,0.0312735,0.0156095,1, -0.0699143
3,10,27,48,0,12,0,0,-1,-1,1,0.00283201,0.00164819,1, 0.128403
5,20,28,49,0,13,0,0,-1,-1,0,0.00283201,0.0,1, -0.010751
4,11,29,50,0,14,0,0,-1,-1,-1,0.00283201,0.0,1, -0.108669
4,11,30,51,0,15,0,0,-1,-1,-1,0.00283201,0.037539800000000005,1, -0.219408
3,12,27,52,1,12,0,0,-1,-1,1,0.00986164,0.00164819,1, -0
3,12,31,53,1,13,0,0,-1,-1,1,0.00986164,0.0,1, 0.0662017
5,13,32,54,1,14,0,0,-1,-1,0,0.00986164,0.0,1, 0.00642669
4,14,30,55,1,15,0,0,-1,-1,-1,0.00986164,0.037539800000000005,1, -0
3,15,27,56,2,12,0,0,-1,-1,1,0.000882478,0.00164819,1, -0
3,15,31,57,2,13,0,0,-1,-1,1,0.000882478,0.0,1, -0
3,15,33,58,2,14,0,0,-1,-1,1,0.000882478,0.0,1, 0.131666
4,17,30,59,2,15,0,0,-1,-1,-1,0.000882478,0.037539800000000005,1, -0
3,18,27,60,3,12,0,0,-1,-1,1,0.0312735,0.00164819,1, -0
3,18,31,61,3,13,0,0,-1,-1,1,0.0312735,0.0,1, -0
3,18,33,62,3,14,0,0,-1,-1,1,0.0312735,0.0,1, -0
5,19,34,63,3,15,0,0,-1,-1,0,0.0312735,0.037539800000000005,1, -0.232878
3,10,35,64,0,16,0,0,-1,-1,1,0.00283201,0.335253,1, -0.253275
5,20,36,65,0,17,0,0,-1,-1,0,0.00283201,0.210796,1, -0.0725749
4,11,37,66,0,18,0,0,-1,-1,-1,0.00283201,0.0828431,1, -0.0607067
4,11,38,67,0,19,0,0,-1,-1,-1,0.00283201,0.168908,1, -0.269448
3,12,35,68,1,16,0,0,-1,-1,1,0.00986164,0.335253,1, -0
3,12,39,69,1,17,0,0,-1,-1,1,0.00986164,0.210796,1, -0.190507
5,13,40,70,1,18,0,0,-1,-1,0,0.00986164,0.0828431,1, -0.07496
4,14,38,71,1,19,0,0,-1,-1,-1,0.00986164,0.168908,1, -0
3,15,35,72,2,16,0,0,-1,-1,1,0.000882478,0.335253,1, -0
3,15,39,73,2,17,0,0,-1,-1,1,0.000882478,0.210796,1, -0
3,15,41,74,2,18,0,0,-1,-1,1,0.000882478,0.0828431,1, -0.0621167
5,16,42,75,2,19,0,0,-1,-1,0,0.000882478,0.168908,1, -0.0401273
3,18,35,76,3,16,0,0,-1,-1,1,0.0312735,0.335253,1, -0
3,18,39,77,3,17,0,0,-1,-1,1,0.0312735,0.210796,1, -0
3,18,41,78,3,18,0,0,-1,-1,1,0.0312735,0.0828431,1, -0
3,18,43,79,3,19,0,0,-1,-1,1,0.0312735,0.168908,1, 0.055058
6,21,44,80,4,0,0,0,1,1,-1,0.016434900000000002,0.00134205,1, -1.39923
6,21,45,81,4,1,0,0,1,1,-1,0.016434900000000002,0.0,1, -1.05854
6,21,46,82,4,2,0,0,1,1,-1,0.016434900000000002,0.00204808,1, -0.367699
6,21,47,83,4,3,0,0,1,1,-1,0.016434900000000002,0.038782599999999987,1, -0.102503
7,22,48,84,5,0,0,0,1,1,1,0.0,0.00134205,1, -0
8,23,49,85,5,1,0,0,1,1,0,0.0,0.0,1, -0
6,24,46,86,5,2,0,0,1,1,-1,0.0,0.00204808,1, -0
6,24,47,87,5,3,0,0,1,1,-1,0.0,0.038782599999999987,1, -0
7,25,48,88,6,0,0,0,1,1,1,0.000475076,0.00134205,1, 1.52813
7,25,50,89,6,1,0,0,1,1,1,0.000475076,0.0,1, 1.15185
8,26,51,90,6,2,0,0,1,1,0,0.000475076,0.00204808,1, 0.269972
6,27,47,91,6,3,0,0,1,1,-1,0.000475076,0.038782599999999987,1, -0
7,28,48,92,7,0,0,0,1,1,1,0.000610966,0.00134205,1, -0
7,28,50,93,7,1,0,0,1,1,1,0.000610966,0.0,1, -0
7,28,52,94,7,2,0,0,1,1,1,0.000610966,0.00204808,1, 0.395828
8,29,53,95,7,3,0,0,1,1,0,0.000610966,0.038782599999999987,1, 0.0362911
0,30,54,96,4,4,0,0,0,0,0,0.0,0.0,1, -0
1,31,55,97,4,5,0,0,0,0,-1,0.0,0.0,1, -0
1,31,56,98,4,6,0,0,0,0,-1,0.0,0.0,1, -0
1,31,57,99,4,7,0,0,0,0,-1,0.0,0.10339,1, -0
2,32,58,100,5,4,0,0,0,0,1,0.0,0.0,1, -0
0,33,59,101,5,5,0,0,0,0,0,0.0,0.0,1, -0
1,34,56,102,5,6,0,0,0,0,-1,0.0,0.0,1, -0
1,34,57,103,5,7,0,0,0,0,-1,0.0,0.10339,1, -0
2,35,58,104,6,4,0,0,0,0,1,0.00054496,0.0,1, 0.149712
2,35,60,105,6,5,0,0,0,0,1,0.00054496,0.0,1, 0.254777
0,36,61,106,6,6,0,0,0,0,0,0.00054496,0.0,1, 0.0726094
1,37,57,107,6,7,0,0,0,0,-1,0.00054496,0.10339,1, -0.134042
2,38,58,108,7,4,0,0,0,0,1,0.016975999999999998,0.0,1, -0
2,38,60,109,7,5,0,0,0,0,1,0.016975999999999998,0.0,1, -0
2,38,62,110,7,6,0,0,0,0,1,0.016975999999999998,0.0,1, 0.0341036
0,39,63,111,7,7,0,0,0,0,0,0.016975999999999998,0.10339,1, -0.0496649
5,40,64,112,4,8,0,0,-1,-1,0,0.0,0.00150426,1, -0
4,41,65,113,4,9,0,0,-1,-1,-1,0.0,0.000334981,1, -0
4,41,21,114,4,10,0,0,-1,-1,-1,0.0,0.0,1, -0
4,41,22,115,4,11,0,0,-1,-1,-1,0.0,0.0156095,1, -0
3,42,19,116,5,8,0,0,-1,-1,1,0.000501833,0.00150426,1, -0
3,42,23,117,5,9,0,0,-1,-1,1,0.000501833,0.000334981,1, -0
4,43,21,118,5,10,0,0,-1,-1,-1,0.000501833,0.0,1, -0
4,43,22,119,5,11,0,0,-1,-1,-1,0.000501833,0.0156095,1, -0
3,44,19,120,6,8,0,0,-1,-1,1,0.000866125,0.00150426,1, -0
3,44,23,121,6,9,0,0,-1,-1,1,0.000866125,0.000334981,1, -0
5,45,24,122,6,10,0,0,-1,-1,0,0.000866125,0.0,1, -0
4,46,22,123,6,11,0,0,-1,-1,-1,0.000866125,0.0156095,1, -0
3,47,19,124,7,8,0,0,-1,-1,1,0.016153,0.00150426,1, -0
3,47,23,125,7,9,0,0,-1,-1,1,0.016153,0.000334981,1, -0
3,47,25,126,7,10,0,0,-1,-1,1,0.016153,0.0,1, -0
5,48,26,127,7,11,0,0,-1,-1,0,0.016153,0.0156095,1, -0
5,40,66,128,4,12,0,0,-1,-1,0,0.0,0.00164819,1, -0
4,41,67,129,4,13,0,0,-1,-1,-1,0.0,0.0,1, -0
4,41,29,130,4,14,0,0,-1,-1,-1,0.0,0.0,1, -0
4,41,30,131,4,15,0,0,-1,-1,-1,0.0,0.037539800000000005,1, -0
3,42,27,132,5,12,0,0,-1,-1,1,0.000501833,0.00164819,1, -0
3,42,31,133,5,13,0,0,-1,-1,1,0.000501833,0.0,1, -0
5,49,32,134,5,14,0,0,-1,-1,0,0.000501833,0.0,1, -0
4,43,30,135,5,15,0,0,-1,-1,-1,0.000501833,0.037539800000000005,1, -0
3,44,27,136,6,12,0,0,-1,-1,1,0.000866125,0.00164819,1, -0
3,44,31,137,6,13,0,0,-1,-1,1,0.000866125,0.0,1, -0
3,44,33,138,6,14,0,0,-1,-1,1,0.000866125,0.0,1, -0
4,46,30,139,6,15,0,0,-1,-1,-1,0.000866125,0.037539800000000005,1, -0
3,47,27,140,7,12,0,0,-1,-1,1,0.016153,0.00164819,1, -0
3,47,31,141,7,13,0,0,-1,-1,1,0.016153,0.0,1, -0
3,47,33,142,7,14,0,0,-1,-1,1,0.016153,0.0,1, -0
5,48,34,143,7,15,0,0,-1,-1,0,0.016153,0.037539800000000005,1, -0
5,40,68,144,4,16,0,0,-1,-1,0,0.0,0.335253,1, -0
4,41,69,145,4,17,0,0,-1,-1,-1,0.0,0.210796,1, -0
4,41,37,146,4,18,0,0,-1,-1,-1,0.0,0.0828431,1, -0
4,41,38,147,4,19,0,0,-1,-1,-1,0.0,0.168908,1, -0
3,42,35,148,5,16,0,0,-1,-1,1,0.000501833,0.335253,1, -0
3,42,39,149,5,17,0,0,-1,-1,1,0.000501833,0.210796,1, -0
5,49,40,150,5,18,0,0,-1,-1,0,0.000501833,0.0828431,1, -0
4,43,38,151,5,19,0,0,-1,-1,-1,0.000501833,0.168908,1, -0
3,44,35,152,6,16,0,0,-1,-1,1,0.000866125,0.335253,1, -0
3,44,39,153,6,17,0,0,-1,-1,1,0.000866125,0.210796,1, -0
3,44,41,154,6,18,0,0,-1,-1,1,0.000866125,0.0828431,1, -0
5,45,42,155,6,19,0,0,-1,-1,0,0.000866125,0.168908,1, -0
3,47,35,156,7,16,0,0,-1,-1,1,0.016153,0.335253,1, -0
3,47,39,157,7,17,0,0,-1,-1,1,0.016153,0.210796,1, -0
3,47,41,158,7,18,0,0,-1,-1,1,0.016153,0.0828431,1, -0
3,47,43,159,7,19,0,0,-1,-1,1,0.016153,0.168908,1, -0
6,50,44,160,8,0,0,0,1,1,-1,0.00123403,0.00134205,1, -0
6,50,45,161,8,1,0,0,1,1,-1,0.00123403,0.0,1, -0
6,50,46,162,8,2,0,0,1,1,-1,0.00123403,0.00204808,1, -0
6,50,47,163,8,3,0,0,1,1,-1,0.00123403,0.038782599999999987,1, -0
8,51,70,164,9,0,0,0,1,1,0,0.00014093,0.00134205,1, 0.207131
6,52,45,165,9,1,0,0,1,1,-1,0.00014093,0.0,1, -0
6,52,46,166,9,2,0,0,1,1,-1,0.00014093,0.00204808,1, -0
6,52,47,167,9,3,0,0,1,1,-1,0.00014093,0.038782599999999987,1, -0
7,53,48,168,10,0,0,0,1,1,1,0.00124939,0.00134205,1, -0
7,53,50,169,10,1,0,0,1,1,1,0.00124939,0.0,1, -0
8,54,51,170,10,2,0,0,1,1,0,0.00124939,0.00204808,1, -0
6,55,47,171,10,3,0,0,1,1,-1,0.00124939,0.038782599999999987,1, -0
7,56,48,172,11,0,0,0,1,1,1,0.031999400000000004,0.00134205,1, -0
7,56,50,173,11,1,0,0,1,1,1,0.031999400000000004,0.0,1, -0
7,56,52,174,11,2,0,0,1,1,1,0.031999400000000004,0.00204808,1, -0
8,57,53,175,11,3,0,0,1,1,0,0.031999400000000004,0.038782599999999987,1, -0
8,58,71,176,8,4,0,0,1,1,0,0.00123403,0.0,1, 0.564181
6,50,72,177,8,5,0,0,1,1,-1,0.00123403,0.0,1, -0.773468
6,50,73,178,8,6,0,0,1,1,-1,0.00123403,0.031024400000000008,1, -0.340519
6,50,74,179,8,7,0,0,1,1,-1,0.00123403,0.0723656,1, 0.362184
7,59,75,180,9,4,0,0,1,1,1,0.00014093,0.0,1, 2.28271
6,52,72,181,9,5,0,0,1,1,-1,0.00014093,0.0,1, -0
6,52,73,182,9,6,0,0,1,1,-1,0.00014093,0.031024400000000008,1, -0
6,52,74,183,9,7,0,0,1,1,-1,0.00014093,0.0723656,1, -0
7,53,75,184,10,4,0,0,1,1,1,0.00124939,0.0,1, -0
7,53,76,185,10,5,0,0,1,1,1,0.00124939,0.0,1, 1.60128
8,54,77,186,10,6,0,0,1,1,0,0.00124939,0.031024400000000008,1, 0.417842
6,55,74,187,10,7,0,0,1,1,-1,0.00124939,0.0723656,1, -0
7,56,75,188,11,4,0,0,1,1,1,0.031999400000000004,0.0,1, -0
7,56,76,189,11,5,0,0,1,1,1,0.031999400000000004,0.0,1, -0
7,56,78,190,11,6,0,0,1,1,1,0.031999400000000004,0.031024400000000008,1, 0.39939
8,57,79,191,11,7,0,0,1,1,0,0.031999400000000004,0.0723656,1, 0.120476
0,60,80,192,8,8,0,0,0,0,0,0.000309209,0.0,1, -0.00424408
1,61,81,193,8,9,0,0,0,0,-1,0.000309209,0.00112076,1, 0.0332819
1,61,82,194,8,10,0,0,0,0,-1,0.000309209,0.00965863,1, -0.129229
1,61,83,195,8,11,0,0,0,0,-1,0.000309209,0.00666933,1, -0.177968
2,62,84,196,9,8,0,0,0,0,1,0.0,0.0,1, -0
0,63,85,197,9,9,0,0,0,0,0,0.0,0.00112076,1, -0
1,64,82,198,9,10,0,0,0,0,-1,0.0,0.00965863,1, -0
1,64,83,199,9,11,0,0,0,0,-1,0.0,0.00666933,1, -0
2,65,84,200,10,8,0,0,0,0,1,0.00110435,0.0,1, 0.0535177
2,65,86,201,10,9,0,0,0,0,1,0.00110435,0.00112076,1, -0.018123
0,66,87,202,10,10,0,0,0,0,0,0.00110435,0.00965863,1, -0.0187365
1,67,83,203,10,11,0,0,0,0,-1,0.00110435,0.00666933,1, -0
2,68,84,204,11,8,0,0,0,0,1,0.033210199999999995,0.0,1, -0
2,68,86,205,11,9,0,0,0,0,1,0.033210199999999995,0.00112076,1, -0
2,68,88,206,11,10,0,0,0,0,1,0.033210199999999995,0.00965863,1, -0.0506191
0,69,89,207,11,11,0,0,0,0,0,0.033210199999999995,0.00666933,1, 0.0527875
5,70,66,208,8,12,0,0,-1,-1,0,0.0,0.00164819,1, -0
4,71,67,209,8,13,0,0,-1,-1,-1,0.0,0.0,1, -0
4,71,29,210,8,14,0,0,-1,-1,-1,0.0,0.0,1, -0
4,71,30,211,8,15,0,0,-1,-1,-1,0.0,0.037539800000000005,1, -0
3,72,27,212,9,12,0,0,-1,-1,1,0.00184951,0.00164819,1, -0
5,73,28,213,9,13,0,0,-1,-1,0,0.00184951,0.0,1, -0
4,74,29,214,9,14,0,0,-1,-1,-1,0.00184951,0.0,1, -0
4,74,30,215,9,15,0,0,-1,-1,-1,0.00184951,0.037539800000000005,1, -0
3,75,27,216,10,12,0,0,-1,-1,1,0.00640928,0.00164819,1, -0
3,75,31,217,10,13,0,0,-1,-1,1,0.00640928,0.0,1, -0
3,75,33,218,10,14,0,0,-1,-1,1,0.00640928,0.0,1, -0
4,76,30,219,10,15,0,0,-1,-1,-1,0.00640928,0.037539800000000005,1, -0
3,77,27,220,11,12,0,0,-1,-1,1,0.0263649,0.00164819,1, -0
3,77,31,221,11,13,0,0,-1,-1,1,0.0263649,0.0,1, -0
3,77,33,222,11,14,0,0,-1,-1,1,0.0263649,0.0,1, -0
5,78,34,223,11,15,0,0,-1,-1,0,0.0263649,0.037539800000000005,1, -0
5,70,68,224,8,16,0,0,-1,-1,0,0.0,0.335253,1, -0
4,71,69,225,8,17,0,0,-1,-1,-1,0.0,0.210796,1, -0
4,71,37,226,8,18,0,0,-1,-1,-1,0.0,0.0828431,1, -0
4,71,38,227,8,19,0,0,-1,-1,-1,0.0,0.168908,1, -0
3,72,35,228,9,16,0,0,-1,-1,1,0.00184951,0.335253,1, -0
5,73,36,229,9,17,0,0,-1,-1,0,0.00184951,0.210796,1, -0
4,74,37,230,9,18,0,0,-1,-1,-1,0.00184951,0.0828431,1, -0
4,74,38,231,9,19,0,0,-1,-1,-1,0.00184951,0.168908,1, -0
3,75,35,232,10,16,0,0,-1,-1,1,0.00640928,0.335253,1, -0
3,75,39,233,10,17,0,0,-1,-1,1,0.00640928,0.210796,1, -0
3,75,41,234,10,18,0,0,-1,-1,1,0.00640928,0.0828431,1, -0
5,79,42,235,10,19,0,0,-1,-1,0,0.00640928,0.168908,1, -0
3,77,35,236,11,16,0,0,-1,-1,1,0.0263649,0.335253,1, -0
3,77,39,237,11,17,0,0,-1,-1,1,0.0263649,0.210796,1, -0
3,77,41,238,11,18,0,0,-1,-1,1,0.0263649,0.0828431,1, -0
3,77,43,239,11,19,0,0,-1,-1,1,0.0263649,0.168908,1, -0
6,80,44,240,12,0,0,0,1,1,-1,0.00113332,0.00134205,1, -0
6,80,45,241,12,1,0,0,1,1,-1,0.00113332,0.0,1, -0
6,80,46,242,12,2,0,0,1,1,-1,0.00113332,0.00204808,1, -0
6,80,47,243,12,3,0,0,1,1,-1,0.00113332,0.038782599999999987,1, -0
8,81,70,244,13,0,0,0,1,1,0,0.0,0.00134205,1, -0
6,82,45,245,13,1,0,0,1,1,-1,0.0,0.0,1, -0
6,82,46,246,13,2,0,0,1,1,-1,0.0,0.00204808,1, -0
6,82,47,247,13,3,0,0,1,1,-1,0.0,0.038782599999999987,1, -0
7,83,48,248,14,0,0,0,1,1,1,0.000601918,0.00134205,1, -0
8,84,49,249,14,1,0,0,1,1,0,0.000601918,0.0,1, 0.119301
6,85,46,250,14,2,0,0,1,1,-1,0.000601918,0.00204808,1, -0
6,85,47,251,14,3,0,0,1,1,-1,0.000601918,0.038782599999999987,1, -0
7,86,48,252,15,0,0,0,1,1,1,0.0228913,0.00134205,1, -0
7,86,50,253,15,1,0,0,1,1,1,0.0228913,0.0,1, -0
7,86,52,254,15,2,0,0,1,1,1,0.0228913,0.00204808,1, -0
8,87,53,255,15,3,0,0,1,1,0,0.0228913,0.038782599999999987,1, -0
8,88,71,256,12,4,0,0,1,1,0,0.00113332,0.0,1, -0
6,80,72,257,12,5,0,0,1,1,-1,0.00113332,0.0,1, -0
6,80,73,258,12,6,0,0,1,1,-1,0.00113332,0.031024400000000008,1, -0
6,80,74,259,12,7,0,0,1,1,-1,0.00113332,0.0723656,1, -0
7,89,75,260,13,4,0,0,1,1,1,0.0,0.0,1, -0
6,82,72,261,13,5,0,0,1,1,-1,0.0,0.0,1, -0
6,82,73,262,13,6,0,0,1,1,-1,0.0,0.031024400000000008,1, -0
6,82,74,263,13,7,0,0,1,1,-1,0.0,0.0723656,1, -0
7,83,75,264,14,4,0,0,1,1,1,0.000601918,0.0,1, -0
8,84,90,265,14,5,0,0,1,1,0,0.000601918,0.0,1, 0.339218
6,85,73,266,14,6,0,0,1,1,-1,0.000601918,0.031024400000000008,1, -0
6,85,74,267,14,7,0,0,1,1,-1,0.000601918,0.0723656,1, -0
7,86,75,268,15,4,0,0,1,1,1,0.0228913,0.0,1, -0
7,86,76,269,15,5,0,0,1,1,1,0.0228913,0.0,1, -0
7,86,78,270,15,6,0,0,1,1,1,0.0228913,0.031024400000000008,1, -0
8,87,79,271,15,7,0,0,1,1,0,0.0228913,0.0723656,1, -0
8,88,91,272,12,8,0,0,1,1,0,0.00113332,0.0,1, 1.09218
6,80,92,273,12,9,0,0,1,1,-1,0.00113332,0.00542956,1, -0.717928
6,80,93,274,12,10,0,0,1,1,-1,0.00113332,0.000577047,1, 0.590419
6,80,94,275,12,11,0,0,1,1,-1,0.00113332,0.0114421,1, 1.19222
7,89,95,276,13,8,0,0,1,1,1,0.0,0.0,1, -0
8,81,96,277,13,9,0,0,1,1,0,0.0,0.00542956,1, -0
6,82,93,278,13,10,0,0,1,1,-1,0.0,0.000577047,1, -0
6,82,94,279,13,11,0,0,1,1,-1,0.0,0.0114421,1, -0
7,83,95,280,14,8,0,0,1,1,1,0.000601918,0.0,1, 2.34616
7,83,97,281,14,9,0,0,1,1,1,0.000601918,0.00542956,1, 1.87687
6,85,93,282,14,10,0,0,1,1,-1,0.000601918,0.000577047,1, -0
6,85,94,283,14,11,0,0,1,1,-1,0.000601918,0.0114421,1, -0
7,86,95,284,15,8,0,0,1,1,1,0.0228913,0.0,1, -0
7,86,97,285,15,9,0,0,1,1,1,0.0228913,0.00542956,1, -0
7,86,98,286,15,10,0,0,1,1,1,0.0228913,0.000577047,1, 0.206771
8,87,99,287,15,11,0,0,1,1,0,0.0228913,0.0114421,1, -0.0115752
0,90,100,288,12,12,0,0,0,0,0,0.00661594,0.00307868,1, -0.029881
1,91,101,289,12,13,0,0,0,0,-1,0.00661594,0.0,1, -0.0526476
1,91,102,290,12,14,0,0,0,0,-1,0.00661594,0.0,1, -0.153365
1,91,103,291,12,15,0,0,0,0,-1,0.00661594,0.0361093,1, -0.297226
2,92,104,292,13,12,0,0,0,0,1,0.00612019,0.00307868,1, -0.104282
0,93,105,293,13,13,0,0,0,0,0,0.00612019,0.0,1, -0.0418549
1,94,102,294,13,14,0,0,0,0,-1,0.00612019,0.0,1, -0
1,94,103,295,13,15,0,0,0,0,-1,0.00612019,0.0361093,1, -0
2,95,104,296,14,12,0,0,0,0,1,0.00031728400000000003,0.00307868,1, -0
2,95,106,297,14,13,0,0,0,0,1,0.00031728400000000003,0.0,1, 0.193406
0,96,107,298,14,14,0,0,0,0,0,0.00031728400000000003,0.0,1, -0.0211756
1,97,103,299,14,15,0,0,0,0,-1,0.00031728400000000003,0.0361093,1, -0
2,98,104,300,15,12,0,0,0,0,1,0.0115731,0.00307868,1, -0
2,98,106,301,15,13,0,0,0,0,1,0.0115731,0.0,1, -0
2,98,108,302,15,14,0,0,0,0,1,0.0115731,0.0,1, 0.0855299
0,99,109,303,15,15,0,0,0,0,0,0.0115731,0.0361093,1, -0.00697038
5,100,68,304,12,16,0,0,-1,-1,0,0.0,0.335253,1, -0
4,101,69,305,12,17,0,0,-1,-1,-1,0.0,0.210796,1, -0
4,101,37,306,12,18,0,0,-1,-1,-1,0.0,0.0828431,1, -0
4,101,38,307,12,19,0,0,-1,-1,-1,0.0,0.168908,1, -0
3,102,35,308,13,16,0,0,-1,-1,1,0.00196979,0.335253,1, -0
5,103,36,309,13,17,0,0,-1,-1,0,0.00196979,0.210796,1, -0
4,104,37,310,13,18,0,0,-1,-1,-1,0.00196979,0.0828431,1, -0
4,104,38,311,13,19,0,0,-1,-1,-1,0.00196979,0.168908,1, -0
3,105,35,312,14,16,0,0,-1,-1,1,0.0170292,0.335253,1, -0
3,105,39,313,14,17,0,0,-1,-1,1,0.0170292,0.210796,1, -0
5,106,40,314,14,18,0,0,-1,-1,0,0.0170292,0.0828431,1, -0
4,107,38,315,14,19,0,0,-1,-1,-1,0.0170292,0.168908,1, -0
3,108,35,316,15,16,0,0,-1,-1,1,0.0056276,0.335253,1, -0
3,108,39,317,15,17,0,0,-1,-1,1,0.0056276,0.210796,1, -0
3,108,41,318,15,18,0,0,-1,-1,1,0.0056276,0.0828431,1, -0
3,108,43,319,15,19,0,0,-1,-1,1,0.0056276,0.168908,1, -0
6,109,44,320,16,0,0,0,1,1,-1,0.446297,0.00134205,1, -0
6,109,45,321,16,1,0,0,1,1,-1,0.446297,0.0,1, -0
6,109,46,322,16,2,0,0,1,1,-1,0.446297,0.00204808,1, -0
6,109,47,323,16,3,0,0,1,1,-1,0.446297,0.038782599999999987,1, -0
8,110,70,324,17,0,0,0,1,1,0,0.13283699999999998,0.00134205,1, -0
6,111,45,325,17,1,0,0,1,1,-1,0.13283699999999998,0.0,1, -0
6,111,46,326,17,2,0,0,1,1,-1,0.13283699999999998,0.00204808,1, -0
6,111,47,327,17,3,0,0,1,1,-1,0.13283699999999998,0.038782599999999987,1, -0
7,112,48,328,18,0,0,0,1,1,1,0.128927,0.00134205,1, -0
8,113,49,329,18,1,0,0,1,1,0,0.128927,0.0,1, -0
6,114,46,330,18,2,0,0,1,1,-1,0.128927,0.00204808,1, -0
6,114,47,331,18,3,0,0,1,1,-1,0.128927,0.038782599999999987,1, -0
7,115,48,332,19,0,0,0,1,1,1,0.170318,0.00134205,1, -0
7,115,50,333,19,1,0,0,1,1,1,0.170318,0.0,1, -0
8,116,51,334,19,2,0,0,1,1,0,0.170318,0.00204808,1, -0
6,117,47,335,19,3,0,0,1,1,-1,0.170318,0.038782599999999987,1, -0
8,118,71,336,16,4,0,0,1,1,0,0.446297,0.0,1, -0
6,109,72,337,16,5,0,0,1,1,-1,0.446297,0.0,1, -0
6,109,73,338,16,6,0,0,1,1,-1,0.446297,0.031024400000000008,1, -0
6,109,74,339,16,7,0,0,1,1,-1,0.446297,0.0723656,1, -0
7,119,75,340,17,4,0,0,1,1,1,0.13283699999999998,0.0,1, -0
6,111,72,341,17,5,0,0,1,1,-1,0.13283699999999998,0.0,1, -0
6,111,73,342,17,6,0,0,1,1,-1,0.13283699999999998,0.031024400000000008,1, -0
6,111,74,343,17,7,0,0,1,1,-1,0.13283699999999998,0.0723656,1, -0
7,112,75,344,18,4,0,0,1,1,1,0.128927,0.0,1, -0
8,113,90,345,18,5,0,0,1,1,0,0.128927,0.0,1, -0
6,114,73,346,18,6,0,0,1,1,-1,0.128927,0.031024400000000008,1, -0
6,114,74,347,18,7,0,0,1,1,-1,0.128927,0.0723656,1, -0
7,115,75,348,19,4,0,0,1,1,1,0.170318,0.0,1, -0
7,115,76,349,19,5,0,0,1,1,1,0.170318,0.0,1, -0
8,116,77,350,19,6,0,0,1,1,0,0.170318,0.031024400000000008,1, -0
6,117,74,351,19,7,0,0,1,1,-1,0.170318,0.0723656,1, -0
8,118,91,352,16,8,0,0,1,1,0,0.446297,0.0,1, -0
6,109,92,353,16,9,0,0,1,1,-1,0.446297,0.00542956,1, -0
6,109,93,354,16,10,0,0,1,1,-1,0.446297,0.000577047,1, -0
6,109,94,355,16,11,0,0,1,1,-1,0.446297,0.0114421,1, -0
7,119,95,356,17,8,0,0,1,1,1,0.13283699999999998,0.0,1, -0
8,110,96,357,17,9,0,0,1,1,0,0.13283699999999998,0.00542956,1, 0.290927
6,111,93,358,17,10,0,0,1,1,-1,0.13283699999999998,0.000577047,1, -0
6,111,94,359,17,11,0,0,1,1,-1,0.13283699999999998,0.0114421,1, -0
7,112,95,360,18,8,0,0,1,1,1,0.128927,0.0,1, -0
7,112,97,361,18,9,0,0,1,1,1,0.128927,0.00542956,1, -0
6,114,93,362,18,10,0,0,1,1,-1,0.128927,0.000577047,1, -0
6,114,94,363,18,11,0,0,1,1,-1,0.128927,0.0114421,1, -0
7,115,95,364,19,8,0,0,1,1,1,0.170318,0.0,1, -0
7,115,97,365,19,9,0,0,1,1,1,0.170318,0.00542956,1, -0
8,116,110,366,19,10,0,0,1,1,0,0.170318,0.000577047,1, 0.674843
6,117,94,367,19,11,0,0,1,1,-1,0.170318,0.0114421,1, -0
8,118,111,368,16,12,0,0,1,1,0,0.446297,0.0,1, 1.65659
6,109,112,369,16,13,0,0,1,1,-1,0.446297,0.0187072,1, 0.0214697
6,109,113,370,16,14,0,0,1,1,-1,0.446297,0.017040200000000002,1, 0.590696
6,109,114,371,16,15,0,0,1,1,-1,0.446297,0.00344061,1, 2.49246
7,119,115,372,17,12,0,0,1,1,1,0.13283699999999998,0.0,1, 2.55886
8,110,116,373,17,13,0,0,1,1,0,0.13283699999999998,0.0187072,1, 0.462614
6,111,113,374,17,14,0,0,1,1,-1,0.13283699999999998,0.017040200000000002,1, -0
6,111,114,375,17,15,0,0,1,1,-1,0.13283699999999998,0.00344061,1, -0
7,112,115,376,18,12,0,0,1,1,1,0.128927,0.0,1, -0
7,112,117,377,18,13,0,0,1,1,1,0.128927,0.0187072,1, 1.97985
8,113,118,378,18,14,0,0,1,1,0,0.128927,0.017040200000000002,1, 0.51308
6,114,114,379,18,15,0,0,1,1,-1,0.128927,0.00344061,1, -0
7,115,115,380,19,12,0,0,1,1,1,0.170318,0.0,1, -0
7,115,117,381,19,13,0,0,1,1,1,0.170318,0.0187072,1, -0
7,115,119,382,19,14,0,0,1,1,1,0.170318,0.017040200000000002,1, 1.32012
6,117,114,383,19,15,0,0,1,1,-1,0.170318,0.00344061,1, -0
0,120,120,384,16,16,0,0,0,0,0,0.0705325,0.0,1, 0.0328513
1,121,121,385,16,17,0,0,0,0,-1,0.0705325,0.0285398,1, -0.222782
1,121,122,386,16,18,0,0,0,0,-1,0.0705325,0.0,1, -0.0938063
1,121,123,387,16,19,0,0,0,0,-1,0.0705325,0.769261,1, -0.0967084
2,122,124,388,17,16,0,0,0,0,1,0.0,0.0,1, -0
0,123,125,389,17,17,0,0,0,0,0,0.0,0.0285398,1, -0
1,124,122,390,17,18,0,0,0,0,-1,0.0,0.0,1, -0
1,124,123,391,17,19,0,0,0,0,-1,0.0,0.769261,1, -0
2,125,124,392,18,16,0,0,0,0,1,0.007921300000000001,0.0,1, 0.25515
2,125,126,393,18,17,0,0,0,0,1,0.007921300000000001,0.0285398,1, 1.38496
0,126,127,394,18,18,0,0,0,0,0,0.007921300000000001,0.0,1, -0.0148551
1,127,123,395,18,19,0,0,0,0,-1,0.007921300000000001,0.769261,1, -0
2,128,124,396,19,16,0,0,0,0,1,0.799925,0.0,1, -0
2,128,126,397,19,17,0,0,0,0,1,0.799925,0.0285398,1, -0
2,128,128,398,19,18,0,0,0,0,1,0.799925,0.0,1, 2.31198
0,129,129,399,19,19,0,0,0,0,0,0.799925,0.769261,1, -0.0461078
