ps_idx,infoset_idx,auginfoset_idx,history_idx,actionseq_p0,actionseq_p1,6,7,8,9,10,reach_prob0,reach_prob1,chance_prob,expected_value_p0
0,0,0,0,0,0,0,0,0,0,0,0.00682238,0.0,1, -0.02533
1,1,1,1,0,1,0,0,0,0,-1,0.00682238,0.00017482,1, -0.050588
1,1,2,2,0,2,0,0,0,0,-1,0.00682238,0.0,1, -0.0523587
1,1,3,3,0,3,0,0,0,0,-1,0.00682238,0.05669750000000001,1, -0.0432629
2,2,4,4,1,0,0,0,0,0,1,0.00108898,0.0,1, 0.163555
0,3,5,5,1,1,0,0,0,0,0,0.00108898,0.00017482,1, -0.0599432
1,4,2,6,1,2,0,0,0,0,-1,0.00108898,0.0,1, -0
1,4,3,7,1,3,0,0,0,0,-1,0.00108898,0.05669750000000001,1, -0
2,5,4,8,2,0,0,0,0,0,1,0.00145637,0.0,1, -0
2,5,6,9,2,1,0,0,0,0,1,0.00145637,0.00017482,1, 0.080731
0,6,7,10,2,2,0,0,0,0,0,0.00145637,0.0,1, 0.00595495
1,7,3,11,2,3,0,0,0,0,-1,0.00145637,0.05669750000000001,1, -0
2,8,4,12,3,0,0,0,0,0,1,0.049327800000000005,0.0,1, -0
2,8,6,13,3,1,0,0,0,0,1,0.049327800000000005,0.00017482,1, -0
2,8,8,14,3,2,0,0,0,0,1,0.049327800000000005,0.0,1, 0.217982
0,9,9,15,3,3,0,0,0,0,0,0.049327800000000005,0.05669750000000001,1, 0.0131489
3,10,10,16,0,4,0,0,-1,-1,1,0.00474394,0.0748599,1, -0.252019
4,11,11,17,0,5,0,0,-1,-1,-1,0.00474394,0.0,1, 0.0272335
4,11,12,18,0,6,0,0,-1,-1,-1,0.00474394,0.0299086,1, -0.123245
4,11,13,19,0,7,0,0,-1,-1,-1,0.00474394,0.0346587,1, -0.0709021
3,12,10,20,1,4,0,0,-1,-1,1,0.0100665,0.0748599,1, -0
5,13,14,21,1,5,0,0,-1,-1,0,0.0100665,0.0,1, -0.0194612
4,14,12,22,1,6,0,0,-1,-1,-1,0.0100665,0.0299086,1, -0
4,14,13,23,1,7,0,0,-1,-1,-1,0.0100665,0.0346587,1, -0
3,15,10,24,2,4,0,0,-1,-1,1,0.00147825,0.0748599,1, -0
3,15,15,25,2,5,0,0,-1,-1,1,0.00147825,0.0,1, -0.0852199
5,16,16,26,2,6,0,0,-1,-1,0,0.00147825,0.0299086,1, 0.00297679
4,17,13,27,2,7,0,0,-1,-1,-1,0.00147825,0.0346587,1, -0
3,18,10,28,3,4,0,0,-1,-1,1,0.0424069,0.0748599,1, -0
3,18,15,29,3,5,0,0,-1,-1,1,0.0424069,0.0,1, -0
3,18,17,30,3,6,0,0,-1,-1,1,0.0424069,0.0299086,1, -0.130724
5,19,18,31,3,7,0,0,-1,-1,0,0.0424069,0.0346587,1, -0.150711
3,10,19,32,0,8,0,0,-1,-1,1,0.00474394,0.00283432,1, -0.132537
5,20,20,33,0,9,0,0,-1,-1,0,0.00474394,0.000631171,1, -0.0418454
4,11,21,34,0,10,0,0,-1,-1,-1,0.00474394,0.0,1, -0.113139
4,11,22,35,0,11,0,0,-1,-1,-1,0.00474394,0.0200651,1, -0.155943
3,12,19,36,1,8,0,0,-1,-1,1,0.0100665,0.00283432,1, -0
3,12,23,37,1,9,0,0,-1,-1,1,0.0100665,0.000631171,1, -0.10845
4,14,21,38,1,10,0,0,-1,-1,-1,0.0100665,0.0,1, -0
4,14,22,39,1,11,0,0,-1,-1,-1,0.0100665,0.0200651,1, -0
3,15,19,40,2,8,0,0,-1,-1,1,0.00147825,0.00283432,1, -0
3,15,23,41,2,9,0,0,-1,-1,1,0.00147825,0.000631171,1, -0
5,16,24,42,2,10,0,0,-1,-1,0,0.00147825,0.0,1, -0.0311445
4,17,22,43,2,11,0,0,-1,-1,-1,0.00147825,0.0200651,1, -0
3,18,19,44,3,8,0,0,-1,-1,1,0.0424069,0.00283432,1, -0
3,18,23,45,3,9,0,0,-1,-1,1,0.0424069,0.000631171,1, -0
3,18,25,46,3,10,0,0,-1,-1,1,0.0424069,0.0,1, -0.0448787
5,19,26,47,3,11,0,0,-1,-1,0,0.0424069,0.0200651,1, -0.141776
3,10,27,48,0,12,0,0,-1,-1,1,0.00474394,0.00354558,1, 0.0256073
5,20,28,49,0,13,0,0,-1,-1,0,0.00474394,0.0,1, -0.00644755
4,11,29,50,0,14,0,0,-1,-1,-1,0.00474394,0.0,1, -0.116102
4,11,30,51,0,15,0,0,-1,-1,-1,0.00474394,0.0493017,1, -0.253585
3,12,27,52,1,12,0,0,-1,-1,1,0.0100665,0.00354558,1, -0
3,12,31,53,1,13,0,0,-1,-1,1,0.0100665,0.0,1, -0.013504
5,13,32,54,1,14,0,0,-1,-1,0,0.0100665,0.0,1, 0.00303158
4,14,30,55,1,15,0,0,-1,-1,-1,0.0100665,0.0493017,1, -0
3,15,27,56,2,12,0,0,-1,-1,1,0.00147825,0.00354558,1, -0
3,15,31,57,2,13,0,0,-1,-1,1,0.00147825,0.0,1, -0
3,15,33,58,2,14,0,0,-1,-1,1,0.00147825,0.0,1, 0.0662953
4,17,30,59,2,15,0,0,-1,-1,-1,0.00147825,0.0493017,1, -0
3,18,27,60,3,12,0,0,-1,-1,1,0.0424069,0.00354558,1, -0
3,18,31,61,3,13,0,0,-1,-1,1,0.0424069,0.0,1, -0
3,18,33,62,3,14,0,0,-1,-1,1,0.0424069,0.0,1, -0
5,19,34,63,3,15,0,0,-1,-1,0,0.0424069,0.0493017,1, -0.259828
3,10,35,64,0,16,0,0,-1,-1,1,0.00474394,0.305716,1, -0.253646
5,20,36,65,0,17,0,0,-1,-1,0,0.00474394,0.172124,1, -0.0533999
4,11,37,66,0,18,0,0,-1,-1,-1,0.00474394,0.0949744,1, -0.0742667
4,11,38,67,0,19,0,0,-1,-1,-1,0.00474394,0.15450899999999998,1, -0.288724
3,12,35,68,1,16,0,0,-1,-1,1,0.0100665,0.305716,1, -0
3,12,39,69,1,17,0,0,-1,-1,1,0.0100665,0.172124,1, -0.192066
5,13,40,70,1,18,0,0,-1,-1,0,0.0100665,0.0949744,1, -0.0570277
4,14,38,71,1,19,0,0,-1,-1,-1,0.0100665,0.15450899999999998,1, -0
3,15,35,72,2,16,0,0,-1,-1,1,0.00147825,0.305716,1, -0
3,15,39,73,2,17,0,0,-1,-1,1,0.00147825,0.172124,1, -0
3,15,41,74,2,18,0,0,-1,-1,1,0.00147825,0.0949744,1, -0.0288933
5,16,42,75,2,19,0,0,-1,-1,0,0.00147825,0.15450899999999998,1, -0.0461579
3,18,35,76,3,16,0,0,-1,-1,1,0.0424069,0.305716,1, -0
3,18,39,77,3,17,0,0,-1,-1,1,0.0424069,0.172124,1, -0
3,18,41,78,3,18,0,0,-1,-1,1,0.0424069,0.0949744,1, -0
3,18,43,79,3,19,0,0,-1,-1,1,0.0424069,0.15450899999999998,1, 0.0949443
6,21,44,80,4,0,0,0,1,1,-1,0.0210719,0.00246586,1, -1.34447
6,21,45,81,4,1,0,0,1,1,-1,0.0210719,0.0,1, -0.993522
6,21,46,82,4,2,0,0,1,1,-1,0.0210719,0.0037631,1, -0.38304
6,21,47,83,4,3,0,0,1,1,-1,0.0210719,0.050643400000000005,1, -0.121876
7,22,48,84,5,0,0,0,1,1,1,0.0,0.00246586,1, -0
8,23,49,85,5,1,0,0,1,1,0,0.0,0.0,1, -0
6,24,46,86,5,2,0,0,1,1,-1,0.0,0.0037631,1, -0
6,24,47,87,5,3,0,0,1,1,-1,0.0,0.050643400000000005,1, -0
7,25,48,88,6,0,0,0,1,1,1,0.0008127739999999999,0.00246586,1, 1.56141
7,25,50,89,6,1,0,0,1,1,1,0.0008127739999999999,0.0,1, 1.20314
8,26,51,90,6,2,0,0,1,1,0,0.0008127739999999999,0.0037631,1, 0.237797
6,27,47,91,6,3,0,0,1,1,-1,0.0008127739999999999,0.050643400000000005,1, -0
7,28,48,92,7,0,0,0,1,1,1,0.00104526,0.00246586,1, -0
7,28,50,93,7,1,0,0,1,1,1,0.00104526,0.0,1, -0
7,28,52,94,7,2,0,0,1,1,1,0.00104526,0.0037631,1, 0.472842
8,29,53,95,7,3,0,0,1,1,0,0.00104526,0.050643400000000005,1, 0.0401582
0,30,54,96,4,4,0,0,0,0,0,0.0,0.0,1, -0
1,31,55,97,4,5,0,0,0,0,-1,0.0,0.0,1, -0
1,31,56,98,4,6,0,0,0,0,-1,0.0,0.0,1, -0
1,31,57,99,4,7,0,0,0,0,-1,0.0,0.139427,1, -0
2,32,58,100,5,4,0,0,0,0,1,0.0,0.0,1, -0
0,33,59,101,5,5,0,0,0,0,0,0.0,0.0,1, -0
1,34,56,102,5,6,0,0,0,0,-1,0.0,0.0,1, -0
1,34,57,103,5,7,0,0,0,0,-1,0.0,0.139427,1, -0
2,35,58,104,6,4,0,0,0,0,1,0.0008728999999999999,0.0,1, 0.157991
2,35,60,105,6,5,0,0,0,0,1,0.0008728999999999999,0.0,1, 0.260382
0,36,61,106,6,6,0,0,0,0,0,0.0008728999999999999,0.0,1, 0.021279
1,37,57,107,6,7,0,0,0,0,-1,0.0008728999999999999,0.139427,1, -0.0385107
2,38,58,108,7,4,0,0,0,0,1,0.0220571,0.0,1, -0
2,38,60,109,7,5,0,0,0,0,1,0.0220571,0.0,1, -0
2,38,62,110,7,6,0,0,0,0,1,0.0220571,0.0,1, 0.0408989
0,39,63,111,7,7,0,0,0,0,0,0.0220571,0.139427,1, -0.0556537
5,40,64,112,4,8,0,0,-1,-1,0,0.0,0.00283432,1, -0
4,41,65,113,4,9,0,0,-1,-1,-1,0.0,0.000631171,1, -0
4,41,21,114,4,10,0,0,-1,-1,-1,0.0,0.0,1, -0
4,41,22,115,4,11,0,0,-1,-1,-1,0.0,0.0200651,1, -0
3,42,19,116,5,8,0,0,-1,-1,1,0.000752084,0.00283432,1, -0
3,42,23,117,5,9,0,0,-1,-1,1,0.000752084,0.000631171,1, -0
4,43,21,118,5,10,0,0,-1,-1,-1,0.000752084,0.0,1, -0
4,43,22,119,5,11,0,0,-1,-1,-1,0.000752084,0.0200651,1, -0
3,44,19,120,6,8,0,0,-1,-1,1,0.00129804,0.00283432,1, -0
3,44,23,121,6,9,0,0,-1,-1,1,0.00129804,0.000631171,1, -0
5,45,24,122,6,10,0,0,-1,-1,0,0.00129804,0.0,1, -0
4,46,22,123,6,11,0,0,-1,-1,-1,0.00129804,0.0200651,1, -0
3,47,19,124,7,8,0,0,-1,-1,1,0.0208798,0.00283432,1, -0
3,47,23,125,7,9,0,0,-1,-1,1,0.0208798,0.000631171,1, -0
3,47,25,126,7,10,0,0,-1,-1,1,0.0208798,0.0,1, -0
5,48,26,127,7,11,0,0,-1,-1,0,0.0208798,0.0200651,1, -0
5,40,66,128,4,12,0,0,-1,-1,0,0.0,0.00354558,1, -0
4,41,67,129,4,13,0,0,-1,-1,-1,0.0,0.0,1, -0
4,41,29,130,4,14,0,0,-1,-1,-1,0.0,0.0,1, -0
4,41,30,131,4,15,0,0,-1,-1,-1,0.0,0.0493017,1, -0
3,42,27,132,5,12,0,0,-1,-1,1,0.000752084,0.00354558,1, -0
3,42,31,133,5,13,0,0,-1,-1,1,0.000752084,0.0,1, -0
5,49,32,134,5,14,0,0,-1,-1,0,0.000752084,0.0,1, -0
4,43,30,135,5,15,0,0,-1,-1,-1,0.000752084,0.0493017,1, -0
3,44,27,136,6,12,0,0,-1,-1,1,0.00129804,0.00354558,1, -0
3,44,31,137,6,13,0,0,-1,-1,1,0.00129804,0.0,1, -0
3,44,33,138,6,14,0,0,-1,-1,1,0.00129804,0.0,1, -0
4,46,30,139,6,15,0,0,-1,-1,-1,0.00129804,0.0493017,1, -0
3,47,27,140,7,12,0,0,-1,-1,1,0.0208798,0.00354558,1, -0
3,47,31,141,7,13,0,0,-1,-1,1,0.0208798,0.0,1, -0
3,47,33,142,7,14,0,0,-1,-1,1,0.0208798,0.0,1, -0
5,48,34,143,7,15,0,0,-1,-1,0,0.0208798,0.0493017,1, -0
5,40,68,144,4,16,0,0,-1,-1,0,0.0,0.305716,1, -0
4,41,69,145,4,17,0,0,-1,-1,-1,0.0,0.172124,1, -0
4,41,37,146,4,18,0,0,-1,-1,-1,0.0,0.0949744,1, -0
4,41,38,147,4,19,0,0,-1,-1,-1,0.0,0.15450899999999998,1, -0
3,42,35,148,5,16,0,0,-1,-1,1,0.000752084,0.305716,1, -0
3,42,39,149,5,17,0,0,-1,-1,1,0.000752084,0.172124,1, -0
5,49,40,150,5,18,0,0,-1,-1,0,0.000752084,0.0949744,1, -0
4,43,38,151,5,19,0,0,-1,-1,-1,0.000752084,0.15450899999999998,1, -0
3,44,35,152,6,16,0,0,-1,-1,1,0.00129804,0.305716,1, -0
3,44,39,153,6,17,0,0,-1,-1,1,0.00129804,0.172124,1, -0
3,44,41,154,6,18,0,0,-1,-1,1,0.00129804,0.0949744,1, -0
5,45,42,155,6,19,0,0,-1,-1,0,0.00129804,0.15450899999999998,1, -0
3,47,35,156,7,16,0,0,-1,-1,1,0.0208798,0.305716,1, -0
3,47,39,157,7,17,0,0,-1,-1,1,0.0208798,0.172124,1, -0
3,47,41,158,7,18,0,0,-1,-1,1,0.0208798,0.0949744,1, -0
3,47,43,159,7,19,0,0,-1,-1,1,0.0208798,0.15450899999999998,1, -0
6,50,44,160,8,0,0,0,1,1,-1,0.00199924,0.00246586,1, -0
6,50,45,161,8,1,0,0,1,1,-1,0.00199924,0.0,1, -0
6,50,46,162,8,2,0,0,1,1,-1,0.00199924,0.0037631,1, -0
6,50,47,163,8,3,0,0,1,1,-1,0.00199924,0.050643400000000005,1, -0
8,51,70,164,9,0,0,0,1,1,0,0.00022832,0.00246586,1, 0.182788
6,52,45,165,9,1,0,0,1,1,-1,0.00022832,0.0,1, -0
6,52,46,166,9,2,0,0,1,1,-1,0.00022832,0.0037631,1, -0
6,52,47,167,9,3,0,0,1,1,-1,0.00022832,0.050643400000000005,1, -0
7,53,48,168,10,0,0,0,1,1,1,0.00202413,0.00246586,1, -0
7,53,50,169,10,1,0,0,1,1,1,0.00202413,0.0,1, -0
8,54,51,170,10,2,0,0,1,1,0,0.00202413,0.0037631,1, -0
6,55,47,171,10,3,0,0,1,1,-1,0.00202413,0.050643400000000005,1, -0
7,56,48,172,11,0,0,0,1,1,1,0.041061,0.00246586,1, -0
7,56,50,173,11,1,0,0,1,1,1,0.041061,0.0,1, -0
7,56,52,174,11,2,0,0,1,1,1,0.041061,0.0037631,1, -0
8,57,53,175,11,3,0,0,1,1,0,0.041061,0.050643400000000005,1, -0
8,58,71,176,8,4,0,0,1,1,0,0.00199924,0.0,1, 0.551001
6,50,72,177,8,5,0,0,1,1,-1,0.00199924,0.0,1, -0.738333
6,50,73,178,8,6,0,0,1,1,-1,0.00199924,0.0424573,1, -0.33313
6,50,74,179,8,7,0,0,1,1,-1,0.00199924,0.09697,1, 0.343039
7,59,75,180,9,4,0,0,1,1,1,0.00022832,0.0,1, 2.27678
6,52,72,181,9,5,0,0,1,1,-1,0.00022832,0.0,1, -0
6,52,73,182,9,6,0,0,1,1,-1,0.00022832,0.0424573,1, -0
6,52,74,183,9,7,0,0,1,1,-1,0.00022832,0.09697,1, -0
7,53,75,184,10,4,0,0,1,1,1,0.00202413,0.0,1, -0
7,53,76,185,10,5,0,0,1,1,1,0.00202413,0.0,1, 1.65471
8,54,77,186,10,6,0,0,1,1,0,0.00202413,0.0424573,1, 0.392935
6,55,74,187,10,7,0,0,1,1,-1,0.00202413,0.09697,1, -0
7,56,75,188,11,4,0,0,1,1,1,0.041061,0.0,1, -0
7,56,76,189,11,5,0,0,1,1,1,0.041061,0.0,1, -0
7,56,78,190,11,6,0,0,1,1,1,0.041061,0.0424573,1, 0.500253
8,57,79,191,11,7,0,0,1,1,0,0.041061,0.09697,1, 0.149563
0,60,80,192,8,8,0,0,0,0,0,0.0005927209999999999,0.0,1, -0.0166274
1,61,81,193,8,9,0,0,0,0,-1,0.0005927209999999999,0.00353545,1, 0.0167721
1,61,82,194,8,10,0,0,0,0,-1,0.0005927209999999999,0.00261059,1, -0.0610395
1,61,83,195,8,11,0,0,0,0,-1,0.0005927209999999999,0.0173845,1, -0.127538
2,62,84,196,9,8,0,0,0,0,1,0.0,0.0,1, -0
0,63,85,197,9,9,0,0,0,0,0,0.0,0.00353545,1, -0
1,64,82,198,9,10,0,0,0,0,-1,0.0,0.00261059,1, -0
1,64,83,199,9,11,0,0,0,0,-1,0.0,0.0173845,1, -0
2,65,84,200,10,8,0,0,0,0,1,0.00211691,0.0,1, 0.0345568
2,65,86,201,10,9,0,0,0,0,1,0.00211691,0.00353545,1, -0.0135928
0,66,87,202,10,10,0,0,0,0,0,0.00211691,0.00261059,1, -0.0130593
1,67,83,203,10,11,0,0,0,0,-1,0.00211691,0.0173845,1, -0
2,68,84,204,11,8,0,0,0,0,1,0.0426031,0.0,1, -0
2,68,86,205,11,9,0,0,0,0,1,0.0426031,0.00353545,1, -0
2,68,88,206,11,10,0,0,0,0,1,0.0426031,0.00261059,1, -0.0226949
0,69,89,207,11,11,0,0,0,0,0,0.0426031,0.0173845,1, 0.0237149
5,70,66,208,8,12,0,0,-1,-1,0,0.0,0.00354558,1, -0
4,71,67,209,8,13,0,0,-1,-1,-1,0.0,0.0,1, -0
4,71,29,210,8,14,0,0,-1,-1,-1,0.0,0.0,1, -0
4,71,30,211,8,15,0,0,-1,-1,-1,0.0,0.0493017,1, -0
3,72,27,212,9,12,0,0,-1,-1,1,0.00293962,0.00354558,1, -0
5,73,28,213,9,13,0,0,-1,-1,0,0.00293962,0.0,1, -0
4,74,29,214,9,14,0,0,-1,-1,-1,0.00293962,0.0,1, -0
4,74,30,215,9,15,0,0,-1,-1,-1,0.00293962,0.0493017,1, -0
3,75,27,216,10,12,0,0,-1,-1,1,0.010187,0.00354558,1, -0
3,75,31,217,10,13,0,0,-1,-1,1,0.010187,0.0,1, -0
3,75,33,218,10,14,0,0,-1,-1,1,0.010187,0.0,1, -0
4,76,30,219,10,15,0,0,-1,-1,-1,0.010187,0.0493017,1, -0
3,77,27,220,11,12,0,0,-1,-1,1,0.0321861,0.00354558,1, -0
3,77,31,221,11,13,0,0,-1,-1,1,0.0321861,0.0,1, -0
3,77,33,222,11,14,0,0,-1,-1,1,0.0321861,0.0,1, -0
5,78,34,223,11,15,0,0,-1,-1,0,0.0321861,0.0493017,1, -0
5,70,68,224,8,16,0,0,-1,-1,0,0.0,0.305716,1, -0
4,71,69,225,8,17,0,0,-1,-1,-1,0.0,0.172124,1, -0
4,71,37,226,8,18,0,0,-1,-1,-1,0.0,0.0949744,1, -0
4,71,38,227,8,19,0,0,-1,-1,-1,0.0,0.15450899999999998,1, -0
3,72,35,228,9,16,0,0,-1,-1,1,0.00293962,0.305716,1, -0
5,73,36,229,9,17,0,0,-1,-1,0,0.00293962,0.172124,1, -0
4,74,37,230,9,18,0,0,-1,-1,-1,0.00293962,0.0949744,1, -0
4,74,38,231,9,19,0,0,-1,-1,-1,0.00293962,0.15450899999999998,1, -0
3,75,35,232,10,16,0,0,-1,-1,1,0.010187,0.305716,1, -0
3,75,39,233,10,17,0,0,-1,-1,1,0.010187,0.172124,1, -0
3,75,41,234,10,18,0,0,-1,-1,1,0.010187,0.0949744,1, -0
5,79,42,235,10,19,0,0,-1,-1,0,0.010187,0.15450899999999998,1, -0
3,77,35,236,11,16,0,0,-1,-1,1,0.0321861,0.305716,1, -0
3,77,39,237,11,17,0,0,-1,-1,1,0.0321861,0.172124,1, -0
3,77,41,238,11,18,0,0,-1,-1,1,0.0321861,0.0949744,1, -0
3,77,43,239,11,19,0,0,-1,-1,1,0.0321861,0.15450899999999998,1, -0
6,80,44,240,12,0,0,0,1,1,-1,0.00185002,0.00246586,1, -0
6,80,45,241,12,1,0,0,1,1,-1,0.00185002,0.0,1, -0
6,80,46,242,12,2,0,0,1,1,-1,0.00185002,0.0037631,1, -0
6,80,47,243,12,3,0,0,1,1,-1,0.00185002,0.050643400000000005,1, -0
8,81,70,244,13,0,0,0,1,1,0,0.0,0.00246586,1, -0
6,82,45,245,13,1,0,0,1,1,-1,0.0,0.0,1, -0
6,82,46,246,13,2,0,0,1,1,-1,0.0,0.0037631,1, -0
6,82,47,247,13,3,0,0,1,1,-1,0.0,0.050643400000000005,1, -0
7,83,48,248,14,0,0,0,1,1,1,0.000982569,0.00246586,1, -0
8,84,49,249,14,1,0,0,1,1,0,0.000982569,0.0,1, 0.111118
6,85,46,250,14,2,0,0,1,1,-1,0.000982569,0.0037631,1, -0
6,85,47,251,14,3,0,0,1,1,-1,0.000982569,0.050643400000000005,1, -0
7,86,48,252,15,0,0,0,1,1,1,0.0293966,0.00246586,1, -0
7,86,50,253,15,1,0,0,1,1,1,0.0293966,0.0,1, -0
7,86,52,254,15,2,0,0,1,1,1,0.0293966,0.0037631,1, -0
8,87,53,255,15,3,0,0,1,1,0,0.0293966,0.050643400000000005,1, -0
8,88,71,256,12,4,0,0,1,1,0,0.00185002,0.0,1, -0
6,80,72,257,12,5,0,0,1,1,-1,0.00185002,0.0,1, -0
6,80,73,258,12,6,0,0,1,1,-1,0.00185002,0.0424573,1, -0
6,80,74,259,12,7,0,0,1,1,-1,0.00185002,0.09697,1, -0
7,89,75,260,13,4,0,0,1,1,1,0.0,0.0,1, -0
6,82,72,261,13,5,0,0,1,1,-1,0.0,0.0,1, -0
6,82,73,262,13,6,0,0,1,1,-1,0.0,0.0424573,1, -0
6,82,74,263,13,7,0,0,1,1,-1,0.0,0.09697,1, -0
7,83,75,264,14,4,0,0,1,1,1,0.000982569,0.0,1, -0
8,84,90,265,14,5,0,0,1,1,0,0.000982569,0.0,1, 0.349381
6,85,73,266,14,6,0,0,1,1,-1,0.000982569,0.0424573,1, -0
6,85,74,267,14,7,0,0,1,1,-1,0.000982569,0.09697,1, -0
7,86,75,268,15,4,0,0,1,1,1,0.0293966,0.0,1, -0
7,86,76,269,15,5,0,0,1,1,1,0.0293966,0.0,1, -0
7,86,78,270,15,6,0,0,1,1,1,0.0293966,0.0424573,1, -0
8,87,79,271,15,7,0,0,1,1,0,0.0293966,0.09697,1, -0
8,88,91,272,12,8,0,0,1,1,0,0.00185002,0.0,1, 1.03837
6,80,92,273,12,9,0,0,1,1,-1,0.00185002,0.0129352,1, -0.728484
6,80,93,274,12,10,0,0,1,1,-1,0.00185002,0.00137474,1, 0.514523
6,80,94,275,12,11,0,0,1,1,-1,0.00185002,0.00922067,1, 1.11888
7,89,95,276,13,8,0,0,1,1,1,0.0,0.0,1, -0
8,81,96,277,13,9,0,0,1,1,0,0.0,0.0129352,1, -0
6,82,93,278,13,10,0,0,1,1,-1,0.0,0.00137474,1, -0
6,82,94,279,13,11,0,0,1,1,-1,0.0,0.00922067,1, -0
7,83,95,280,14,8,0,0,1,1,1,0.000982569,0.0,1, 2.28537
7,83,97,281,14,9,0,0,1,1,1,0.000982569,0.0129352,1, 1.85469
6,85,93,282,14,10,0,0,1,1,-1,0.000982569,0.00137474,1, -0
6,85,94,283,14,11,0,0,1,1,-1,0.000982569,0.00922067,1, -0
7,86,95,284,15,8,0,0,1,1,1,0.0293966,0.0,1, -0
7,86,97,285,15,9,0,0,1,1,1,0.0293966,0.0129352,1, -0
7,86,98,286,15,10,0,0,1,1,1,0.0293966,0.00137474,1, 0.256403
8,87,99,287,15,11,0,0,1,1,0,0.0293966,0.00922067,1, 0.00260893
0,90,100,288,12,12,0,0,0,0,0,0.0228943,0.00668429,1, -0.00596228
1,91,101,289,12,13,0,0,0,0,-1,0.0228943,0.0,1, -0.115069
1,91,102,290,12,14,0,0,0,0,-1,0.0228943,0.0,1, -0.165293
1,91,103,291,12,15,0,0,0,0,-1,0.0228943,0.046163,1, -0.25393
2,92,104,292,13,12,0,0,0,0,1,0.0,0.00668429,1, -0
0,93,105,293,13,13,0,0,0,0,0,0.0,0.0,1, -0
1,94,102,294,13,14,0,0,0,0,-1,0.0,0.0,1, -0
1,94,103,295,13,15,0,0,0,0,-1,0.0,0.046163,1, -0
2,95,104,296,14,12,0,0,0,0,1,0.00110456,0.00668429,1, -0.124359
2,95,106,297,14,13,0,0,0,0,1,0.00110456,0.0,1, 0.155017
0,96,107,298,14,14,0,0,0,0,0,0.00110456,0.0,1, -0.0192353
1,97,103,299,14,15,0,0,0,0,-1,0.00110456,0.046163,1, -0
2,98,104,300,15,12,0,0,0,0,1,0.00823032,0.00668429,1, -0
2,98,106,301,15,13,0,0,0,0,1,0.00823032,0.0,1, -0
2,98,108,302,15,14,0,0,0,0,1,0.00823032,0.0,1, 0.04993
0,99,109,303,15,15,0,0,0,0,0,0.00823032,0.046163,1, 0.0156543
5,100,68,304,12,16,0,0,-1,-1,0,0.0,0.305716,1, -0
4,101,69,305,12,17,0,0,-1,-1,-1,0.0,0.172124,1, -0
4,101,37,306,12,18,0,0,-1,-1,-1,0.0,0.0949744,1, -0
4,101,38,307,12,19,0,0,-1,-1,-1,0.0,0.15450899999999998,1, -0
3,102,35,308,13,16,0,0,-1,-1,1,0.00208685,0.305716,1, -0
5,103,36,309,13,17,0,0,-1,-1,0,0.00208685,0.172124,1, -0
4,104,37,310,13,18,0,0,-1,-1,-1,0.00208685,0.0949744,1, -0
4,104,38,311,13,19,0,0,-1,-1,-1,0.00208685,0.15450899999999998,1, -0
3,105,35,312,14,16,0,0,-1,-1,1,0.0193318,0.305716,1, -0
3,105,39,313,14,17,0,0,-1,-1,1,0.0193318,0.172124,1, -0
5,106,40,314,14,18,0,0,-1,-1,0,0.0193318,0.0949744,1, -0
4,107,38,315,14,19,0,0,-1,-1,-1,0.0193318,0.15450899999999998,1, -0
3,108,35,316,15,16,0,0,-1,-1,1,0.0108106,0.305716,1, -0
3,108,39,317,15,17,0,0,-1,-1,1,0.0108106,0.172124,1, -0
3,108,41,318,15,18,0,0,-1,-1,1,0.0108106,0.0949744,1, -0
3,108,43,319,15,19,0,0,-1,-1,1,0.0108106,0.15450899999999998,1, -0
6,109,44,320,16,0,0,0,1,1,-1,0.425016,0.00246586,1, -0
6,109,45,321,16,1,0,0,1,1,-1,0.425016,0.0,1, -0
6,109,46,322,16,2,0,0,1,1,-1,0.425016,0.0037631,1, -0
6,109,47,323,16,3,0,0,1,1,-1,0.425016,0.050643400000000005,1, -0
8,110,70,324,17,0,0,0,1,1,0,0.126755,0.00246586,1, -0
6,111,45,325,17,1,0,0,1,1,-1,0.126755,0.0,1, -0
6,111,46,326,17,2,0,0,1,1,-1,0.126755,0.0037631,1, -0
6,111,47,327,17,3,0,0,1,1,-1,0.126755,0.050643400000000005,1, -0
7,112,48,328,18,0,0,0,1,1,1,0.124057,0.00246586,1, -0
8,113,49,329,18,1,0,0,1,1,0,0.124057,0.0,1, -0
6,114,46,330,18,2,0,0,1,1,-1,0.124057,0.0037631,1, -0
6,114,47,331,18,3,0,0,1,1,-1,0.124057,0.050643400000000005,1, -0
7,115,48,332,19,0,0,0,1,1,1,0.16500399999999998,0.00246586,1, -0
7,115,50,333,19,1,0,0,1,1,1,0.16500399999999998,0.0,1, -0
8,116,51,334,19,2,0,0,1,1,0,0.16500399999999998,0.0037631,1, -0
6,117,47,335,19,3,0,0,1,1,-1,0.16500399999999998,0.050643400000000005,1, -0
8,118,71,336,16,4,0,0,1,1,0,0.425016,0.0,1, -0
6,109,72,337,16,5,0,0,1,1,-1,0.425016,0.0,1, -0
6,109,73,338,16,6,0,0,1,1,-1,0.425016,0.0424573,1, -0
6,109,74,339,16,7,0,0,1,1,-1,0.425016,0.09697,1, -0
7,119,75,340,17,4,0,0,1,1,1,0.126755,0.0,1, -0
6,111,72,341,17,5,0,0,1,1,-1,0.126755,0.0,1, -0
6,111,73,342,17,6,0,0,1,1,-1,0.126755,0.0424573,1, -0
6,111,74,343,17,7,0,0,1,1,-1,0.126755,0.09697,1, -0
7,112,75,344,18,4,0,0,1,1,1,0.124057,0.0,1, -0
8,113,90,345,18,5,0,0,1,1,0,0.124057,0.0,1, -0
6,114,73,346,18,6,0,0,1,1,-1,0.124057,0.0424573,1, -0
6,114,74,347,18,7,0,0,1,1,-1,0.124057,0.09697,1, -0
7,115,75,348,19,4,0,0,1,1,1,0.16500399999999998,0.0,1, -0
7,115,76,349,19,5,0,0,1,1,1,0.16500399999999998,0.0,1, -0
8,116,77,350,19,6,0,0,1,1,0,0.16500399999999998,0.0424573,1, -0
6,117,74,351,19,7,0,0,1,1,-1,0.16500399999999998,0.09697,1, -0
8,118,91,352,16,8,0,0,1,1,0,0.425016,0.0,1, -0
6,109,92,353,16,9,0,0,1,1,-1,0.425016,0.0129352,1, -0
6,109,93,354,16,10,0,0,1,1,-1,0.425016,0.00137474,1, -0
6,109,94,355,16,11,0,0,1,1,-1,0.425016,0.00922067,1, -0
7,119,95,356,17,8,0,0,1,1,1,0.126755,0.0,1, -0
8,110,96,357,17,9,0,0,1,1,0,0.126755,0.0129352,1, 0.264233
6,111,93,358,17,10,0,0,1,1,-1,0.126755,0.00137474,1, -0
6,111,94,359,17,11,0,0,1,1,-1,0.126755,0.00922067,1, -0
7,112,95,360,18,8,0,0,1,1,1,0.124057,0.0,1, -0
7,112,97,361,18,9,0,0,1,1,1,0.124057,0.0129352,1, -0
6,114,93,362,18,10,0,0,1,1,-1,0.124057,0.00137474,1, -0
6,114,94,363,18,11,0,0,1,1,-1,0.124057,0.00922067,1, -0
7,115,95,364,19,8,0,0,1,1,1,0.16500399999999998,0.0,1, -0
7,115,97,365,19,9,0,0,1,1,1,0.16500399999999998,0.0129352,1, -0
8,116,110,366,19,10,0,0,1,1,0,0.16500399999999998,0.00137474,1, 0.615039
6,117,94,367,19,11,0,0,1,1,-1,0.16500399999999998,0.00922067,1, -0
8,118,111,368,16,12,0,0,1,1,0,0.425016,0.0,1, 1.56994
6,109,112,369,16,13,0,0,1,1,-1,0.425016,0.030673500000000006,1, -0.00123933
6,109,113,370,16,14,0,0,1,1,-1,0.425016,0.016532299999999996,1, 0.518311
6,109,114,371,16,15,0,0,1,1,-1,0.425016,0.00564144,1, 2.39132
7,119,115,372,17,12,0,0,1,1,1,0.126755,0.0,1, 2.47949
8,110,116,373,17,13,0,0,1,1,0,0.126755,0.030673500000000006,1, 0.425431
6,111,113,374,17,14,0,0,1,1,-1,0.126755,0.016532299999999996,1, -0
6,111,114,375,17,15,0,0,1,1,-1,0.126755,0.00564144,1, -0
7,112,115,376,18,12,0,0,1,1,1,0.124057,0.0,1, -0
7,112,117,377,18,13,0,0,1,1,1,0.124057,0.030673500000000006,1, 1.9176
8,113,118,378,18,14,0,0,1,1,0,0.124057,0.016532299999999996,1, 0.498289
6,114,114,379,18,15,0,0,1,1,-1,0.124057,0.00564144,1, -0
7,115,115,380,19,12,0,0,1,1,1,0.16500399999999998,0.0,1, -0
7,115,117,381,19,13,0,0,1,1,1,0.16500399999999998,0.030673500000000006,1, -0
7,115,119,382,19,14,0,0,1,1,1,0.16500399999999998,0.016532299999999996,1, 1.27556
6,117,114,383,19,15,0,0,1,1,-1,0.16500399999999998,0.00564144,1, -0
0,120,120,384,16,16,0,0,0,0,0,0.0844063,0.0,1, 0.0181283
1,121,121,385,16,17,0,0,0,0,-1,0.0844063,0.0380136,1, -0.21789
1,121,122,386,16,18,0,0,0,0,-1,0.0844063,0.0,1, -0.120711
1,121,123,387,16,19,0,0,0,0,-1,0.0844063,0.6893090000000001,1, -0.0733503
2,122,124,388,17,16,0,0,0,0,1,0.0,0.0,1, -0
0,123,125,389,17,17,0,0,0,0,0,0.0,0.0380136,1, -0
1,124,122,390,17,18,0,0,0,0,-1,0.0,0.0,1, -0
1,124,123,391,17,19,0,0,0,0,-1,0.0,0.6893090000000001,1, -0
2,125,124,392,18,16,0,0,0,0,1,0.00947942,0.0,1, 0.225582
2,125,126,393,18,17,0,0,0,0,1,0.00947942,0.0380136,1, 1.27957
0,126,127,394,18,18,0,0,0,0,0,0.00947942,0.0,1, -0.010088
1,127,123,395,18,19,0,0,0,0,-1,0.00947942,0.6893090000000001,1, -0
2,128,124,396,19,16,0,0,0,0,1,0.746947,0.0,1, -0
2,128,126,397,19,17,0,0,0,0,1,0.746947,0.0380136,1, -0
2,128,128,398,19,18,0,0,0,0,1,0.746947,0.0,1, 2.16381
0,129,129,399,19,19,0,0,0,0,0,0.746947,0.6893090000000001,1, -0.0272827
