ps_idx,infoset_idx,auginfoset_idx,history_idx,actionseq_p0,actionseq_p1,6,7,8,9,10,reach_prob0,reach_prob1,chance_prob,expected_value_p0
0,0,0,0,0,0,0,0,0,0,0,0.00351847,0.0,1, -0.0334119
1,1,1,1,0,1,0,0,0,0,-1,0.00351847,0.0355195,1, -0.100644
1,1,2,2,0,2,0,0,0,0,-1,0.00351847,0.0,1, -0.0986065
1,1,3,3,0,3,0,0,0,0,-1,0.00351847,0.00786781,1, -0.00753642
2,2,4,4,1,0,0,0,0,0,1,0.000561613,0.0,1, 0.160992
0,3,5,5,1,1,0,0,0,0,0,0.000561613,0.0355195,1, -0.0799554
1,4,2,6,1,2,0,0,0,0,-1,0.000561613,0.0,1, -0
1,4,3,7,1,3,0,0,0,0,-1,0.000561613,0.00786781,1, -0
2,5,4,8,2,0,0,0,0,0,1,0.0007510860000000001,0.0,1, -0
2,5,6,9,2,1,0,0,0,0,1,0.0007510860000000001,0.0355195,1, 0.0626775
0,6,7,10,2,2,0,0,0,0,0,0.0007510860000000001,0.0,1, 0.0197419
1,7,3,11,2,3,0,0,0,0,-1,0.0007510860000000001,0.00786781,1, -0
2,8,4,12,3,0,0,0,0,0,1,0.041194,0.0,1, -0
2,8,6,13,3,1,0,0,0,0,1,0.041194,0.0355195,1, -0
2,8,8,14,3,2,0,0,0,0,1,0.041194,0.0,1, 0.199601
0,9,9,15,3,3,0,0,0,0,0,0.041194,0.00786781,1, 0.0362344
3,10,10,16,0,4,0,0,-1,-1,1,0.00300556,0.0554095,1, -0.208205
4,11,11,17,0,5,0,0,-1,-1,-1,0.00300556,0.0,1, 0.0321696
4,11,12,18,0,6,0,0,-1,-1,-1,0.00300556,0.033466,1, -0.105354
4,11,13,19,0,7,0,0,-1,-1,-1,0.00300556,0.0174922,1, -0.0627569
3,12,10,20,1,4,0,0,-1,-1,1,0.00953122,0.0554095,1, -0
5,13,14,21,1,5,0,0,-1,-1,0,0.00953122,0.0,1, -0.010691
4,14,12,22,1,6,0,0,-1,-1,-1,0.00953122,0.033466,1, -0
4,14,13,23,1,7,0,0,-1,-1,-1,0.00953122,0.0174922,1, -0
3,15,10,24,2,4,0,0,-1,-1,1,0.000936555,0.0554095,1, -0
3,15,15,25,2,5,0,0,-1,-1,1,0.000936555,0.0,1, -0.0457727
5,16,16,26,2,6,0,0,-1,-1,0,0.000936555,0.033466,1, 0.00247974
4,17,13,27,2,7,0,0,-1,-1,-1,0.000936555,0.0174922,1, -0
3,18,10,28,3,4,0,0,-1,-1,1,0.0325519,0.0554095,1, -0
3,18,15,29,3,5,0,0,-1,-1,1,0.0325519,0.0,1, -0
3,18,17,30,3,6,0,0,-1,-1,1,0.0325519,0.033466,1, -0.106704
5,19,18,31,3,7,0,0,-1,-1,0,0.0325519,0.0174922,1, -0.106372
3,10,19,32,0,8,0,0,-1,-1,1,0.00300556,0.0015942,1, -0.0697173
5,20,20,33,0,9,0,0,-1,-1,0,0.00300556,0.00035501,1, -0.0350108
4,11,21,34,0,10,0,0,-1,-1,-1,0.00300556,0.0,1, -0.0925746
4,11,22,35,0,11,0,0,-1,-1,-1,0.00300556,0.016002000000000002,1, -0.149862
3,12,19,36,1,8,0,0,-1,-1,1,0.00953122,0.0015942,1, -0
3,12,23,37,1,9,0,0,-1,-1,1,0.00953122,0.00035501,1, -0.0413855
4,14,21,38,1,10,0,0,-1,-1,-1,0.00953122,0.0,1, -0
4,14,22,39,1,11,0,0,-1,-1,-1,0.00953122,0.016002000000000002,1, -0
3,15,19,40,2,8,0,0,-1,-1,1,0.000936555,0.0015942,1, -0
3,15,23,41,2,9,0,0,-1,-1,1,0.000936555,0.00035501,1, -0
5,16,24,42,2,10,0,0,-1,-1,0,0.000936555,0.0,1, -0.0376478
4,17,22,43,2,11,0,0,-1,-1,-1,0.000936555,0.016002000000000002,1, -0
3,18,19,44,3,8,0,0,-1,-1,1,0.0325519,0.0015942,1, -0
3,18,23,45,3,9,0,0,-1,-1,1,0.0325519,0.00035501,1, -0
3,18,25,46,3,10,0,0,-1,-1,1,0.0325519,0.0,1, -0.0130346
5,19,26,47,3,11,0,0,-1,-1,0,0.0325519,0.016002000000000002,1, -0.0773795
3,10,27,48,0,12,0,0,-1,-1,1,0.00300556,0.00176193,1, 0.125147
5,20,28,49,0,13,0,0,-1,-1,0,0.00300556,0.0,1, -0.00701035
4,11,29,50,0,14,0,0,-1,-1,-1,0.00300556,0.0,1, -0.107746
4,11,30,51,0,15,0,0,-1,-1,-1,0.00300556,0.0385547,1, -0.219231
3,12,27,52,1,12,0,0,-1,-1,1,0.00953122,0.00176193,1, -0
3,12,31,53,1,13,0,0,-1,-1,1,0.00953122,0.0,1, 0.0632124
5,13,32,54,1,14,0,0,-1,-1,0,0.00953122,0.0,1, 0.0080511
4,14,30,55,1,15,0,0,-1,-1,-1,0.00953122,0.0385547,1, -0
3,15,27,56,2,12,0,0,-1,-1,1,0.000936555,0.00176193,1, -0
3,15,31,57,2,13,0,0,-1,-1,1,0.000936555,0.0,1, -0
3,15,33,58,2,14,0,0,-1,-1,1,0.000936555,0.0,1, 0.129258
4,17,30,59,2,15,0,0,-1,-1,-1,0.000936555,0.0385547,1, -0
3,18,27,60,3,12,0,0,-1,-1,1,0.0325519,0.00176193,1, -0
3,18,31,61,3,13,0,0,-1,-1,1,0.0325519,0.0,1, -0
3,18,33,62,3,14,0,0,-1,-1,1,0.0325519,0.0,1, -0
5,19,34,63,3,15,0,0,-1,-1,0,0.0325519,0.0385547,1, -0.235982
3,10,35,64,0,16,0,0,-1,-1,1,0.00300556,0.337141,1, -0.25339
5,20,36,65,0,17,0,0,-1,-1,0,0.00300556,0.20288,1, -0.0728021
4,11,37,66,0,18,0,0,-1,-1,-1,0.00300556,0.08401979999999999,1, -0.0618537
4,11,38,67,0,19,0,0,-1,-1,-1,0.00300556,0.167936,1, -0.268573
3,12,35,68,1,16,0,0,-1,-1,1,0.00953122,0.337141,1, -0
3,12,39,69,1,17,0,0,-1,-1,1,0.00953122,0.20288,1, -0.189486
5,13,40,70,1,18,0,0,-1,-1,0,0.00953122,0.08401979999999999,1, -0.0735124
4,14,38,71,1,19,0,0,-1,-1,-1,0.00953122,0.167936,1, -0
3,15,35,72,2,16,0,0,-1,-1,1,0.000936555,0.337141,1, -0
3,15,39,73,2,17,0,0,-1,-1,1,0.000936555,0.20288,1, -0
3,15,41,74,2,18,0,0,-1,-1,1,0.000936555,0.08401979999999999,1, -0.0595064
5,16,42,75,2,19,0,0,-1,-1,0,0.000936555,0.167936,1, -0.0426786
3,18,35,76,3,16,0,0,-1,-1,1,0.0325519,0.337141,1, -0
3,18,39,77,3,17,0,0,-1,-1,1,0.0325519,0.20288,1, -0
3,18,41,78,3,18,0,0,-1,-1,1,0.0325519,0.08401979999999999,1, -0
3,18,43,79,3,19,0,0,-1,-1,1,0.0325519,0.167936,1, 0.0579565
6,21,44,80,4,0,0,0,1,1,-1,0.0168385,0.00141754,1, -1.3971
6,21,45,81,4,1,0,0,1,1,-1,0.0168385,0.0,1, -1.05848
6,21,46,82,4,2,0,0,1,1,-1,0.0168385,0.00216328,1, -0.374454
6,21,47,83,4,3,0,0,1,1,-1,0.0168385,0.0398065,1, -0.100054
7,22,48,84,5,0,0,0,1,1,1,0.0,0.00141754,1, -0
8,23,49,85,5,1,0,0,1,1,0,0.0,0.0,1, -0
6,24,46,86,5,2,0,0,1,1,-1,0.0,0.00216328,1, -0
6,24,47,87,5,3,0,0,1,1,-1,0.0,0.0398065,1, -0
7,25,48,88,6,0,0,0,1,1,1,0.000499408,0.00141754,1, 1.52924
7,25,50,89,6,1,0,0,1,1,1,0.000499408,0.0,1, 1.14753
8,26,51,90,6,2,0,0,1,1,0,0.000499408,0.00216328,1, 0.263054
6,27,47,91,6,3,0,0,1,1,-1,0.000499408,0.0398065,1, -0
7,28,48,92,7,0,0,0,1,1,1,0.0006422569999999999,0.00141754,1, -0
7,28,50,93,7,1,0,0,1,1,1,0.0006422569999999999,0.0,1, -0
7,28,52,94,7,2,0,0,1,1,1,0.0006422569999999999,0.00216328,1, 0.402975
8,29,53,95,7,3,0,0,1,1,0,0.0006422569999999999,0.0398065,1, 0.0358008
0,30,54,96,4,4,0,0,0,0,0,0.0,0.0,1, -0
1,31,55,97,4,5,0,0,0,0,-1,0.0,0.0,1, -0
1,31,56,98,4,6,0,0,0,0,-1,0.0,0.0,1, -0
1,31,57,99,4,7,0,0,0,0,-1,0.0,0.106368,1, -0
2,32,58,100,5,4,0,0,0,0,1,0.0,0.0,1, -0
0,33,59,101,5,5,0,0,0,0,0,0.0,0.0,1, -0
1,34,56,102,5,6,0,0,0,0,-1,0.0,0.0,1, -0
1,34,57,103,5,7,0,0,0,0,-1,0.0,0.106368,1, -0
2,35,58,104,6,4,0,0,0,0,1,0.000568671,0.0,1, 0.149365
2,35,60,105,6,5,0,0,0,0,1,0.000568671,0.0,1, 0.253304
0,36,61,106,6,6,0,0,0,0,0,0.000568671,0.0,1, 0.0698411
1,37,57,107,6,7,0,0,0,0,-1,0.000568671,0.106368,1, -0.129917
2,38,58,108,7,4,0,0,0,0,1,0.0174115,0.0,1, -0
2,38,60,109,7,5,0,0,0,0,1,0.0174115,0.0,1, -0
2,38,62,110,7,6,0,0,0,0,1,0.0174115,0.0,1, 0.0349367
0,39,63,111,7,7,0,0,0,0,0,0.0174115,0.106368,1, -0.0494662
5,40,64,112,4,8,0,0,-1,-1,0,0.0,0.0015942,1, -0
4,41,65,113,4,9,0,0,-1,-1,-1,0.0,0.00035501,1, -0
4,41,21,114,4,10,0,0,-1,-1,-1,0.0,0.0,1, -0
4,41,22,115,4,11,0,0,-1,-1,-1,0.0,0.016002000000000002,1, -0
3,42,19,116,5,8,0,0,-1,-1,1,0.0005211780000000001,0.0015942,1, -0
3,42,23,117,5,9,0,0,-1,-1,1,0.0005211780000000001,0.00035501,1, -0
4,43,21,118,5,10,0,0,-1,-1,-1,0.0005211780000000001,0.0,1, -0
4,43,22,119,5,11,0,0,-1,-1,-1,0.0005211780000000001,0.016002000000000002,1, -0
3,44,19,120,6,8,0,0,-1,-1,1,0.000899513,0.0015942,1, -0
3,44,23,121,6,9,0,0,-1,-1,1,0.000899513,0.00035501,1, -0
5,45,24,122,6,10,0,0,-1,-1,0,0.000899513,0.0,1, -0
4,46,22,123,6,11,0,0,-1,-1,-1,0.000899513,0.016002000000000002,1, -0
3,47,19,124,7,8,0,0,-1,-1,1,0.0165595,0.0015942,1, -0
3,47,23,125,7,9,0,0,-1,-1,1,0.0165595,0.00035501,1, -0
3,47,25,126,7,10,0,0,-1,-1,1,0.0165595,0.0,1, -0
5,48,26,127,7,11,0,0,-1,-1,0,0.0165595,0.016002000000000002,1, -0
5,40,66,128,4,12,0,0,-1,-1,0,0.0,0.00176193,1, -0
4,41,67,129,4,13,0,0,-1,-1,-1,0.0,0.0,1, -0
4,41,29,130,4,14,0,0,-1,-1,-1,0.0,0.0,1, -0
4,41,30,131,4,15,0,0,-1,-1,-1,0.0,0.0385547,1, -0
3,42,27,132,5,12,0,0,-1,-1,1,0.0005211780000000001,0.00176193,1, -0
3,42,31,133,5,13,0,0,-1,-1,1,0.0005211780000000001,0.0,1, -0
5,49,32,134,5,14,0,0,-1,-1,0,0.0005211780000000001,0.0,1, -0
4,43,30,135,5,15,0,0,-1,-1,-1,0.0005211780000000001,0.0385547,1, -0
3,44,27,136,6,12,0,0,-1,-1,1,0.000899513,0.00176193,1, -0
3,44,31,137,6,13,0,0,-1,-1,1,0.000899513,0.0,1, -0
3,44,33,138,6,14,0,0,-1,-1,1,0.000899513,0.0,1, -0
4,46,30,139,6,15,0,0,-1,-1,-1,0.000899513,0.0385547,1, -0
3,47,27,140,7,12,0,0,-1,-1,1,0.0165595,0.00176193,1, -0
3,47,31,141,7,13,0,0,-1,-1,1,0.0165595,0.0,1, -0
3,47,33,142,7,14,0,0,-1,-1,1,0.0165595,0.0,1, -0
5,48,34,143,7,15,0,0,-1,-1,0,0.0165595,0.0385547,1, -0
5,40,68,144,4,16,0,0,-1,-1,0,0.0,0.337141,1, -0
4,41,69,145,4,17,0,0,-1,-1,-1,0.0,0.20288,1, -0
4,41,37,146,4,18,0,0,-1,-1,-1,0.0,0.08401979999999999,1, -0
4,41,38,147,4,19,0,0,-1,-1,-1,0.0,0.167936,1, -0
3,42,35,148,5,16,0,0,-1,-1,1,0.0005211780000000001,0.337141,1, -0
3,42,39,149,5,17,0,0,-1,-1,1,0.0005211780000000001,0.20288,1, -0
5,49,40,150,5,18,0,0,-1,-1,0,0.0005211780000000001,0.08401979999999999,1, -0
4,43,38,151,5,19,0,0,-1,-1,-1,0.0005211780000000001,0.167936,1, -0
3,44,35,152,6,16,0,0,-1,-1,1,0.000899513,0.337141,1, -0
3,44,39,153,6,17,0,0,-1,-1,1,0.000899513,0.20288,1, -0
3,44,41,154,6,18,0,0,-1,-1,1,0.000899513,0.08401979999999999,1, -0
5,45,42,155,6,19,0,0,-1,-1,0,0.000899513,0.167936,1, -0
3,47,35,156,7,16,0,0,-1,-1,1,0.0165595,0.337141,1, -0
3,47,39,157,7,17,0,0,-1,-1,1,0.0165595,0.20288,1, -0
3,47,41,158,7,18,0,0,-1,-1,1,0.0165595,0.08401979999999999,1, -0
3,47,43,159,7,19,0,0,-1,-1,1,0.0165595,0.167936,1, -0
6,50,44,160,8,0,0,0,1,1,-1,0.00128992,0.00141754,1, -0
6,50,45,161,8,1,0,0,1,1,-1,0.00128992,0.0,1, -0
6,50,46,162,8,2,0,0,1,1,-1,0.00128992,0.00216328,1, -0
6,50,47,163,8,3,0,0,1,1,-1,0.00128992,0.0398065,1, -0
8,51,70,164,9,0,0,0,1,1,0,0.000147313,0.00141754,1, 0.207069
6,52,45,165,9,1,0,0,1,1,-1,0.000147313,0.0,1, -0
6,52,46,166,9,2,0,0,1,1,-1,0.000147313,0.00216328,1, -0
6,52,47,167,9,3,0,0,1,1,-1,0.000147313,0.0398065,1, -0
7,53,48,168,10,0,0,0,1,1,1,0.00130598,0.00141754,1, -0
7,53,50,169,10,1,0,0,1,1,1,0.00130598,0.0,1, -0
8,54,51,170,10,2,0,0,1,1,0,0.00130598,0.00216328,1, -0
6,55,47,171,10,3,0,0,1,1,-1,0.00130598,0.0398065,1, -0
7,56,48,172,11,0,0,0,1,1,1,0.032788,0.00141754,1, -0
7,56,50,173,11,1,0,0,1,1,1,0.032788,0.0,1, -0
7,56,52,174,11,2,0,0,1,1,1,0.032788,0.00216328,1, -0
8,57,53,175,11,3,0,0,1,1,0,0.032788,0.0398065,1, -0
8,58,71,176,8,4,0,0,1,1,0,0.00128992,0.0,1, 0.563163
6,50,72,177,8,5,0,0,1,1,-1,0.00128992,0.0,1, -0.773462
6,50,73,178,8,6,0,0,1,1,-1,0.00128992,0.031408799999999994,1, -0.342607
6,50,74,179,8,7,0,0,1,1,-1,0.00128992,0.0749588,1, 0.365063
7,59,75,180,9,4,0,0,1,1,1,0.000147313,0.0,1, 2.28604
6,52,72,181,9,5,0,0,1,1,-1,0.000147313,0.0,1, -0
6,52,73,182,9,6,0,0,1,1,-1,0.000147313,0.031408799999999994,1, -0
6,52,74,183,9,7,0,0,1,1,-1,0.000147313,0.0749588,1, -0
7,53,75,184,10,4,0,0,1,1,1,0.00130598,0.0,1, -0
7,53,76,185,10,5,0,0,1,1,1,0.00130598,0.0,1, 1.59426
8,54,77,186,10,6,0,0,1,1,0,0.00130598,0.031408799999999994,1, 0.412039
6,55,74,187,10,7,0,0,1,1,-1,0.00130598,0.0749588,1, -0
7,56,75,188,11,4,0,0,1,1,1,0.032788,0.0,1, -0
7,56,76,189,11,5,0,0,1,1,1,0.032788,0.0,1, -0
7,56,78,190,11,6,0,0,1,1,1,0.032788,0.031408799999999994,1, 0.408167
8,57,79,191,11,7,0,0,1,1,0,0.032788,0.0749588,1, 0.121602
0,60,80,192,8,8,0,0,0,0,0,0.000328799,0.0,1, -0.00759347
1,61,81,193,8,9,0,0,0,0,-1,0.000328799,0.00124263,1, 0.0324757
1,61,82,194,8,10,0,0,0,0,-1,0.000328799,0.00931413,1, -0.127367
1,61,83,195,8,11,0,0,0,0,-1,0.000328799,0.007394499999999998,1, -0.176615
2,62,84,196,9,8,0,0,0,0,1,0.0,0.0,1, -0
0,63,85,197,9,9,0,0,0,0,0,0.0,0.00124263,1, -0
1,64,82,198,9,10,0,0,0,0,-1,0.0,0.00931413,1, -0
1,64,83,199,9,11,0,0,0,0,-1,0.0,0.007394499999999998,1, -0
2,65,84,200,10,8,0,0,0,0,1,0.00117431,0.0,1, 0.0518144
2,65,86,201,10,9,0,0,0,0,1,0.00117431,0.00124263,1, -0.0179284
0,66,87,202,10,10,0,0,0,0,0,0.00117431,0.00931413,1, -0.0193753
1,67,83,203,10,11,0,0,0,0,-1,0.00117431,0.007394499999999998,1, -0
2,68,84,204,11,8,0,0,0,0,1,0.0340281,0.0,1, -0
2,68,86,205,11,9,0,0,0,0,1,0.0340281,0.00124263,1, -0
2,68,88,206,11,10,0,0,0,0,1,0.0340281,0.00931413,1, -0.0481574
0,69,89,207,11,11,0,0,0,0,0,0.0340281,0.007394499999999998,1, 0.0476195
5,70,66,208,8,12,0,0,-1,-1,0,0.0,0.00176193,1, -0
4,71,67,209,8,13,0,0,-1,-1,-1,0.0,0.0,1, -0
4,71,29,210,8,14,0,0,-1,-1,-1,0.0,0.0,1, -0
4,71,30,211,8,15,0,0,-1,-1,-1,0.0,0.0385547,1, -0
3,72,27,212,9,12,0,0,-1,-1,1,0.0019372,0.00176193,1, -0
5,73,28,213,9,13,0,0,-1,-1,0,0.0019372,0.0,1, -0
4,74,29,214,9,14,0,0,-1,-1,-1,0.0019372,0.0,1, -0
4,74,30,215,9,15,0,0,-1,-1,-1,0.0019372,0.0385547,1, -0
3,75,27,216,10,12,0,0,-1,-1,1,0.00671318,0.00176193,1, -0
3,75,31,217,10,13,0,0,-1,-1,1,0.00671318,0.0,1, -0
3,75,33,218,10,14,0,0,-1,-1,1,0.00671318,0.0,1, -0
4,76,30,219,10,15,0,0,-1,-1,-1,0.00671318,0.0385547,1, -0
3,77,27,220,11,12,0,0,-1,-1,1,0.026880900000000003,0.00176193,1, -0
3,77,31,221,11,13,0,0,-1,-1,1,0.026880900000000003,0.0,1, -0
3,77,33,222,11,14,0,0,-1,-1,1,0.026880900000000003,0.0,1, -0
5,78,34,223,11,15,0,0,-1,-1,0,0.026880900000000003,0.0385547,1, -0
5,70,68,224,8,16,0,0,-1,-1,0,0.0,0.337141,1, -0
4,71,69,225,8,17,0,0,-1,-1,-1,0.0,0.20288,1, -0
4,71,37,226,8,18,0,0,-1,-1,-1,0.0,0.08401979999999999,1, -0
4,71,38,227,8,19,0,0,-1,-1,-1,0.0,0.167936,1, -0
3,72,35,228,9,16,0,0,-1,-1,1,0.0019372,0.337141,1, -0
5,73,36,229,9,17,0,0,-1,-1,0,0.0019372,0.20288,1, -0
4,74,37,230,9,18,0,0,-1,-1,-1,0.0019372,0.08401979999999999,1, -0
4,74,38,231,9,19,0,0,-1,-1,-1,0.0019372,0.167936,1, -0
3,75,35,232,10,16,0,0,-1,-1,1,0.00671318,0.337141,1, -0
3,75,39,233,10,17,0,0,-1,-1,1,0.00671318,0.20288,1, -0
3,75,41,234,10,18,0,0,-1,-1,1,0.00671318,0.08401979999999999,1, -0
5,79,42,235,10,19,0,0,-1,-1,0,0.00671318,0.167936,1, -0
3,77,35,236,11,16,0,0,-1,-1,1,0.026880900000000003,0.337141,1, -0
3,77,39,237,11,17,0,0,-1,-1,1,0.026880900000000003,0.20288,1, -0
3,77,41,238,11,18,0,0,-1,-1,1,0.026880900000000003,0.08401979999999999,1, -0
3,77,43,239,11,19,0,0,-1,-1,1,0.026880900000000003,0.167936,1, -0
6,80,44,240,12,0,0,0,1,1,-1,0.00118671,0.00141754,1, -0
6,80,45,241,12,1,0,0,1,1,-1,0.00118671,0.0,1, -0
6,80,46,242,12,2,0,0,1,1,-1,0.00118671,0.00216328,1, -0
6,80,47,243,12,3,0,0,1,1,-1,0.00118671,0.0398065,1, -0
8,81,70,244,13,0,0,0,1,1,0,0.0,0.00141754,1, -0
6,82,45,245,13,1,0,0,1,1,-1,0.0,0.0,1, -0
6,82,46,246,13,2,0,0,1,1,-1,0.0,0.00216328,1, -0
6,82,47,247,13,3,0,0,1,1,-1,0.0,0.0398065,1, -0
7,83,48,248,14,0,0,0,1,1,1,0.000630276,0.00141754,1, -0
8,84,49,249,14,1,0,0,1,1,0,0.000630276,0.0,1, 0.119169
6,85,46,250,14,2,0,0,1,1,-1,0.000630276,0.00216328,1, -0
6,85,47,251,14,3,0,0,1,1,-1,0.000630276,0.0398065,1, -0
7,86,48,252,15,0,0,0,1,1,1,0.023455,0.00141754,1, -0
7,86,50,253,15,1,0,0,1,1,1,0.023455,0.0,1, -0
7,86,52,254,15,2,0,0,1,1,1,0.023455,0.00216328,1, -0
8,87,53,255,15,3,0,0,1,1,0,0.023455,0.0398065,1, -0
8,88,71,256,12,4,0,0,1,1,0,0.00118671,0.0,1, -0
6,80,72,257,12,5,0,0,1,1,-1,0.00118671,0.0,1, -0
6,80,73,258,12,6,0,0,1,1,-1,0.00118671,0.031408799999999994,1, -0
6,80,74,259,12,7,0,0,1,1,-1,0.00118671,0.0749588,1, -0
7,89,75,260,13,4,0,0,1,1,1,0.0,0.0,1, -0
6,82,72,261,13,5,0,0,1,1,-1,0.0,0.0,1, -0
6,82,73,262,13,6,0,0,1,1,-1,0.0,0.031408799999999994,1, -0
6,82,74,263,13,7,0,0,1,1,-1,0.0,0.0749588,1, -0
7,83,75,264,14,4,0,0,1,1,1,0.000630276,0.0,1, -0
8,84,90,265,14,5,0,0,1,1,0,0.000630276,0.0,1, 0.342376
6,85,73,266,14,6,0,0,1,1,-1,0.000630276,0.031408799999999994,1, -0
6,85,74,267,14,7,0,0,1,1,-1,0.000630276,0.0749588,1, -0
7,86,75,268,15,4,0,0,1,1,1,0.023455,0.0,1, -0
7,86,76,269,15,5,0,0,1,1,1,0.023455,0.0,1, -0
7,86,78,270,15,6,0,0,1,1,1,0.023455,0.031408799999999994,1, -0
8,87,79,271,15,7,0,0,1,1,0,0.023455,0.0749588,1, -0
8,88,91,272,12,8,0,0,1,1,0,0.00118671,0.0,1, 1.08801
6,80,92,273,12,9,0,0,1,1,-1,0.00118671,0.00581248,1, -0.719665
6,80,93,274,12,10,0,0,1,1,-1,0.00118671,0.000617743,1, 0.581929
6,80,94,275,12,11,0,0,1,1,-1,0.00118671,0.011521,1, 1.18926
7,89,95,276,13,8,0,0,1,1,1,0.0,0.0,1, -0
8,81,96,277,13,9,0,0,1,1,0,0.0,0.00581248,1, -0
6,82,93,278,13,10,0,0,1,1,-1,0.0,0.000617743,1, -0
6,82,94,279,13,11,0,0,1,1,-1,0.0,0.011521,1, -0
7,83,95,280,14,8,0,0,1,1,1,0.000630276,0.0,1, 2.34474
7,83,97,281,14,9,0,0,1,1,1,0.000630276,0.00581248,1, 1.87165
6,85,93,282,14,10,0,0,1,1,-1,0.000630276,0.000617743,1, -0
6,85,94,283,14,11,0,0,1,1,-1,0.000630276,0.011521,1, -0
7,86,95,284,15,8,0,0,1,1,1,0.023455,0.0,1, -0
7,86,97,285,15,9,0,0,1,1,1,0.023455,0.00581248,1, -0
7,86,98,286,15,10,0,0,1,1,1,0.023455,0.000617743,1, 0.211155
8,87,99,287,15,11,0,0,1,1,0,0.023455,0.011521,1, -0.0108173
0,90,100,288,12,12,0,0,0,0,0,0.0073709,0.00331998,1, -0.0288981
1,91,101,289,12,13,0,0,0,0,-1,0.0073709,0.0,1, -0.0552473
1,91,102,290,12,14,0,0,0,0,-1,0.0073709,0.0,1, -0.152946
1,91,103,291,12,15,0,0,0,0,-1,0.0073709,0.0369967,1, -0.291915
2,92,104,292,13,12,0,0,0,0,1,0.00619978,0.00331998,1, -0.104651
0,93,105,293,13,13,0,0,0,0,0,0.00619978,0.0,1, -0.0395992
1,94,102,294,13,14,0,0,0,0,-1,0.00619978,0.0,1, -0
1,94,103,295,13,15,0,0,0,0,-1,0.00619978,0.0369967,1, -0
2,95,104,296,14,12,0,0,0,0,1,0.00035349,0.00331998,1, -0
2,95,106,297,14,13,0,0,0,0,1,0.00035349,0.0,1, 0.188763
0,96,107,298,14,14,0,0,0,0,0,0.00035349,0.0,1, -0.0192843
1,97,103,299,14,15,0,0,0,0,-1,0.00035349,0.0369967,1, -0
2,98,104,300,15,12,0,0,0,0,1,0.0113479,0.00331998,1, -0
2,98,106,301,15,13,0,0,0,0,1,0.0113479,0.0,1, -0
2,98,108,302,15,14,0,0,0,0,1,0.0113479,0.0,1, 0.0810831
0,99,109,303,15,15,0,0,0,0,0,0.0113479,0.0369967,1, -0.00549361
5,100,68,304,12,16,0,0,-1,-1,0,0.0,0.337141,1, -0
4,101,69,305,12,17,0,0,-1,-1,-1,0.0,0.20288,1, -0
4,101,37,306,12,18,0,0,-1,-1,-1,0.0,0.08401979999999999,1, -0
4,101,38,307,12,19,0,0,-1,-1,-1,0.0,0.167936,1, -0
3,102,35,308,13,16,0,0,-1,-1,1,0.00208656,0.337141,1, -0
5,103,36,309,13,17,0,0,-1,-1,0,0.00208656,0.20288,1, -0
4,104,37,310,13,18,0,0,-1,-1,-1,0.00208656,0.08401979999999999,1, -0
4,104,38,311,13,19,0,0,-1,-1,-1,0.00208656,0.167936,1, -0
3,105,35,312,14,16,0,0,-1,-1,1,0.017224299999999998,0.337141,1, -0
3,105,39,313,14,17,0,0,-1,-1,1,0.017224299999999998,0.20288,1, -0
5,106,40,314,14,18,0,0,-1,-1,0,0.017224299999999998,0.08401979999999999,1, -0
4,107,38,315,14,19,0,0,-1,-1,-1,0.017224299999999998,0.167936,1, -0
3,108,35,316,15,16,0,0,-1,-1,1,0.00596118,0.337141,1, -0
3,108,39,317,15,17,0,0,-1,-1,1,0.00596118,0.20288,1, -0
3,108,41,318,15,18,0,0,-1,-1,1,0.00596118,0.08401979999999999,1, -0
3,108,43,319,15,19,0,0,-1,-1,1,0.00596118,0.167936,1, -0
6,109,44,320,16,0,0,0,1,1,-1,0.444306,0.00141754,1, -0
6,109,45,321,16,1,0,0,1,1,-1,0.444306,0.0,1, -0
6,109,46,322,16,2,0,0,1,1,-1,0.444306,0.00216328,1, -0
6,109,47,323,16,3,0,0,1,1,-1,0.444306,0.0398065,1, -0
8,110,70,324,17,0,0,0,1,1,0,0.133459,0.00141754,1, -0
6,111,45,325,17,1,0,0,1,1,-1,0.133459,0.0,1, -0
6,111,46,326,17,2,0,0,1,1,-1,0.133459,0.00216328,1, -0
6,111,47,327,17,3,0,0,1,1,-1,0.133459,0.0398065,1, -0
7,112,48,328,18,0,0,0,1,1,1,0.12953,0.00141754,1, -0
8,113,49,329,18,1,0,0,1,1,0,0.12953,0.0,1, -0
6,114,46,330,18,2,0,0,1,1,-1,0.12953,0.00216328,1, -0
6,114,47,331,18,3,0,0,1,1,-1,0.12953,0.0398065,1, -0
7,115,48,332,19,0,0,0,1,1,1,0.167897,0.00141754,1, -0
7,115,50,333,19,1,0,0,1,1,1,0.167897,0.0,1, -0
8,116,51,334,19,2,0,0,1,1,0,0.167897,0.00216328,1, -0
6,117,47,335,19,3,0,0,1,1,-1,0.167897,0.0398065,1, -0
8,118,71,336,16,4,0,0,1,1,0,0.444306,0.0,1, -0
6,109,72,337,16,5,0,0,1,1,-1,0.444306,0.0,1, -0
6,109,73,338,16,6,0,0,1,1,-1,0.444306,0.031408799999999994,1, -0
6,109,74,339,16,7,0,0,1,1,-1,0.444306,0.0749588,1, -0
7,119,75,340,17,4,0,0,1,1,1,0.133459,0.0,1, -0
6,111,72,341,17,5,0,0,1,1,-1,0.133459,0.0,1, -0
6,111,73,342,17,6,0,0,1,1,-1,0.133459,0.031408799999999994,1, -0
6,111,74,343,17,7,0,0,1,1,-1,0.133459,0.0749588,1, -0
7,112,75,344,18,4,0,0,1,1,1,0.12953,0.0,1, -0
8,113,90,345,18,5,0,0,1,1,0,0.12953,0.0,1, -0
6,114,73,346,18,6,0,0,1,1,-1,0.12953,0.031408799999999994,1, -0
6,114,74,347,18,7,0,0,1,1,-1,0.12953,0.0749588,1, -0
7,115,75,348,19,4,0,0,1,1,1,0.167897,0.0,1, -0
7,115,76,349,19,5,0,0,1,1,1,0.167897,0.0,1, -0
8,116,77,350,19,6,0,0,1,1,0,0.167897,0.031408799999999994,1, -0
6,117,74,351,19,7,0,0,1,1,-1,0.167897,0.0749588,1, -0
8,118,91,352,16,8,0,0,1,1,0,0.444306,0.0,1, -0
6,109,92,353,16,9,0,0,1,1,-1,0.444306,0.00581248,1, -0
6,109,93,354,16,10,0,0,1,1,-1,0.444306,0.000617743,1, -0
6,109,94,355,16,11,0,0,1,1,-1,0.444306,0.011521,1, -0
7,119,95,356,17,8,0,0,1,1,1,0.133459,0.0,1, -0
8,110,96,357,17,9,0,0,1,1,0,0.133459,0.00581248,1, 0.291899
6,111,93,358,17,10,0,0,1,1,-1,0.133459,0.000617743,1, -0
6,111,94,359,17,11,0,0,1,1,-1,0.133459,0.011521,1, -0
7,112,95,360,18,8,0,0,1,1,1,0.12953,0.0,1, -0
7,112,97,361,18,9,0,0,1,1,1,0.12953,0.00581248,1, -0
6,114,93,362,18,10,0,0,1,1,-1,0.12953,0.000617743,1, -0
6,114,94,363,18,11,0,0,1,1,-1,0.12953,0.011521,1, -0
7,115,95,364,19,8,0,0,1,1,1,0.167897,0.0,1, -0
7,115,97,365,19,9,0,0,1,1,1,0.167897,0.00581248,1, -0
8,116,110,366,19,10,0,0,1,1,0,0.167897,0.000617743,1, 0.662716
6,117,94,367,19,11,0,0,1,1,-1,0.167897,0.011521,1, -0
8,118,111,368,16,12,0,0,1,1,0,0.444306,0.0,1, 1.64846
6,109,112,369,16,13,0,0,1,1,-1,0.444306,0.0195123,1, 0.0183688
6,109,113,370,16,14,0,0,1,1,-1,0.444306,0.0172157,1, 0.584858
6,109,114,371,16,15,0,0,1,1,-1,0.444306,0.00358868,1, 2.4884
7,119,115,372,17,12,0,0,1,1,1,0.133459,0.0,1, 2.55549
8,110,116,373,17,13,0,0,1,1,0,0.133459,0.0195123,1, 0.46293
6,111,113,374,17,14,0,0,1,1,-1,0.133459,0.0172157,1, -0
6,111,114,375,17,15,0,0,1,1,-1,0.133459,0.00358868,1, -0
7,112,115,376,18,12,0,0,1,1,1,0.12953,0.0,1, -0
7,112,117,377,18,13,0,0,1,1,1,0.12953,0.0195123,1, 1.9692
8,113,118,378,18,14,0,0,1,1,0,0.12953,0.0172157,1, 0.51497
6,114,114,379,18,15,0,0,1,1,-1,0.12953,0.00358868,1, -0
7,115,115,380,19,12,0,0,1,1,1,0.167897,0.0,1, -0
7,115,117,381,19,13,0,0,1,1,1,0.167897,0.0195123,1, -0
7,115,119,382,19,14,0,0,1,1,1,0.167897,0.0172157,1, 1.30155
6,117,114,383,19,15,0,0,1,1,-1,0.167897,0.00358868,1, -0
0,120,120,384,16,16,0,0,0,0,0,0.07181560000000001,0.0,1, 0.0318423
1,121,121,385,16,17,0,0,0,0,-1,0.07181560000000001,0.0293276,1, -0.226867
1,121,122,386,16,18,0,0,0,0,-1,0.07181560000000001,0.0,1, -0.0971018
1,121,123,387,16,19,0,0,0,0,-1,0.07181560000000001,0.762649,1, -0.0935149
2,122,124,388,17,16,0,0,0,0,1,0.0,0.0,1, -0
0,123,125,389,17,17,0,0,0,0,0,0.0,0.0293276,1, -0
1,124,122,390,17,18,0,0,0,0,-1,0.0,0.0,1, -0
1,124,123,391,17,19,0,0,0,0,-1,0.0,0.762649,1, -0
2,125,124,392,18,16,0,0,0,0,1,0.00806539,0.0,1, 0.253911
2,125,126,393,18,17,0,0,0,0,1,0.00806539,0.0293276,1, 1.3767
0,126,127,394,18,18,0,0,0,0,0,0.00806539,0.0,1, -0.0140735
1,127,123,395,18,19,0,0,0,0,-1,0.00806539,0.762649,1, -0
2,128,124,396,19,16,0,0,0,0,1,0.7953100000000001,0.0,1, -0
2,128,126,397,19,17,0,0,0,0,1,0.7953100000000001,0.0293276,1, -0
2,128,128,398,19,18,0,0,0,0,1,0.7953100000000001,0.0,1, 2.29977
0,129,129,399,19,19,0,0,0,0,0,0.7953100000000001,0.762649,1, -0.0452973
